{
  "jobs" : [ {
    "id" : 428952,
    "metadata" : {
      "name" : "test53748"
    },
    "depot" : 0,
    "location" : {
      "latitude" : 50989706,
      "longitude" : -2407562,
      "metadata" : { }
    },
    "pickupDuration" : 0,
    "serviceDuration" : 360000,
    "unloadDuration" : 0,
    "durationPerVisit" : 600000,
    "priority" : 2,
    "jobType" : "DROP",
    "constraints" : {
      "demand" : {
        "values" : [ 140.0, 0.0, 0.0, 0.0 ]
      },
      "pickupTimeWindows" : [ {
        "startTime" : 1409198400000,
        "endTime" : 1409257800000
      } ],
      "timeWindowConstraints" : {
        "serviceTimeWindows" : [ {
          "startTime" : 1409202000000,
          "endTime" : 1409248800000
        } ],
        "timeWindowPolicy" : "COMPLETE_ORDER_WITHIN_TIME_WINDOW"
      },
      "attributes" : [ "2", "AoC174" ],
      "incompatibleAttributes" : [ ],
      "stopSequence" : 1
    }
  }, {
    "id" : 428953,
    "metadata" : {
      "name" : "test53763"
    },
    "depot" : 0,
    "location" : {
      "latitude" : 50520498,
      "longitude" : -4337962,
      "metadata" : { }
    },
    "pickupDuration" : 0,
    "serviceDuration" : 360000,
    "unloadDuration" : 0,
    "durationPerVisit" : 600000,
    "priority" : 2,
    "jobType" : "DROP",
    "constraints" : {
      "demand" : {
        "values" : [ 33.0, 0.0, 0.0, 0.0 ]
      },
      "pickupTimeWindows" : [ {
        "startTime" : 1409198400000,
        "endTime" : 1409257800000
      } ],
      "timeWindowConstraints" : {
        "serviceTimeWindows" : [ {
          "startTime" : 1409202000000,
          "endTime" : 1409248800000
        } ],
        "timeWindowPolicy" : "COMPLETE_ORDER_WITHIN_TIME_WINDOW"
      },
      "attributes" : [ "3", "AoC174" ],
      "incompatibleAttributes" : [ ],
      "stopSequence" : 1
    }
  }, {
    "id" : 428954,
    "metadata" : {
      "name" : "test53762"
    },
    "depot" : 0,
    "location" : {
      "latitude" : 51277671,
      "longitude" : -2972848,
      "metadata" : { }
    },
    "pickupDuration" : 0,
    "serviceDuration" : 360000,
    "unloadDuration" : 0,
    "durationPerVisit" : 600000,
    "priority" : 2,
    "jobType" : "DROP",
    "constraints" : {
      "demand" : {
        "values" : [ 16.0, 0.0, 0.0, 0.0 ]
      },
      "pickupTimeWindows" : [ {
        "startTime" : 1409198400000,
        "endTime" : 1409257800000
      } ],
      "timeWindowConstraints" : {
        "serviceTimeWindows" : [ {
          "startTime" : 1409202000000,
          "endTime" : 1409248800000
        } ],
        "timeWindowPolicy" : "COMPLETE_ORDER_WITHIN_TIME_WINDOW"
      },
      "attributes" : [ "1", "AoC174" ],
      "incompatibleAttributes" : [ ],
      "stopSequence" : 1
    }
  }, {
    "id" : 428955,
    "metadata" : {
      "name" : "test53764"
    },
    "depot" : 0,
    "location" : {
      "latitude" : 51160574,
      "longitude" : -2918042,
      "metadata" : { }
    },
    "pickupDuration" : 0,
    "serviceDuration" : 360000,
    "unloadDuration" : 0,
    "durationPerVisit" : 600000,
    "priority" : 2,
    "jobType" : "DROP",
    "constraints" : {
      "demand" : {
        "values" : [ 76.92, 0.0, 0.0, 0.0 ]
      },
      "pickupTimeWindows" : [ {
        "startTime" : 1409198400000,
        "endTime" : 1409257800000
      } ],
      "timeWindowConstraints" : {
        "serviceTimeWindows" : [ {
          "startTime" : 1409202000000,
          "endTime" : 1409248800000
        } ],
        "timeWindowPolicy" : "COMPLETE_ORDER_WITHIN_TIME_WINDOW"
      },
      "attributes" : [ "3", "AoC174" ],
      "incompatibleAttributes" : [ ],
      "stopSequence" : 1
    }
  }, {
    "id" : 428956,
    "metadata" : {
      "name" : "test53749"
    },
    "depot" : 0,
    "location" : {
      "latitude" : 50308940,
      "longitude" : -3716442,
      "metadata" : { }
    },
    "pickupDuration" : 0,
    "serviceDuration" : 360000,
    "unloadDuration" : 0,
    "durationPerVisit" : 600000,
    "priority" : 2,
    "jobType" : "DROP",
    "constraints" : {
      "demand" : {
        "values" : [ 12.0, 0.0, 0.0, 0.0 ]
      },
      "pickupTimeWindows" : [ {
        "startTime" : 1409198400000,
        "endTime" : 1409257800000
      } ],
      "timeWindowConstraints" : {
        "serviceTimeWindows" : [ {
          "startTime" : 1409202000000,
          "endTime" : 1409248800000
        } ],
        "timeWindowPolicy" : "COMPLETE_ORDER_WITHIN_TIME_WINDOW"
      },
      "attributes" : [ "3", "AoC174" ],
      "incompatibleAttributes" : [ ],
      "stopSequence" : 1
    }
  }, {
    "id" : 428957,
    "metadata" : {
      "name" : "test53750"
    },
    "depot" : 0,
    "location" : {
      "latitude" : 50798734,
      "longitude" : -2816485,
      "metadata" : { }
    },
    "pickupDuration" : 0,
    "serviceDuration" : 360000,
    "unloadDuration" : 0,
    "durationPerVisit" : 600000,
    "priority" : 2,
    "jobType" : "DROP",
    "constraints" : {
      "demand" : {
        "values" : [ 43.25, 0.0, 0.0, 0.0 ]
      },
      "pickupTimeWindows" : [ {
        "startTime" : 1409198400000,
        "endTime" : 1409257800000
      } ],
      "timeWindowConstraints" : {
        "serviceTimeWindows" : [ {
          "startTime" : 1409202000000,
          "endTime" : 1409248800000
        } ],
        "timeWindowPolicy" : "COMPLETE_ORDER_WITHIN_TIME_WINDOW"
      },
      "attributes" : [ "2", "AoC174" ],
      "incompatibleAttributes" : [ ],
      "stopSequence" : 1
    }
  }, {
    "id" : 428958,
    "metadata" : {
      "name" : "test53751"
    },
    "depot" : 0,
    "location" : {
      "latitude" : 50798734,
      "longitude" : -2816485,
      "metadata" : { }
    },
    "pickupDuration" : 0,
    "serviceDuration" : 360000,
    "unloadDuration" : 0,
    "durationPerVisit" : 600000,
    "priority" : 2,
    "jobType" : "DROP",
    "constraints" : {
      "demand" : {
        "values" : [ 60.0, 0.0, 0.0, 0.0 ]
      },
      "pickupTimeWindows" : [ {
        "startTime" : 1409198400000,
        "endTime" : 1409257800000
      } ],
      "timeWindowConstraints" : {
        "serviceTimeWindows" : [ {
          "startTime" : 1409202000000,
          "endTime" : 1409248800000
        } ],
        "timeWindowPolicy" : "COMPLETE_ORDER_WITHIN_TIME_WINDOW"
      },
      "attributes" : [ "2", "AoC174" ],
      "incompatibleAttributes" : [ ],
      "stopSequence" : 1
    }
  }, {
    "id" : 428959,
    "metadata" : {
      "name" : "test53765"
    },
    "depot" : 0,
    "location" : {
      "latitude" : 50798734,
      "longitude" : -2816485,
      "metadata" : { }
    },
    "pickupDuration" : 0,
    "serviceDuration" : 360000,
    "unloadDuration" : 0,
    "durationPerVisit" : 600000,
    "priority" : 2,
    "jobType" : "DROP",
    "constraints" : {
      "demand" : {
        "values" : [ 88.0, 0.0, 0.0, 0.0 ]
      },
      "pickupTimeWindows" : [ {
        "startTime" : 1409198400000,
        "endTime" : 1409257800000
      } ],
      "timeWindowConstraints" : {
        "serviceTimeWindows" : [ {
          "startTime" : 1409202000000,
          "endTime" : 1409248800000
        } ],
        "timeWindowPolicy" : "COMPLETE_ORDER_WITHIN_TIME_WINDOW"
      },
      "attributes" : [ "2", "AoC174" ],
      "incompatibleAttributes" : [ ],
      "stopSequence" : 1
    }
  }, {
    "id" : 428960,
    "metadata" : {
      "name" : "test53766"
    },
    "depot" : 0,
    "location" : {
      "latitude" : 51133726,
      "longitude" : -2445546,
      "metadata" : { }
    },
    "pickupDuration" : 0,
    "serviceDuration" : 360000,
    "unloadDuration" : 0,
    "durationPerVisit" : 600000,
    "priority" : 2,
    "jobType" : "DROP",
    "constraints" : {
      "demand" : {
        "values" : [ 35.96, 0.0, 0.0, 0.0 ]
      },
      "pickupTimeWindows" : [ {
        "startTime" : 1409198400000,
        "endTime" : 1409257800000
      } ],
      "timeWindowConstraints" : {
        "serviceTimeWindows" : [ {
          "startTime" : 1409202000000,
          "endTime" : 1409248800000
        } ],
        "timeWindowPolicy" : "COMPLETE_ORDER_WITHIN_TIME_WINDOW"
      },
      "attributes" : [ "1", "AoC174" ],
      "incompatibleAttributes" : [ ],
      "stopSequence" : 1
    }
  }, {
    "id" : 428961,
    "metadata" : {
      "name" : "test53761"
    },
    "depot" : 0,
    "location" : {
      "latitude" : 51422945,
      "longitude" : -2827317,
      "metadata" : { }
    },
    "pickupDuration" : 0,
    "serviceDuration" : 360000,
    "unloadDuration" : 0,
    "durationPerVisit" : 600000,
    "priority" : 2,
    "jobType" : "DROP",
    "constraints" : {
      "demand" : {
        "values" : [ 48.0, 0.0, 0.0, 0.0 ]
      },
      "pickupTimeWindows" : [ {
        "startTime" : 1409198400000,
        "endTime" : 1409257800000
      } ],
      "timeWindowConstraints" : {
        "serviceTimeWindows" : [ {
          "startTime" : 1409202000000,
          "endTime" : 1409248800000
        } ],
        "timeWindowPolicy" : "COMPLETE_ORDER_WITHIN_TIME_WINDOW"
      },
      "attributes" : [ "1", "AoC174" ],
      "incompatibleAttributes" : [ ],
      "stopSequence" : 1
    }
  }, {
    "id" : 428962,
    "metadata" : {
      "name" : "test53767"
    },
    "depot" : 0,
    "location" : {
      "latitude" : 51255529,
      "longitude" : -2354567,
      "metadata" : { }
    },
    "pickupDuration" : 0,
    "serviceDuration" : 360000,
    "unloadDuration" : 0,
    "durationPerVisit" : 600000,
    "priority" : 2,
    "jobType" : "DROP",
    "constraints" : {
      "demand" : {
        "values" : [ 34.08, 0.0, 0.0, 0.0 ]
      },
      "pickupTimeWindows" : [ {
        "startTime" : 1409198400000,
        "endTime" : 1409257800000
      } ],
      "timeWindowConstraints" : {
        "serviceTimeWindows" : [ {
          "startTime" : 1409202000000,
          "endTime" : 1409248800000
        } ],
        "timeWindowPolicy" : "COMPLETE_ORDER_WITHIN_TIME_WINDOW"
      },
      "attributes" : [ "1", "AoC174" ],
      "incompatibleAttributes" : [ ],
      "stopSequence" : 1
    }
  }, {
    "id" : 428963,
    "metadata" : {
      "name" : "test53768"
    },
    "depot" : 0,
    "location" : {
      "latitude" : 50909171,
      "longitude" : -2870602,
      "metadata" : { }
    },
    "pickupDuration" : 0,
    "serviceDuration" : 360000,
    "unloadDuration" : 0,
    "durationPerVisit" : 600000,
    "priority" : 2,
    "jobType" : "DROP",
    "constraints" : {
      "demand" : {
        "values" : [ 176.33, 0.0, 0.0, 0.0 ]
      },
      "pickupTimeWindows" : [ {
        "startTime" : 1409198400000,
        "endTime" : 1409257800000
      } ],
      "timeWindowConstraints" : {
        "serviceTimeWindows" : [ {
          "startTime" : 1409202000000,
          "endTime" : 1409248800000
        } ],
        "timeWindowPolicy" : "COMPLETE_ORDER_WITHIN_TIME_WINDOW"
      },
      "attributes" : [ "3", "AoC174" ],
      "incompatibleAttributes" : [ ],
      "stopSequence" : 1
    }
  }, {
    "id" : 428964,
    "metadata" : {
      "name" : "test53769"
    },
    "depot" : 0,
    "location" : {
      "latitude" : 50909171,
      "longitude" : -2870602,
      "metadata" : { }
    },
    "pickupDuration" : 0,
    "serviceDuration" : 360000,
    "unloadDuration" : 0,
    "durationPerVisit" : 600000,
    "priority" : 2,
    "jobType" : "DROP",
    "constraints" : {
      "demand" : {
        "values" : [ 14.0, 0.0, 0.0, 0.0 ]
      },
      "pickupTimeWindows" : [ {
        "startTime" : 1409198400000,
        "endTime" : 1409257800000
      } ],
      "timeWindowConstraints" : {
        "serviceTimeWindows" : [ {
          "startTime" : 1409202000000,
          "endTime" : 1409248800000
        } ],
        "timeWindowPolicy" : "COMPLETE_ORDER_WITHIN_TIME_WINDOW"
      },
      "attributes" : [ "3", "AoC174" ],
      "incompatibleAttributes" : [ ],
      "stopSequence" : 1
    }
  }, {
    "id" : 428965,
    "metadata" : {
      "name" : "test53770"
    },
    "depot" : 0,
    "location" : {
      "latitude" : 50909171,
      "longitude" : -2870602,
      "metadata" : { }
    },
    "pickupDuration" : 0,
    "serviceDuration" : 360000,
    "unloadDuration" : 0,
    "durationPerVisit" : 600000,
    "priority" : 2,
    "jobType" : "DROP",
    "constraints" : {
      "demand" : {
        "values" : [ 10.0, 0.0, 0.0, 0.0 ]
      },
      "pickupTimeWindows" : [ {
        "startTime" : 1409198400000,
        "endTime" : 1409257800000
      } ],
      "timeWindowConstraints" : {
        "serviceTimeWindows" : [ {
          "startTime" : 1409202000000,
          "endTime" : 1409248800000
        } ],
        "timeWindowPolicy" : "COMPLETE_ORDER_WITHIN_TIME_WINDOW"
      },
      "attributes" : [ "3", "AoC174" ],
      "incompatibleAttributes" : [ ],
      "stopSequence" : 1
    }
  }, {
    "id" : 428966,
    "metadata" : {
      "name" : "test53758"
    },
    "depot" : 0,
    "location" : {
      "latitude" : 51245016,
      "longitude" : -2842041,
      "metadata" : { }
    },
    "pickupDuration" : 0,
    "serviceDuration" : 360000,
    "unloadDuration" : 0,
    "durationPerVisit" : 600000,
    "priority" : 2,
    "jobType" : "DROP",
    "constraints" : {
      "demand" : {
        "values" : [ 49.78, 0.0, 0.0, 0.0 ]
      },
      "pickupTimeWindows" : [ {
        "startTime" : 1409198400000,
        "endTime" : 1409257800000
      } ],
      "timeWindowConstraints" : {
        "serviceTimeWindows" : [ {
          "startTime" : 1409202000000,
          "endTime" : 1409248800000
        } ],
        "timeWindowPolicy" : "COMPLETE_ORDER_WITHIN_TIME_WINDOW"
      },
      "attributes" : [ "1", "AoC174" ],
      "incompatibleAttributes" : [ ],
      "stopSequence" : 1
    }
  }, {
    "id" : 428967,
    "metadata" : {
      "name" : "test53752"
    },
    "depot" : 0,
    "location" : {
      "latitude" : 50798734,
      "longitude" : -2816485,
      "metadata" : { }
    },
    "pickupDuration" : 0,
    "serviceDuration" : 360000,
    "unloadDuration" : 0,
    "durationPerVisit" : 600000,
    "priority" : 2,
    "jobType" : "DROP",
    "constraints" : {
      "demand" : {
        "values" : [ 60.0, 0.0, 0.0, 0.0 ]
      },
      "pickupTimeWindows" : [ {
        "startTime" : 1409198400000,
        "endTime" : 1409257800000
      } ],
      "timeWindowConstraints" : {
        "serviceTimeWindows" : [ {
          "startTime" : 1409202000000,
          "endTime" : 1409248800000
        } ],
        "timeWindowPolicy" : "COMPLETE_ORDER_WITHIN_TIME_WINDOW"
      },
      "attributes" : [ "2", "AoC174" ],
      "incompatibleAttributes" : [ ],
      "stopSequence" : 1
    }
  }, {
    "id" : 428968,
    "metadata" : {
      "name" : "test53771"
    },
    "depot" : 0,
    "location" : {
      "latitude" : 51058840,
      "longitude" : -3000476,
      "metadata" : { }
    },
    "pickupDuration" : 0,
    "serviceDuration" : 360000,
    "unloadDuration" : 0,
    "durationPerVisit" : 600000,
    "priority" : 2,
    "jobType" : "DROP",
    "constraints" : {
      "demand" : {
        "values" : [ 12.6, 0.0, 0.0, 0.0 ]
      },
      "pickupTimeWindows" : [ {
        "startTime" : 1409198400000,
        "endTime" : 1409257800000
      } ],
      "timeWindowConstraints" : {
        "serviceTimeWindows" : [ {
          "startTime" : 1409202000000,
          "endTime" : 1409248800000
        } ],
        "timeWindowPolicy" : "COMPLETE_ORDER_WITHIN_TIME_WINDOW"
      },
      "attributes" : [ "3", "AoC174" ],
      "incompatibleAttributes" : [ ],
      "stopSequence" : 1
    }
  }, {
    "id" : 428969,
    "metadata" : {
      "name" : "test53772"
    },
    "depot" : 0,
    "location" : {
      "latitude" : 51014217,
      "longitude" : -2624048,
      "metadata" : { }
    },
    "pickupDuration" : 0,
    "serviceDuration" : 360000,
    "unloadDuration" : 0,
    "durationPerVisit" : 600000,
    "priority" : 2,
    "jobType" : "DROP",
    "constraints" : {
      "demand" : {
        "values" : [ 0.48, 0.0, 0.0, 0.0 ]
      },
      "pickupTimeWindows" : [ {
        "startTime" : 1409198400000,
        "endTime" : 1409257800000
      } ],
      "timeWindowConstraints" : {
        "serviceTimeWindows" : [ {
          "startTime" : 1409202000000,
          "endTime" : 1409248800000
        } ],
        "timeWindowPolicy" : "COMPLETE_ORDER_WITHIN_TIME_WINDOW"
      },
      "attributes" : [ "1", "AoC174" ],
      "incompatibleAttributes" : [ ],
      "stopSequence" : 1
    }
  }, {
    "id" : 428970,
    "metadata" : {
      "name" : "test53773"
    },
    "depot" : 0,
    "location" : {
      "latitude" : 51278159,
      "longitude" : -2537137,
      "metadata" : { }
    },
    "pickupDuration" : 0,
    "serviceDuration" : 360000,
    "unloadDuration" : 0,
    "durationPerVisit" : 600000,
    "priority" : 2,
    "jobType" : "DROP",
    "constraints" : {
      "demand" : {
        "values" : [ 35.0, 0.0, 0.0, 0.0 ]
      },
      "pickupTimeWindows" : [ {
        "startTime" : 1409198400000,
        "endTime" : 1409257800000
      } ],
      "timeWindowConstraints" : {
        "serviceTimeWindows" : [ {
          "startTime" : 1409202000000,
          "endTime" : 1409248800000
        } ],
        "timeWindowPolicy" : "COMPLETE_ORDER_WITHIN_TIME_WINDOW"
      },
      "attributes" : [ "1", "AoC174" ],
      "incompatibleAttributes" : [ ],
      "stopSequence" : 1
    }
  }, {
    "id" : 428971,
    "metadata" : {
      "name" : "test53774"
    },
    "depot" : 0,
    "location" : {
      "latitude" : 51333120,
      "longitude" : -1956206,
      "metadata" : { }
    },
    "pickupDuration" : 0,
    "serviceDuration" : 360000,
    "unloadDuration" : 0,
    "durationPerVisit" : 600000,
    "priority" : 2,
    "jobType" : "DROP",
    "constraints" : {
      "demand" : {
        "values" : [ 647.0, 0.0, 0.0, 0.0 ]
      },
      "pickupTimeWindows" : [ {
        "startTime" : 1409198400000,
        "endTime" : 1409257800000
      } ],
      "timeWindowConstraints" : {
        "serviceTimeWindows" : [ {
          "startTime" : 1409202000000,
          "endTime" : 1409248800000
        } ],
        "timeWindowPolicy" : "COMPLETE_ORDER_WITHIN_TIME_WINDOW"
      },
      "attributes" : [ "1", "AoC174" ],
      "incompatibleAttributes" : [ ],
      "stopSequence" : 1
    }
  }, {
    "id" : 428972,
    "metadata" : {
      "name" : "test53775"
    },
    "depot" : 0,
    "location" : {
      "latitude" : 50812012,
      "longitude" : -2707024,
      "metadata" : { }
    },
    "pickupDuration" : 0,
    "serviceDuration" : 360000,
    "unloadDuration" : 0,
    "durationPerVisit" : 600000,
    "priority" : 2,
    "jobType" : "DROP",
    "constraints" : {
      "demand" : {
        "values" : [ 48.0, 0.0, 0.0, 0.0 ]
      },
      "pickupTimeWindows" : [ {
        "startTime" : 1409198400000,
        "endTime" : 1409257800000
      } ],
      "timeWindowConstraints" : {
        "serviceTimeWindows" : [ {
          "startTime" : 1409202000000,
          "endTime" : 1409248800000
        } ],
        "timeWindowPolicy" : "COMPLETE_ORDER_WITHIN_TIME_WINDOW"
      },
      "attributes" : [ "3", "AoC174" ],
      "incompatibleAttributes" : [ ],
      "stopSequence" : 1
    }
  }, {
    "id" : 428973,
    "metadata" : {
      "name" : "test53776"
    },
    "depot" : 0,
    "location" : {
      "latitude" : 51329695,
      "longitude" : -1939072,
      "metadata" : { }
    },
    "pickupDuration" : 0,
    "serviceDuration" : 360000,
    "unloadDuration" : 0,
    "durationPerVisit" : 600000,
    "priority" : 2,
    "jobType" : "DROP",
    "constraints" : {
      "demand" : {
        "values" : [ 78.0, 0.0, 0.0, 0.0 ]
      },
      "pickupTimeWindows" : [ {
        "startTime" : 1409198400000,
        "endTime" : 1409257800000
      } ],
      "timeWindowConstraints" : {
        "serviceTimeWindows" : [ {
          "startTime" : 1409202000000,
          "endTime" : 1409248800000
        } ],
        "timeWindowPolicy" : "COMPLETE_ORDER_WITHIN_TIME_WINDOW"
      },
      "attributes" : [ "1", "AoC174" ],
      "incompatibleAttributes" : [ ],
      "stopSequence" : 1
    }
  }, {
    "id" : 428974,
    "metadata" : {
      "name" : "test53777"
    },
    "depot" : 0,
    "location" : {
      "latitude" : 51284462,
      "longitude" : -2364638,
      "metadata" : { }
    },
    "pickupDuration" : 0,
    "serviceDuration" : 360000,
    "unloadDuration" : 0,
    "durationPerVisit" : 600000,
    "priority" : 2,
    "jobType" : "DROP",
    "constraints" : {
      "demand" : {
        "values" : [ 23.24, 0.0, 0.0, 0.0 ]
      },
      "pickupTimeWindows" : [ {
        "startTime" : 1409198400000,
        "endTime" : 1409257800000
      } ],
      "timeWindowConstraints" : {
        "serviceTimeWindows" : [ {
          "startTime" : 1409202000000,
          "endTime" : 1409248800000
        } ],
        "timeWindowPolicy" : "COMPLETE_ORDER_WITHIN_TIME_WINDOW"
      },
      "attributes" : [ "1", "AoC174" ],
      "incompatibleAttributes" : [ ],
      "stopSequence" : 1
    }
  }, {
    "id" : 428975,
    "metadata" : {
      "name" : "test53741"
    },
    "depot" : 0,
    "location" : {
      "latitude" : 51000923,
      "longitude" : -4409661,
      "metadata" : { }
    },
    "pickupDuration" : 0,
    "serviceDuration" : 360000,
    "unloadDuration" : 0,
    "durationPerVisit" : 600000,
    "priority" : 2,
    "jobType" : "DROP",
    "constraints" : {
      "demand" : {
        "values" : [ 32.0, 0.0, 0.0, 0.0 ]
      },
      "pickupTimeWindows" : [ {
        "startTime" : 1409198400000,
        "endTime" : 1409257800000
      } ],
      "timeWindowConstraints" : {
        "serviceTimeWindows" : [ {
          "startTime" : 1409202000000,
          "endTime" : 1409248800000
        } ],
        "timeWindowPolicy" : "COMPLETE_ORDER_WITHIN_TIME_WINDOW"
      },
      "attributes" : [ "3", "AoC174" ],
      "incompatibleAttributes" : [ ],
      "stopSequence" : 1
    }
  }, {
    "id" : 428976,
    "metadata" : {
      "name" : "test53778"
    },
    "depot" : 0,
    "location" : {
      "latitude" : 50916438,
      "longitude" : -2566040,
      "metadata" : { }
    },
    "pickupDuration" : 0,
    "serviceDuration" : 360000,
    "unloadDuration" : 0,
    "durationPerVisit" : 600000,
    "priority" : 2,
    "jobType" : "DROP",
    "constraints" : {
      "demand" : {
        "values" : [ 23.36, 0.0, 0.0, 0.0 ]
      },
      "pickupTimeWindows" : [ {
        "startTime" : 1409198400000,
        "endTime" : 1409257800000
      } ],
      "timeWindowConstraints" : {
        "serviceTimeWindows" : [ {
          "startTime" : 1409202000000,
          "endTime" : 1409248800000
        } ],
        "timeWindowPolicy" : "COMPLETE_ORDER_WITHIN_TIME_WINDOW"
      },
      "attributes" : [ "3", "AoC174" ],
      "incompatibleAttributes" : [ ],
      "stopSequence" : 1
    }
  }, {
    "id" : 428977,
    "metadata" : {
      "name" : "test53759"
    },
    "depot" : 0,
    "location" : {
      "latitude" : 51213704,
      "longitude" : -2771930,
      "metadata" : { }
    },
    "pickupDuration" : 0,
    "serviceDuration" : 360000,
    "unloadDuration" : 0,
    "durationPerVisit" : 600000,
    "priority" : 2,
    "jobType" : "DROP",
    "constraints" : {
      "demand" : {
        "values" : [ 33.12, 0.0, 0.0, 0.0 ]
      },
      "pickupTimeWindows" : [ {
        "startTime" : 1409198400000,
        "endTime" : 1409257800000
      } ],
      "timeWindowConstraints" : {
        "serviceTimeWindows" : [ {
          "startTime" : 1409202000000,
          "endTime" : 1409248800000
        } ],
        "timeWindowPolicy" : "COMPLETE_ORDER_WITHIN_TIME_WINDOW"
      },
      "attributes" : [ "1", "AoC174" ],
      "incompatibleAttributes" : [ ],
      "stopSequence" : 1
    }
  }, {
    "id" : 428978,
    "metadata" : {
      "name" : "test53779"
    },
    "depot" : 0,
    "location" : {
      "latitude" : 51099046,
      "longitude" : -2951913,
      "metadata" : { }
    },
    "pickupDuration" : 0,
    "serviceDuration" : 360000,
    "unloadDuration" : 0,
    "durationPerVisit" : 600000,
    "priority" : 2,
    "jobType" : "DROP",
    "constraints" : {
      "demand" : {
        "values" : [ 64.0, 0.0, 0.0, 0.0 ]
      },
      "pickupTimeWindows" : [ {
        "startTime" : 1409198400000,
        "endTime" : 1409257800000
      } ],
      "timeWindowConstraints" : {
        "serviceTimeWindows" : [ {
          "startTime" : 1409202000000,
          "endTime" : 1409248800000
        } ],
        "timeWindowPolicy" : "COMPLETE_ORDER_WITHIN_TIME_WINDOW"
      },
      "attributes" : [ "3", "AoC174" ],
      "incompatibleAttributes" : [ ],
      "stopSequence" : 1
    }
  }, {
    "id" : 428979,
    "metadata" : {
      "name" : "test53780"
    },
    "depot" : 0,
    "location" : {
      "latitude" : 51099046,
      "longitude" : -2951913,
      "metadata" : { }
    },
    "pickupDuration" : 0,
    "serviceDuration" : 360000,
    "unloadDuration" : 0,
    "durationPerVisit" : 600000,
    "priority" : 2,
    "jobType" : "DROP",
    "constraints" : {
      "demand" : {
        "values" : [ 30.32, 0.0, 0.0, 0.0 ]
      },
      "pickupTimeWindows" : [ {
        "startTime" : 1409198400000,
        "endTime" : 1409257800000
      } ],
      "timeWindowConstraints" : {
        "serviceTimeWindows" : [ {
          "startTime" : 1409202000000,
          "endTime" : 1409248800000
        } ],
        "timeWindowPolicy" : "COMPLETE_ORDER_WITHIN_TIME_WINDOW"
      },
      "attributes" : [ "3", "AoC174" ],
      "incompatibleAttributes" : [ ],
      "stopSequence" : 1
    }
  }, {
    "id" : 428980,
    "metadata" : {
      "name" : "test53781"
    },
    "depot" : 0,
    "location" : {
      "latitude" : 51084654,
      "longitude" : -2930130,
      "metadata" : { }
    },
    "pickupDuration" : 0,
    "serviceDuration" : 360000,
    "unloadDuration" : 0,
    "durationPerVisit" : 600000,
    "priority" : 2,
    "jobType" : "DROP",
    "constraints" : {
      "demand" : {
        "values" : [ 12.0, 0.0, 0.0, 0.0 ]
      },
      "pickupTimeWindows" : [ {
        "startTime" : 1409198400000,
        "endTime" : 1409257800000
      } ],
      "timeWindowConstraints" : {
        "serviceTimeWindows" : [ {
          "startTime" : 1409202000000,
          "endTime" : 1409248800000
        } ],
        "timeWindowPolicy" : "COMPLETE_ORDER_WITHIN_TIME_WINDOW"
      },
      "attributes" : [ "3", "AoC174" ],
      "incompatibleAttributes" : [ ],
      "stopSequence" : 1
    }
  }, {
    "id" : 428981,
    "metadata" : {
      "name" : "test53740"
    },
    "depot" : 0,
    "location" : {
      "latitude" : 50788109,
      "longitude" : -2472285,
      "metadata" : { }
    },
    "pickupDuration" : 0,
    "serviceDuration" : 360000,
    "unloadDuration" : 0,
    "durationPerVisit" : 600000,
    "priority" : 2,
    "jobType" : "DROP",
    "constraints" : {
      "demand" : {
        "values" : [ 200.0, 0.0, 0.0, 0.0 ]
      },
      "pickupTimeWindows" : [ {
        "startTime" : 1409198400000,
        "endTime" : 1409257800000
      } ],
      "timeWindowConstraints" : {
        "serviceTimeWindows" : [ {
          "startTime" : 1409202000000,
          "endTime" : 1409248800000
        } ],
        "timeWindowPolicy" : "COMPLETE_ORDER_WITHIN_TIME_WINDOW"
      },
      "attributes" : [ "2", "AoC174" ],
      "incompatibleAttributes" : [ ],
      "stopSequence" : 1
    }
  }, {
    "id" : 428983,
    "metadata" : {
      "name" : "test53753"
    },
    "depot" : 0,
    "location" : {
      "latitude" : 50914859,
      "longitude" : -2123557,
      "metadata" : { }
    },
    "pickupDuration" : 0,
    "serviceDuration" : 360000,
    "unloadDuration" : 0,
    "durationPerVisit" : 600000,
    "priority" : 2,
    "jobType" : "DROP",
    "constraints" : {
      "demand" : {
        "values" : [ 408.95, 0.0, 0.0, 0.0 ]
      },
      "pickupTimeWindows" : [ {
        "startTime" : 1409198400000,
        "endTime" : 1409257800000
      } ],
      "timeWindowConstraints" : {
        "serviceTimeWindows" : [ {
          "startTime" : 1409202000000,
          "endTime" : 1409248800000
        } ],
        "timeWindowPolicy" : "COMPLETE_ORDER_WITHIN_TIME_WINDOW"
      },
      "attributes" : [ "2", "AoC174" ],
      "incompatibleAttributes" : [ ],
      "stopSequence" : 1
    }
  }, {
    "id" : 428984,
    "metadata" : {
      "name" : "test53782"
    },
    "depot" : 0,
    "location" : {
      "latitude" : 50877123,
      "longitude" : -3008732,
      "metadata" : { }
    },
    "pickupDuration" : 0,
    "serviceDuration" : 360000,
    "unloadDuration" : 0,
    "durationPerVisit" : 600000,
    "priority" : 2,
    "jobType" : "DROP",
    "constraints" : {
      "demand" : {
        "values" : [ 38.84, 0.0, 0.0, 0.0 ]
      },
      "pickupTimeWindows" : [ {
        "startTime" : 1409198400000,
        "endTime" : 1409257800000
      } ],
      "timeWindowConstraints" : {
        "serviceTimeWindows" : [ {
          "startTime" : 1409202000000,
          "endTime" : 1409248800000
        } ],
        "timeWindowPolicy" : "COMPLETE_ORDER_WITHIN_TIME_WINDOW"
      },
      "attributes" : [ "3", "AoC174" ],
      "incompatibleAttributes" : [ ],
      "stopSequence" : 1
    }
  }, {
    "id" : 428985,
    "metadata" : {
      "name" : "test53738"
    },
    "depot" : 0,
    "location" : {
      "latitude" : 50890805,
      "longitude" : -2881847,
      "metadata" : { }
    },
    "pickupDuration" : 0,
    "serviceDuration" : 360000,
    "unloadDuration" : 0,
    "durationPerVisit" : 600000,
    "priority" : 2,
    "jobType" : "DROP",
    "constraints" : {
      "demand" : {
        "values" : [ 1.0, 0.0, 0.0, 0.0 ]
      },
      "pickupTimeWindows" : [ {
        "startTime" : 1409198400000,
        "endTime" : 1409257800000
      } ],
      "timeWindowConstraints" : {
        "serviceTimeWindows" : [ {
          "startTime" : 1409202000000,
          "endTime" : 1409248800000
        } ],
        "timeWindowPolicy" : "COMPLETE_ORDER_WITHIN_TIME_WINDOW"
      },
      "attributes" : [ "3", "AoC174" ],
      "incompatibleAttributes" : [ ],
      "stopSequence" : 1
    }
  }, {
    "id" : 428986,
    "metadata" : {
      "name" : "test53754"
    },
    "depot" : 0,
    "location" : {
      "latitude" : 51040738,
      "longitude" : -3293628,
      "metadata" : { }
    },
    "pickupDuration" : 0,
    "serviceDuration" : 360000,
    "unloadDuration" : 0,
    "durationPerVisit" : 600000,
    "priority" : 2,
    "jobType" : "DROP",
    "constraints" : {
      "demand" : {
        "values" : [ 11.25, 0.0, 0.0, 0.0 ]
      },
      "pickupTimeWindows" : [ {
        "startTime" : 1409198400000,
        "endTime" : 1409257800000
      } ],
      "timeWindowConstraints" : {
        "serviceTimeWindows" : [ {
          "startTime" : 1409202000000,
          "endTime" : 1409248800000
        } ],
        "timeWindowPolicy" : "COMPLETE_ORDER_WITHIN_TIME_WINDOW"
      },
      "attributes" : [ "3", "AoC174" ],
      "incompatibleAttributes" : [ ],
      "stopSequence" : 1
    }
  }, {
    "id" : 428987,
    "metadata" : {
      "name" : "test53784"
    },
    "depot" : 0,
    "location" : {
      "latitude" : 51255529,
      "longitude" : -2354567,
      "metadata" : { }
    },
    "pickupDuration" : 0,
    "serviceDuration" : 360000,
    "unloadDuration" : 0,
    "durationPerVisit" : 600000,
    "priority" : 2,
    "jobType" : "DROP",
    "constraints" : {
      "demand" : {
        "values" : [ 5.0, 0.0, 0.0, 0.0 ]
      },
      "pickupTimeWindows" : [ {
        "startTime" : 1409198400000,
        "endTime" : 1409257800000
      } ],
      "timeWindowConstraints" : {
        "serviceTimeWindows" : [ {
          "startTime" : 1409202000000,
          "endTime" : 1409248800000
        } ],
        "timeWindowPolicy" : "COMPLETE_ORDER_WITHIN_TIME_WINDOW"
      },
      "attributes" : [ "1", "AoC174" ],
      "incompatibleAttributes" : [ ],
      "stopSequence" : 1
    }
  }, {
    "id" : 428988,
    "metadata" : {
      "name" : "test53785"
    },
    "depot" : 0,
    "location" : {
      "latitude" : 51272845,
      "longitude" : -2238583,
      "metadata" : { }
    },
    "pickupDuration" : 0,
    "serviceDuration" : 360000,
    "unloadDuration" : 0,
    "durationPerVisit" : 600000,
    "priority" : 2,
    "jobType" : "DROP",
    "constraints" : {
      "demand" : {
        "values" : [ 18.0, 0.0, 0.0, 0.0 ]
      },
      "pickupTimeWindows" : [ {
        "startTime" : 1409198400000,
        "endTime" : 1409257800000
      } ],
      "timeWindowConstraints" : {
        "serviceTimeWindows" : [ {
          "startTime" : 1409202000000,
          "endTime" : 1409248800000
        } ],
        "timeWindowPolicy" : "COMPLETE_ORDER_WITHIN_TIME_WINDOW"
      },
      "attributes" : [ "1", "AoC174" ],
      "incompatibleAttributes" : [ ],
      "stopSequence" : 1
    }
  }, {
    "id" : 428989,
    "metadata" : {
      "name" : "test53786"
    },
    "depot" : 0,
    "location" : {
      "latitude" : 51272845,
      "longitude" : -2238583,
      "metadata" : { }
    },
    "pickupDuration" : 0,
    "serviceDuration" : 360000,
    "unloadDuration" : 0,
    "durationPerVisit" : 600000,
    "priority" : 2,
    "jobType" : "DROP",
    "constraints" : {
      "demand" : {
        "values" : [ 9.1, 0.0, 0.0, 0.0 ]
      },
      "pickupTimeWindows" : [ {
        "startTime" : 1409198400000,
        "endTime" : 1409257800000
      } ],
      "timeWindowConstraints" : {
        "serviceTimeWindows" : [ {
          "startTime" : 1409202000000,
          "endTime" : 1409248800000
        } ],
        "timeWindowPolicy" : "COMPLETE_ORDER_WITHIN_TIME_WINDOW"
      },
      "attributes" : [ "1", "AoC174" ],
      "incompatibleAttributes" : [ ],
      "stopSequence" : 1
    }
  }, {
    "id" : 428990,
    "metadata" : {
      "name" : "test53787"
    },
    "depot" : 0,
    "location" : {
      "latitude" : 51173581,
      "longitude" : -2415547,
      "metadata" : { }
    },
    "pickupDuration" : 0,
    "serviceDuration" : 360000,
    "unloadDuration" : 0,
    "durationPerVisit" : 600000,
    "priority" : 2,
    "jobType" : "DROP",
    "constraints" : {
      "demand" : {
        "values" : [ 0.06, 0.0, 0.0, 0.0 ]
      },
      "pickupTimeWindows" : [ {
        "startTime" : 1409198400000,
        "endTime" : 1409257800000
      } ],
      "timeWindowConstraints" : {
        "serviceTimeWindows" : [ {
          "startTime" : 1409202000000,
          "endTime" : 1409248800000
        } ],
        "timeWindowPolicy" : "COMPLETE_ORDER_WITHIN_TIME_WINDOW"
      },
      "attributes" : [ "1", "AoC174" ],
      "incompatibleAttributes" : [ ],
      "stopSequence" : 1
    }
  }, {
    "id" : 428991,
    "metadata" : {
      "name" : "test53788"
    },
    "depot" : 0,
    "location" : {
      "latitude" : 51173581,
      "longitude" : -2415547,
      "metadata" : { }
    },
    "pickupDuration" : 0,
    "serviceDuration" : 360000,
    "unloadDuration" : 0,
    "durationPerVisit" : 600000,
    "priority" : 2,
    "jobType" : "DROP",
    "constraints" : {
      "demand" : {
        "values" : [ 104.1, 0.0, 0.0, 0.0 ]
      },
      "pickupTimeWindows" : [ {
        "startTime" : 1409198400000,
        "endTime" : 1409257800000
      } ],
      "timeWindowConstraints" : {
        "serviceTimeWindows" : [ {
          "startTime" : 1409202000000,
          "endTime" : 1409248800000
        } ],
        "timeWindowPolicy" : "COMPLETE_ORDER_WITHIN_TIME_WINDOW"
      },
      "attributes" : [ "1", "AoC174" ],
      "incompatibleAttributes" : [ ],
      "stopSequence" : 1
    }
  }, {
    "id" : 428992,
    "metadata" : {
      "name" : "test53789"
    },
    "depot" : 0,
    "location" : {
      "latitude" : 50881449,
      "longitude" : -3107921,
      "metadata" : { }
    },
    "pickupDuration" : 0,
    "serviceDuration" : 360000,
    "unloadDuration" : 0,
    "durationPerVisit" : 600000,
    "priority" : 2,
    "jobType" : "DROP",
    "constraints" : {
      "demand" : {
        "values" : [ 31.2, 0.0, 0.0, 0.0 ]
      },
      "pickupTimeWindows" : [ {
        "startTime" : 1409198400000,
        "endTime" : 1409257800000
      } ],
      "timeWindowConstraints" : {
        "serviceTimeWindows" : [ {
          "startTime" : 1409202000000,
          "endTime" : 1409248800000
        } ],
        "timeWindowPolicy" : "COMPLETE_ORDER_WITHIN_TIME_WINDOW"
      },
      "attributes" : [ "3", "AoC174" ],
      "incompatibleAttributes" : [ ],
      "stopSequence" : 1
    }
  }, {
    "id" : 428993,
    "metadata" : {
      "name" : "test53790"
    },
    "depot" : 0,
    "location" : {
      "latitude" : 50810682,
      "longitude" : -3020245,
      "metadata" : { }
    },
    "pickupDuration" : 0,
    "serviceDuration" : 360000,
    "unloadDuration" : 0,
    "durationPerVisit" : 600000,
    "priority" : 2,
    "jobType" : "DROP",
    "constraints" : {
      "demand" : {
        "values" : [ 6.0, 0.0, 0.0, 0.0 ]
      },
      "pickupTimeWindows" : [ {
        "startTime" : 1409198400000,
        "endTime" : 1409257800000
      } ],
      "timeWindowConstraints" : {
        "serviceTimeWindows" : [ {
          "startTime" : 1409202000000,
          "endTime" : 1409248800000
        } ],
        "timeWindowPolicy" : "COMPLETE_ORDER_WITHIN_TIME_WINDOW"
      },
      "attributes" : [ "3", "AoC174" ],
      "incompatibleAttributes" : [ ],
      "stopSequence" : 1
    }
  }, {
    "id" : 428994,
    "metadata" : {
      "name" : "test53791"
    },
    "depot" : 0,
    "location" : {
      "latitude" : 50883426,
      "longitude" : -1817763,
      "metadata" : { }
    },
    "pickupDuration" : 0,
    "serviceDuration" : 360000,
    "unloadDuration" : 0,
    "durationPerVisit" : 600000,
    "priority" : 2,
    "jobType" : "DROP",
    "constraints" : {
      "demand" : {
        "values" : [ 16.0, 0.0, 0.0, 0.0 ]
      },
      "pickupTimeWindows" : [ {
        "startTime" : 1409198400000,
        "endTime" : 1409257800000
      } ],
      "timeWindowConstraints" : {
        "serviceTimeWindows" : [ {
          "startTime" : 1409202000000,
          "endTime" : 1409248800000
        } ],
        "timeWindowPolicy" : "COMPLETE_ORDER_WITHIN_TIME_WINDOW"
      },
      "attributes" : [ "2", "AoC174" ],
      "incompatibleAttributes" : [ ],
      "stopSequence" : 1
    }
  }, {
    "id" : 428995,
    "metadata" : {
      "name" : "test53792"
    },
    "depot" : 0,
    "location" : {
      "latitude" : 51344018,
      "longitude" : -2447108,
      "metadata" : { }
    },
    "pickupDuration" : 0,
    "serviceDuration" : 360000,
    "unloadDuration" : 0,
    "durationPerVisit" : 600000,
    "priority" : 2,
    "jobType" : "DROP",
    "constraints" : {
      "demand" : {
        "values" : [ 32.0, 0.0, 0.0, 0.0 ]
      },
      "pickupTimeWindows" : [ {
        "startTime" : 1409198400000,
        "endTime" : 1409257800000
      } ],
      "timeWindowConstraints" : {
        "serviceTimeWindows" : [ {
          "startTime" : 1409202000000,
          "endTime" : 1409248800000
        } ],
        "timeWindowPolicy" : "COMPLETE_ORDER_WITHIN_TIME_WINDOW"
      },
      "attributes" : [ "1", "AoC174" ],
      "incompatibleAttributes" : [ ],
      "stopSequence" : 1
    }
  }, {
    "id" : 428996,
    "metadata" : {
      "name" : "test53793"
    },
    "depot" : 0,
    "location" : {
      "latitude" : 50772966,
      "longitude" : -3603142,
      "metadata" : { }
    },
    "pickupDuration" : 0,
    "serviceDuration" : 360000,
    "unloadDuration" : 0,
    "durationPerVisit" : 600000,
    "priority" : 2,
    "jobType" : "DROP",
    "constraints" : {
      "demand" : {
        "values" : [ 36.48, 0.0, 0.0, 0.0 ]
      },
      "pickupTimeWindows" : [ {
        "startTime" : 1409198400000,
        "endTime" : 1409257800000
      } ],
      "timeWindowConstraints" : {
        "serviceTimeWindows" : [ {
          "startTime" : 1409202000000,
          "endTime" : 1409248800000
        } ],
        "timeWindowPolicy" : "COMPLETE_ORDER_WITHIN_TIME_WINDOW"
      },
      "attributes" : [ "3", "AoC174" ],
      "incompatibleAttributes" : [ ],
      "stopSequence" : 1
    }
  }, {
    "id" : 428997,
    "metadata" : {
      "name" : "test53794"
    },
    "depot" : 0,
    "location" : {
      "latitude" : 50772966,
      "longitude" : -3603142,
      "metadata" : { }
    },
    "pickupDuration" : 0,
    "serviceDuration" : 360000,
    "unloadDuration" : 0,
    "durationPerVisit" : 600000,
    "priority" : 2,
    "jobType" : "DROP",
    "constraints" : {
      "demand" : {
        "values" : [ 15.0, 0.0, 0.0, 0.0 ]
      },
      "pickupTimeWindows" : [ {
        "startTime" : 1409198400000,
        "endTime" : 1409257800000
      } ],
      "timeWindowConstraints" : {
        "serviceTimeWindows" : [ {
          "startTime" : 1409202000000,
          "endTime" : 1409248800000
        } ],
        "timeWindowPolicy" : "COMPLETE_ORDER_WITHIN_TIME_WINDOW"
      },
      "attributes" : [ "3", "AoC174" ],
      "incompatibleAttributes" : [ ],
      "stopSequence" : 1
    }
  }, {
    "id" : 428998,
    "metadata" : {
      "name" : "test53795"
    },
    "depot" : 0,
    "location" : {
      "latitude" : 50916438,
      "longitude" : -2566040,
      "metadata" : { }
    },
    "pickupDuration" : 0,
    "serviceDuration" : 360000,
    "unloadDuration" : 0,
    "durationPerVisit" : 600000,
    "priority" : 2,
    "jobType" : "DROP",
    "constraints" : {
      "demand" : {
        "values" : [ 22.05, 0.0, 0.0, 0.0 ]
      },
      "pickupTimeWindows" : [ {
        "startTime" : 1409198400000,
        "endTime" : 1409257800000
      } ],
      "timeWindowConstraints" : {
        "serviceTimeWindows" : [ {
          "startTime" : 1409202000000,
          "endTime" : 1409248800000
        } ],
        "timeWindowPolicy" : "COMPLETE_ORDER_WITHIN_TIME_WINDOW"
      },
      "attributes" : [ "2", "AoC174" ],
      "incompatibleAttributes" : [ ],
      "stopSequence" : 1
    }
  }, {
    "id" : 428999,
    "metadata" : {
      "name" : "test53755"
    },
    "depot" : 0,
    "location" : {
      "latitude" : 50932031,
      "longitude" : -2832378,
      "metadata" : { }
    },
    "pickupDuration" : 0,
    "serviceDuration" : 360000,
    "unloadDuration" : 0,
    "durationPerVisit" : 600000,
    "priority" : 2,
    "jobType" : "DROP",
    "constraints" : {
      "demand" : {
        "values" : [ 26.25, 0.0, 0.0, 0.0 ]
      },
      "pickupTimeWindows" : [ {
        "startTime" : 1409198400000,
        "endTime" : 1409257800000
      } ],
      "timeWindowConstraints" : {
        "serviceTimeWindows" : [ {
          "startTime" : 1409202000000,
          "endTime" : 1409248800000
        } ],
        "timeWindowPolicy" : "COMPLETE_ORDER_WITHIN_TIME_WINDOW"
      },
      "attributes" : [ "3", "AoC174" ],
      "incompatibleAttributes" : [ ],
      "stopSequence" : 1
    }
  }, {
    "id" : 429000,
    "metadata" : {
      "name" : "test53796"
    },
    "depot" : 0,
    "location" : {
      "latitude" : 51427085,
      "longitude" : -1721190,
      "metadata" : { }
    },
    "pickupDuration" : 0,
    "serviceDuration" : 360000,
    "unloadDuration" : 0,
    "durationPerVisit" : 600000,
    "priority" : 2,
    "jobType" : "DROP",
    "constraints" : {
      "demand" : {
        "values" : [ 45.0, 0.0, 0.0, 0.0 ]
      },
      "pickupTimeWindows" : [ {
        "startTime" : 1409198400000,
        "endTime" : 1409257800000
      } ],
      "timeWindowConstraints" : {
        "serviceTimeWindows" : [ {
          "startTime" : 1409202000000,
          "endTime" : 1409248800000
        } ],
        "timeWindowPolicy" : "COMPLETE_ORDER_WITHIN_TIME_WINDOW"
      },
      "attributes" : [ "1", "AoC174" ],
      "incompatibleAttributes" : [ ],
      "stopSequence" : 1
    }
  }, {
    "id" : 429001,
    "metadata" : {
      "name" : "test53797"
    },
    "depot" : 0,
    "location" : {
      "latitude" : 51080044,
      "longitude" : -3241430,
      "metadata" : { }
    },
    "pickupDuration" : 0,
    "serviceDuration" : 360000,
    "unloadDuration" : 0,
    "durationPerVisit" : 600000,
    "priority" : 2,
    "jobType" : "DROP",
    "constraints" : {
      "demand" : {
        "values" : [ 64.12, 0.0, 0.0, 0.0 ]
      },
      "pickupTimeWindows" : [ {
        "startTime" : 1409198400000,
        "endTime" : 1409257800000
      } ],
      "timeWindowConstraints" : {
        "serviceTimeWindows" : [ {
          "startTime" : 1409202000000,
          "endTime" : 1409248800000
        } ],
        "timeWindowPolicy" : "COMPLETE_ORDER_WITHIN_TIME_WINDOW"
      },
      "attributes" : [ "3", "AoC174" ],
      "incompatibleAttributes" : [ ],
      "stopSequence" : 1
    }
  }, {
    "id" : 429002,
    "metadata" : {
      "name" : "test53745"
    },
    "depot" : 0,
    "location" : {
      "latitude" : 51040782,
      "longitude" : -2469152,
      "metadata" : { }
    },
    "pickupDuration" : 0,
    "serviceDuration" : 360000,
    "unloadDuration" : 0,
    "durationPerVisit" : 600000,
    "priority" : 2,
    "jobType" : "DROP",
    "constraints" : {
      "demand" : {
        "values" : [ 50.0, 0.0, 0.0, 0.0 ]
      },
      "pickupTimeWindows" : [ {
        "startTime" : 1409198400000,
        "endTime" : 1409257800000
      } ],
      "timeWindowConstraints" : {
        "serviceTimeWindows" : [ {
          "startTime" : 1409202000000,
          "endTime" : 1409248800000
        } ],
        "timeWindowPolicy" : "COMPLETE_ORDER_WITHIN_TIME_WINDOW"
      },
      "attributes" : [ "2", "AoC174" ],
      "incompatibleAttributes" : [ ],
      "stopSequence" : 1
    }
  }, {
    "id" : 429003,
    "metadata" : {
      "name" : "test53798"
    },
    "depot" : 0,
    "location" : {
      "latitude" : 51159675,
      "longitude" : -2606088,
      "metadata" : { }
    },
    "pickupDuration" : 0,
    "serviceDuration" : 360000,
    "unloadDuration" : 0,
    "durationPerVisit" : 600000,
    "priority" : 2,
    "jobType" : "DROP",
    "constraints" : {
      "demand" : {
        "values" : [ 45.68, 0.0, 0.0, 0.0 ]
      },
      "pickupTimeWindows" : [ {
        "startTime" : 1409198400000,
        "endTime" : 1409257800000
      } ],
      "timeWindowConstraints" : {
        "serviceTimeWindows" : [ {
          "startTime" : 1409202000000,
          "endTime" : 1409248800000
        } ],
        "timeWindowPolicy" : "COMPLETE_ORDER_WITHIN_TIME_WINDOW"
      },
      "attributes" : [ "1", "AoC174" ],
      "incompatibleAttributes" : [ ],
      "stopSequence" : 1
    }
  }, {
    "id" : 429004,
    "metadata" : {
      "name" : "test53799"
    },
    "depot" : 0,
    "location" : {
      "latitude" : 51159675,
      "longitude" : -2606088,
      "metadata" : { }
    },
    "pickupDuration" : 0,
    "serviceDuration" : 360000,
    "unloadDuration" : 0,
    "durationPerVisit" : 600000,
    "priority" : 2,
    "jobType" : "DROP",
    "constraints" : {
      "demand" : {
        "values" : [ 96.0, 0.0, 0.0, 0.0 ]
      },
      "pickupTimeWindows" : [ {
        "startTime" : 1409198400000,
        "endTime" : 1409257800000
      } ],
      "timeWindowConstraints" : {
        "serviceTimeWindows" : [ {
          "startTime" : 1409202000000,
          "endTime" : 1409248800000
        } ],
        "timeWindowPolicy" : "COMPLETE_ORDER_WITHIN_TIME_WINDOW"
      },
      "attributes" : [ "1", "AoC174" ],
      "incompatibleAttributes" : [ ],
      "stopSequence" : 1
    }
  }, {
    "id" : 429005,
    "metadata" : {
      "name" : "test53800"
    },
    "depot" : 0,
    "location" : {
      "latitude" : 51078282,
      "longitude" : -1941848,
      "metadata" : { }
    },
    "pickupDuration" : 0,
    "serviceDuration" : 360000,
    "unloadDuration" : 0,
    "durationPerVisit" : 600000,
    "priority" : 2,
    "jobType" : "DROP",
    "constraints" : {
      "demand" : {
        "values" : [ 80.0, 0.0, 0.0, 0.0 ]
      },
      "pickupTimeWindows" : [ {
        "startTime" : 1409198400000,
        "endTime" : 1409257800000
      } ],
      "timeWindowConstraints" : {
        "serviceTimeWindows" : [ {
          "startTime" : 1409202000000,
          "endTime" : 1409248800000
        } ],
        "timeWindowPolicy" : "COMPLETE_ORDER_WITHIN_TIME_WINDOW"
      },
      "attributes" : [ "2", "AoC174" ],
      "incompatibleAttributes" : [ ],
      "stopSequence" : 1
    }
  }, {
    "id" : 429006,
    "metadata" : {
      "name" : "test53801"
    },
    "depot" : 0,
    "location" : {
      "latitude" : 50972450,
      "longitude" : -2555878,
      "metadata" : { }
    },
    "pickupDuration" : 0,
    "serviceDuration" : 360000,
    "unloadDuration" : 0,
    "durationPerVisit" : 600000,
    "priority" : 2,
    "jobType" : "DROP",
    "constraints" : {
      "demand" : {
        "values" : [ 15.0, 0.0, 0.0, 0.0 ]
      },
      "pickupTimeWindows" : [ {
        "startTime" : 1409198400000,
        "endTime" : 1409257800000
      } ],
      "timeWindowConstraints" : {
        "serviceTimeWindows" : [ {
          "startTime" : 1409202000000,
          "endTime" : 1409248800000
        } ],
        "timeWindowPolicy" : "COMPLETE_ORDER_WITHIN_TIME_WINDOW"
      },
      "attributes" : [ "3", "AoC174" ],
      "incompatibleAttributes" : [ ],
      "stopSequence" : 1
    }
  }, {
    "id" : 429007,
    "metadata" : {
      "name" : "test53802"
    },
    "depot" : 0,
    "location" : {
      "latitude" : 50989706,
      "longitude" : -2407562,
      "metadata" : { }
    },
    "pickupDuration" : 0,
    "serviceDuration" : 360000,
    "unloadDuration" : 0,
    "durationPerVisit" : 600000,
    "priority" : 2,
    "jobType" : "DROP",
    "constraints" : {
      "demand" : {
        "values" : [ 48.0, 0.0, 0.0, 0.0 ]
      },
      "pickupTimeWindows" : [ {
        "startTime" : 1409198400000,
        "endTime" : 1409257800000
      } ],
      "timeWindowConstraints" : {
        "serviceTimeWindows" : [ {
          "startTime" : 1409202000000,
          "endTime" : 1409248800000
        } ],
        "timeWindowPolicy" : "COMPLETE_ORDER_WITHIN_TIME_WINDOW"
      },
      "attributes" : [ "2", "AoC174" ],
      "incompatibleAttributes" : [ ],
      "stopSequence" : 1
    }
  }, {
    "id" : 429008,
    "metadata" : {
      "name" : "test53747"
    },
    "depot" : 0,
    "location" : {
      "latitude" : 51739763,
      "longitude" : -2492902,
      "metadata" : { }
    },
    "pickupDuration" : 0,
    "serviceDuration" : 360000,
    "unloadDuration" : 0,
    "durationPerVisit" : 600000,
    "priority" : 2,
    "jobType" : "DROP",
    "constraints" : {
      "demand" : {
        "values" : [ 0.0, 0.0, 0.0, 0.0 ]
      },
      "pickupTimeWindows" : [ {
        "startTime" : 1409198400000,
        "endTime" : 1409257800000
      } ],
      "timeWindowConstraints" : {
        "serviceTimeWindows" : [ {
          "startTime" : 1409202000000,
          "endTime" : 1409248800000
        } ],
        "timeWindowPolicy" : "COMPLETE_ORDER_WITHIN_TIME_WINDOW"
      },
      "attributes" : [ "1", "AoC174" ],
      "incompatibleAttributes" : [ ],
      "stopSequence" : 1
    }
  }, {
    "id" : 429009,
    "metadata" : {
      "name" : "test53803"
    },
    "depot" : 0,
    "location" : {
      "latitude" : 51124597,
      "longitude" : -2947207,
      "metadata" : { }
    },
    "pickupDuration" : 0,
    "serviceDuration" : 360000,
    "unloadDuration" : 0,
    "durationPerVisit" : 600000,
    "priority" : 2,
    "jobType" : "DROP",
    "constraints" : {
      "demand" : {
        "values" : [ 37.68, 0.0, 0.0, 0.0 ]
      },
      "pickupTimeWindows" : [ {
        "startTime" : 1409198400000,
        "endTime" : 1409257800000
      } ],
      "timeWindowConstraints" : {
        "serviceTimeWindows" : [ {
          "startTime" : 1409202000000,
          "endTime" : 1409248800000
        } ],
        "timeWindowPolicy" : "COMPLETE_ORDER_WITHIN_TIME_WINDOW"
      },
      "attributes" : [ "3", "AoC174" ],
      "incompatibleAttributes" : [ ],
      "stopSequence" : 1
    }
  }, {
    "id" : 429010,
    "metadata" : {
      "name" : "test53756"
    },
    "depot" : 0,
    "location" : {
      "latitude" : 50933476,
      "longitude" : -2789937,
      "metadata" : { }
    },
    "pickupDuration" : 0,
    "serviceDuration" : 360000,
    "unloadDuration" : 0,
    "durationPerVisit" : 600000,
    "priority" : 2,
    "jobType" : "DROP",
    "constraints" : {
      "demand" : {
        "values" : [ 57.5, 0.0, 0.0, 0.0 ]
      },
      "pickupTimeWindows" : [ {
        "startTime" : 1409198400000,
        "endTime" : 1409257800000
      } ],
      "timeWindowConstraints" : {
        "serviceTimeWindows" : [ {
          "startTime" : 1409202000000,
          "endTime" : 1409248800000
        } ],
        "timeWindowPolicy" : "COMPLETE_ORDER_WITHIN_TIME_WINDOW"
      },
      "attributes" : [ "3", "AoC174" ],
      "incompatibleAttributes" : [ ],
      "stopSequence" : 1
    }
  }, {
    "id" : 429011,
    "metadata" : {
      "name" : "test53804"
    },
    "depot" : 0,
    "location" : {
      "latitude" : 50991612,
      "longitude" : -3601984,
      "metadata" : { }
    },
    "pickupDuration" : 0,
    "serviceDuration" : 360000,
    "unloadDuration" : 0,
    "durationPerVisit" : 600000,
    "priority" : 2,
    "jobType" : "DROP",
    "constraints" : {
      "demand" : {
        "values" : [ 15.0, 0.0, 0.0, 0.0 ]
      },
      "pickupTimeWindows" : [ {
        "startTime" : 1409198400000,
        "endTime" : 1409257800000
      } ],
      "timeWindowConstraints" : {
        "serviceTimeWindows" : [ {
          "startTime" : 1409202000000,
          "endTime" : 1409248800000
        } ],
        "timeWindowPolicy" : "COMPLETE_ORDER_WITHIN_TIME_WINDOW"
      },
      "attributes" : [ "3", "AoC174" ],
      "incompatibleAttributes" : [ ],
      "stopSequence" : 1
    }
  }, {
    "id" : 429012,
    "metadata" : {
      "name" : "test53760"
    },
    "depot" : 0,
    "location" : {
      "latitude" : 51003642,
      "longitude" : -2995397,
      "metadata" : { }
    },
    "pickupDuration" : 0,
    "serviceDuration" : 360000,
    "unloadDuration" : 0,
    "durationPerVisit" : 600000,
    "priority" : 2,
    "jobType" : "DROP",
    "constraints" : {
      "demand" : {
        "values" : [ 83.16, 0.0, 0.0, 0.0 ]
      },
      "pickupTimeWindows" : [ {
        "startTime" : 1409198400000,
        "endTime" : 1409257800000
      } ],
      "timeWindowConstraints" : {
        "serviceTimeWindows" : [ {
          "startTime" : 1409202000000,
          "endTime" : 1409248800000
        } ],
        "timeWindowPolicy" : "COMPLETE_ORDER_WITHIN_TIME_WINDOW"
      },
      "attributes" : [ "3", "AoC174" ],
      "incompatibleAttributes" : [ ],
      "stopSequence" : 1
    }
  }, {
    "id" : 429013,
    "metadata" : {
      "name" : "test53757"
    },
    "depot" : 0,
    "location" : {
      "latitude" : 51109287,
      "longitude" : -2821716,
      "metadata" : { }
    },
    "pickupDuration" : 0,
    "serviceDuration" : 360000,
    "unloadDuration" : 0,
    "durationPerVisit" : 600000,
    "priority" : 2,
    "jobType" : "DROP",
    "constraints" : {
      "demand" : {
        "values" : [ 66.0, 0.0, 0.0, 0.0 ]
      },
      "pickupTimeWindows" : [ {
        "startTime" : 1409198400000,
        "endTime" : 1409257800000
      } ],
      "timeWindowConstraints" : {
        "serviceTimeWindows" : [ {
          "startTime" : 1409202000000,
          "endTime" : 1409248800000
        } ],
        "timeWindowPolicy" : "COMPLETE_ORDER_WITHIN_TIME_WINDOW"
      },
      "attributes" : [ "3", "AoC174" ],
      "incompatibleAttributes" : [ ],
      "stopSequence" : 1
    }
  }, {
    "id" : 429014,
    "metadata" : {
      "name" : "test53805"
    },
    "depot" : 0,
    "location" : {
      "latitude" : 51023420,
      "longitude" : -2159266,
      "metadata" : { }
    },
    "pickupDuration" : 0,
    "serviceDuration" : 360000,
    "unloadDuration" : 0,
    "durationPerVisit" : 600000,
    "priority" : 2,
    "jobType" : "DROP",
    "constraints" : {
      "demand" : {
        "values" : [ 66.0, 0.0, 0.0, 0.0 ]
      },
      "pickupTimeWindows" : [ {
        "startTime" : 1409198400000,
        "endTime" : 1409257800000
      } ],
      "timeWindowConstraints" : {
        "serviceTimeWindows" : [ {
          "startTime" : 1409202000000,
          "endTime" : 1409248800000
        } ],
        "timeWindowPolicy" : "COMPLETE_ORDER_WITHIN_TIME_WINDOW"
      },
      "attributes" : [ "2", "AoC174" ],
      "incompatibleAttributes" : [ ],
      "stopSequence" : 1
    }
  }, {
    "id" : 429015,
    "metadata" : {
      "name" : "test53806"
    },
    "depot" : 0,
    "location" : {
      "latitude" : 51110973,
      "longitude" : -2633107,
      "metadata" : { }
    },
    "pickupDuration" : 0,
    "serviceDuration" : 360000,
    "unloadDuration" : 0,
    "durationPerVisit" : 600000,
    "priority" : 2,
    "jobType" : "DROP",
    "constraints" : {
      "demand" : {
        "values" : [ 73.0, 0.0, 0.0, 0.0 ]
      },
      "pickupTimeWindows" : [ {
        "startTime" : 1409198400000,
        "endTime" : 1409257800000
      } ],
      "timeWindowConstraints" : {
        "serviceTimeWindows" : [ {
          "startTime" : 1409202000000,
          "endTime" : 1409248800000
        } ],
        "timeWindowPolicy" : "COMPLETE_ORDER_WITHIN_TIME_WINDOW"
      },
      "attributes" : [ "1", "AoC174" ],
      "incompatibleAttributes" : [ ],
      "stopSequence" : 1
    }
  }, {
    "id" : 429016,
    "metadata" : {
      "name" : "test53807"
    },
    "depot" : 0,
    "location" : {
      "latitude" : 51111622,
      "longitude" : -2481931,
      "metadata" : { }
    },
    "pickupDuration" : 0,
    "serviceDuration" : 360000,
    "unloadDuration" : 0,
    "durationPerVisit" : 600000,
    "priority" : 2,
    "jobType" : "DROP",
    "constraints" : {
      "demand" : {
        "values" : [ 30.2, 0.0, 0.0, 0.0 ]
      },
      "pickupTimeWindows" : [ {
        "startTime" : 1409198400000,
        "endTime" : 1409257800000
      } ],
      "timeWindowConstraints" : {
        "serviceTimeWindows" : [ {
          "startTime" : 1409202000000,
          "endTime" : 1409248800000
        } ],
        "timeWindowPolicy" : "COMPLETE_ORDER_WITHIN_TIME_WINDOW"
      },
      "attributes" : [ "1", "AoC174" ],
      "incompatibleAttributes" : [ ],
      "stopSequence" : 1
    }
  } ],
  "schedules" : [ {
    "timeWindow" : {
      "startTime" : 1409199300000,
      "endTime" : 1409239800000
    },
    "dynamicBreakTemplate" : {
      "drivingTimeLimit" : 16200000,
      "workingTimeLimit" : 21600000,
      "allowedShiftToLeft" : 3600000,
      "breakDuration" : 3600000
    },
    "runs" : [ ],
    "breaks" : [ ],
    "constraints" : { },
    "resource" : {
      "metadata" : {
        "name" : "WF14 OCS"
      },
      "id" : 2270,
      "depot" : 0,
      "hourCost" : 7.0,
      "kmCost" : 0.74580485,
      "routingProfile" : {
        "vehicleType" : "Default",
        "drivingTimeCorrectionFactor" : 1.2,
        "maxSpeed" : 112.63
      },
      "constraints" : {
        "runDistanceLimit" : "Infinity",
        "runWorkingTimeLimit" : 9223372036854775807,
        "scheduleWorkingTimeLimit" : 43200000,
        "scheduleDrivingTimeLimit" : 32400000,
        "addonCollectionDropDuration" : 1200000,
        "addonPickupDuration" : 2700000,
        "capacity" : {
          "values" : [ 1500.0, 0.0, 0.0, 0.0 ]
        },
        "attributes" : [ "1", "GEN", "2", "3", "AoC174" ],
        "homeLocations" : {
          "startLocation" : {
            "latitude" : 50972450,
            "longitude" : -2555878,
            "metadata" : { }
          },
          "endLocation" : {
            "latitude" : 50972450,
            "longitude" : -2555878,
            "metadata" : { }
          }
        },
        "fixedStartTime" : -1
      }
    }
  }, {
    "timeWindow" : {
      "startTime" : 1409198400000,
      "endTime" : 1409256000000
    },
    "dynamicBreakTemplate" : {
      "drivingTimeLimit" : 16200000,
      "workingTimeLimit" : 21600000,
      "allowedShiftToLeft" : 3600000,
      "breakDuration" : 3600000
    },
    "runs" : [ ],
    "breaks" : [ ],
    "constraints" : { },
    "resource" : {
      "metadata" : {
        "name" : "Pearce Hire 1"
      },
      "id" : 2223,
      "depot" : 0,
      "hourCost" : 0.0,
      "kmCost" : 1.1187073,
      "routingProfile" : {
        "vehicleType" : "Default",
        "drivingTimeCorrectionFactor" : 1.0,
        "maxSpeed" : 90.104
      },
      "constraints" : {
        "runDistanceLimit" : "Infinity",
        "runWorkingTimeLimit" : 9223372036854775807,
        "scheduleWorkingTimeLimit" : 50400000,
        "scheduleDrivingTimeLimit" : 32400000,
        "addonCollectionDropDuration" : 1200000,
        "addonPickupDuration" : 2700000,
        "capacity" : {
          "values" : [ 1500.0, 0.0, 0.0, 0.0 ]
        },
        "attributes" : [ "1", "2", "3", "AoC174" ],
        "homeLocations" : {
          "startLocation" : {
            "latitude" : 50972450,
            "longitude" : -2555878,
            "metadata" : { }
          },
          "endLocation" : {
            "latitude" : 50972450,
            "longitude" : -2555878,
            "metadata" : { }
          }
        },
        "fixedStartTime" : -1
      }
    }
  }, {
    "timeWindow" : {
      "startTime" : 1409199300000,
      "endTime" : 1409239800000
    },
    "dynamicBreakTemplate" : {
      "drivingTimeLimit" : 16200000,
      "workingTimeLimit" : 21600000,
      "allowedShiftToLeft" : 3600000,
      "breakDuration" : 3600000
    },
    "runs" : [ ],
    "breaks" : [ ],
    "constraints" : { },
    "resource" : {
      "metadata" : {
        "name" : "WF14 OCO"
      },
      "id" : 2282,
      "depot" : 0,
      "hourCost" : 7.0,
      "kmCost" : 0.74580485,
      "routingProfile" : {
        "vehicleType" : "Default",
        "drivingTimeCorrectionFactor" : 1.2,
        "maxSpeed" : 112.63
      },
      "constraints" : {
        "runDistanceLimit" : "Infinity",
        "runWorkingTimeLimit" : 9223372036854775807,
        "scheduleWorkingTimeLimit" : 43200000,
        "scheduleDrivingTimeLimit" : 39600000,
        "addonCollectionDropDuration" : 1200000,
        "addonPickupDuration" : 2700000,
        "capacity" : {
          "values" : [ 1500.0, 0.0, 0.0, 0.0 ]
        },
        "attributes" : [ "1", "GEN", "2", "3", "AoC174" ],
        "homeLocations" : {
          "startLocation" : {
            "latitude" : 50972450,
            "longitude" : -2555878,
            "metadata" : { }
          },
          "endLocation" : {
            "latitude" : 50972450,
            "longitude" : -2555878,
            "metadata" : { }
          }
        },
        "fixedStartTime" : -1
      }
    }
  }, {
    "timeWindow" : {
      "startTime" : 1409200200000,
      "endTime" : 1409239800000
    },
    "dynamicBreakTemplate" : {
      "drivingTimeLimit" : 16200000,
      "workingTimeLimit" : 21600000,
      "allowedShiftToLeft" : 3600000,
      "breakDuration" : 3600000
    },
    "runs" : [ ],
    "breaks" : [ ],
    "constraints" : { },
    "resource" : {
      "metadata" : {
        "name" : "WF14 ODA"
      },
      "id" : 2239,
      "depot" : 0,
      "hourCost" : 7.0,
      "kmCost" : 0.49720323,
      "routingProfile" : {
        "vehicleType" : "Default",
        "drivingTimeCorrectionFactor" : 1.2,
        "maxSpeed" : 112.63
      },
      "constraints" : {
        "runDistanceLimit" : "Infinity",
        "runWorkingTimeLimit" : 9223372036854775807,
        "scheduleWorkingTimeLimit" : 43200000,
        "scheduleDrivingTimeLimit" : 32400000,
        "addonCollectionDropDuration" : 1200000,
        "addonPickupDuration" : 2700000,
        "capacity" : {
          "values" : [ 1500.0, 0.0, 0.0, 0.0 ]
        },
        "attributes" : [ "1", "GEN", "2", "3", "AoC174" ],
        "homeLocations" : {
          "startLocation" : {
            "latitude" : 50972450,
            "longitude" : -2555878,
            "metadata" : { }
          },
          "endLocation" : {
            "latitude" : 50972450,
            "longitude" : -2555878,
            "metadata" : { }
          }
        },
        "fixedStartTime" : -1
      }
    }
  } ],
  "depots" : [ {
    "id" : 0,
    "location" : {
      "latitude" : 50972450,
      "longitude" : -2555878,
      "metadata" : { }
    },
    "constraints" : {
      "allowCollectionsWhileDrivingHome" : false,
      "allowDeliveriesWhileDrivingFromHome" : false,
      "availabilityWindows" : [ {
        "startTime" : 0,
        "endTime" : 57657355200332
      } ]
    }
  } ],
  "constraints" : {
    "allowMultipleRunsPerSchedule" : true,
    "consolidateSameSiteJobs" : "NONE"
  }
}