{
  "jobs" : [ {
    "id" : 151574,
    "metadata" : {
      "name" : "mID151574"
    },
    "depot" : 0,
    "location" : {
      "latitude" : 51370800,
      "longitude" : -363836,
      "metadata" : { }
    },
    "pickupDuration" : 0,
    "serviceDuration" : 360000,
    "unloadDuration" : 0,
    "durationPerVisit" : 0,
    "priority" : 2,
    "jobType" : "DROP",
    "constraints" : {
      "demand" : {
        "values" : [ 0.0, 0.0, 0.0, 0.0 ]
      },
      "pickupTimeWindows" : [ {
        "startTime" : 1373328060000,
        "endTime" : 1373414340000
      } ],
      "timeWindowConstraints" : {
        "serviceTimeWindows" : [ {
          "startTime" : 1373331600000,
          "endTime" : 1373356800000
        } ],
        "timeWindowPolicy" : "COMPLETE_ORDER_WITHIN_TIME_WINDOW"
      },
      "attributes" : [ "AoC137" ],
      "incompatibleAttributes" : [ ],
      "stopSequence" : 1
    }
  }, {
    "id" : 151575,
    "metadata" : {
      "name" : "mID151575"
    },
    "depot" : 0,
    "location" : {
      "latitude" : 51473249,
      "longitude" : -198078,
      "metadata" : { }
    },
    "pickupDuration" : 0,
    "serviceDuration" : 360000,
    "unloadDuration" : 0,
    "durationPerVisit" : 0,
    "priority" : 2,
    "jobType" : "DROP",
    "constraints" : {
      "demand" : {
        "values" : [ 0.0, 0.0, 0.0, 0.0 ]
      },
      "pickupTimeWindows" : [ {
        "startTime" : 1373328060000,
        "endTime" : 1373414340000
      } ],
      "timeWindowConstraints" : {
        "serviceTimeWindows" : [ {
          "startTime" : 1373331600000,
          "endTime" : 1373356800000
        } ],
        "timeWindowPolicy" : "COMPLETE_ORDER_WITHIN_TIME_WINDOW"
      },
      "attributes" : [ "AoC137" ],
      "incompatibleAttributes" : [ ],
      "stopSequence" : 1
    }
  }, {
    "id" : 151576,
    "metadata" : {
      "name" : "mID151576"
    },
    "depot" : 0,
    "location" : {
      "latitude" : 51570678,
      "longitude" : -295097,
      "metadata" : { }
    },
    "pickupDuration" : 0,
    "serviceDuration" : 360000,
    "unloadDuration" : 0,
    "durationPerVisit" : 0,
    "priority" : 2,
    "jobType" : "DROP",
    "constraints" : {
      "demand" : {
        "values" : [ 0.0, 0.0, 0.0, 0.0 ]
      },
      "pickupTimeWindows" : [ {
        "startTime" : 1373328060000,
        "endTime" : 1373414340000
      } ],
      "timeWindowConstraints" : {
        "serviceTimeWindows" : [ {
          "startTime" : 1373331600000,
          "endTime" : 1373356800000
        } ],
        "timeWindowPolicy" : "COMPLETE_ORDER_WITHIN_TIME_WINDOW"
      },
      "attributes" : [ "AoC137" ],
      "incompatibleAttributes" : [ ],
      "stopSequence" : 1
    }
  }, {
    "id" : 151577,
    "metadata" : {
      "name" : "mID151577"
    },
    "depot" : 0,
    "location" : {
      "latitude" : 51504743,
      "longitude" : -508063,
      "metadata" : { }
    },
    "pickupDuration" : 0,
    "serviceDuration" : 360000,
    "unloadDuration" : 0,
    "durationPerVisit" : 0,
    "priority" : 2,
    "jobType" : "DROP",
    "constraints" : {
      "demand" : {
        "values" : [ 0.0, 0.0, 0.0, 0.0 ]
      },
      "pickupTimeWindows" : [ {
        "startTime" : 1373328060000,
        "endTime" : 1373414340000
      } ],
      "timeWindowConstraints" : {
        "serviceTimeWindows" : [ {
          "startTime" : 1373331600000,
          "endTime" : 1373356800000
        } ],
        "timeWindowPolicy" : "COMPLETE_ORDER_WITHIN_TIME_WINDOW"
      },
      "attributes" : [ "AoC137" ],
      "incompatibleAttributes" : [ ],
      "stopSequence" : 1
    }
  }, {
    "id" : 151578,
    "metadata" : {
      "name" : "mID151578"
    },
    "depot" : 0,
    "location" : {
      "latitude" : 51310032,
      "longitude" : -298592,
      "metadata" : { }
    },
    "pickupDuration" : 0,
    "serviceDuration" : 360000,
    "unloadDuration" : 0,
    "durationPerVisit" : 0,
    "priority" : 2,
    "jobType" : "DROP",
    "constraints" : {
      "demand" : {
        "values" : [ 0.0, 0.0, 0.0, 0.0 ]
      },
      "pickupTimeWindows" : [ {
        "startTime" : 1373328060000,
        "endTime" : 1373414340000
      } ],
      "timeWindowConstraints" : {
        "serviceTimeWindows" : [ {
          "startTime" : 1373331600000,
          "endTime" : 1373356800000
        } ],
        "timeWindowPolicy" : "COMPLETE_ORDER_WITHIN_TIME_WINDOW"
      },
      "attributes" : [ "AoC137" ],
      "incompatibleAttributes" : [ ],
      "stopSequence" : 1
    }
  }, {
    "id" : 151579,
    "metadata" : {
      "name" : "mID151579"
    },
    "depot" : 0,
    "location" : {
      "latitude" : 51525448,
      "longitude" : -315858,
      "metadata" : { }
    },
    "pickupDuration" : 0,
    "serviceDuration" : 360000,
    "unloadDuration" : 0,
    "durationPerVisit" : 0,
    "priority" : 2,
    "jobType" : "DROP",
    "constraints" : {
      "demand" : {
        "values" : [ 0.0, 0.0, 0.0, 0.0 ]
      },
      "pickupTimeWindows" : [ {
        "startTime" : 1373328060000,
        "endTime" : 1373414340000
      } ],
      "timeWindowConstraints" : {
        "serviceTimeWindows" : [ {
          "startTime" : 1373331600000,
          "endTime" : 1373356800000
        } ],
        "timeWindowPolicy" : "COMPLETE_ORDER_WITHIN_TIME_WINDOW"
      },
      "attributes" : [ "AoC137" ],
      "incompatibleAttributes" : [ ],
      "stopSequence" : 1
    }
  }, {
    "id" : 151580,
    "metadata" : {
      "name" : "mID151580"
    },
    "depot" : 0,
    "location" : {
      "latitude" : 51588680,
      "longitude" : -682683,
      "metadata" : { }
    },
    "pickupDuration" : 0,
    "serviceDuration" : 360000,
    "unloadDuration" : 0,
    "durationPerVisit" : 0,
    "priority" : 2,
    "jobType" : "DROP",
    "constraints" : {
      "demand" : {
        "values" : [ 0.0, 0.0, 0.0, 0.0 ]
      },
      "pickupTimeWindows" : [ {
        "startTime" : 1373328060000,
        "endTime" : 1373414340000
      } ],
      "timeWindowConstraints" : {
        "serviceTimeWindows" : [ {
          "startTime" : 1373331600000,
          "endTime" : 1373356800000
        } ],
        "timeWindowPolicy" : "COMPLETE_ORDER_WITHIN_TIME_WINDOW"
      },
      "attributes" : [ "AoC137" ],
      "incompatibleAttributes" : [ ],
      "stopSequence" : 1
    }
  }, {
    "id" : 151581,
    "metadata" : {
      "name" : "mID151581"
    },
    "depot" : 0,
    "location" : {
      "latitude" : 51372173,
      "longitude" : -459821,
      "metadata" : { }
    },
    "pickupDuration" : 0,
    "serviceDuration" : 360000,
    "unloadDuration" : 0,
    "durationPerVisit" : 0,
    "priority" : 2,
    "jobType" : "DROP",
    "constraints" : {
      "demand" : {
        "values" : [ 0.0, 0.0, 0.0, 0.0 ]
      },
      "pickupTimeWindows" : [ {
        "startTime" : 1373328060000,
        "endTime" : 1373414340000
      } ],
      "timeWindowConstraints" : {
        "serviceTimeWindows" : [ {
          "startTime" : 1373331600000,
          "endTime" : 1373356800000
        } ],
        "timeWindowPolicy" : "COMPLETE_ORDER_WITHIN_TIME_WINDOW"
      },
      "attributes" : [ "AoC137" ],
      "incompatibleAttributes" : [ ],
      "stopSequence" : 1
    }
  }, {
    "id" : 151582,
    "metadata" : {
      "name" : "mID151582"
    },
    "depot" : 0,
    "location" : {
      "latitude" : 51502341,
      "longitude" : -316047,
      "metadata" : { }
    },
    "pickupDuration" : 0,
    "serviceDuration" : 360000,
    "unloadDuration" : 0,
    "durationPerVisit" : 0,
    "priority" : 2,
    "jobType" : "DROP",
    "constraints" : {
      "demand" : {
        "values" : [ 0.0, 0.0, 0.0, 0.0 ]
      },
      "pickupTimeWindows" : [ {
        "startTime" : 1373328060000,
        "endTime" : 1373414340000
      } ],
      "timeWindowConstraints" : {
        "serviceTimeWindows" : [ {
          "startTime" : 1373331600000,
          "endTime" : 1373356800000
        } ],
        "timeWindowPolicy" : "COMPLETE_ORDER_WITHIN_TIME_WINDOW"
      },
      "attributes" : [ "AoC137" ],
      "incompatibleAttributes" : [ ],
      "stopSequence" : 1
    }
  }, {
    "id" : 151583,
    "metadata" : {
      "name" : "mID151583"
    },
    "depot" : 0,
    "location" : {
      "latitude" : 51360456,
      "longitude" : -345202,
      "metadata" : { }
    },
    "pickupDuration" : 0,
    "serviceDuration" : 360000,
    "unloadDuration" : 0,
    "durationPerVisit" : 0,
    "priority" : 2,
    "jobType" : "DROP",
    "constraints" : {
      "demand" : {
        "values" : [ 0.0, 0.0, 0.0, 0.0 ]
      },
      "pickupTimeWindows" : [ {
        "startTime" : 1373328060000,
        "endTime" : 1373414340000
      } ],
      "timeWindowConstraints" : {
        "serviceTimeWindows" : [ {
          "startTime" : 1373331600000,
          "endTime" : 1373356800000
        } ],
        "timeWindowPolicy" : "COMPLETE_ORDER_WITHIN_TIME_WINDOW"
      },
      "attributes" : [ "AoC137" ],
      "incompatibleAttributes" : [ ],
      "stopSequence" : 1
    }
  }, {
    "id" : 151584,
    "metadata" : {
      "name" : "mID151584"
    },
    "depot" : 0,
    "location" : {
      "latitude" : 51303208,
      "longitude" : -328713,
      "metadata" : { }
    },
    "pickupDuration" : 0,
    "serviceDuration" : 360000,
    "unloadDuration" : 0,
    "durationPerVisit" : 0,
    "priority" : 2,
    "jobType" : "DROP",
    "constraints" : {
      "demand" : {
        "values" : [ 0.0, 0.0, 0.0, 0.0 ]
      },
      "pickupTimeWindows" : [ {
        "startTime" : 1373328060000,
        "endTime" : 1373414340000
      } ],
      "timeWindowConstraints" : {
        "serviceTimeWindows" : [ {
          "startTime" : 1373331600000,
          "endTime" : 1373356800000
        } ],
        "timeWindowPolicy" : "COMPLETE_ORDER_WITHIN_TIME_WINDOW"
      },
      "attributes" : [ "AoC137" ],
      "incompatibleAttributes" : [ ],
      "stopSequence" : 1
    }
  }, {
    "id" : 151585,
    "metadata" : {
      "name" : "mID151585"
    },
    "depot" : 0,
    "location" : {
      "latitude" : 51214797,
      "longitude" : -799693,
      "metadata" : { }
    },
    "pickupDuration" : 0,
    "serviceDuration" : 360000,
    "unloadDuration" : 0,
    "durationPerVisit" : 0,
    "priority" : 2,
    "jobType" : "DROP",
    "constraints" : {
      "demand" : {
        "values" : [ 0.0, 0.0, 0.0, 0.0 ]
      },
      "pickupTimeWindows" : [ {
        "startTime" : 1373328060000,
        "endTime" : 1373414340000
      } ],
      "timeWindowConstraints" : {
        "serviceTimeWindows" : [ {
          "startTime" : 1373331600000,
          "endTime" : 1373356800000
        } ],
        "timeWindowPolicy" : "COMPLETE_ORDER_WITHIN_TIME_WINDOW"
      },
      "attributes" : [ "AoC137" ],
      "incompatibleAttributes" : [ ],
      "stopSequence" : 1
    }
  }, {
    "id" : 151586,
    "metadata" : {
      "name" : "mID151586"
    },
    "depot" : 0,
    "location" : {
      "latitude" : 51601809,
      "longitude" : -634739,
      "metadata" : { }
    },
    "pickupDuration" : 0,
    "serviceDuration" : 360000,
    "unloadDuration" : 0,
    "durationPerVisit" : 0,
    "priority" : 2,
    "jobType" : "DROP",
    "constraints" : {
      "demand" : {
        "values" : [ 0.0, 0.0, 0.0, 0.0 ]
      },
      "pickupTimeWindows" : [ {
        "startTime" : 1373328060000,
        "endTime" : 1373414340000
      } ],
      "timeWindowConstraints" : {
        "serviceTimeWindows" : [ {
          "startTime" : 1373331600000,
          "endTime" : 1373356800000
        } ],
        "timeWindowPolicy" : "COMPLETE_ORDER_WITHIN_TIME_WINDOW"
      },
      "attributes" : [ "AoC137" ],
      "incompatibleAttributes" : [ ],
      "stopSequence" : 1
    }
  }, {
    "id" : 151587,
    "metadata" : {
      "name" : "mID151587"
    },
    "depot" : 0,
    "location" : {
      "latitude" : 51521827,
      "longitude" : -779386,
      "metadata" : { }
    },
    "pickupDuration" : 0,
    "serviceDuration" : 360000,
    "unloadDuration" : 0,
    "durationPerVisit" : 0,
    "priority" : 2,
    "jobType" : "DROP",
    "constraints" : {
      "demand" : {
        "values" : [ 0.0, 0.0, 0.0, 0.0 ]
      },
      "pickupTimeWindows" : [ {
        "startTime" : 1373328060000,
        "endTime" : 1373414340000
      } ],
      "timeWindowConstraints" : {
        "serviceTimeWindows" : [ {
          "startTime" : 1373331600000,
          "endTime" : 1373356800000
        } ],
        "timeWindowPolicy" : "COMPLETE_ORDER_WITHIN_TIME_WINDOW"
      },
      "attributes" : [ "AoC137" ],
      "incompatibleAttributes" : [ ],
      "stopSequence" : 1
    }
  }, {
    "id" : 151588,
    "metadata" : {
      "name" : "mID151588"
    },
    "depot" : 0,
    "location" : {
      "latitude" : 51354220,
      "longitude" : -658384,
      "metadata" : { }
    },
    "pickupDuration" : 0,
    "serviceDuration" : 360000,
    "unloadDuration" : 0,
    "durationPerVisit" : 0,
    "priority" : 2,
    "jobType" : "DROP",
    "constraints" : {
      "demand" : {
        "values" : [ 0.0, 0.0, 0.0, 0.0 ]
      },
      "pickupTimeWindows" : [ {
        "startTime" : 1373328060000,
        "endTime" : 1373414340000
      } ],
      "timeWindowConstraints" : {
        "serviceTimeWindows" : [ {
          "startTime" : 1373331600000,
          "endTime" : 1373356800000
        } ],
        "timeWindowPolicy" : "COMPLETE_ORDER_WITHIN_TIME_WINDOW"
      },
      "attributes" : [ "AoC137" ],
      "incompatibleAttributes" : [ ],
      "stopSequence" : 1
    }
  }, {
    "id" : 151589,
    "metadata" : {
      "name" : "mID151589"
    },
    "depot" : 0,
    "location" : {
      "latitude" : 51237151,
      "longitude" : -575054,
      "metadata" : { }
    },
    "pickupDuration" : 0,
    "serviceDuration" : 360000,
    "unloadDuration" : 0,
    "durationPerVisit" : 0,
    "priority" : 2,
    "jobType" : "DROP",
    "constraints" : {
      "demand" : {
        "values" : [ 0.0, 0.0, 0.0, 0.0 ]
      },
      "pickupTimeWindows" : [ {
        "startTime" : 1373328060000,
        "endTime" : 1373414340000
      } ],
      "timeWindowConstraints" : {
        "serviceTimeWindows" : [ {
          "startTime" : 1373331600000,
          "endTime" : 1373356800000
        } ],
        "timeWindowPolicy" : "COMPLETE_ORDER_WITHIN_TIME_WINDOW"
      },
      "attributes" : [ "AoC137" ],
      "incompatibleAttributes" : [ ],
      "stopSequence" : 1
    }
  }, {
    "id" : 151590,
    "metadata" : {
      "name" : "mID151590"
    },
    "depot" : 0,
    "location" : {
      "latitude" : 51669444,
      "longitude" : -1280778,
      "metadata" : { }
    },
    "pickupDuration" : 0,
    "serviceDuration" : 360000,
    "unloadDuration" : 0,
    "durationPerVisit" : 0,
    "priority" : 2,
    "jobType" : "DROP",
    "constraints" : {
      "demand" : {
        "values" : [ 0.0, 0.0, 0.0, 0.0 ]
      },
      "pickupTimeWindows" : [ {
        "startTime" : 1373328060000,
        "endTime" : 1373414340000
      } ],
      "timeWindowConstraints" : {
        "serviceTimeWindows" : [ {
          "startTime" : 1373331600000,
          "endTime" : 1373356800000
        } ],
        "timeWindowPolicy" : "COMPLETE_ORDER_WITHIN_TIME_WINDOW"
      },
      "attributes" : [ "AoC137" ],
      "incompatibleAttributes" : [ ],
      "stopSequence" : 1
    }
  }, {
    "id" : 151591,
    "metadata" : {
      "name" : "mID151591"
    },
    "depot" : 0,
    "location" : {
      "latitude" : 51521355,
      "longitude" : -723184,
      "metadata" : { }
    },
    "pickupDuration" : 0,
    "serviceDuration" : 360000,
    "unloadDuration" : 0,
    "durationPerVisit" : 0,
    "priority" : 2,
    "jobType" : "DROP",
    "constraints" : {
      "demand" : {
        "values" : [ 0.0, 0.0, 0.0, 0.0 ]
      },
      "pickupTimeWindows" : [ {
        "startTime" : 1373328060000,
        "endTime" : 1373414340000
      } ],
      "timeWindowConstraints" : {
        "serviceTimeWindows" : [ {
          "startTime" : 1373331600000,
          "endTime" : 1373356800000
        } ],
        "timeWindowPolicy" : "COMPLETE_ORDER_WITHIN_TIME_WINDOW"
      },
      "attributes" : [ "AoC137" ],
      "incompatibleAttributes" : [ ],
      "stopSequence" : 1
    }
  }, {
    "id" : 151592,
    "metadata" : {
      "name" : "mID151592"
    },
    "depot" : 0,
    "location" : {
      "latitude" : 51467066,
      "longitude" : -964521,
      "metadata" : { }
    },
    "pickupDuration" : 0,
    "serviceDuration" : 360000,
    "unloadDuration" : 0,
    "durationPerVisit" : 0,
    "priority" : 2,
    "jobType" : "DROP",
    "constraints" : {
      "demand" : {
        "values" : [ 0.0, 0.0, 0.0, 0.0 ]
      },
      "pickupTimeWindows" : [ {
        "startTime" : 1373328060000,
        "endTime" : 1373414340000
      } ],
      "timeWindowConstraints" : {
        "serviceTimeWindows" : [ {
          "startTime" : 1373331600000,
          "endTime" : 1373356800000
        } ],
        "timeWindowPolicy" : "COMPLETE_ORDER_WITHIN_TIME_WINDOW"
      },
      "attributes" : [ "AoC137" ],
      "incompatibleAttributes" : [ ],
      "stopSequence" : 1
    }
  }, {
    "id" : 151593,
    "metadata" : {
      "name" : "mID151593"
    },
    "depot" : 0,
    "location" : {
      "latitude" : 51503853,
      "longitude" : -732147,
      "metadata" : { }
    },
    "pickupDuration" : 0,
    "serviceDuration" : 360000,
    "unloadDuration" : 0,
    "durationPerVisit" : 0,
    "priority" : 2,
    "jobType" : "DROP",
    "constraints" : {
      "demand" : {
        "values" : [ 0.0, 0.0, 0.0, 0.0 ]
      },
      "pickupTimeWindows" : [ {
        "startTime" : 1373328060000,
        "endTime" : 1373414340000
      } ],
      "timeWindowConstraints" : {
        "serviceTimeWindows" : [ {
          "startTime" : 1373331600000,
          "endTime" : 1373356800000
        } ],
        "timeWindowPolicy" : "COMPLETE_ORDER_WITHIN_TIME_WINDOW"
      },
      "attributes" : [ "AoC137" ],
      "incompatibleAttributes" : [ ],
      "stopSequence" : 1
    }
  }, {
    "id" : 151594,
    "metadata" : {
      "name" : "mID151594"
    },
    "depot" : 0,
    "location" : {
      "latitude" : 51468649,
      "longitude" : -254874,
      "metadata" : { }
    },
    "pickupDuration" : 0,
    "serviceDuration" : 360000,
    "unloadDuration" : 0,
    "durationPerVisit" : 0,
    "priority" : 2,
    "jobType" : "DROP",
    "constraints" : {
      "demand" : {
        "values" : [ 0.0, 0.0, 0.0, 0.0 ]
      },
      "pickupTimeWindows" : [ {
        "startTime" : 1373328060000,
        "endTime" : 1373414340000
      } ],
      "timeWindowConstraints" : {
        "serviceTimeWindows" : [ {
          "startTime" : 1373331600000,
          "endTime" : 1373356800000
        } ],
        "timeWindowPolicy" : "COMPLETE_ORDER_WITHIN_TIME_WINDOW"
      },
      "attributes" : [ "AoC137" ],
      "incompatibleAttributes" : [ ],
      "stopSequence" : 1
    }
  }, {
    "id" : 151595,
    "metadata" : {
      "name" : "mID151595"
    },
    "depot" : 0,
    "location" : {
      "latitude" : 51657831,
      "longitude" : -709595,
      "metadata" : { }
    },
    "pickupDuration" : 0,
    "serviceDuration" : 360000,
    "unloadDuration" : 0,
    "durationPerVisit" : 0,
    "priority" : 2,
    "jobType" : "DROP",
    "constraints" : {
      "demand" : {
        "values" : [ 0.0, 0.0, 0.0, 0.0 ]
      },
      "pickupTimeWindows" : [ {
        "startTime" : 1373328060000,
        "endTime" : 1373414340000
      } ],
      "timeWindowConstraints" : {
        "serviceTimeWindows" : [ {
          "startTime" : 1373331600000,
          "endTime" : 1373356800000
        } ],
        "timeWindowPolicy" : "COMPLETE_ORDER_WITHIN_TIME_WINDOW"
      },
      "attributes" : [ "AoC137" ],
      "incompatibleAttributes" : [ ],
      "stopSequence" : 1
    }
  }, {
    "id" : 151596,
    "metadata" : {
      "name" : "mID151596"
    },
    "depot" : 0,
    "location" : {
      "latitude" : 51571381,
      "longitude" : -775808,
      "metadata" : { }
    },
    "pickupDuration" : 0,
    "serviceDuration" : 360000,
    "unloadDuration" : 0,
    "durationPerVisit" : 0,
    "priority" : 2,
    "jobType" : "DROP",
    "constraints" : {
      "demand" : {
        "values" : [ 0.0, 0.0, 0.0, 0.0 ]
      },
      "pickupTimeWindows" : [ {
        "startTime" : 1373328060000,
        "endTime" : 1373414340000
      } ],
      "timeWindowConstraints" : {
        "serviceTimeWindows" : [ {
          "startTime" : 1373331600000,
          "endTime" : 1373356800000
        } ],
        "timeWindowPolicy" : "COMPLETE_ORDER_WITHIN_TIME_WINDOW"
      },
      "attributes" : [ "AoC137" ],
      "incompatibleAttributes" : [ ],
      "stopSequence" : 1
    }
  }, {
    "id" : 151597,
    "metadata" : {
      "name" : "mID151597"
    },
    "depot" : 0,
    "location" : {
      "latitude" : 51816509,
      "longitude" : -839046,
      "metadata" : { }
    },
    "pickupDuration" : 0,
    "serviceDuration" : 360000,
    "unloadDuration" : 0,
    "durationPerVisit" : 0,
    "priority" : 2,
    "jobType" : "DROP",
    "constraints" : {
      "demand" : {
        "values" : [ 0.0, 0.0, 0.0, 0.0 ]
      },
      "pickupTimeWindows" : [ {
        "startTime" : 1373328060000,
        "endTime" : 1373414340000
      } ],
      "timeWindowConstraints" : {
        "serviceTimeWindows" : [ {
          "startTime" : 1373331600000,
          "endTime" : 1373356800000
        } ],
        "timeWindowPolicy" : "COMPLETE_ORDER_WITHIN_TIME_WINDOW"
      },
      "attributes" : [ "AoC137" ],
      "incompatibleAttributes" : [ ],
      "stopSequence" : 1
    }
  }, {
    "id" : 151598,
    "metadata" : {
      "name" : "mID151598"
    },
    "depot" : 0,
    "location" : {
      "latitude" : 51515284,
      "longitude" : -304991,
      "metadata" : { }
    },
    "pickupDuration" : 0,
    "serviceDuration" : 360000,
    "unloadDuration" : 0,
    "durationPerVisit" : 0,
    "priority" : 2,
    "jobType" : "DROP",
    "constraints" : {
      "demand" : {
        "values" : [ 0.0, 0.0, 0.0, 0.0 ]
      },
      "pickupTimeWindows" : [ {
        "startTime" : 1373328060000,
        "endTime" : 1373414340000
      } ],
      "timeWindowConstraints" : {
        "serviceTimeWindows" : [ {
          "startTime" : 1373331600000,
          "endTime" : 1373356800000
        } ],
        "timeWindowPolicy" : "COMPLETE_ORDER_WITHIN_TIME_WINDOW"
      },
      "attributes" : [ "AoC137" ],
      "incompatibleAttributes" : [ ],
      "stopSequence" : 1
    }
  }, {
    "id" : 151599,
    "metadata" : {
      "name" : "mID151599"
    },
    "depot" : 0,
    "location" : {
      "latitude" : 51444526,
      "longitude" : -205642,
      "metadata" : { }
    },
    "pickupDuration" : 0,
    "serviceDuration" : 360000,
    "unloadDuration" : 0,
    "durationPerVisit" : 0,
    "priority" : 2,
    "jobType" : "DROP",
    "constraints" : {
      "demand" : {
        "values" : [ 0.0, 0.0, 0.0, 0.0 ]
      },
      "pickupTimeWindows" : [ {
        "startTime" : 1373328060000,
        "endTime" : 1373414340000
      } ],
      "timeWindowConstraints" : {
        "serviceTimeWindows" : [ {
          "startTime" : 1373331600000,
          "endTime" : 1373356800000
        } ],
        "timeWindowPolicy" : "COMPLETE_ORDER_WITHIN_TIME_WINDOW"
      },
      "attributes" : [ "AoC137" ],
      "incompatibleAttributes" : [ ],
      "stopSequence" : 1
    }
  }, {
    "id" : 151600,
    "metadata" : {
      "name" : "mID151600"
    },
    "depot" : 0,
    "location" : {
      "latitude" : 51284348,
      "longitude" : -822115,
      "metadata" : { }
    },
    "pickupDuration" : 0,
    "serviceDuration" : 360000,
    "unloadDuration" : 0,
    "durationPerVisit" : 0,
    "priority" : 2,
    "jobType" : "DROP",
    "constraints" : {
      "demand" : {
        "values" : [ 0.0, 0.0, 0.0, 0.0 ]
      },
      "pickupTimeWindows" : [ {
        "startTime" : 1373328060000,
        "endTime" : 1373414340000
      } ],
      "timeWindowConstraints" : {
        "serviceTimeWindows" : [ {
          "startTime" : 1373331600000,
          "endTime" : 1373356800000
        } ],
        "timeWindowPolicy" : "COMPLETE_ORDER_WITHIN_TIME_WINDOW"
      },
      "attributes" : [ "AoC137" ],
      "incompatibleAttributes" : [ ],
      "stopSequence" : 1
    }
  }, {
    "id" : 151601,
    "metadata" : {
      "name" : "mID151601"
    },
    "depot" : 0,
    "location" : {
      "latitude" : 51521292,
      "longitude" : -1139858,
      "metadata" : { }
    },
    "pickupDuration" : 0,
    "serviceDuration" : 360000,
    "unloadDuration" : 0,
    "durationPerVisit" : 0,
    "priority" : 2,
    "jobType" : "DROP",
    "constraints" : {
      "demand" : {
        "values" : [ 0.0, 0.0, 0.0, 0.0 ]
      },
      "pickupTimeWindows" : [ {
        "startTime" : 1373328060000,
        "endTime" : 1373414340000
      } ],
      "timeWindowConstraints" : {
        "serviceTimeWindows" : [ {
          "startTime" : 1373331600000,
          "endTime" : 1373356800000
        } ],
        "timeWindowPolicy" : "COMPLETE_ORDER_WITHIN_TIME_WINDOW"
      },
      "attributes" : [ "AoC137" ],
      "incompatibleAttributes" : [ ],
      "stopSequence" : 1
    }
  }, {
    "id" : 151602,
    "metadata" : {
      "name" : "mID151602"
    },
    "depot" : 0,
    "location" : {
      "latitude" : 51919274,
      "longitude" : -126844,
      "metadata" : { }
    },
    "pickupDuration" : 0,
    "serviceDuration" : 360000,
    "unloadDuration" : 0,
    "durationPerVisit" : 0,
    "priority" : 2,
    "jobType" : "DROP",
    "constraints" : {
      "demand" : {
        "values" : [ 0.0, 0.0, 0.0, 0.0 ]
      },
      "pickupTimeWindows" : [ {
        "startTime" : 1373328060000,
        "endTime" : 1373414340000
      } ],
      "timeWindowConstraints" : {
        "serviceTimeWindows" : [ {
          "startTime" : 1373331600000,
          "endTime" : 1373356800000
        } ],
        "timeWindowPolicy" : "COMPLETE_ORDER_WITHIN_TIME_WINDOW"
      },
      "attributes" : [ "AoC137" ],
      "incompatibleAttributes" : [ ],
      "stopSequence" : 1
    }
  }, {
    "id" : 151603,
    "metadata" : {
      "name" : "mID151603"
    },
    "depot" : 0,
    "location" : {
      "latitude" : 51750566,
      "longitude" : -331213,
      "metadata" : { }
    },
    "pickupDuration" : 0,
    "serviceDuration" : 360000,
    "unloadDuration" : 0,
    "durationPerVisit" : 0,
    "priority" : 2,
    "jobType" : "DROP",
    "constraints" : {
      "demand" : {
        "values" : [ 0.0, 0.0, 0.0, 0.0 ]
      },
      "pickupTimeWindows" : [ {
        "startTime" : 1373328060000,
        "endTime" : 1373414340000
      } ],
      "timeWindowConstraints" : {
        "serviceTimeWindows" : [ {
          "startTime" : 1373331600000,
          "endTime" : 1373356800000
        } ],
        "timeWindowPolicy" : "COMPLETE_ORDER_WITHIN_TIME_WINDOW"
      },
      "attributes" : [ "AoC137" ],
      "incompatibleAttributes" : [ ],
      "stopSequence" : 1
    }
  }, {
    "id" : 151604,
    "metadata" : {
      "name" : "mID151604"
    },
    "depot" : 0,
    "location" : {
      "latitude" : 51722702,
      "longitude" : -532157,
      "metadata" : { }
    },
    "pickupDuration" : 0,
    "serviceDuration" : 360000,
    "unloadDuration" : 0,
    "durationPerVisit" : 0,
    "priority" : 2,
    "jobType" : "DROP",
    "constraints" : {
      "demand" : {
        "values" : [ 0.0, 0.0, 0.0, 0.0 ]
      },
      "pickupTimeWindows" : [ {
        "startTime" : 1373328060000,
        "endTime" : 1373414340000
      } ],
      "timeWindowConstraints" : {
        "serviceTimeWindows" : [ {
          "startTime" : 1373331600000,
          "endTime" : 1373356800000
        } ],
        "timeWindowPolicy" : "COMPLETE_ORDER_WITHIN_TIME_WINDOW"
      },
      "attributes" : [ "AoC137" ],
      "incompatibleAttributes" : [ ],
      "stopSequence" : 1
    }
  }, {
    "id" : 151605,
    "metadata" : {
      "name" : "mID151605"
    },
    "depot" : 0,
    "location" : {
      "latitude" : 51286789,
      "longitude" : -383862,
      "metadata" : { }
    },
    "pickupDuration" : 0,
    "serviceDuration" : 360000,
    "unloadDuration" : 0,
    "durationPerVisit" : 0,
    "priority" : 2,
    "jobType" : "DROP",
    "constraints" : {
      "demand" : {
        "values" : [ 0.0, 0.0, 0.0, 0.0 ]
      },
      "pickupTimeWindows" : [ {
        "startTime" : 1373328060000,
        "endTime" : 1373414340000
      } ],
      "timeWindowConstraints" : {
        "serviceTimeWindows" : [ {
          "startTime" : 1373331600000,
          "endTime" : 1373356800000
        } ],
        "timeWindowPolicy" : "COMPLETE_ORDER_WITHIN_TIME_WINDOW"
      },
      "attributes" : [ "AoC137" ],
      "incompatibleAttributes" : [ ],
      "stopSequence" : 1
    }
  }, {
    "id" : 151606,
    "metadata" : {
      "name" : "mID151606"
    },
    "depot" : 0,
    "location" : {
      "latitude" : 51751558,
      "longitude" : -1297959,
      "metadata" : { }
    },
    "pickupDuration" : 0,
    "serviceDuration" : 360000,
    "unloadDuration" : 0,
    "durationPerVisit" : 0,
    "priority" : 2,
    "jobType" : "DROP",
    "constraints" : {
      "demand" : {
        "values" : [ 0.0, 0.0, 0.0, 0.0 ]
      },
      "pickupTimeWindows" : [ {
        "startTime" : 1373328060000,
        "endTime" : 1373414340000
      } ],
      "timeWindowConstraints" : {
        "serviceTimeWindows" : [ {
          "startTime" : 1373331600000,
          "endTime" : 1373356800000
        } ],
        "timeWindowPolicy" : "COMPLETE_ORDER_WITHIN_TIME_WINDOW"
      },
      "attributes" : [ "AoC137" ],
      "incompatibleAttributes" : [ ],
      "stopSequence" : 1
    }
  }, {
    "id" : 151607,
    "metadata" : {
      "name" : "mID151607"
    },
    "depot" : 0,
    "location" : {
      "latitude" : 51424567,
      "longitude" : -216609,
      "metadata" : { }
    },
    "pickupDuration" : 0,
    "serviceDuration" : 360000,
    "unloadDuration" : 0,
    "durationPerVisit" : 0,
    "priority" : 2,
    "jobType" : "DROP",
    "constraints" : {
      "demand" : {
        "values" : [ 0.0, 0.0, 0.0, 0.0 ]
      },
      "pickupTimeWindows" : [ {
        "startTime" : 1373328060000,
        "endTime" : 1373414340000
      } ],
      "timeWindowConstraints" : {
        "serviceTimeWindows" : [ {
          "startTime" : 1373331600000,
          "endTime" : 1373356800000
        } ],
        "timeWindowPolicy" : "COMPLETE_ORDER_WITHIN_TIME_WINDOW"
      },
      "attributes" : [ "AoC137" ],
      "incompatibleAttributes" : [ ],
      "stopSequence" : 1
    }
  }, {
    "id" : 151608,
    "metadata" : {
      "name" : "mID151608"
    },
    "depot" : 0,
    "location" : {
      "latitude" : 51786908,
      "longitude" : -1484809,
      "metadata" : { }
    },
    "pickupDuration" : 0,
    "serviceDuration" : 360000,
    "unloadDuration" : 0,
    "durationPerVisit" : 0,
    "priority" : 2,
    "jobType" : "DROP",
    "constraints" : {
      "demand" : {
        "values" : [ 0.0, 0.0, 0.0, 0.0 ]
      },
      "pickupTimeWindows" : [ {
        "startTime" : 1373328060000,
        "endTime" : 1373414340000
      } ],
      "timeWindowConstraints" : {
        "serviceTimeWindows" : [ {
          "startTime" : 1373331600000,
          "endTime" : 1373356800000
        } ],
        "timeWindowPolicy" : "COMPLETE_ORDER_WITHIN_TIME_WINDOW"
      },
      "attributes" : [ "AoC137" ],
      "incompatibleAttributes" : [ ],
      "stopSequence" : 1
    }
  }, {
    "id" : 151609,
    "metadata" : {
      "name" : "mID151609"
    },
    "depot" : 0,
    "location" : {
      "latitude" : 51706099,
      "longitude" : -416925,
      "metadata" : { }
    },
    "pickupDuration" : 0,
    "serviceDuration" : 360000,
    "unloadDuration" : 0,
    "durationPerVisit" : 0,
    "priority" : 2,
    "jobType" : "DROP",
    "constraints" : {
      "demand" : {
        "values" : [ 0.0, 0.0, 0.0, 0.0 ]
      },
      "pickupTimeWindows" : [ {
        "startTime" : 1373328060000,
        "endTime" : 1373414340000
      } ],
      "timeWindowConstraints" : {
        "serviceTimeWindows" : [ {
          "startTime" : 1373331600000,
          "endTime" : 1373356800000
        } ],
        "timeWindowPolicy" : "COMPLETE_ORDER_WITHIN_TIME_WINDOW"
      },
      "attributes" : [ "AoC137" ],
      "incompatibleAttributes" : [ ],
      "stopSequence" : 1
    }
  }, {
    "id" : 151610,
    "metadata" : {
      "name" : "mID151610"
    },
    "depot" : 0,
    "location" : {
      "latitude" : 51110552,
      "longitude" : -747982,
      "metadata" : { }
    },
    "pickupDuration" : 0,
    "serviceDuration" : 360000,
    "unloadDuration" : 0,
    "durationPerVisit" : 0,
    "priority" : 2,
    "jobType" : "DROP",
    "constraints" : {
      "demand" : {
        "values" : [ 0.0, 0.0, 0.0, 0.0 ]
      },
      "pickupTimeWindows" : [ {
        "startTime" : 1373328060000,
        "endTime" : 1373414340000
      } ],
      "timeWindowConstraints" : {
        "serviceTimeWindows" : [ {
          "startTime" : 1373331600000,
          "endTime" : 1373356800000
        } ],
        "timeWindowPolicy" : "COMPLETE_ORDER_WITHIN_TIME_WINDOW"
      },
      "attributes" : [ "AoC137" ],
      "incompatibleAttributes" : [ ],
      "stopSequence" : 1
    }
  }, {
    "id" : 151611,
    "metadata" : {
      "name" : "mID151611"
    },
    "depot" : 0,
    "location" : {
      "latitude" : 51393660,
      "longitude" : -304561,
      "metadata" : { }
    },
    "pickupDuration" : 0,
    "serviceDuration" : 360000,
    "unloadDuration" : 0,
    "durationPerVisit" : 0,
    "priority" : 2,
    "jobType" : "DROP",
    "constraints" : {
      "demand" : {
        "values" : [ 0.0, 0.0, 0.0, 0.0 ]
      },
      "pickupTimeWindows" : [ {
        "startTime" : 1373328060000,
        "endTime" : 1373414340000
      } ],
      "timeWindowConstraints" : {
        "serviceTimeWindows" : [ {
          "startTime" : 1373331600000,
          "endTime" : 1373356800000
        } ],
        "timeWindowPolicy" : "COMPLETE_ORDER_WITHIN_TIME_WINDOW"
      },
      "attributes" : [ "AoC137" ],
      "incompatibleAttributes" : [ ],
      "stopSequence" : 1
    }
  }, {
    "id" : 151612,
    "metadata" : {
      "name" : "mID151612"
    },
    "depot" : 0,
    "location" : {
      "latitude" : 51530753,
      "longitude" : -373852,
      "metadata" : { }
    },
    "pickupDuration" : 0,
    "serviceDuration" : 360000,
    "unloadDuration" : 0,
    "durationPerVisit" : 0,
    "priority" : 2,
    "jobType" : "DROP",
    "constraints" : {
      "demand" : {
        "values" : [ 0.0, 0.0, 0.0, 0.0 ]
      },
      "pickupTimeWindows" : [ {
        "startTime" : 1373328060000,
        "endTime" : 1373414340000
      } ],
      "timeWindowConstraints" : {
        "serviceTimeWindows" : [ {
          "startTime" : 1373331600000,
          "endTime" : 1373356800000
        } ],
        "timeWindowPolicy" : "COMPLETE_ORDER_WITHIN_TIME_WINDOW"
      },
      "attributes" : [ "AoC137" ],
      "incompatibleAttributes" : [ ],
      "stopSequence" : 1
    }
  }, {
    "id" : 151613,
    "metadata" : {
      "name" : "mID151613"
    },
    "depot" : 0,
    "location" : {
      "latitude" : 51588453,
      "longitude" : -1425681,
      "metadata" : { }
    },
    "pickupDuration" : 0,
    "serviceDuration" : 360000,
    "unloadDuration" : 0,
    "durationPerVisit" : 0,
    "priority" : 2,
    "jobType" : "DROP",
    "constraints" : {
      "demand" : {
        "values" : [ 0.0, 0.0, 0.0, 0.0 ]
      },
      "pickupTimeWindows" : [ {
        "startTime" : 1373328060000,
        "endTime" : 1373414340000
      } ],
      "timeWindowConstraints" : {
        "serviceTimeWindows" : [ {
          "startTime" : 1373331600000,
          "endTime" : 1373356800000
        } ],
        "timeWindowPolicy" : "COMPLETE_ORDER_WITHIN_TIME_WINDOW"
      },
      "attributes" : [ "AoC137" ],
      "incompatibleAttributes" : [ ],
      "stopSequence" : 1
    }
  }, {
    "id" : 151614,
    "metadata" : {
      "name" : "mID151614"
    },
    "depot" : 0,
    "location" : {
      "latitude" : 51410896,
      "longitude" : -674010,
      "metadata" : { }
    },
    "pickupDuration" : 0,
    "serviceDuration" : 360000,
    "unloadDuration" : 0,
    "durationPerVisit" : 0,
    "priority" : 2,
    "jobType" : "DROP",
    "constraints" : {
      "demand" : {
        "values" : [ 0.0, 0.0, 0.0, 0.0 ]
      },
      "pickupTimeWindows" : [ {
        "startTime" : 1373328060000,
        "endTime" : 1373414340000
      } ],
      "timeWindowConstraints" : {
        "serviceTimeWindows" : [ {
          "startTime" : 1373331600000,
          "endTime" : 1373356800000
        } ],
        "timeWindowPolicy" : "COMPLETE_ORDER_WITHIN_TIME_WINDOW"
      },
      "attributes" : [ "AoC137" ],
      "incompatibleAttributes" : [ ],
      "stopSequence" : 1
    }
  }, {
    "id" : 151615,
    "metadata" : {
      "name" : "mID151615"
    },
    "depot" : 0,
    "location" : {
      "latitude" : 51444653,
      "longitude" : -166825,
      "metadata" : { }
    },
    "pickupDuration" : 0,
    "serviceDuration" : 360000,
    "unloadDuration" : 0,
    "durationPerVisit" : 0,
    "priority" : 2,
    "jobType" : "DROP",
    "constraints" : {
      "demand" : {
        "values" : [ 0.0, 0.0, 0.0, 0.0 ]
      },
      "pickupTimeWindows" : [ {
        "startTime" : 1373328060000,
        "endTime" : 1373414340000
      } ],
      "timeWindowConstraints" : {
        "serviceTimeWindows" : [ {
          "startTime" : 1373331600000,
          "endTime" : 1373356800000
        } ],
        "timeWindowPolicy" : "COMPLETE_ORDER_WITHIN_TIME_WINDOW"
      },
      "attributes" : [ "AoC137" ],
      "incompatibleAttributes" : [ ],
      "stopSequence" : 1
    }
  }, {
    "id" : 151616,
    "metadata" : {
      "name" : "mID151616"
    },
    "depot" : 0,
    "location" : {
      "latitude" : 51518772,
      "longitude" : -482914,
      "metadata" : { }
    },
    "pickupDuration" : 0,
    "serviceDuration" : 360000,
    "unloadDuration" : 0,
    "durationPerVisit" : 0,
    "priority" : 2,
    "jobType" : "DROP",
    "constraints" : {
      "demand" : {
        "values" : [ 0.0, 0.0, 0.0, 0.0 ]
      },
      "pickupTimeWindows" : [ {
        "startTime" : 1373328060000,
        "endTime" : 1373414340000
      } ],
      "timeWindowConstraints" : {
        "serviceTimeWindows" : [ {
          "startTime" : 1373331600000,
          "endTime" : 1373356800000
        } ],
        "timeWindowPolicy" : "COMPLETE_ORDER_WITHIN_TIME_WINDOW"
      },
      "attributes" : [ "AoC137" ],
      "incompatibleAttributes" : [ ],
      "stopSequence" : 1
    }
  }, {
    "id" : 151617,
    "metadata" : {
      "name" : "mID151617"
    },
    "depot" : 0,
    "location" : {
      "latitude" : 51439572,
      "longitude" : -389626,
      "metadata" : { }
    },
    "pickupDuration" : 0,
    "serviceDuration" : 360000,
    "unloadDuration" : 0,
    "durationPerVisit" : 0,
    "priority" : 2,
    "jobType" : "DROP",
    "constraints" : {
      "demand" : {
        "values" : [ 0.0, 0.0, 0.0, 0.0 ]
      },
      "pickupTimeWindows" : [ {
        "startTime" : 1373328060000,
        "endTime" : 1373414340000
      } ],
      "timeWindowConstraints" : {
        "serviceTimeWindows" : [ {
          "startTime" : 1373331600000,
          "endTime" : 1373356800000
        } ],
        "timeWindowPolicy" : "COMPLETE_ORDER_WITHIN_TIME_WINDOW"
      },
      "attributes" : [ "AoC137" ],
      "incompatibleAttributes" : [ ],
      "stopSequence" : 1
    }
  }, {
    "id" : 151618,
    "metadata" : {
      "name" : "mID151618"
    },
    "depot" : 0,
    "location" : {
      "latitude" : 51537632,
      "longitude" : -905893,
      "metadata" : { }
    },
    "pickupDuration" : 0,
    "serviceDuration" : 360000,
    "unloadDuration" : 0,
    "durationPerVisit" : 0,
    "priority" : 2,
    "jobType" : "DROP",
    "constraints" : {
      "demand" : {
        "values" : [ 0.0, 0.0, 0.0, 0.0 ]
      },
      "pickupTimeWindows" : [ {
        "startTime" : 1373328060000,
        "endTime" : 1373414340000
      } ],
      "timeWindowConstraints" : {
        "serviceTimeWindows" : [ {
          "startTime" : 1373331600000,
          "endTime" : 1373356800000
        } ],
        "timeWindowPolicy" : "COMPLETE_ORDER_WITHIN_TIME_WINDOW"
      },
      "attributes" : [ "AoC137" ],
      "incompatibleAttributes" : [ ],
      "stopSequence" : 1
    }
  }, {
    "id" : 151619,
    "metadata" : {
      "name" : "mID151619"
    },
    "depot" : 0,
    "location" : {
      "latitude" : 51483685,
      "longitude" : -1087048,
      "metadata" : { }
    },
    "pickupDuration" : 0,
    "serviceDuration" : 360000,
    "unloadDuration" : 0,
    "durationPerVisit" : 0,
    "priority" : 2,
    "jobType" : "DROP",
    "constraints" : {
      "demand" : {
        "values" : [ 0.0, 0.0, 0.0, 0.0 ]
      },
      "pickupTimeWindows" : [ {
        "startTime" : 1373328060000,
        "endTime" : 1373414340000
      } ],
      "timeWindowConstraints" : {
        "serviceTimeWindows" : [ {
          "startTime" : 1373331600000,
          "endTime" : 1373356800000
        } ],
        "timeWindowPolicy" : "COMPLETE_ORDER_WITHIN_TIME_WINDOW"
      },
      "attributes" : [ "AoC137" ],
      "incompatibleAttributes" : [ ],
      "stopSequence" : 1
    }
  }, {
    "id" : 151620,
    "metadata" : {
      "name" : "mID151620"
    },
    "depot" : 0,
    "location" : {
      "latitude" : 51391882,
      "longitude" : -632949,
      "metadata" : { }
    },
    "pickupDuration" : 0,
    "serviceDuration" : 360000,
    "unloadDuration" : 0,
    "durationPerVisit" : 0,
    "priority" : 2,
    "jobType" : "DROP",
    "constraints" : {
      "demand" : {
        "values" : [ 0.0, 0.0, 0.0, 0.0 ]
      },
      "pickupTimeWindows" : [ {
        "startTime" : 1373328060000,
        "endTime" : 1373414340000
      } ],
      "timeWindowConstraints" : {
        "serviceTimeWindows" : [ {
          "startTime" : 1373331600000,
          "endTime" : 1373356800000
        } ],
        "timeWindowPolicy" : "COMPLETE_ORDER_WITHIN_TIME_WINDOW"
      },
      "attributes" : [ "AoC137" ],
      "incompatibleAttributes" : [ ],
      "stopSequence" : 1
    }
  }, {
    "id" : 151621,
    "metadata" : {
      "name" : "mID151621"
    },
    "depot" : 0,
    "location" : {
      "latitude" : 51368643,
      "longitude" : -445945,
      "metadata" : { }
    },
    "pickupDuration" : 0,
    "serviceDuration" : 360000,
    "unloadDuration" : 0,
    "durationPerVisit" : 0,
    "priority" : 2,
    "jobType" : "DROP",
    "constraints" : {
      "demand" : {
        "values" : [ 0.0, 0.0, 0.0, 0.0 ]
      },
      "pickupTimeWindows" : [ {
        "startTime" : 1373328060000,
        "endTime" : 1373414340000
      } ],
      "timeWindowConstraints" : {
        "serviceTimeWindows" : [ {
          "startTime" : 1373331600000,
          "endTime" : 1373356800000
        } ],
        "timeWindowPolicy" : "COMPLETE_ORDER_WITHIN_TIME_WINDOW"
      },
      "attributes" : [ "AoC137" ],
      "incompatibleAttributes" : [ ],
      "stopSequence" : 1
    }
  }, {
    "id" : 151622,
    "metadata" : {
      "name" : "mID151622"
    },
    "depot" : 0,
    "location" : {
      "latitude" : 51480867,
      "longitude" : -612043,
      "metadata" : { }
    },
    "pickupDuration" : 0,
    "serviceDuration" : 360000,
    "unloadDuration" : 0,
    "durationPerVisit" : 0,
    "priority" : 2,
    "jobType" : "DROP",
    "constraints" : {
      "demand" : {
        "values" : [ 0.0, 0.0, 0.0, 0.0 ]
      },
      "pickupTimeWindows" : [ {
        "startTime" : 1373328060000,
        "endTime" : 1373414340000
      } ],
      "timeWindowConstraints" : {
        "serviceTimeWindows" : [ {
          "startTime" : 1373331600000,
          "endTime" : 1373356800000
        } ],
        "timeWindowPolicy" : "COMPLETE_ORDER_WITHIN_TIME_WINDOW"
      },
      "attributes" : [ "AoC137" ],
      "incompatibleAttributes" : [ ],
      "stopSequence" : 1
    }
  }, {
    "id" : 151623,
    "metadata" : {
      "name" : "mID151623"
    },
    "depot" : 0,
    "location" : {
      "latitude" : 51421154,
      "longitude" : -735629,
      "metadata" : { }
    },
    "pickupDuration" : 0,
    "serviceDuration" : 360000,
    "unloadDuration" : 0,
    "durationPerVisit" : 0,
    "priority" : 2,
    "jobType" : "DROP",
    "constraints" : {
      "demand" : {
        "values" : [ 0.0, 0.0, 0.0, 0.0 ]
      },
      "pickupTimeWindows" : [ {
        "startTime" : 1373328060000,
        "endTime" : 1373414340000
      } ],
      "timeWindowConstraints" : {
        "serviceTimeWindows" : [ {
          "startTime" : 1373331600000,
          "endTime" : 1373356800000
        } ],
        "timeWindowPolicy" : "COMPLETE_ORDER_WITHIN_TIME_WINDOW"
      },
      "attributes" : [ "AoC137" ],
      "incompatibleAttributes" : [ ],
      "stopSequence" : 1
    }
  }, {
    "id" : 151624,
    "metadata" : {
      "name" : "mID151624"
    },
    "depot" : 0,
    "location" : {
      "latitude" : 51764351,
      "longitude" : -1261070,
      "metadata" : { }
    },
    "pickupDuration" : 0,
    "serviceDuration" : 360000,
    "unloadDuration" : 0,
    "durationPerVisit" : 0,
    "priority" : 2,
    "jobType" : "DROP",
    "constraints" : {
      "demand" : {
        "values" : [ 0.0, 0.0, 0.0, 0.0 ]
      },
      "pickupTimeWindows" : [ {
        "startTime" : 1373328060000,
        "endTime" : 1373414340000
      } ],
      "timeWindowConstraints" : {
        "serviceTimeWindows" : [ {
          "startTime" : 1373331600000,
          "endTime" : 1373356800000
        } ],
        "timeWindowPolicy" : "COMPLETE_ORDER_WITHIN_TIME_WINDOW"
      },
      "attributes" : [ "AoC137" ],
      "incompatibleAttributes" : [ ],
      "stopSequence" : 1
    }
  }, {
    "id" : 151625,
    "metadata" : {
      "name" : "mID151625"
    },
    "depot" : 0,
    "location" : {
      "latitude" : 51537883,
      "longitude" : -737329,
      "metadata" : { }
    },
    "pickupDuration" : 0,
    "serviceDuration" : 360000,
    "unloadDuration" : 0,
    "durationPerVisit" : 0,
    "priority" : 2,
    "jobType" : "DROP",
    "constraints" : {
      "demand" : {
        "values" : [ 0.0, 0.0, 0.0, 0.0 ]
      },
      "pickupTimeWindows" : [ {
        "startTime" : 1373328060000,
        "endTime" : 1373414340000
      } ],
      "timeWindowConstraints" : {
        "serviceTimeWindows" : [ {
          "startTime" : 1373331600000,
          "endTime" : 1373356800000
        } ],
        "timeWindowPolicy" : "COMPLETE_ORDER_WITHIN_TIME_WINDOW"
      },
      "attributes" : [ "AoC137" ],
      "incompatibleAttributes" : [ ],
      "stopSequence" : 1
    }
  }, {
    "id" : 151626,
    "metadata" : {
      "name" : "mID151626"
    },
    "depot" : 0,
    "location" : {
      "latitude" : 51478312,
      "longitude" : -1075147,
      "metadata" : { }
    },
    "pickupDuration" : 0,
    "serviceDuration" : 360000,
    "unloadDuration" : 0,
    "durationPerVisit" : 0,
    "priority" : 2,
    "jobType" : "DROP",
    "constraints" : {
      "demand" : {
        "values" : [ 0.0, 0.0, 0.0, 0.0 ]
      },
      "pickupTimeWindows" : [ {
        "startTime" : 1373328060000,
        "endTime" : 1373414340000
      } ],
      "timeWindowConstraints" : {
        "serviceTimeWindows" : [ {
          "startTime" : 1373331600000,
          "endTime" : 1373356800000
        } ],
        "timeWindowPolicy" : "COMPLETE_ORDER_WITHIN_TIME_WINDOW"
      },
      "attributes" : [ "AoC137" ],
      "incompatibleAttributes" : [ ],
      "stopSequence" : 1
    }
  }, {
    "id" : 151627,
    "metadata" : {
      "name" : "mID151627"
    },
    "depot" : 0,
    "location" : {
      "latitude" : 51515897,
      "longitude" : -174311,
      "metadata" : { }
    },
    "pickupDuration" : 0,
    "serviceDuration" : 360000,
    "unloadDuration" : 0,
    "durationPerVisit" : 0,
    "priority" : 2,
    "jobType" : "DROP",
    "constraints" : {
      "demand" : {
        "values" : [ 0.0, 0.0, 0.0, 0.0 ]
      },
      "pickupTimeWindows" : [ {
        "startTime" : 1373328060000,
        "endTime" : 1373414340000
      } ],
      "timeWindowConstraints" : {
        "serviceTimeWindows" : [ {
          "startTime" : 1373331600000,
          "endTime" : 1373356800000
        } ],
        "timeWindowPolicy" : "COMPLETE_ORDER_WITHIN_TIME_WINDOW"
      },
      "attributes" : [ "AoC137" ],
      "incompatibleAttributes" : [ ],
      "stopSequence" : 1
    }
  } ],
  "schedules" : [ {
    "timeWindow" : {
      "startTime" : 1373328060000,
      "endTime" : 1373349600000
    },
    "runs" : [ ],
    "breaks" : [ ],
    "constraints" : { },
    "resource" : {
      "metadata" : {
        "name" : "OV61XBS"
      },
      "id" : 1836,
      "depot" : 0,
      "hourCost" : 12.5,
      "kmCost" : 0.24860162,
      "routingProfile" : {
        "vehicleType" : "Default",
        "drivingTimeCorrectionFactor" : 1.1,
        "maxSpeed" : 64.36
      },
      "constraints" : {
        "runDistanceLimit" : "Infinity",
        "runWorkingTimeLimit" : 9223372036854775807,
        "scheduleWorkingTimeLimit" : 9223372036854775807,
        "scheduleDrivingTimeLimit" : 21600000,
        "addonCollectionDropDuration" : 0,
        "addonPickupDuration" : 2700000,
        "capacity" : {
          "values" : [ 28.0, 0.0, 0.0, 0.0 ]
        },
        "attributes" : [ "cargo=0.0=0.0=0.0=0.0", "AoC137", "Neil" ],
        "homeLocations" : {
          "startLocation" : {
            "latitude" : 51466180,
            "longitude" : -500106,
            "metadata" : { }
          },
          "endLocation" : {
            "latitude" : 51466180,
            "longitude" : -500106,
            "metadata" : { }
          }
        },
        "fixedStartTime" : -1
      }
    }
  }, {
    "timeWindow" : {
      "startTime" : 1373328060000,
      "endTime" : 1373349600000
    },
    "runs" : [ ],
    "breaks" : [ ],
    "constraints" : { },
    "resource" : {
      "metadata" : {
        "name" : "FV10HDD"
      },
      "id" : 1832,
      "depot" : 0,
      "hourCost" : 12.5,
      "kmCost" : 0.24860162,
      "routingProfile" : {
        "vehicleType" : "Default",
        "drivingTimeCorrectionFactor" : 1.1,
        "maxSpeed" : 64.36
      },
      "constraints" : {
        "runDistanceLimit" : "Infinity",
        "runWorkingTimeLimit" : 9223372036854775807,
        "scheduleWorkingTimeLimit" : 9223372036854775807,
        "scheduleDrivingTimeLimit" : 21600000,
        "addonCollectionDropDuration" : 0,
        "addonPickupDuration" : 2700000,
        "capacity" : {
          "values" : [ 14.0, 0.0, 0.0, 0.0 ]
        },
        "attributes" : [ "cargo=0.0=0.0=0.0=0.0", "AoC137", "Ivars" ],
        "homeLocations" : {
          "startLocation" : {
            "latitude" : 51466180,
            "longitude" : -500106,
            "metadata" : { }
          },
          "endLocation" : {
            "latitude" : 51466180,
            "longitude" : -500106,
            "metadata" : { }
          }
        },
        "fixedStartTime" : -1
      }
    }
  }, {
    "timeWindow" : {
      "startTime" : 1373328060000,
      "endTime" : 1373349600000
    },
    "runs" : [ ],
    "breaks" : [ ],
    "constraints" : { },
    "resource" : {
      "metadata" : {
        "name" : "OU07 MDK"
      },
      "id" : 1834,
      "depot" : 0,
      "hourCost" : 12.5,
      "kmCost" : 0.24860162,
      "routingProfile" : {
        "vehicleType" : "Default",
        "drivingTimeCorrectionFactor" : 1.1,
        "maxSpeed" : 64.36
      },
      "constraints" : {
        "runDistanceLimit" : "Infinity",
        "runWorkingTimeLimit" : 9223372036854775807,
        "scheduleWorkingTimeLimit" : 9223372036854775807,
        "scheduleDrivingTimeLimit" : 21600000,
        "addonCollectionDropDuration" : 0,
        "addonPickupDuration" : 2700000,
        "capacity" : {
          "values" : [ 28.0, 0.0, 0.0, 0.0 ]
        },
        "attributes" : [ "cargo=0.0=0.0=0.0=0.0", "AoC137", "Adi" ],
        "homeLocations" : {
          "startLocation" : {
            "latitude" : 51466180,
            "longitude" : -500106,
            "metadata" : { }
          },
          "endLocation" : {
            "latitude" : 51466180,
            "longitude" : -500106,
            "metadata" : { }
          }
        },
        "fixedStartTime" : -1
      }
    }
  }, {
    "timeWindow" : {
      "startTime" : 1373328060000,
      "endTime" : 1373349600000
    },
    "runs" : [ ],
    "breaks" : [ ],
    "constraints" : { },
    "resource" : {
      "metadata" : {
        "name" : "BJ61UPX"
      },
      "id" : 1828,
      "depot" : 0,
      "hourCost" : 12.5,
      "kmCost" : 0.24860162,
      "routingProfile" : {
        "vehicleType" : "Default",
        "drivingTimeCorrectionFactor" : 1.1,
        "maxSpeed" : 64.36
      },
      "constraints" : {
        "runDistanceLimit" : "Infinity",
        "runWorkingTimeLimit" : 9223372036854775807,
        "scheduleWorkingTimeLimit" : 9223372036854775807,
        "scheduleDrivingTimeLimit" : 21600000,
        "addonCollectionDropDuration" : 0,
        "addonPickupDuration" : 2700000,
        "capacity" : {
          "values" : [ 28.0, 0.0, 0.0, 0.0 ]
        },
        "attributes" : [ "cargo=0.0=0.0=0.0=0.0", "Zoran", "AoC137" ],
        "homeLocations" : {
          "startLocation" : {
            "latitude" : 51466180,
            "longitude" : -500106,
            "metadata" : { }
          },
          "endLocation" : {
            "latitude" : 51466180,
            "longitude" : -500106,
            "metadata" : { }
          }
        },
        "fixedStartTime" : -1
      }
    }
  }, {
    "timeWindow" : {
      "startTime" : 1373328060000,
      "endTime" : 1373349600000
    },
    "runs" : [ ],
    "breaks" : [ ],
    "constraints" : { },
    "resource" : {
      "metadata" : {
        "name" : "BJ61UPY"
      },
      "id" : 1830,
      "depot" : 0,
      "hourCost" : 12.5,
      "kmCost" : 0.24860162,
      "routingProfile" : {
        "vehicleType" : "Default",
        "drivingTimeCorrectionFactor" : 1.1,
        "maxSpeed" : 64.36
      },
      "constraints" : {
        "runDistanceLimit" : "Infinity",
        "runWorkingTimeLimit" : 9223372036854775807,
        "scheduleWorkingTimeLimit" : 9223372036854775807,
        "scheduleDrivingTimeLimit" : 21600000,
        "addonCollectionDropDuration" : 0,
        "addonPickupDuration" : 2700000,
        "capacity" : {
          "values" : [ 28.0, 0.0, 0.0, 0.0 ]
        },
        "attributes" : [ "cargo=0.0=0.0=0.0=0.0", "AoC137", "Ed" ],
        "homeLocations" : {
          "startLocation" : {
            "latitude" : 51466180,
            "longitude" : -500106,
            "metadata" : { }
          },
          "endLocation" : {
            "latitude" : 51466180,
            "longitude" : -500106,
            "metadata" : { }
          }
        },
        "fixedStartTime" : -1
      }
    }
  }, {
    "timeWindow" : {
      "startTime" : 1373328060000,
      "endTime" : 1373349600000
    },
    "runs" : [ ],
    "breaks" : [ ],
    "constraints" : { },
    "resource" : {
      "metadata" : {
        "name" : "WJ620FV"
      },
      "id" : 1840,
      "depot" : 0,
      "hourCost" : 12.5,
      "kmCost" : 0.24860162,
      "routingProfile" : {
        "vehicleType" : "Default",
        "drivingTimeCorrectionFactor" : 1.1,
        "maxSpeed" : 64.36
      },
      "constraints" : {
        "runDistanceLimit" : "Infinity",
        "runWorkingTimeLimit" : 9223372036854775807,
        "scheduleWorkingTimeLimit" : 9223372036854775807,
        "scheduleDrivingTimeLimit" : 21600000,
        "addonCollectionDropDuration" : 0,
        "addonPickupDuration" : 2700000,
        "capacity" : {
          "values" : [ 28.0, 0.0, 0.0, 0.0 ]
        },
        "attributes" : [ "cargo=0.0=0.0=0.0=0.0", "AoC137", "Dirk" ],
        "homeLocations" : {
          "startLocation" : {
            "latitude" : 51466180,
            "longitude" : -500106,
            "metadata" : { }
          },
          "endLocation" : {
            "latitude" : 51466180,
            "longitude" : -500106,
            "metadata" : { }
          }
        },
        "fixedStartTime" : -1
      }
    }
  }, {
    "timeWindow" : {
      "startTime" : 1373328060000,
      "endTime" : 1373349600000
    },
    "runs" : [ ],
    "breaks" : [ ],
    "constraints" : { },
    "resource" : {
      "metadata" : {
        "name" : "WL60DKE"
      },
      "id" : 1842,
      "depot" : 0,
      "hourCost" : 12.5,
      "kmCost" : 0.24860162,
      "routingProfile" : {
        "vehicleType" : "Default",
        "drivingTimeCorrectionFactor" : 1.1,
        "maxSpeed" : 64.36
      },
      "constraints" : {
        "runDistanceLimit" : "Infinity",
        "runWorkingTimeLimit" : 9223372036854775807,
        "scheduleWorkingTimeLimit" : 9223372036854775807,
        "scheduleDrivingTimeLimit" : 21600000,
        "addonCollectionDropDuration" : 0,
        "addonPickupDuration" : 2700000,
        "capacity" : {
          "values" : [ 14.0, 0.0, 0.0, 0.0 ]
        },
        "attributes" : [ "cargo=0.0=0.0=0.0=0.0", "AoC137", "Baker" ],
        "homeLocations" : {
          "startLocation" : {
            "latitude" : 51466180,
            "longitude" : -500106,
            "metadata" : { }
          },
          "endLocation" : {
            "latitude" : 51466180,
            "longitude" : -500106,
            "metadata" : { }
          }
        },
        "fixedStartTime" : -1
      }
    }
  } ],
  "depots" : [ {
    "id" : 0,
    "location" : {
      "latitude" : 51466180,
      "longitude" : -500106,
      "metadata" : { }
    },
    "constraints" : {
      "allowCollectionsWhileDrivingHome" : false,
      "allowDeliveriesWhileDrivingFromHome" : false,
      "availabilityWindows" : [ {
        "startTime" : 0,
        "endTime" : 57657355200332
      } ]
    }
  } ],
  "constraints" : {
    "allowMultipleRunsPerSchedule" : true,
    "consolidateSameSiteJobs" : "NONE"
  }
}