{
  "jobs" : [ {
    "id" : 165857,
    "metadata" : {
      "name" : "mID165857"
    },
    "depot" : 0,
    "location" : {
      "latitude" : 52459994,
      "longitude" : -1828406,
      "metadata" : { }
    },
    "pickupDuration" : 0,
    "serviceDuration" : 2040000,
    "unloadDuration" : 0,
    "durationPerVisit" : 0,
    "priority" : 2,
    "jobType" : "DROP",
    "constraints" : {
      "demand" : {
        "values" : [ 2.0, 0.0, 0.0, 0.0 ]
      },
      "pickupTimeWindows" : [ {
        "startTime" : 1374022860000,
        "endTime" : 1374105540000
      } ],
      "timeWindowConstraints" : {
        "serviceTimeWindows" : [ {
          "startTime" : 1374033600000,
          "endTime" : 1374076800000
        } ],
        "timeWindowPolicy" : "COMPLETE_ORDER_WITHIN_TIME_WINDOW"
      },
      "attributes" : [ "AoC136" ],
      "incompatibleAttributes" : [ ],
      "stopSequence" : 1
    }
  }, {
    "id" : 165858,
    "metadata" : {
      "name" : "mID165858"
    },
    "depot" : 0,
    "location" : {
      "latitude" : 51588385,
      "longitude" : -3053680,
      "metadata" : { }
    },
    "pickupDuration" : 0,
    "serviceDuration" : 1920000,
    "unloadDuration" : 0,
    "durationPerVisit" : 0,
    "priority" : 2,
    "jobType" : "DROP",
    "constraints" : {
      "demand" : {
        "values" : [ 1.0, 0.0, 0.0, 0.0 ]
      },
      "pickupTimeWindows" : [ {
        "startTime" : 1374022860000,
        "endTime" : 1374105540000
      } ],
      "timeWindowConstraints" : {
        "serviceTimeWindows" : [ {
          "startTime" : 1374033600000,
          "endTime" : 1374076800000
        } ],
        "timeWindowPolicy" : "COMPLETE_ORDER_WITHIN_TIME_WINDOW"
      },
      "attributes" : [ "AoC136" ],
      "incompatibleAttributes" : [ ],
      "stopSequence" : 1
    }
  }, {
    "id" : 165859,
    "metadata" : {
      "name" : "mID165859"
    },
    "depot" : 0,
    "location" : {
      "latitude" : 52506284,
      "longitude" : 560165,
      "metadata" : { }
    },
    "pickupDuration" : 0,
    "serviceDuration" : 2880000,
    "unloadDuration" : 0,
    "durationPerVisit" : 0,
    "priority" : 2,
    "jobType" : "DROP",
    "constraints" : {
      "demand" : {
        "values" : [ 9.0, 0.0, 0.0, 0.0 ]
      },
      "pickupTimeWindows" : [ {
        "startTime" : 1374022860000,
        "endTime" : 1374105540000
      } ],
      "timeWindowConstraints" : {
        "serviceTimeWindows" : [ {
          "startTime" : 1374033600000,
          "endTime" : 1374076800000
        } ],
        "timeWindowPolicy" : "COMPLETE_ORDER_WITHIN_TIME_WINDOW"
      },
      "attributes" : [ "AoC136" ],
      "incompatibleAttributes" : [ ],
      "stopSequence" : 1
    }
  }, {
    "id" : 165860,
    "metadata" : {
      "name" : "mID165860"
    },
    "depot" : 0,
    "location" : {
      "latitude" : 52506284,
      "longitude" : 560165,
      "metadata" : { }
    },
    "pickupDuration" : 0,
    "serviceDuration" : 360000,
    "unloadDuration" : 0,
    "durationPerVisit" : 0,
    "priority" : 2,
    "jobType" : "DROP",
    "constraints" : {
      "demand" : {
        "values" : [ 3.0, 0.0, 0.0, 0.0 ]
      },
      "pickupTimeWindows" : [ {
        "startTime" : 1374022860000,
        "endTime" : 1374105540000
      } ],
      "timeWindowConstraints" : {
        "serviceTimeWindows" : [ {
          "startTime" : 1374033600000,
          "endTime" : 1374076800000
        } ],
        "timeWindowPolicy" : "COMPLETE_ORDER_WITHIN_TIME_WINDOW"
      },
      "attributes" : [ "AoC136" ],
      "incompatibleAttributes" : [ ],
      "stopSequence" : 1
    }
  }, {
    "id" : 165861,
    "metadata" : {
      "name" : "mID165861"
    },
    "depot" : 0,
    "location" : {
      "latitude" : 53734954,
      "longitude" : -358068,
      "metadata" : { }
    },
    "pickupDuration" : 0,
    "serviceDuration" : 2280000,
    "unloadDuration" : 0,
    "durationPerVisit" : 0,
    "priority" : 2,
    "jobType" : "DROP",
    "constraints" : {
      "demand" : {
        "values" : [ 4.0, 0.0, 0.0, 0.0 ]
      },
      "pickupTimeWindows" : [ {
        "startTime" : 1374022860000,
        "endTime" : 1374105540000
      } ],
      "timeWindowConstraints" : {
        "serviceTimeWindows" : [ {
          "startTime" : 1374033600000,
          "endTime" : 1374076800000
        } ],
        "timeWindowPolicy" : "COMPLETE_ORDER_WITHIN_TIME_WINDOW"
      },
      "attributes" : [ "AoC136" ],
      "incompatibleAttributes" : [ ],
      "stopSequence" : 1
    }
  }, {
    "id" : 165862,
    "metadata" : {
      "name" : "mID165862"
    },
    "depot" : 0,
    "location" : {
      "latitude" : 53044666,
      "longitude" : -2929746,
      "metadata" : { }
    },
    "pickupDuration" : 0,
    "serviceDuration" : 3600000,
    "unloadDuration" : 0,
    "durationPerVisit" : 0,
    "priority" : 2,
    "jobType" : "DROP",
    "constraints" : {
      "demand" : {
        "values" : [ 15.0, 0.0, 0.0, 0.0 ]
      },
      "pickupTimeWindows" : [ {
        "startTime" : 1374022860000,
        "endTime" : 1374105540000
      } ],
      "timeWindowConstraints" : {
        "serviceTimeWindows" : [ {
          "startTime" : 1374033600000,
          "endTime" : 1374076800000
        } ],
        "timeWindowPolicy" : "COMPLETE_ORDER_WITHIN_TIME_WINDOW"
      },
      "attributes" : [ "AoC136" ],
      "incompatibleAttributes" : [ ],
      "stopSequence" : 1
    }
  }, {
    "id" : 165863,
    "metadata" : {
      "name" : "mID165863"
    },
    "depot" : 0,
    "location" : {
      "latitude" : 53793426,
      "longitude" : -330165,
      "metadata" : { }
    },
    "pickupDuration" : 0,
    "serviceDuration" : 1920000,
    "unloadDuration" : 0,
    "durationPerVisit" : 0,
    "priority" : 2,
    "jobType" : "DROP",
    "constraints" : {
      "demand" : {
        "values" : [ 1.0, 0.0, 0.0, 0.0 ]
      },
      "pickupTimeWindows" : [ {
        "startTime" : 1374022860000,
        "endTime" : 1374105540000
      } ],
      "timeWindowConstraints" : {
        "serviceTimeWindows" : [ {
          "startTime" : 1374033600000,
          "endTime" : 1374076800000
        } ],
        "timeWindowPolicy" : "COMPLETE_ORDER_WITHIN_TIME_WINDOW"
      },
      "attributes" : [ "AoC136" ],
      "incompatibleAttributes" : [ ],
      "stopSequence" : 1
    }
  }, {
    "id" : 165864,
    "metadata" : {
      "name" : "mID165864"
    },
    "depot" : 0,
    "location" : {
      "latitude" : 53793426,
      "longitude" : -330165,
      "metadata" : { }
    },
    "pickupDuration" : 0,
    "serviceDuration" : 120000,
    "unloadDuration" : 0,
    "durationPerVisit" : 0,
    "priority" : 2,
    "jobType" : "DROP",
    "constraints" : {
      "demand" : {
        "values" : [ 1.0, 0.0, 0.0, 0.0 ]
      },
      "pickupTimeWindows" : [ {
        "startTime" : 1374022860000,
        "endTime" : 1374105540000
      } ],
      "timeWindowConstraints" : {
        "serviceTimeWindows" : [ {
          "startTime" : 1374033600000,
          "endTime" : 1374076800000
        } ],
        "timeWindowPolicy" : "COMPLETE_ORDER_WITHIN_TIME_WINDOW"
      },
      "attributes" : [ "AoC136" ],
      "incompatibleAttributes" : [ ],
      "stopSequence" : 1
    }
  }, {
    "id" : 165865,
    "metadata" : {
      "name" : "mID165865"
    },
    "depot" : 0,
    "location" : {
      "latitude" : 53726701,
      "longitude" : -2336867,
      "metadata" : { }
    },
    "pickupDuration" : 0,
    "serviceDuration" : 1920000,
    "unloadDuration" : 0,
    "durationPerVisit" : 0,
    "priority" : 2,
    "jobType" : "DROP",
    "constraints" : {
      "demand" : {
        "values" : [ 1.0, 0.0, 0.0, 0.0 ]
      },
      "pickupTimeWindows" : [ {
        "startTime" : 1374022860000,
        "endTime" : 1374105540000
      } ],
      "timeWindowConstraints" : {
        "serviceTimeWindows" : [ {
          "startTime" : 1374033600000,
          "endTime" : 1374076800000
        } ],
        "timeWindowPolicy" : "COMPLETE_ORDER_WITHIN_TIME_WINDOW"
      },
      "attributes" : [ "AoC136" ],
      "incompatibleAttributes" : [ ],
      "stopSequence" : 1
    }
  }, {
    "id" : 165866,
    "metadata" : {
      "name" : "mID165866"
    },
    "depot" : 0,
    "location" : {
      "latitude" : 52153839,
      "longitude" : -413704,
      "metadata" : { }
    },
    "pickupDuration" : 0,
    "serviceDuration" : 1920000,
    "unloadDuration" : 0,
    "durationPerVisit" : 0,
    "priority" : 2,
    "jobType" : "DROP",
    "constraints" : {
      "demand" : {
        "values" : [ 1.0, 0.0, 0.0, 0.0 ]
      },
      "pickupTimeWindows" : [ {
        "startTime" : 1374022860000,
        "endTime" : 1374105540000
      } ],
      "timeWindowConstraints" : {
        "serviceTimeWindows" : [ {
          "startTime" : 1374039000000,
          "endTime" : 1374042600000
        } ],
        "timeWindowPolicy" : "COMPLETE_ORDER_WITHIN_TIME_WINDOW"
      },
      "attributes" : [ "AoC136" ],
      "incompatibleAttributes" : [ ],
      "stopSequence" : 1
    }
  }, {
    "id" : 165867,
    "metadata" : {
      "name" : "mID165867"
    },
    "depot" : 0,
    "location" : {
      "latitude" : 52153839,
      "longitude" : -413704,
      "metadata" : { }
    },
    "pickupDuration" : 0,
    "serviceDuration" : 600000,
    "unloadDuration" : 0,
    "durationPerVisit" : 0,
    "priority" : 2,
    "jobType" : "DROP",
    "constraints" : {
      "demand" : {
        "values" : [ 5.0, 0.0, 0.0, 0.0 ]
      },
      "pickupTimeWindows" : [ {
        "startTime" : 1374022860000,
        "endTime" : 1374105540000
      } ],
      "timeWindowConstraints" : {
        "serviceTimeWindows" : [ {
          "startTime" : 1374039000000,
          "endTime" : 1374042600000
        } ],
        "timeWindowPolicy" : "COMPLETE_ORDER_WITHIN_TIME_WINDOW"
      },
      "attributes" : [ "AoC136" ],
      "incompatibleAttributes" : [ ],
      "stopSequence" : 1
    }
  }, {
    "id" : 165868,
    "metadata" : {
      "name" : "mID165868"
    },
    "depot" : 0,
    "location" : {
      "latitude" : 52629691,
      "longitude" : -1211608,
      "metadata" : { }
    },
    "pickupDuration" : 0,
    "serviceDuration" : 2040000,
    "unloadDuration" : 0,
    "durationPerVisit" : 0,
    "priority" : 2,
    "jobType" : "DROP",
    "constraints" : {
      "demand" : {
        "values" : [ 2.0, 0.0, 0.0, 0.0 ]
      },
      "pickupTimeWindows" : [ {
        "startTime" : 1374022860000,
        "endTime" : 1374105540000
      } ],
      "timeWindowConstraints" : {
        "serviceTimeWindows" : [ {
          "startTime" : 1374040800000,
          "endTime" : 1374044400000
        } ],
        "timeWindowPolicy" : "COMPLETE_ORDER_WITHIN_TIME_WINDOW"
      },
      "attributes" : [ "AoC136" ],
      "incompatibleAttributes" : [ ],
      "stopSequence" : 1
    }
  }, {
    "id" : 165869,
    "metadata" : {
      "name" : "mID165869"
    },
    "depot" : 0,
    "location" : {
      "latitude" : 52352065,
      "longitude" : -1179322,
      "metadata" : { }
    },
    "pickupDuration" : 0,
    "serviceDuration" : 3840000,
    "unloadDuration" : 0,
    "durationPerVisit" : 0,
    "priority" : 2,
    "jobType" : "DROP",
    "constraints" : {
      "demand" : {
        "values" : [ 17.0, 0.0, 0.0, 0.0 ]
      },
      "pickupTimeWindows" : [ {
        "startTime" : 1374022860000,
        "endTime" : 1374105540000
      } ],
      "timeWindowConstraints" : {
        "serviceTimeWindows" : [ {
          "startTime" : 1374042300000,
          "endTime" : 1374046200000
        } ],
        "timeWindowPolicy" : "COMPLETE_ORDER_WITHIN_TIME_WINDOW"
      },
      "attributes" : [ "AoC136" ],
      "incompatibleAttributes" : [ ],
      "stopSequence" : 1
    }
  }, {
    "id" : 165870,
    "metadata" : {
      "name" : "mID165870"
    },
    "depot" : 0,
    "location" : {
      "latitude" : 51366062,
      "longitude" : -1972507,
      "metadata" : { }
    },
    "pickupDuration" : 0,
    "serviceDuration" : 2160000,
    "unloadDuration" : 0,
    "durationPerVisit" : 0,
    "priority" : 2,
    "jobType" : "DROP",
    "constraints" : {
      "demand" : {
        "values" : [ 3.0, 0.0, 0.0, 0.0 ]
      },
      "pickupTimeWindows" : [ {
        "startTime" : 1374022860000,
        "endTime" : 1374105540000
      } ],
      "timeWindowConstraints" : {
        "serviceTimeWindows" : [ {
          "startTime" : 1374044400000,
          "endTime" : 1374048000000
        } ],
        "timeWindowPolicy" : "COMPLETE_ORDER_WITHIN_TIME_WINDOW"
      },
      "attributes" : [ "AoC136" ],
      "incompatibleAttributes" : [ ],
      "stopSequence" : 1
    }
  }, {
    "id" : 165871,
    "metadata" : {
      "name" : "mID165871"
    },
    "depot" : 0,
    "location" : {
      "latitude" : 50726484,
      "longitude" : -1990706,
      "metadata" : { }
    },
    "pickupDuration" : 0,
    "serviceDuration" : 2160000,
    "unloadDuration" : 0,
    "durationPerVisit" : 0,
    "priority" : 2,
    "jobType" : "DROP",
    "constraints" : {
      "demand" : {
        "values" : [ 3.0, 0.0, 0.0, 0.0 ]
      },
      "pickupTimeWindows" : [ {
        "startTime" : 1374022860000,
        "endTime" : 1374105540000
      } ],
      "timeWindowConstraints" : {
        "serviceTimeWindows" : [ {
          "startTime" : 1374048000000,
          "endTime" : 1374051600000
        } ],
        "timeWindowPolicy" : "COMPLETE_ORDER_WITHIN_TIME_WINDOW"
      },
      "attributes" : [ "AoC136" ],
      "incompatibleAttributes" : [ ],
      "stopSequence" : 1
    }
  }, {
    "id" : 165872,
    "metadata" : {
      "name" : "mID165872"
    },
    "depot" : 0,
    "location" : {
      "latitude" : 50726484,
      "longitude" : -1990706,
      "metadata" : { }
    },
    "pickupDuration" : 0,
    "serviceDuration" : 240000,
    "unloadDuration" : 0,
    "durationPerVisit" : 0,
    "priority" : 2,
    "jobType" : "DROP",
    "constraints" : {
      "demand" : {
        "values" : [ 2.0, 0.0, 0.0, 0.0 ]
      },
      "pickupTimeWindows" : [ {
        "startTime" : 1374022860000,
        "endTime" : 1374105540000
      } ],
      "timeWindowConstraints" : {
        "serviceTimeWindows" : [ {
          "startTime" : 1374048000000,
          "endTime" : 1374051600000
        } ],
        "timeWindowPolicy" : "COMPLETE_ORDER_WITHIN_TIME_WINDOW"
      },
      "attributes" : [ "AoC136" ],
      "incompatibleAttributes" : [ ],
      "stopSequence" : 1
    }
  }, {
    "id" : 165873,
    "metadata" : {
      "name" : "mID165873"
    },
    "depot" : 0,
    "location" : {
      "latitude" : 52804942,
      "longitude" : -1641464,
      "metadata" : { }
    },
    "pickupDuration" : 0,
    "serviceDuration" : 2040000,
    "unloadDuration" : 0,
    "durationPerVisit" : 0,
    "priority" : 2,
    "jobType" : "DROP",
    "constraints" : {
      "demand" : {
        "values" : [ 2.0, 0.0, 0.0, 0.0 ]
      },
      "pickupTimeWindows" : [ {
        "startTime" : 1374022860000,
        "endTime" : 1374105540000
      } ],
      "timeWindowConstraints" : {
        "serviceTimeWindows" : [ {
          "startTime" : 1374048000000,
          "endTime" : 1374051600000
        } ],
        "timeWindowPolicy" : "COMPLETE_ORDER_WITHIN_TIME_WINDOW"
      },
      "attributes" : [ "AoC136" ],
      "incompatibleAttributes" : [ ],
      "stopSequence" : 1
    }
  }, {
    "id" : 165874,
    "metadata" : {
      "name" : "mID165874"
    },
    "depot" : 0,
    "location" : {
      "latitude" : 52804942,
      "longitude" : -1641464,
      "metadata" : { }
    },
    "pickupDuration" : 0,
    "serviceDuration" : 240000,
    "unloadDuration" : 0,
    "durationPerVisit" : 0,
    "priority" : 2,
    "jobType" : "DROP",
    "constraints" : {
      "demand" : {
        "values" : [ 2.0, 0.0, 0.0, 0.0 ]
      },
      "pickupTimeWindows" : [ {
        "startTime" : 1374022860000,
        "endTime" : 1374105540000
      } ],
      "timeWindowConstraints" : {
        "serviceTimeWindows" : [ {
          "startTime" : 1374048000000,
          "endTime" : 1374051600000
        } ],
        "timeWindowPolicy" : "COMPLETE_ORDER_WITHIN_TIME_WINDOW"
      },
      "attributes" : [ "AoC136" ],
      "incompatibleAttributes" : [ ],
      "stopSequence" : 1
    }
  }, {
    "id" : 165875,
    "metadata" : {
      "name" : "mID165875"
    },
    "depot" : 0,
    "location" : {
      "latitude" : 52804942,
      "longitude" : -1641464,
      "metadata" : { }
    },
    "pickupDuration" : 0,
    "serviceDuration" : 120000,
    "unloadDuration" : 0,
    "durationPerVisit" : 0,
    "priority" : 2,
    "jobType" : "DROP",
    "constraints" : {
      "demand" : {
        "values" : [ 1.0, 0.0, 0.0, 0.0 ]
      },
      "pickupTimeWindows" : [ {
        "startTime" : 1374022860000,
        "endTime" : 1374105540000
      } ],
      "timeWindowConstraints" : {
        "serviceTimeWindows" : [ {
          "startTime" : 1374048000000,
          "endTime" : 1374051600000
        } ],
        "timeWindowPolicy" : "COMPLETE_ORDER_WITHIN_TIME_WINDOW"
      },
      "attributes" : [ "AoC136" ],
      "incompatibleAttributes" : [ ],
      "stopSequence" : 1
    }
  }, {
    "id" : 165876,
    "metadata" : {
      "name" : "mID165876"
    },
    "depot" : 0,
    "location" : {
      "latitude" : 52506284,
      "longitude" : 560165,
      "metadata" : { }
    },
    "pickupDuration" : 0,
    "serviceDuration" : 2040000,
    "unloadDuration" : 0,
    "durationPerVisit" : 0,
    "priority" : 2,
    "jobType" : "DROP",
    "constraints" : {
      "demand" : {
        "values" : [ 2.0, 0.0, 0.0, 0.0 ]
      },
      "pickupTimeWindows" : [ {
        "startTime" : 1374022860000,
        "endTime" : 1374105540000
      } ],
      "timeWindowConstraints" : {
        "serviceTimeWindows" : [ {
          "startTime" : 1374048000000,
          "endTime" : 1374051600000
        } ],
        "timeWindowPolicy" : "COMPLETE_ORDER_WITHIN_TIME_WINDOW"
      },
      "attributes" : [ "AoC136" ],
      "incompatibleAttributes" : [ ],
      "stopSequence" : 1
    }
  }, {
    "id" : 165877,
    "metadata" : {
      "name" : "mID165877"
    },
    "depot" : 0,
    "location" : {
      "latitude" : 51421311,
      "longitude" : -2199475,
      "metadata" : { }
    },
    "pickupDuration" : 0,
    "serviceDuration" : 2040000,
    "unloadDuration" : 0,
    "durationPerVisit" : 0,
    "priority" : 2,
    "jobType" : "DROP",
    "constraints" : {
      "demand" : {
        "values" : [ 2.0, 0.0, 0.0, 0.0 ]
      },
      "pickupTimeWindows" : [ {
        "startTime" : 1374022860000,
        "endTime" : 1374105540000
      } ],
      "timeWindowConstraints" : {
        "serviceTimeWindows" : [ {
          "startTime" : 1374049800000,
          "endTime" : 1374053400000
        } ],
        "timeWindowPolicy" : "COMPLETE_ORDER_WITHIN_TIME_WINDOW"
      },
      "attributes" : [ "AoC136" ],
      "incompatibleAttributes" : [ ],
      "stopSequence" : 1
    }
  }, {
    "id" : 165878,
    "metadata" : {
      "name" : "mID165878"
    },
    "depot" : 0,
    "location" : {
      "latitude" : 51421311,
      "longitude" : -2199475,
      "metadata" : { }
    },
    "pickupDuration" : 0,
    "serviceDuration" : 240000,
    "unloadDuration" : 0,
    "durationPerVisit" : 0,
    "priority" : 2,
    "jobType" : "DROP",
    "constraints" : {
      "demand" : {
        "values" : [ 2.0, 0.0, 0.0, 0.0 ]
      },
      "pickupTimeWindows" : [ {
        "startTime" : 1374022860000,
        "endTime" : 1374105540000
      } ],
      "timeWindowConstraints" : {
        "serviceTimeWindows" : [ {
          "startTime" : 1374049800000,
          "endTime" : 1374053400000
        } ],
        "timeWindowPolicy" : "COMPLETE_ORDER_WITHIN_TIME_WINDOW"
      },
      "attributes" : [ "AoC136" ],
      "incompatibleAttributes" : [ ],
      "stopSequence" : 1
    }
  }, {
    "id" : 165879,
    "metadata" : {
      "name" : "mID165879"
    },
    "depot" : 0,
    "location" : {
      "latitude" : 53044666,
      "longitude" : -2929746,
      "metadata" : { }
    },
    "pickupDuration" : 0,
    "serviceDuration" : 2160000,
    "unloadDuration" : 0,
    "durationPerVisit" : 0,
    "priority" : 2,
    "jobType" : "DROP",
    "constraints" : {
      "demand" : {
        "values" : [ 3.0, 0.0, 0.0, 0.0 ]
      },
      "pickupTimeWindows" : [ {
        "startTime" : 1374022860000,
        "endTime" : 1374105540000
      } ],
      "timeWindowConstraints" : {
        "serviceTimeWindows" : [ {
          "startTime" : 1374051600000,
          "endTime" : 1374055200000
        } ],
        "timeWindowPolicy" : "COMPLETE_ORDER_WITHIN_TIME_WINDOW"
      },
      "attributes" : [ "AoC136" ],
      "incompatibleAttributes" : [ ],
      "stopSequence" : 1
    }
  }, {
    "id" : 165880,
    "metadata" : {
      "name" : "mID165880"
    },
    "depot" : 0,
    "location" : {
      "latitude" : 51494959,
      "longitude" : 147302,
      "metadata" : { }
    },
    "pickupDuration" : 0,
    "serviceDuration" : 2400000,
    "unloadDuration" : 0,
    "durationPerVisit" : 0,
    "priority" : 2,
    "jobType" : "DROP",
    "constraints" : {
      "demand" : {
        "values" : [ 5.0, 0.0, 0.0, 0.0 ]
      },
      "pickupTimeWindows" : [ {
        "startTime" : 1374022860000,
        "endTime" : 1374105540000
      } ],
      "timeWindowConstraints" : {
        "serviceTimeWindows" : [ {
          "startTime" : 1374053400000,
          "endTime" : 1374057000000
        } ],
        "timeWindowPolicy" : "COMPLETE_ORDER_WITHIN_TIME_WINDOW"
      },
      "attributes" : [ "AoC136" ],
      "incompatibleAttributes" : [ ],
      "stopSequence" : 1
    }
  }, {
    "id" : 165881,
    "metadata" : {
      "name" : "mID165881"
    },
    "depot" : 0,
    "location" : {
      "latitude" : 51508570,
      "longitude" : -355247,
      "metadata" : { }
    },
    "pickupDuration" : 0,
    "serviceDuration" : 2160000,
    "unloadDuration" : 0,
    "durationPerVisit" : 0,
    "priority" : 2,
    "jobType" : "DROP",
    "constraints" : {
      "demand" : {
        "values" : [ 3.0, 0.0, 0.0, 0.0 ]
      },
      "pickupTimeWindows" : [ {
        "startTime" : 1374022860000,
        "endTime" : 1374105540000
      } ],
      "timeWindowConstraints" : {
        "serviceTimeWindows" : [ {
          "startTime" : 1374053400000,
          "endTime" : 1374057000000
        } ],
        "timeWindowPolicy" : "COMPLETE_ORDER_WITHIN_TIME_WINDOW"
      },
      "attributes" : [ "AoC136" ],
      "incompatibleAttributes" : [ ],
      "stopSequence" : 1
    }
  }, {
    "id" : 165882,
    "metadata" : {
      "name" : "mID165882"
    },
    "depot" : 0,
    "location" : {
      "latitude" : 51508570,
      "longitude" : -355247,
      "metadata" : { }
    },
    "pickupDuration" : 0,
    "serviceDuration" : 240000,
    "unloadDuration" : 0,
    "durationPerVisit" : 0,
    "priority" : 2,
    "jobType" : "DROP",
    "constraints" : {
      "demand" : {
        "values" : [ 2.0, 0.0, 0.0, 0.0 ]
      },
      "pickupTimeWindows" : [ {
        "startTime" : 1374022860000,
        "endTime" : 1374105540000
      } ],
      "timeWindowConstraints" : {
        "serviceTimeWindows" : [ {
          "startTime" : 1374053400000,
          "endTime" : 1374057000000
        } ],
        "timeWindowPolicy" : "COMPLETE_ORDER_WITHIN_TIME_WINDOW"
      },
      "attributes" : [ "AoC136" ],
      "incompatibleAttributes" : [ ],
      "stopSequence" : 1
    }
  }, {
    "id" : 165883,
    "metadata" : {
      "name" : "mID165883"
    },
    "depot" : 0,
    "location" : {
      "latitude" : 51508570,
      "longitude" : -355247,
      "metadata" : { }
    },
    "pickupDuration" : 0,
    "serviceDuration" : 120000,
    "unloadDuration" : 0,
    "durationPerVisit" : 0,
    "priority" : 2,
    "jobType" : "DROP",
    "constraints" : {
      "demand" : {
        "values" : [ 1.0, 0.0, 0.0, 0.0 ]
      },
      "pickupTimeWindows" : [ {
        "startTime" : 1374022860000,
        "endTime" : 1374105540000
      } ],
      "timeWindowConstraints" : {
        "serviceTimeWindows" : [ {
          "startTime" : 1374053400000,
          "endTime" : 1374057000000
        } ],
        "timeWindowPolicy" : "COMPLETE_ORDER_WITHIN_TIME_WINDOW"
      },
      "attributes" : [ "AoC136" ],
      "incompatibleAttributes" : [ ],
      "stopSequence" : 1
    }
  }, {
    "id" : 165884,
    "metadata" : {
      "name" : "mID165884"
    },
    "depot" : 0,
    "location" : {
      "latitude" : 51508570,
      "longitude" : -355247,
      "metadata" : { }
    },
    "pickupDuration" : 0,
    "serviceDuration" : 720000,
    "unloadDuration" : 0,
    "durationPerVisit" : 0,
    "priority" : 2,
    "jobType" : "DROP",
    "constraints" : {
      "demand" : {
        "values" : [ 6.0, 0.0, 0.0, 0.0 ]
      },
      "pickupTimeWindows" : [ {
        "startTime" : 1374022860000,
        "endTime" : 1374105540000
      } ],
      "timeWindowConstraints" : {
        "serviceTimeWindows" : [ {
          "startTime" : 1374053400000,
          "endTime" : 1374057000000
        } ],
        "timeWindowPolicy" : "COMPLETE_ORDER_WITHIN_TIME_WINDOW"
      },
      "attributes" : [ "AoC136" ],
      "incompatibleAttributes" : [ ],
      "stopSequence" : 1
    }
  }, {
    "id" : 165885,
    "metadata" : {
      "name" : "mID165885"
    },
    "depot" : 0,
    "location" : {
      "latitude" : 51508570,
      "longitude" : -355247,
      "metadata" : { }
    },
    "pickupDuration" : 0,
    "serviceDuration" : 120000,
    "unloadDuration" : 0,
    "durationPerVisit" : 0,
    "priority" : 2,
    "jobType" : "DROP",
    "constraints" : {
      "demand" : {
        "values" : [ 1.0, 0.0, 0.0, 0.0 ]
      },
      "pickupTimeWindows" : [ {
        "startTime" : 1374022860000,
        "endTime" : 1374105540000
      } ],
      "timeWindowConstraints" : {
        "serviceTimeWindows" : [ {
          "startTime" : 1374053400000,
          "endTime" : 1374057000000
        } ],
        "timeWindowPolicy" : "COMPLETE_ORDER_WITHIN_TIME_WINDOW"
      },
      "attributes" : [ "AoC136" ],
      "incompatibleAttributes" : [ ],
      "stopSequence" : 1
    }
  }, {
    "id" : 165886,
    "metadata" : {
      "name" : "mID165886"
    },
    "depot" : 0,
    "location" : {
      "latitude" : 51508570,
      "longitude" : -355247,
      "metadata" : { }
    },
    "pickupDuration" : 0,
    "serviceDuration" : 120000,
    "unloadDuration" : 0,
    "durationPerVisit" : 0,
    "priority" : 2,
    "jobType" : "DROP",
    "constraints" : {
      "demand" : {
        "values" : [ 1.0, 0.0, 0.0, 0.0 ]
      },
      "pickupTimeWindows" : [ {
        "startTime" : 1374022860000,
        "endTime" : 1374105540000
      } ],
      "timeWindowConstraints" : {
        "serviceTimeWindows" : [ {
          "startTime" : 1374053400000,
          "endTime" : 1374057000000
        } ],
        "timeWindowPolicy" : "COMPLETE_ORDER_WITHIN_TIME_WINDOW"
      },
      "attributes" : [ "AoC136" ],
      "incompatibleAttributes" : [ ],
      "stopSequence" : 1
    }
  }, {
    "id" : 165887,
    "metadata" : {
      "name" : "mID165887"
    },
    "depot" : 0,
    "location" : {
      "latitude" : 51588385,
      "longitude" : -3053680,
      "metadata" : { }
    },
    "pickupDuration" : 0,
    "serviceDuration" : 2280000,
    "unloadDuration" : 0,
    "durationPerVisit" : 0,
    "priority" : 2,
    "jobType" : "DROP",
    "constraints" : {
      "demand" : {
        "values" : [ 4.0, 0.0, 0.0, 0.0 ]
      },
      "pickupTimeWindows" : [ {
        "startTime" : 1374022860000,
        "endTime" : 1374105540000
      } ],
      "timeWindowConstraints" : {
        "serviceTimeWindows" : [ {
          "startTime" : 1374055200000,
          "endTime" : 1374058800000
        } ],
        "timeWindowPolicy" : "COMPLETE_ORDER_WITHIN_TIME_WINDOW"
      },
      "attributes" : [ "AoC136" ],
      "incompatibleAttributes" : [ ],
      "stopSequence" : 1
    }
  }, {
    "id" : 165888,
    "metadata" : {
      "name" : "mID165888"
    },
    "depot" : 0,
    "location" : {
      "latitude" : 51588385,
      "longitude" : -3053680,
      "metadata" : { }
    },
    "pickupDuration" : 0,
    "serviceDuration" : 360000,
    "unloadDuration" : 0,
    "durationPerVisit" : 0,
    "priority" : 2,
    "jobType" : "DROP",
    "constraints" : {
      "demand" : {
        "values" : [ 3.0, 0.0, 0.0, 0.0 ]
      },
      "pickupTimeWindows" : [ {
        "startTime" : 1374022860000,
        "endTime" : 1374105540000
      } ],
      "timeWindowConstraints" : {
        "serviceTimeWindows" : [ {
          "startTime" : 1374055200000,
          "endTime" : 1374058800000
        } ],
        "timeWindowPolicy" : "COMPLETE_ORDER_WITHIN_TIME_WINDOW"
      },
      "attributes" : [ "AoC136" ],
      "incompatibleAttributes" : [ ],
      "stopSequence" : 1
    }
  }, {
    "id" : 165889,
    "metadata" : {
      "name" : "mID165889"
    },
    "depot" : 0,
    "location" : {
      "latitude" : 52322572,
      "longitude" : -622391,
      "metadata" : { }
    },
    "pickupDuration" : 0,
    "serviceDuration" : 2160000,
    "unloadDuration" : 0,
    "durationPerVisit" : 0,
    "priority" : 2,
    "jobType" : "DROP",
    "constraints" : {
      "demand" : {
        "values" : [ 3.0, 0.0, 0.0, 0.0 ]
      },
      "pickupTimeWindows" : [ {
        "startTime" : 1374022860000,
        "endTime" : 1374105540000
      } ],
      "timeWindowConstraints" : {
        "serviceTimeWindows" : [ {
          "startTime" : 1374055200000,
          "endTime" : 1374058800000
        } ],
        "timeWindowPolicy" : "COMPLETE_ORDER_WITHIN_TIME_WINDOW"
      },
      "attributes" : [ "AoC136" ],
      "incompatibleAttributes" : [ ],
      "stopSequence" : 1
    }
  }, {
    "id" : 165890,
    "metadata" : {
      "name" : "mID165890"
    },
    "depot" : 0,
    "location" : {
      "latitude" : 52322572,
      "longitude" : -622391,
      "metadata" : { }
    },
    "pickupDuration" : 0,
    "serviceDuration" : 1440000,
    "unloadDuration" : 0,
    "durationPerVisit" : 0,
    "priority" : 2,
    "jobType" : "DROP",
    "constraints" : {
      "demand" : {
        "values" : [ 12.0, 0.0, 0.0, 0.0 ]
      },
      "pickupTimeWindows" : [ {
        "startTime" : 1374022860000,
        "endTime" : 1374105540000
      } ],
      "timeWindowConstraints" : {
        "serviceTimeWindows" : [ {
          "startTime" : 1374055200000,
          "endTime" : 1374058800000
        } ],
        "timeWindowPolicy" : "COMPLETE_ORDER_WITHIN_TIME_WINDOW"
      },
      "attributes" : [ "AoC136" ],
      "incompatibleAttributes" : [ ],
      "stopSequence" : 1
    }
  }, {
    "id" : 165891,
    "metadata" : {
      "name" : "mID165891"
    },
    "depot" : 0,
    "location" : {
      "latitude" : 52322572,
      "longitude" : -622391,
      "metadata" : { }
    },
    "pickupDuration" : 0,
    "serviceDuration" : 120000,
    "unloadDuration" : 0,
    "durationPerVisit" : 0,
    "priority" : 2,
    "jobType" : "DROP",
    "constraints" : {
      "demand" : {
        "values" : [ 1.0, 0.0, 0.0, 0.0 ]
      },
      "pickupTimeWindows" : [ {
        "startTime" : 1374022860000,
        "endTime" : 1374105540000
      } ],
      "timeWindowConstraints" : {
        "serviceTimeWindows" : [ {
          "startTime" : 1374055200000,
          "endTime" : 1374058800000
        } ],
        "timeWindowPolicy" : "COMPLETE_ORDER_WITHIN_TIME_WINDOW"
      },
      "attributes" : [ "AoC136" ],
      "incompatibleAttributes" : [ ],
      "stopSequence" : 1
    }
  }, {
    "id" : 165892,
    "metadata" : {
      "name" : "mID165892"
    },
    "depot" : 0,
    "location" : {
      "latitude" : 51254927,
      "longitude" : -2306857,
      "metadata" : { }
    },
    "pickupDuration" : 0,
    "serviceDuration" : 2640000,
    "unloadDuration" : 0,
    "durationPerVisit" : 0,
    "priority" : 2,
    "jobType" : "DROP",
    "constraints" : {
      "demand" : {
        "values" : [ 7.0, 0.0, 0.0, 0.0 ]
      },
      "pickupTimeWindows" : [ {
        "startTime" : 1374022860000,
        "endTime" : 1374105540000
      } ],
      "timeWindowConstraints" : {
        "serviceTimeWindows" : [ {
          "startTime" : 1374055200000,
          "endTime" : 1374058800000
        } ],
        "timeWindowPolicy" : "COMPLETE_ORDER_WITHIN_TIME_WINDOW"
      },
      "attributes" : [ "AoC136" ],
      "incompatibleAttributes" : [ ],
      "stopSequence" : 1
    }
  }, {
    "id" : 165893,
    "metadata" : {
      "name" : "mID165893"
    },
    "depot" : 0,
    "location" : {
      "latitude" : 52671314,
      "longitude" : -1166850,
      "metadata" : { }
    },
    "pickupDuration" : 0,
    "serviceDuration" : 2040000,
    "unloadDuration" : 0,
    "durationPerVisit" : 0,
    "priority" : 2,
    "jobType" : "DROP",
    "constraints" : {
      "demand" : {
        "values" : [ 2.0, 0.0, 0.0, 0.0 ]
      },
      "pickupTimeWindows" : [ {
        "startTime" : 1374022860000,
        "endTime" : 1374105540000
      } ],
      "timeWindowConstraints" : {
        "serviceTimeWindows" : [ {
          "startTime" : 1374057000000,
          "endTime" : 1374060600000
        } ],
        "timeWindowPolicy" : "COMPLETE_ORDER_WITHIN_TIME_WINDOW"
      },
      "attributes" : [ "AoC136" ],
      "incompatibleAttributes" : [ ],
      "stopSequence" : 1
    }
  }, {
    "id" : 165894,
    "metadata" : {
      "name" : "mID165894"
    },
    "depot" : 0,
    "location" : {
      "latitude" : 52671314,
      "longitude" : -1166850,
      "metadata" : { }
    },
    "pickupDuration" : 0,
    "serviceDuration" : 240000,
    "unloadDuration" : 0,
    "durationPerVisit" : 0,
    "priority" : 2,
    "jobType" : "DROP",
    "constraints" : {
      "demand" : {
        "values" : [ 2.0, 0.0, 0.0, 0.0 ]
      },
      "pickupTimeWindows" : [ {
        "startTime" : 1374022860000,
        "endTime" : 1374105540000
      } ],
      "timeWindowConstraints" : {
        "serviceTimeWindows" : [ {
          "startTime" : 1374057000000,
          "endTime" : 1374060600000
        } ],
        "timeWindowPolicy" : "COMPLETE_ORDER_WITHIN_TIME_WINDOW"
      },
      "attributes" : [ "AoC136" ],
      "incompatibleAttributes" : [ ],
      "stopSequence" : 1
    }
  }, {
    "id" : 165895,
    "metadata" : {
      "name" : "mID165895"
    },
    "depot" : 0,
    "location" : {
      "latitude" : 53339319,
      "longitude" : -2969396,
      "metadata" : { }
    },
    "pickupDuration" : 0,
    "serviceDuration" : 3000000,
    "unloadDuration" : 0,
    "durationPerVisit" : 0,
    "priority" : 2,
    "jobType" : "DROP",
    "constraints" : {
      "demand" : {
        "values" : [ 10.0, 0.0, 0.0, 0.0 ]
      },
      "pickupTimeWindows" : [ {
        "startTime" : 1374022860000,
        "endTime" : 1374105540000
      } ],
      "timeWindowConstraints" : {
        "serviceTimeWindows" : [ {
          "startTime" : 1374057000000,
          "endTime" : 1374060600000
        } ],
        "timeWindowPolicy" : "COMPLETE_ORDER_WITHIN_TIME_WINDOW"
      },
      "attributes" : [ "AoC136" ],
      "incompatibleAttributes" : [ ],
      "stopSequence" : 1
    }
  }, {
    "id" : 165896,
    "metadata" : {
      "name" : "mID165896"
    },
    "depot" : 0,
    "location" : {
      "latitude" : 51639856,
      "longitude" : -3023861,
      "metadata" : { }
    },
    "pickupDuration" : 0,
    "serviceDuration" : 2520000,
    "unloadDuration" : 0,
    "durationPerVisit" : 0,
    "priority" : 2,
    "jobType" : "DROP",
    "constraints" : {
      "demand" : {
        "values" : [ 6.0, 0.0, 0.0, 0.0 ]
      },
      "pickupTimeWindows" : [ {
        "startTime" : 1374022860000,
        "endTime" : 1374105540000
      } ],
      "timeWindowConstraints" : {
        "serviceTimeWindows" : [ {
          "startTime" : 1374058800000,
          "endTime" : 1374062400000
        } ],
        "timeWindowPolicy" : "COMPLETE_ORDER_WITHIN_TIME_WINDOW"
      },
      "attributes" : [ "AoC136" ],
      "incompatibleAttributes" : [ ],
      "stopSequence" : 1
    }
  }, {
    "id" : 165897,
    "metadata" : {
      "name" : "mID165897"
    },
    "depot" : 0,
    "location" : {
      "latitude" : 51639856,
      "longitude" : -3023861,
      "metadata" : { }
    },
    "pickupDuration" : 0,
    "serviceDuration" : 0,
    "unloadDuration" : 0,
    "durationPerVisit" : 0,
    "priority" : 2,
    "jobType" : "DROP",
    "constraints" : {
      "demand" : {
        "values" : [ 0.0, 0.0, 0.0, 0.0 ]
      },
      "pickupTimeWindows" : [ {
        "startTime" : 1374022860000,
        "endTime" : 1374105540000
      } ],
      "timeWindowConstraints" : {
        "serviceTimeWindows" : [ {
          "startTime" : 1374058800000,
          "endTime" : 1374062400000
        } ],
        "timeWindowPolicy" : "COMPLETE_ORDER_WITHIN_TIME_WINDOW"
      },
      "attributes" : [ "AoC136" ],
      "incompatibleAttributes" : [ ],
      "stopSequence" : 1
    }
  }, {
    "id" : 165898,
    "metadata" : {
      "name" : "mID165898"
    },
    "depot" : 0,
    "location" : {
      "latitude" : 51209629,
      "longitude" : -2338223,
      "metadata" : { }
    },
    "pickupDuration" : 0,
    "serviceDuration" : 1920000,
    "unloadDuration" : 0,
    "durationPerVisit" : 0,
    "priority" : 2,
    "jobType" : "DROP",
    "constraints" : {
      "demand" : {
        "values" : [ 1.0, 0.0, 0.0, 0.0 ]
      },
      "pickupTimeWindows" : [ {
        "startTime" : 1374022860000,
        "endTime" : 1374105540000
      } ],
      "timeWindowConstraints" : {
        "serviceTimeWindows" : [ {
          "startTime" : 1374058800000,
          "endTime" : 1374062400000
        } ],
        "timeWindowPolicy" : "COMPLETE_ORDER_WITHIN_TIME_WINDOW"
      },
      "attributes" : [ "AoC136" ],
      "incompatibleAttributes" : [ ],
      "stopSequence" : 1
    }
  }, {
    "id" : 165899,
    "metadata" : {
      "name" : "mID165899"
    },
    "depot" : 0,
    "location" : {
      "latitude" : 51501497,
      "longitude" : 47263,
      "metadata" : { }
    },
    "pickupDuration" : 0,
    "serviceDuration" : 3960000,
    "unloadDuration" : 0,
    "durationPerVisit" : 0,
    "priority" : 2,
    "jobType" : "DROP",
    "constraints" : {
      "demand" : {
        "values" : [ 18.0, 0.0, 0.0, 0.0 ]
      },
      "pickupTimeWindows" : [ {
        "startTime" : 1374022860000,
        "endTime" : 1374105540000
      } ],
      "timeWindowConstraints" : {
        "serviceTimeWindows" : [ {
          "startTime" : 1374058380000,
          "endTime" : 1374062400000
        } ],
        "timeWindowPolicy" : "COMPLETE_ORDER_WITHIN_TIME_WINDOW"
      },
      "attributes" : [ "AoC136" ],
      "incompatibleAttributes" : [ ],
      "stopSequence" : 1
    }
  }, {
    "id" : 165900,
    "metadata" : {
      "name" : "mID165900"
    },
    "depot" : 0,
    "location" : {
      "latitude" : 52323535,
      "longitude" : -692117,
      "metadata" : { }
    },
    "pickupDuration" : 0,
    "serviceDuration" : 2760000,
    "unloadDuration" : 0,
    "durationPerVisit" : 0,
    "priority" : 2,
    "jobType" : "DROP",
    "constraints" : {
      "demand" : {
        "values" : [ 8.0, 0.0, 0.0, 0.0 ]
      },
      "pickupTimeWindows" : [ {
        "startTime" : 1374022860000,
        "endTime" : 1374105540000
      } ],
      "timeWindowConstraints" : {
        "serviceTimeWindows" : [ {
          "startTime" : 1374058800000,
          "endTime" : 1374062400000
        } ],
        "timeWindowPolicy" : "COMPLETE_ORDER_WITHIN_TIME_WINDOW"
      },
      "attributes" : [ "AoC136" ],
      "incompatibleAttributes" : [ ],
      "stopSequence" : 1
    }
  }, {
    "id" : 165901,
    "metadata" : {
      "name" : "mID165901"
    },
    "depot" : 0,
    "location" : {
      "latitude" : 52268322,
      "longitude" : -1187743,
      "metadata" : { }
    },
    "pickupDuration" : 0,
    "serviceDuration" : 1920000,
    "unloadDuration" : 0,
    "durationPerVisit" : 0,
    "priority" : 2,
    "jobType" : "DROP",
    "constraints" : {
      "demand" : {
        "values" : [ 1.0, 0.0, 0.0, 0.0 ]
      },
      "pickupTimeWindows" : [ {
        "startTime" : 1374022860000,
        "endTime" : 1374105540000
      } ],
      "timeWindowConstraints" : {
        "serviceTimeWindows" : [ {
          "startTime" : 1374060600000,
          "endTime" : 1374064200000
        } ],
        "timeWindowPolicy" : "COMPLETE_ORDER_WITHIN_TIME_WINDOW"
      },
      "attributes" : [ "AoC136" ],
      "incompatibleAttributes" : [ ],
      "stopSequence" : 1
    }
  }, {
    "id" : 165902,
    "metadata" : {
      "name" : "mID165902"
    },
    "depot" : 0,
    "location" : {
      "latitude" : 52499990,
      "longitude" : -648053,
      "metadata" : { }
    },
    "pickupDuration" : 0,
    "serviceDuration" : 2160000,
    "unloadDuration" : 0,
    "durationPerVisit" : 0,
    "priority" : 2,
    "jobType" : "DROP",
    "constraints" : {
      "demand" : {
        "values" : [ 3.0, 0.0, 0.0, 0.0 ]
      },
      "pickupTimeWindows" : [ {
        "startTime" : 1374022860000,
        "endTime" : 1374105540000
      } ],
      "timeWindowConstraints" : {
        "serviceTimeWindows" : [ {
          "startTime" : 1374062400000,
          "endTime" : 1374066000000
        } ],
        "timeWindowPolicy" : "COMPLETE_ORDER_WITHIN_TIME_WINDOW"
      },
      "attributes" : [ "AoC136" ],
      "incompatibleAttributes" : [ ],
      "stopSequence" : 1
    }
  }, {
    "id" : 165903,
    "metadata" : {
      "name" : "mID165903"
    },
    "depot" : 0,
    "location" : {
      "latitude" : 51135026,
      "longitude" : -180647,
      "metadata" : { }
    },
    "pickupDuration" : 0,
    "serviceDuration" : 2040000,
    "unloadDuration" : 0,
    "durationPerVisit" : 0,
    "priority" : 2,
    "jobType" : "DROP",
    "constraints" : {
      "demand" : {
        "values" : [ 2.0, 0.0, 0.0, 0.0 ]
      },
      "pickupTimeWindows" : [ {
        "startTime" : 1374022860000,
        "endTime" : 1374105540000
      } ],
      "timeWindowConstraints" : {
        "serviceTimeWindows" : [ {
          "startTime" : 1374062400000,
          "endTime" : 1374066000000
        } ],
        "timeWindowPolicy" : "COMPLETE_ORDER_WITHIN_TIME_WINDOW"
      },
      "attributes" : [ "AoC136" ],
      "incompatibleAttributes" : [ ],
      "stopSequence" : 1
    }
  }, {
    "id" : 165904,
    "metadata" : {
      "name" : "mID165904"
    },
    "depot" : 0,
    "location" : {
      "latitude" : 51198261,
      "longitude" : -2488603,
      "metadata" : { }
    },
    "pickupDuration" : 0,
    "serviceDuration" : 1920000,
    "unloadDuration" : 0,
    "durationPerVisit" : 0,
    "priority" : 2,
    "jobType" : "DROP",
    "constraints" : {
      "demand" : {
        "values" : [ 1.0, 0.0, 0.0, 0.0 ]
      },
      "pickupTimeWindows" : [ {
        "startTime" : 1374022860000,
        "endTime" : 1374105540000
      } ],
      "timeWindowConstraints" : {
        "serviceTimeWindows" : [ {
          "startTime" : 1374062400000,
          "endTime" : 1374066000000
        } ],
        "timeWindowPolicy" : "COMPLETE_ORDER_WITHIN_TIME_WINDOW"
      },
      "attributes" : [ "AoC136" ],
      "incompatibleAttributes" : [ ],
      "stopSequence" : 1
    }
  }, {
    "id" : 165905,
    "metadata" : {
      "name" : "mID165905"
    },
    "depot" : 0,
    "location" : {
      "latitude" : 52804942,
      "longitude" : -1641464,
      "metadata" : { }
    },
    "pickupDuration" : 0,
    "serviceDuration" : 1920000,
    "unloadDuration" : 0,
    "durationPerVisit" : 0,
    "priority" : 2,
    "jobType" : "DROP",
    "constraints" : {
      "demand" : {
        "values" : [ 1.0, 0.0, 0.0, 0.0 ]
      },
      "pickupTimeWindows" : [ {
        "startTime" : 1374022860000,
        "endTime" : 1374105540000
      } ],
      "timeWindowConstraints" : {
        "serviceTimeWindows" : [ {
          "startTime" : 1374064200000,
          "endTime" : 1374067800000
        } ],
        "timeWindowPolicy" : "COMPLETE_ORDER_WITHIN_TIME_WINDOW"
      },
      "attributes" : [ "AoC136" ],
      "incompatibleAttributes" : [ ],
      "stopSequence" : 1
    }
  }, {
    "id" : 165906,
    "metadata" : {
      "name" : "mID165906"
    },
    "depot" : 0,
    "location" : {
      "latitude" : 50922727,
      "longitude" : -401704,
      "metadata" : { }
    },
    "pickupDuration" : 0,
    "serviceDuration" : 2040000,
    "unloadDuration" : 0,
    "durationPerVisit" : 0,
    "priority" : 2,
    "jobType" : "DROP",
    "constraints" : {
      "demand" : {
        "values" : [ 2.0, 0.0, 0.0, 0.0 ]
      },
      "pickupTimeWindows" : [ {
        "startTime" : 1374022860000,
        "endTime" : 1374105540000
      } ],
      "timeWindowConstraints" : {
        "serviceTimeWindows" : [ {
          "startTime" : 1374071400000,
          "endTime" : 1374075000000
        } ],
        "timeWindowPolicy" : "COMPLETE_ORDER_WITHIN_TIME_WINDOW"
      },
      "attributes" : [ "AoC136" ],
      "incompatibleAttributes" : [ ],
      "stopSequence" : 1
    }
  }, {
    "id" : 165907,
    "metadata" : {
      "name" : "mID165907"
    },
    "depot" : 0,
    "location" : {
      "latitude" : 50922727,
      "longitude" : -401704,
      "metadata" : { }
    },
    "pickupDuration" : 0,
    "serviceDuration" : 120000,
    "unloadDuration" : 0,
    "durationPerVisit" : 0,
    "priority" : 2,
    "jobType" : "DROP",
    "constraints" : {
      "demand" : {
        "values" : [ 1.0, 0.0, 0.0, 0.0 ]
      },
      "pickupTimeWindows" : [ {
        "startTime" : 1374022860000,
        "endTime" : 1374105540000
      } ],
      "timeWindowConstraints" : {
        "serviceTimeWindows" : [ {
          "startTime" : 1374071400000,
          "endTime" : 1374075000000
        } ],
        "timeWindowPolicy" : "COMPLETE_ORDER_WITHIN_TIME_WINDOW"
      },
      "attributes" : [ "AoC136" ],
      "incompatibleAttributes" : [ ],
      "stopSequence" : 1
    }
  }, {
    "id" : 165908,
    "metadata" : {
      "name" : "mID165908"
    },
    "depot" : 0,
    "location" : {
      "latitude" : 52936227,
      "longitude" : -1163925,
      "metadata" : { }
    },
    "pickupDuration" : 0,
    "serviceDuration" : 3120000,
    "unloadDuration" : 0,
    "durationPerVisit" : 0,
    "priority" : 2,
    "jobType" : "DROP",
    "constraints" : {
      "demand" : {
        "values" : [ 11.0, 0.0, 0.0, 0.0 ]
      },
      "pickupTimeWindows" : [ {
        "startTime" : 1374022860000,
        "endTime" : 1374105540000
      } ],
      "timeWindowConstraints" : {
        "serviceTimeWindows" : [ {
          "startTime" : 1374071400000,
          "endTime" : 1374075000000
        } ],
        "timeWindowPolicy" : "COMPLETE_ORDER_WITHIN_TIME_WINDOW"
      },
      "attributes" : [ "AoC136" ],
      "incompatibleAttributes" : [ ],
      "stopSequence" : 1
    }
  }, {
    "id" : 165909,
    "metadata" : {
      "name" : "mID165909"
    },
    "depot" : 0,
    "location" : {
      "latitude" : 52936227,
      "longitude" : -1163925,
      "metadata" : { }
    },
    "pickupDuration" : 0,
    "serviceDuration" : 240000,
    "unloadDuration" : 0,
    "durationPerVisit" : 0,
    "priority" : 2,
    "jobType" : "DROP",
    "constraints" : {
      "demand" : {
        "values" : [ 2.0, 0.0, 0.0, 0.0 ]
      },
      "pickupTimeWindows" : [ {
        "startTime" : 1374022860000,
        "endTime" : 1374105540000
      } ],
      "timeWindowConstraints" : {
        "serviceTimeWindows" : [ {
          "startTime" : 1374071400000,
          "endTime" : 1374075000000
        } ],
        "timeWindowPolicy" : "COMPLETE_ORDER_WITHIN_TIME_WINDOW"
      },
      "attributes" : [ "AoC136" ],
      "incompatibleAttributes" : [ ],
      "stopSequence" : 1
    }
  } ],
  "schedules" : [ {
    "timeWindow" : {
      "startTime" : 1374033600000,
      "endTime" : 1374105540000
    },
    "runs" : [ ],
    "breaks" : [ ],
    "constraints" : { },
    "resource" : {
      "metadata" : {
        "name" : "Sprinter"
      },
      "id" : 1822,
      "depot" : 0,
      "hourCost" : 12.0,
      "kmCost" : 0.31075203,
      "routingProfile" : {
        "vehicleType" : "Default",
        "drivingTimeCorrectionFactor" : 1.0,
        "maxSpeed" : 90.104
      },
      "constraints" : {
        "runDistanceLimit" : "Infinity",
        "runWorkingTimeLimit" : 9223372036854775807,
        "scheduleWorkingTimeLimit" : 9223372036854775807,
        "scheduleDrivingTimeLimit" : 28800000,
        "addonCollectionDropDuration" : 0,
        "addonPickupDuration" : 0,
        "capacity" : {
          "values" : [ 3.0, 0.0, 0.0, 0.0 ]
        },
        "attributes" : [ "Van.Regular", "cargo=0.0=0.0=0.0=0.0", "Van", "cargo=3.0=0.0=0.0=0.0", "AoC136", "cargo=2.0=0.0=0.0=0.0", "cargo=1.0=0.0=0.0=0.0" ],
        "homeLocations" : {
          "startLocation" : {
            "latitude" : 52697623,
            "longitude" : -1337156,
            "metadata" : { }
          },
          "endLocation" : {
            "latitude" : 52697623,
            "longitude" : -1337156,
            "metadata" : { }
          }
        },
        "fixedStartTime" : -1
      }
    }
  }, {
    "timeWindow" : {
      "startTime" : 1374033600000,
      "endTime" : 1374105540000
    },
    "runs" : [ ],
    "breaks" : [ ],
    "constraints" : { },
    "resource" : {
      "metadata" : {
        "name" : "ParcelRite"
      },
      "id" : 1820,
      "depot" : 0,
      "hourCost" : 12.0,
      "kmCost" : 0.31075203,
      "routingProfile" : {
        "vehicleType" : "Default",
        "drivingTimeCorrectionFactor" : 1.0,
        "maxSpeed" : 90.104
      },
      "constraints" : {
        "runDistanceLimit" : "Infinity",
        "runWorkingTimeLimit" : 9223372036854775807,
        "scheduleWorkingTimeLimit" : 9223372036854775807,
        "scheduleDrivingTimeLimit" : 32400000,
        "addonCollectionDropDuration" : 0,
        "addonPickupDuration" : 0,
        "capacity" : {
          "values" : [ 1.0, 0.0, 0.0, 0.0 ]
        },
        "attributes" : [ "Van.Regular", "cargo=0.0=0.0=0.0=0.0", "Van", "AoC136", "cargo=1.0=0.0=0.0=0.0" ],
        "homeLocations" : {
          "startLocation" : {
            "latitude" : 52697623,
            "longitude" : -1337156,
            "metadata" : { }
          },
          "endLocation" : {
            "latitude" : 52697623,
            "longitude" : -1337156,
            "metadata" : { }
          }
        },
        "fixedStartTime" : -1
      }
    }
  }, {
    "timeWindow" : {
      "startTime" : 1374033600000,
      "endTime" : 1374105540000
    },
    "runs" : [ ],
    "breaks" : [ ],
    "constraints" : { },
    "resource" : {
      "metadata" : {
        "name" : "FN62AFZ"
      },
      "id" : 1849,
      "depot" : 0,
      "hourCost" : 12.0,
      "kmCost" : 0.31075203,
      "routingProfile" : {
        "vehicleType" : "Default",
        "drivingTimeCorrectionFactor" : 1.0,
        "maxSpeed" : 90.104
      },
      "constraints" : {
        "runDistanceLimit" : "Infinity",
        "runWorkingTimeLimit" : 9223372036854775807,
        "scheduleWorkingTimeLimit" : 9223372036854775807,
        "scheduleDrivingTimeLimit" : 32400000,
        "addonCollectionDropDuration" : 0,
        "addonPickupDuration" : 0,
        "capacity" : {
          "values" : [ 3.0, 0.0, 0.0, 0.0 ]
        },
        "attributes" : [ "Van.Regular", "cargo=0.0=0.0=0.0=0.0", "Van", "cargo=3.0=0.0=0.0=0.0", "AoC136", "cargo=2.0=0.0=0.0=0.0", "cargo=1.0=0.0=0.0=0.0" ],
        "homeLocations" : {
          "startLocation" : {
            "latitude" : 52697623,
            "longitude" : -1337156,
            "metadata" : { }
          },
          "endLocation" : {
            "latitude" : 52697623,
            "longitude" : -1337156,
            "metadata" : { }
          }
        },
        "fixedStartTime" : -1
      }
    }
  }, {
    "timeWindow" : {
      "startTime" : 1374033600000,
      "endTime" : 1374105540000
    },
    "runs" : [ ],
    "breaks" : [ ],
    "constraints" : { },
    "resource" : {
      "metadata" : {
        "name" : "Hire_7.5Tonne"
      },
      "id" : 1818,
      "depot" : 0,
      "hourCost" : 12.0,
      "kmCost" : 0.40397763,
      "routingProfile" : {
        "vehicleType" : "Default",
        "drivingTimeCorrectionFactor" : 1.0,
        "maxSpeed" : 90.104
      },
      "constraints" : {
        "runDistanceLimit" : "Infinity",
        "runWorkingTimeLimit" : 9223372036854775807,
        "scheduleWorkingTimeLimit" : 9223372036854775807,
        "scheduleDrivingTimeLimit" : 32400000,
        "addonCollectionDropDuration" : 0,
        "addonPickupDuration" : 0,
        "capacity" : {
          "values" : [ 8.0, 0.0, 0.0, 0.0 ]
        },
        "attributes" : [ "cargo=6.0=0.0=0.0=0.0", "Van.Regular", "cargo=0.0=0.0=0.0=0.0", "Van", "cargo=4.0=0.0=0.0=0.0", "cargo=7.0=0.0=0.0=0.0", "cargo=3.0=0.0=0.0=0.0", "cargo=8.0=0.0=0.0=0.0", "AoC136", "cargo=2.0=0.0=0.0=0.0", "cargo=5.0=0.0=0.0=0.0", "cargo=1.0=0.0=0.0=0.0" ],
        "homeLocations" : {
          "startLocation" : {
            "latitude" : 52697623,
            "longitude" : -1337156,
            "metadata" : { }
          },
          "endLocation" : {
            "latitude" : 52697623,
            "longitude" : -1337156,
            "metadata" : { }
          }
        },
        "fixedStartTime" : -1
      }
    }
  }, {
    "timeWindow" : {
      "startTime" : 1374033600000,
      "endTime" : 1374105540000
    },
    "runs" : [ ],
    "breaks" : [ ],
    "constraints" : { },
    "resource" : {
      "metadata" : {
        "name" : "FM62ANV"
      },
      "id" : 1851,
      "depot" : 0,
      "hourCost" : 12.0,
      "kmCost" : 0.31075203,
      "routingProfile" : {
        "vehicleType" : "Default",
        "drivingTimeCorrectionFactor" : 1.0,
        "maxSpeed" : 90.104
      },
      "constraints" : {
        "runDistanceLimit" : "Infinity",
        "runWorkingTimeLimit" : 9223372036854775807,
        "scheduleWorkingTimeLimit" : 9223372036854775807,
        "scheduleDrivingTimeLimit" : 32400000,
        "addonCollectionDropDuration" : 0,
        "addonPickupDuration" : 0,
        "capacity" : {
          "values" : [ 3.0, 0.0, 0.0, 0.0 ]
        },
        "attributes" : [ "Van.Regular", "cargo=0.0=0.0=0.0=0.0", "Van", "cargo=3.0=0.0=0.0=0.0", "AoC136", "cargo=2.0=0.0=0.0=0.0", "cargo=1.0=0.0=0.0=0.0" ],
        "homeLocations" : {
          "startLocation" : {
            "latitude" : 52697623,
            "longitude" : -1337156,
            "metadata" : { }
          },
          "endLocation" : {
            "latitude" : 52697623,
            "longitude" : -1337156,
            "metadata" : { }
          }
        },
        "fixedStartTime" : -1
      }
    }
  }, {
    "timeWindow" : {
      "startTime" : 1374033600000,
      "endTime" : 1374105540000
    },
    "runs" : [ ],
    "breaks" : [ ],
    "constraints" : { },
    "resource" : {
      "metadata" : {
        "name" : "Hire_18_Tonne"
      },
      "id" : 1816,
      "depot" : 0,
      "hourCost" : 12.0,
      "kmCost" : 0.40397763,
      "routingProfile" : {
        "vehicleType" : "Default",
        "drivingTimeCorrectionFactor" : 1.0,
        "maxSpeed" : 90.104
      },
      "constraints" : {
        "runDistanceLimit" : "Infinity",
        "runWorkingTimeLimit" : 9223372036854775807,
        "scheduleWorkingTimeLimit" : 9223372036854775807,
        "scheduleDrivingTimeLimit" : 32400000,
        "addonCollectionDropDuration" : 0,
        "addonPickupDuration" : 0,
        "capacity" : {
          "values" : [ 14.0, 0.0, 0.0, 0.0 ]
        },
        "attributes" : [ "cargo=6.0=0.0=0.0=0.0", "cargo=0.0=0.0=0.0=0.0", "Van", "cargo=12.0=0.0=0.0=0.0", "cargo=7.0=0.0=0.0=0.0", "cargo=11.0=0.0=0.0=0.0", "cargo=5.0=0.0=0.0=0.0", "cargo=9.0=0.0=0.0=0.0", "cargo=10.0=0.0=0.0=0.0", "Van.Regular", "cargo=4.0=0.0=0.0=0.0", "cargo=3.0=0.0=0.0=0.0", "cargo=8.0=0.0=0.0=0.0", "AoC136", "cargo=2.0=0.0=0.0=0.0", "cargo=1.0=0.0=0.0=0.0" ],
        "homeLocations" : {
          "startLocation" : {
            "latitude" : 52697623,
            "longitude" : -1337156,
            "metadata" : { }
          },
          "endLocation" : {
            "latitude" : 52697623,
            "longitude" : -1337156,
            "metadata" : { }
          }
        },
        "fixedStartTime" : -1
      }
    }
  }, {
    "timeWindow" : {
      "startTime" : 1374076800000,
      "endTime" : 1374105540000
    },
    "runs" : [ ],
    "breaks" : [ ],
    "constraints" : { },
    "resource" : {
      "metadata" : {
        "name" : "HireUnit+Step"
      },
      "id" : 1814,
      "depot" : 0,
      "hourCost" : 12.0,
      "kmCost" : 0.49720323,
      "routingProfile" : {
        "vehicleType" : "Default",
        "drivingTimeCorrectionFactor" : 1.0,
        "maxSpeed" : 90.104
      },
      "constraints" : {
        "runDistanceLimit" : "Infinity",
        "runWorkingTimeLimit" : 9223372036854775807,
        "scheduleWorkingTimeLimit" : 9223372036854775807,
        "scheduleDrivingTimeLimit" : 32400000,
        "addonCollectionDropDuration" : 0,
        "addonPickupDuration" : 0,
        "capacity" : {
          "values" : [ 46.0, 0.0, 0.0, 0.0 ]
        },
        "attributes" : [ "cargo=6.0=0.0=0.0=0.0", "cargo=18.0=0.0=0.0=0.0", "cargo=0.0=0.0=0.0=0.0", "Van", "cargo=12.0=0.0=0.0=0.0", "cargo=7.0=0.0=0.0=0.0", "cargo=11.0=0.0=0.0=0.0", "cargo=5.0=0.0=0.0=0.0", "cargo=9.0=0.0=0.0=0.0", "cargo=10.0=0.0=0.0=0.0", "Van.Regular", "cargo=4.0=0.0=0.0=0.0", "cargo=3.0=0.0=0.0=0.0", "cargo=8.0=0.0=0.0=0.0", "cargo=17.0=0.0=0.0=0.0", "AoC136", "cargo=2.0=0.0=0.0=0.0", "cargo=15.0=0.0=0.0=0.0", "cargo=1.0=0.0=0.0=0.0" ],
        "homeLocations" : {
          "startLocation" : {
            "latitude" : 52697623,
            "longitude" : -1337156,
            "metadata" : { }
          },
          "endLocation" : {
            "latitude" : 52697623,
            "longitude" : -1337156,
            "metadata" : { }
          }
        },
        "fixedStartTime" : -1
      }
    }
  }, {
    "timeWindow" : {
      "startTime" : 1374033600000,
      "endTime" : 1374105540000
    },
    "runs" : [ ],
    "breaks" : [ ],
    "constraints" : { },
    "resource" : {
      "metadata" : {
        "name" : "FN09AFF DD"
      },
      "id" : 1812,
      "depot" : 0,
      "hourCost" : 12.0,
      "kmCost" : 0.49720323,
      "routingProfile" : {
        "vehicleType" : "Default",
        "drivingTimeCorrectionFactor" : 1.0,
        "maxSpeed" : 90.104
      },
      "constraints" : {
        "runDistanceLimit" : "Infinity",
        "runWorkingTimeLimit" : 9223372036854775807,
        "scheduleWorkingTimeLimit" : 9223372036854775807,
        "scheduleDrivingTimeLimit" : 32400000,
        "addonCollectionDropDuration" : 0,
        "addonPickupDuration" : 0,
        "capacity" : {
          "values" : [ 46.0, 0.0, 0.0, 0.0 ]
        },
        "attributes" : [ "cargo=6.0=0.0=0.0=0.0", "cargo=18.0=0.0=0.0=0.0", "cargo=0.0=0.0=0.0=0.0", "Van", "cargo=12.0=0.0=0.0=0.0", "cargo=7.0=0.0=0.0=0.0", "cargo=11.0=0.0=0.0=0.0", "cargo=5.0=0.0=0.0=0.0", "cargo=9.0=0.0=0.0=0.0", "cargo=10.0=0.0=0.0=0.0", "Van.Regular", "cargo=4.0=0.0=0.0=0.0", "cargo=3.0=0.0=0.0=0.0", "cargo=8.0=0.0=0.0=0.0", "cargo=17.0=0.0=0.0=0.0", "AoC136", "cargo=2.0=0.0=0.0=0.0", "cargo=15.0=0.0=0.0=0.0", "cargo=1.0=0.0=0.0=0.0" ],
        "homeLocations" : {
          "startLocation" : {
            "latitude" : 52697623,
            "longitude" : -1337156,
            "metadata" : { }
          },
          "endLocation" : {
            "latitude" : 52697623,
            "longitude" : -1337156,
            "metadata" : { }
          }
        },
        "fixedStartTime" : -1
      }
    }
  }, {
    "timeWindow" : {
      "startTime" : 1374033600000,
      "endTime" : 1374105540000
    },
    "runs" : [ ],
    "breaks" : [ ],
    "constraints" : { },
    "resource" : {
      "metadata" : {
        "name" : "FJ58HGE"
      },
      "id" : 1810,
      "depot" : 0,
      "hourCost" : 12.0,
      "kmCost" : 0.40397763,
      "routingProfile" : {
        "vehicleType" : "Default",
        "drivingTimeCorrectionFactor" : 1.0,
        "maxSpeed" : 90.104
      },
      "constraints" : {
        "runDistanceLimit" : "Infinity",
        "runWorkingTimeLimit" : 9223372036854775807,
        "scheduleWorkingTimeLimit" : 9223372036854775807,
        "scheduleDrivingTimeLimit" : 32400000,
        "addonCollectionDropDuration" : 0,
        "addonPickupDuration" : 0,
        "capacity" : {
          "values" : [ 8.0, 0.0, 0.0, 0.0 ]
        },
        "attributes" : [ "cargo=6.0=0.0=0.0=0.0", "Van.Regular", "cargo=0.0=0.0=0.0=0.0", "Van", "cargo=4.0=0.0=0.0=0.0", "cargo=7.0=0.0=0.0=0.0", "cargo=3.0=0.0=0.0=0.0", "cargo=8.0=0.0=0.0=0.0", "AoC136", "cargo=2.0=0.0=0.0=0.0", "cargo=5.0=0.0=0.0=0.0", "cargo=1.0=0.0=0.0=0.0" ],
        "homeLocations" : {
          "startLocation" : {
            "latitude" : 52697623,
            "longitude" : -1337156,
            "metadata" : { }
          },
          "endLocation" : {
            "latitude" : 52697623,
            "longitude" : -1337156,
            "metadata" : { }
          }
        },
        "fixedStartTime" : -1
      }
    }
  }, {
    "timeWindow" : {
      "startTime" : 1374033600000,
      "endTime" : 1374105540000
    },
    "runs" : [ ],
    "breaks" : [ ],
    "constraints" : { },
    "resource" : {
      "metadata" : {
        "name" : "FJ11FKK+Step"
      },
      "id" : 1808,
      "depot" : 0,
      "hourCost" : 12.0,
      "kmCost" : 0.49720323,
      "routingProfile" : {
        "vehicleType" : "Default",
        "drivingTimeCorrectionFactor" : 1.0,
        "maxSpeed" : 90.104
      },
      "constraints" : {
        "runDistanceLimit" : "Infinity",
        "runWorkingTimeLimit" : 9223372036854775807,
        "scheduleWorkingTimeLimit" : 9223372036854775807,
        "scheduleDrivingTimeLimit" : 32400000,
        "addonCollectionDropDuration" : 0,
        "addonPickupDuration" : 0,
        "capacity" : {
          "values" : [ 46.0, 0.0, 0.0, 0.0 ]
        },
        "attributes" : [ "cargo=6.0=0.0=0.0=0.0", "cargo=18.0=0.0=0.0=0.0", "cargo=0.0=0.0=0.0=0.0", "Van", "cargo=12.0=0.0=0.0=0.0", "cargo=7.0=0.0=0.0=0.0", "cargo=11.0=0.0=0.0=0.0", "cargo=5.0=0.0=0.0=0.0", "cargo=9.0=0.0=0.0=0.0", "cargo=10.0=0.0=0.0=0.0", "Van.Regular", "cargo=4.0=0.0=0.0=0.0", "cargo=3.0=0.0=0.0=0.0", "cargo=8.0=0.0=0.0=0.0", "cargo=17.0=0.0=0.0=0.0", "AoC136", "cargo=2.0=0.0=0.0=0.0", "cargo=15.0=0.0=0.0=0.0", "cargo=1.0=0.0=0.0=0.0" ],
        "homeLocations" : {
          "startLocation" : {
            "latitude" : 52697623,
            "longitude" : -1337156,
            "metadata" : { }
          },
          "endLocation" : {
            "latitude" : 52697623,
            "longitude" : -1337156,
            "metadata" : { }
          }
        },
        "fixedStartTime" : -1
      }
    }
  }, {
    "timeWindow" : {
      "startTime" : 1374033600000,
      "endTime" : 1374105540000
    },
    "runs" : [ ],
    "breaks" : [ ],
    "constraints" : { },
    "resource" : {
      "metadata" : {
        "name" : "FJ10EFD+Step"
      },
      "id" : 1806,
      "depot" : 0,
      "hourCost" : 12.0,
      "kmCost" : 0.49720323,
      "routingProfile" : {
        "vehicleType" : "Default",
        "drivingTimeCorrectionFactor" : 1.0,
        "maxSpeed" : 90.104
      },
      "constraints" : {
        "runDistanceLimit" : "Infinity",
        "runWorkingTimeLimit" : 9223372036854775807,
        "scheduleWorkingTimeLimit" : 9223372036854775807,
        "scheduleDrivingTimeLimit" : 32400000,
        "addonCollectionDropDuration" : 0,
        "addonPickupDuration" : 0,
        "capacity" : {
          "values" : [ 46.0, 0.0, 0.0, 0.0 ]
        },
        "attributes" : [ "cargo=6.0=0.0=0.0=0.0", "cargo=18.0=0.0=0.0=0.0", "cargo=0.0=0.0=0.0=0.0", "Van", "cargo=12.0=0.0=0.0=0.0", "cargo=7.0=0.0=0.0=0.0", "cargo=11.0=0.0=0.0=0.0", "cargo=5.0=0.0=0.0=0.0", "cargo=9.0=0.0=0.0=0.0", "cargo=10.0=0.0=0.0=0.0", "Van.Regular", "cargo=4.0=0.0=0.0=0.0", "cargo=3.0=0.0=0.0=0.0", "cargo=8.0=0.0=0.0=0.0", "cargo=17.0=0.0=0.0=0.0", "AoC136", "cargo=2.0=0.0=0.0=0.0", "cargo=15.0=0.0=0.0=0.0", "cargo=1.0=0.0=0.0=0.0" ],
        "homeLocations" : {
          "startLocation" : {
            "latitude" : 52697623,
            "longitude" : -1337156,
            "metadata" : { }
          },
          "endLocation" : {
            "latitude" : 52697623,
            "longitude" : -1337156,
            "metadata" : { }
          }
        },
        "fixedStartTime" : -1
      }
    }
  }, {
    "timeWindow" : {
      "startTime" : 1374033600000,
      "endTime" : 1374105540000
    },
    "runs" : [ ],
    "breaks" : [ ],
    "constraints" : { },
    "resource" : {
      "metadata" : {
        "name" : "FJ10EFC+Step"
      },
      "id" : 1804,
      "depot" : 0,
      "hourCost" : 12.0,
      "kmCost" : 0.49720323,
      "routingProfile" : {
        "vehicleType" : "Default",
        "drivingTimeCorrectionFactor" : 1.0,
        "maxSpeed" : 90.104
      },
      "constraints" : {
        "runDistanceLimit" : "Infinity",
        "runWorkingTimeLimit" : 9223372036854775807,
        "scheduleWorkingTimeLimit" : 9223372036854775807,
        "scheduleDrivingTimeLimit" : 32400000,
        "addonCollectionDropDuration" : 0,
        "addonPickupDuration" : 0,
        "capacity" : {
          "values" : [ 46.0, 0.0, 0.0, 0.0 ]
        },
        "attributes" : [ "cargo=6.0=0.0=0.0=0.0", "cargo=18.0=0.0=0.0=0.0", "cargo=0.0=0.0=0.0=0.0", "Van", "cargo=12.0=0.0=0.0=0.0", "cargo=7.0=0.0=0.0=0.0", "cargo=11.0=0.0=0.0=0.0", "cargo=5.0=0.0=0.0=0.0", "cargo=9.0=0.0=0.0=0.0", "cargo=10.0=0.0=0.0=0.0", "Van.Regular", "cargo=4.0=0.0=0.0=0.0", "cargo=3.0=0.0=0.0=0.0", "cargo=8.0=0.0=0.0=0.0", "cargo=17.0=0.0=0.0=0.0", "AoC136", "cargo=2.0=0.0=0.0=0.0", "cargo=15.0=0.0=0.0=0.0", "cargo=1.0=0.0=0.0=0.0" ],
        "homeLocations" : {
          "startLocation" : {
            "latitude" : 52697623,
            "longitude" : -1337156,
            "metadata" : { }
          },
          "endLocation" : {
            "latitude" : 52697623,
            "longitude" : -1337156,
            "metadata" : { }
          }
        },
        "fixedStartTime" : -1
      }
    }
  }, {
    "timeWindow" : {
      "startTime" : 1374033600000,
      "endTime" : 1374105540000
    },
    "runs" : [ ],
    "breaks" : [ ],
    "constraints" : { },
    "resource" : {
      "metadata" : {
        "name" : "FD59XNR"
      },
      "id" : 1802,
      "depot" : 0,
      "hourCost" : 12.0,
      "kmCost" : 0.31075203,
      "routingProfile" : {
        "vehicleType" : "Default",
        "drivingTimeCorrectionFactor" : 1.0,
        "maxSpeed" : 90.104
      },
      "constraints" : {
        "runDistanceLimit" : "Infinity",
        "runWorkingTimeLimit" : 9223372036854775807,
        "scheduleWorkingTimeLimit" : 9223372036854775807,
        "scheduleDrivingTimeLimit" : 32400000,
        "addonCollectionDropDuration" : 0,
        "addonPickupDuration" : 0,
        "capacity" : {
          "values" : [ 3.0, 0.0, 0.0, 0.0 ]
        },
        "attributes" : [ "Van.Regular", "cargo=0.0=0.0=0.0=0.0", "Van", "cargo=3.0=0.0=0.0=0.0", "AoC136", "cargo=2.0=0.0=0.0=0.0", "cargo=1.0=0.0=0.0=0.0" ],
        "homeLocations" : {
          "startLocation" : {
            "latitude" : 52697623,
            "longitude" : -1337156,
            "metadata" : { }
          },
          "endLocation" : {
            "latitude" : 52697623,
            "longitude" : -1337156,
            "metadata" : { }
          }
        },
        "fixedStartTime" : -1
      }
    }
  }, {
    "timeWindow" : {
      "startTime" : 1374048000000,
      "endTime" : 1374105540000
    },
    "runs" : [ ],
    "breaks" : [ ],
    "constraints" : { },
    "resource" : {
      "metadata" : {
        "name" : "FD10KCC"
      },
      "id" : 1800,
      "depot" : 0,
      "hourCost" : 12.0,
      "kmCost" : 0.31075203,
      "routingProfile" : {
        "vehicleType" : "Default",
        "drivingTimeCorrectionFactor" : 1.0,
        "maxSpeed" : 90.104
      },
      "constraints" : {
        "runDistanceLimit" : "Infinity",
        "runWorkingTimeLimit" : 9223372036854775807,
        "scheduleWorkingTimeLimit" : 9223372036854775807,
        "scheduleDrivingTimeLimit" : 32400000,
        "addonCollectionDropDuration" : 0,
        "addonPickupDuration" : 0,
        "capacity" : {
          "values" : [ 3.0, 0.0, 0.0, 0.0 ]
        },
        "attributes" : [ "Van.Regular", "cargo=0.0=0.0=0.0=0.0", "Van", "cargo=3.0=0.0=0.0=0.0", "AoC136", "cargo=2.0=0.0=0.0=0.0", "cargo=1.0=0.0=0.0=0.0" ],
        "homeLocations" : {
          "startLocation" : {
            "latitude" : 52697623,
            "longitude" : -1337156,
            "metadata" : { }
          },
          "endLocation" : {
            "latitude" : 52697623,
            "longitude" : -1337156,
            "metadata" : { }
          }
        },
        "fixedStartTime" : -1
      }
    }
  }, {
    "timeWindow" : {
      "startTime" : 1374033600000,
      "endTime" : 1374105540000
    },
    "runs" : [ ],
    "breaks" : [ ],
    "constraints" : { },
    "resource" : {
      "metadata" : {
        "name" : "BV62DLK+Step"
      },
      "id" : 1798,
      "depot" : 0,
      "hourCost" : 12.0,
      "kmCost" : 0.49720323,
      "routingProfile" : {
        "vehicleType" : "Default",
        "drivingTimeCorrectionFactor" : 1.0,
        "maxSpeed" : 90.104
      },
      "constraints" : {
        "runDistanceLimit" : "Infinity",
        "runWorkingTimeLimit" : 9223372036854775807,
        "scheduleWorkingTimeLimit" : 9223372036854775807,
        "scheduleDrivingTimeLimit" : 32400000,
        "addonCollectionDropDuration" : 0,
        "addonPickupDuration" : 0,
        "capacity" : {
          "values" : [ 46.0, 0.0, 0.0, 0.0 ]
        },
        "attributes" : [ "cargo=6.0=0.0=0.0=0.0", "cargo=18.0=0.0=0.0=0.0", "cargo=0.0=0.0=0.0=0.0", "Van", "cargo=12.0=0.0=0.0=0.0", "cargo=7.0=0.0=0.0=0.0", "cargo=11.0=0.0=0.0=0.0", "cargo=5.0=0.0=0.0=0.0", "cargo=9.0=0.0=0.0=0.0", "cargo=10.0=0.0=0.0=0.0", "Van.Regular", "cargo=4.0=0.0=0.0=0.0", "cargo=3.0=0.0=0.0=0.0", "cargo=8.0=0.0=0.0=0.0", "cargo=17.0=0.0=0.0=0.0", "AoC136", "cargo=2.0=0.0=0.0=0.0", "cargo=15.0=0.0=0.0=0.0", "cargo=1.0=0.0=0.0=0.0" ],
        "homeLocations" : {
          "startLocation" : {
            "latitude" : 52697623,
            "longitude" : -1337156,
            "metadata" : { }
          },
          "endLocation" : {
            "latitude" : 52697623,
            "longitude" : -1337156,
            "metadata" : { }
          }
        },
        "fixedStartTime" : -1
      }
    }
  }, {
    "timeWindow" : {
      "startTime" : 1374033660000,
      "endTime" : 1374105540000
    },
    "runs" : [ ],
    "breaks" : [ ],
    "constraints" : { },
    "resource" : {
      "metadata" : {
        "name" : "BP11ZBR+Step"
      },
      "id" : 1796,
      "depot" : 0,
      "hourCost" : 12.0,
      "kmCost" : 0.49720323,
      "routingProfile" : {
        "vehicleType" : "Default",
        "drivingTimeCorrectionFactor" : 1.0,
        "maxSpeed" : 90.104
      },
      "constraints" : {
        "runDistanceLimit" : "Infinity",
        "runWorkingTimeLimit" : 9223372036854775807,
        "scheduleWorkingTimeLimit" : 9223372036854775807,
        "scheduleDrivingTimeLimit" : 32400000,
        "addonCollectionDropDuration" : 0,
        "addonPickupDuration" : 0,
        "capacity" : {
          "values" : [ 46.0, 0.0, 0.0, 0.0 ]
        },
        "attributes" : [ "cargo=6.0=0.0=0.0=0.0", "cargo=18.0=0.0=0.0=0.0", "cargo=0.0=0.0=0.0=0.0", "Van", "cargo=12.0=0.0=0.0=0.0", "cargo=7.0=0.0=0.0=0.0", "cargo=11.0=0.0=0.0=0.0", "cargo=5.0=0.0=0.0=0.0", "cargo=9.0=0.0=0.0=0.0", "cargo=10.0=0.0=0.0=0.0", "Van.Regular", "cargo=4.0=0.0=0.0=0.0", "cargo=3.0=0.0=0.0=0.0", "cargo=8.0=0.0=0.0=0.0", "cargo=17.0=0.0=0.0=0.0", "AoC136", "cargo=2.0=0.0=0.0=0.0", "cargo=15.0=0.0=0.0=0.0", "cargo=1.0=0.0=0.0=0.0" ],
        "homeLocations" : {
          "startLocation" : {
            "latitude" : 52697623,
            "longitude" : -1337156,
            "metadata" : { }
          },
          "endLocation" : {
            "latitude" : 52697623,
            "longitude" : -1337156,
            "metadata" : { }
          }
        },
        "fixedStartTime" : -1
      }
    }
  }, {
    "timeWindow" : {
      "startTime" : 1374062400000,
      "endTime" : 1374105540000
    },
    "runs" : [ ],
    "breaks" : [ ],
    "constraints" : { },
    "resource" : {
      "metadata" : {
        "name" : "BK62JTX"
      },
      "id" : 1794,
      "depot" : 0,
      "hourCost" : 12.0,
      "kmCost" : 0.40397763,
      "routingProfile" : {
        "vehicleType" : "Default",
        "drivingTimeCorrectionFactor" : 1.0,
        "maxSpeed" : 90.104
      },
      "constraints" : {
        "runDistanceLimit" : "Infinity",
        "runWorkingTimeLimit" : 9223372036854775807,
        "scheduleWorkingTimeLimit" : 9223372036854775807,
        "scheduleDrivingTimeLimit" : 32400000,
        "addonCollectionDropDuration" : 0,
        "addonPickupDuration" : 0,
        "capacity" : {
          "values" : [ 16.0, 0.0, 0.0, 0.0 ]
        },
        "attributes" : [ "cargo=6.0=0.0=0.0=0.0", "cargo=0.0=0.0=0.0=0.0", "Van", "cargo=12.0=0.0=0.0=0.0", "cargo=7.0=0.0=0.0=0.0", "cargo=11.0=0.0=0.0=0.0", "cargo=5.0=0.0=0.0=0.0", "cargo=9.0=0.0=0.0=0.0", "cargo=10.0=0.0=0.0=0.0", "Van.Regular", "cargo=4.0=0.0=0.0=0.0", "cargo=3.0=0.0=0.0=0.0", "cargo=8.0=0.0=0.0=0.0", "AoC136", "cargo=2.0=0.0=0.0=0.0", "cargo=15.0=0.0=0.0=0.0", "cargo=1.0=0.0=0.0=0.0" ],
        "homeLocations" : {
          "startLocation" : {
            "latitude" : 52697623,
            "longitude" : -1337156,
            "metadata" : { }
          },
          "endLocation" : {
            "latitude" : 52697623,
            "longitude" : -1337156,
            "metadata" : { }
          }
        },
        "fixedStartTime" : -1
      }
    }
  }, {
    "timeWindow" : {
      "startTime" : 1374033660000,
      "endTime" : 1374105540000
    },
    "runs" : [ ],
    "breaks" : [ ],
    "constraints" : { },
    "resource" : {
      "metadata" : {
        "name" : "BN62VMF DD"
      },
      "id" : 1824,
      "depot" : 0,
      "hourCost" : 12.0,
      "kmCost" : 0.49720323,
      "routingProfile" : {
        "vehicleType" : "Default",
        "drivingTimeCorrectionFactor" : 1.0,
        "maxSpeed" : 90.104
      },
      "constraints" : {
        "runDistanceLimit" : "Infinity",
        "runWorkingTimeLimit" : 9223372036854775807,
        "scheduleWorkingTimeLimit" : 9223372036854775807,
        "scheduleDrivingTimeLimit" : 28800000,
        "addonCollectionDropDuration" : 0,
        "addonPickupDuration" : 0,
        "capacity" : {
          "values" : [ 44.0, 0.0, 0.0, 0.0 ]
        },
        "attributes" : [ "cargo=6.0=0.0=0.0=0.0", "cargo=18.0=0.0=0.0=0.0", "cargo=0.0=0.0=0.0=0.0", "Van", "cargo=12.0=0.0=0.0=0.0", "cargo=7.0=0.0=0.0=0.0", "cargo=11.0=0.0=0.0=0.0", "cargo=5.0=0.0=0.0=0.0", "cargo=9.0=0.0=0.0=0.0", "cargo=10.0=0.0=0.0=0.0", "Van.Regular", "cargo=4.0=0.0=0.0=0.0", "cargo=3.0=0.0=0.0=0.0", "cargo=8.0=0.0=0.0=0.0", "cargo=17.0=0.0=0.0=0.0", "AoC136", "cargo=2.0=0.0=0.0=0.0", "cargo=15.0=0.0=0.0=0.0", "cargo=1.0=0.0=0.0=0.0" ],
        "homeLocations" : {
          "startLocation" : {
            "latitude" : 52697623,
            "longitude" : -1337156,
            "metadata" : { }
          },
          "endLocation" : {
            "latitude" : 52697623,
            "longitude" : -1337156,
            "metadata" : { }
          }
        },
        "fixedStartTime" : -1
      }
    }
  }, {
    "timeWindow" : {
      "startTime" : 1374048000000,
      "endTime" : 1374105540000
    },
    "runs" : [ ],
    "breaks" : [ ],
    "constraints" : { },
    "resource" : {
      "metadata" : {
        "name" : "BG12FRC+Step"
      },
      "id" : 1792,
      "depot" : 0,
      "hourCost" : 12.0,
      "kmCost" : 0.49720323,
      "routingProfile" : {
        "vehicleType" : "Default",
        "drivingTimeCorrectionFactor" : 1.0,
        "maxSpeed" : 90.104
      },
      "constraints" : {
        "runDistanceLimit" : "Infinity",
        "runWorkingTimeLimit" : 9223372036854775807,
        "scheduleWorkingTimeLimit" : 9223372036854775807,
        "scheduleDrivingTimeLimit" : 32400000,
        "addonCollectionDropDuration" : 0,
        "addonPickupDuration" : 0,
        "capacity" : {
          "values" : [ 46.0, 0.0, 0.0, 0.0 ]
        },
        "attributes" : [ "cargo=6.0=0.0=0.0=0.0", "cargo=18.0=0.0=0.0=0.0", "cargo=0.0=0.0=0.0=0.0", "Van", "cargo=12.0=0.0=0.0=0.0", "cargo=7.0=0.0=0.0=0.0", "cargo=11.0=0.0=0.0=0.0", "cargo=5.0=0.0=0.0=0.0", "cargo=9.0=0.0=0.0=0.0", "cargo=10.0=0.0=0.0=0.0", "Van.Regular", "cargo=4.0=0.0=0.0=0.0", "cargo=3.0=0.0=0.0=0.0", "cargo=8.0=0.0=0.0=0.0", "cargo=17.0=0.0=0.0=0.0", "AoC136", "cargo=2.0=0.0=0.0=0.0", "cargo=15.0=0.0=0.0=0.0", "cargo=1.0=0.0=0.0=0.0" ],
        "homeLocations" : {
          "startLocation" : {
            "latitude" : 52697623,
            "longitude" : -1337156,
            "metadata" : { }
          },
          "endLocation" : {
            "latitude" : 52697623,
            "longitude" : -1337156,
            "metadata" : { }
          }
        },
        "fixedStartTime" : -1
      }
    }
  }, {
    "timeWindow" : {
      "startTime" : 1374033600000,
      "endTime" : 1374105540000
    },
    "runs" : [ ],
    "breaks" : [ ],
    "constraints" : { },
    "resource" : {
      "metadata" : {
        "name" : "YJ07LCU"
      },
      "id" : 1826,
      "depot" : 0,
      "hourCost" : 12.0,
      "kmCost" : 0.49720323,
      "routingProfile" : {
        "vehicleType" : "Default",
        "drivingTimeCorrectionFactor" : 1.0,
        "maxSpeed" : 90.104
      },
      "constraints" : {
        "runDistanceLimit" : "Infinity",
        "runWorkingTimeLimit" : 9223372036854775807,
        "scheduleWorkingTimeLimit" : 9223372036854775807,
        "scheduleDrivingTimeLimit" : 32400000,
        "addonCollectionDropDuration" : 0,
        "addonPickupDuration" : 0,
        "capacity" : {
          "values" : [ 44.0, 0.0, 0.0, 0.0 ]
        },
        "attributes" : [ "cargo=6.0=0.0=0.0=0.0", "cargo=18.0=0.0=0.0=0.0", "cargo=0.0=0.0=0.0=0.0", "Van", "cargo=12.0=0.0=0.0=0.0", "cargo=7.0=0.0=0.0=0.0", "cargo=11.0=0.0=0.0=0.0", "cargo=5.0=0.0=0.0=0.0", "cargo=9.0=0.0=0.0=0.0", "cargo=10.0=0.0=0.0=0.0", "Van.Regular", "cargo=4.0=0.0=0.0=0.0", "cargo=3.0=0.0=0.0=0.0", "cargo=8.0=0.0=0.0=0.0", "cargo=17.0=0.0=0.0=0.0", "AoC136", "cargo=2.0=0.0=0.0=0.0", "cargo=15.0=0.0=0.0=0.0", "cargo=1.0=0.0=0.0=0.0" ],
        "homeLocations" : {
          "startLocation" : {
            "latitude" : 52697623,
            "longitude" : -1337156,
            "metadata" : { }
          },
          "endLocation" : {
            "latitude" : 52697623,
            "longitude" : -1337156,
            "metadata" : { }
          }
        },
        "fixedStartTime" : -1
      }
    }
  } ],
  "depots" : [ {
    "id" : 0,
    "location" : {
      "latitude" : 52697623,
      "longitude" : -1337156,
      "metadata" : { }
    },
    "constraints" : {
      "allowCollectionsWhileDrivingHome" : false,
      "allowDeliveriesWhileDrivingFromHome" : false,
      "availabilityWindows" : [ {
        "startTime" : 0,
        "endTime" : 57657355200332
      } ]
    }
  } ],
  "constraints" : {
    "allowMultipleRunsPerSchedule" : true,
    "consolidateSameSiteJobs" : "NONE"
  }
}