{
  "jobs" : [ {
    "id" : 159419,
    "metadata" : {
      "name" : "mID159419"
    },
    "depot" : 0,
    "location" : {
      "latitude" : 51570678,
      "longitude" : -295097,
      "metadata" : { }
    },
    "pickupDuration" : 0,
    "serviceDuration" : 360000,
    "unloadDuration" : 0,
    "durationPerVisit" : 0,
    "priority" : 2,
    "jobType" : "DROP",
    "constraints" : {
      "demand" : {
        "values" : [ 3.0, 0.0, 0.0, 0.0 ]
      },
      "pickupTimeWindows" : [ {
        "startTime" : 1372896060000,
        "endTime" : 1372982340000
      } ],
      "timeWindowConstraints" : {
        "serviceTimeWindows" : [ {
          "startTime" : 1372899600000,
          "endTime" : 1372924800000
        } ],
        "timeWindowPolicy" : "COMPLETE_ORDER_WITHIN_TIME_WINDOW"
      },
      "attributes" : [ "AoC108" ],
      "incompatibleAttributes" : [ ],
      "stopSequence" : 1
    }
  }, {
    "id" : 159420,
    "metadata" : {
      "name" : "mID159420"
    },
    "depot" : 0,
    "location" : {
      "latitude" : 51504743,
      "longitude" : -508063,
      "metadata" : { }
    },
    "pickupDuration" : 0,
    "serviceDuration" : 360000,
    "unloadDuration" : 0,
    "durationPerVisit" : 0,
    "priority" : 2,
    "jobType" : "DROP",
    "constraints" : {
      "demand" : {
        "values" : [ 1.0, 0.0, 0.0, 0.0 ]
      },
      "pickupTimeWindows" : [ {
        "startTime" : 1372896060000,
        "endTime" : 1372982340000
      } ],
      "timeWindowConstraints" : {
        "serviceTimeWindows" : [ {
          "startTime" : 1372899600000,
          "endTime" : 1372924800000
        } ],
        "timeWindowPolicy" : "COMPLETE_ORDER_WITHIN_TIME_WINDOW"
      },
      "attributes" : [ "AoC108" ],
      "incompatibleAttributes" : [ ],
      "stopSequence" : 1
    }
  }, {
    "id" : 159421,
    "metadata" : {
      "name" : "mID159421"
    },
    "depot" : 0,
    "location" : {
      "latitude" : 51525448,
      "longitude" : -315858,
      "metadata" : { }
    },
    "pickupDuration" : 0,
    "serviceDuration" : 360000,
    "unloadDuration" : 0,
    "durationPerVisit" : 0,
    "priority" : 2,
    "jobType" : "DROP",
    "constraints" : {
      "demand" : {
        "values" : [ 1.0, 0.0, 0.0, 0.0 ]
      },
      "pickupTimeWindows" : [ {
        "startTime" : 1372896060000,
        "endTime" : 1372982340000
      } ],
      "timeWindowConstraints" : {
        "serviceTimeWindows" : [ {
          "startTime" : 1372899600000,
          "endTime" : 1372924800000
        } ],
        "timeWindowPolicy" : "COMPLETE_ORDER_WITHIN_TIME_WINDOW"
      },
      "attributes" : [ "AoC108" ],
      "incompatibleAttributes" : [ ],
      "stopSequence" : 1
    }
  }, {
    "id" : 159422,
    "metadata" : {
      "name" : "mID159422"
    },
    "depot" : 0,
    "location" : {
      "latitude" : 51588680,
      "longitude" : -682683,
      "metadata" : { }
    },
    "pickupDuration" : 0,
    "serviceDuration" : 360000,
    "unloadDuration" : 0,
    "durationPerVisit" : 0,
    "priority" : 2,
    "jobType" : "DROP",
    "constraints" : {
      "demand" : {
        "values" : [ 2.0, 0.0, 0.0, 0.0 ]
      },
      "pickupTimeWindows" : [ {
        "startTime" : 1372896060000,
        "endTime" : 1372982340000
      } ],
      "timeWindowConstraints" : {
        "serviceTimeWindows" : [ {
          "startTime" : 1372899600000,
          "endTime" : 1372924800000
        } ],
        "timeWindowPolicy" : "COMPLETE_ORDER_WITHIN_TIME_WINDOW"
      },
      "attributes" : [ "AoC108" ],
      "incompatibleAttributes" : [ ],
      "stopSequence" : 1
    }
  }, {
    "id" : 159423,
    "metadata" : {
      "name" : "mID159423"
    },
    "depot" : 0,
    "location" : {
      "latitude" : 51372173,
      "longitude" : -459821,
      "metadata" : { }
    },
    "pickupDuration" : 0,
    "serviceDuration" : 360000,
    "unloadDuration" : 0,
    "durationPerVisit" : 0,
    "priority" : 2,
    "jobType" : "DROP",
    "constraints" : {
      "demand" : {
        "values" : [ 1.0, 0.0, 0.0, 0.0 ]
      },
      "pickupTimeWindows" : [ {
        "startTime" : 1372896060000,
        "endTime" : 1372982340000
      } ],
      "timeWindowConstraints" : {
        "serviceTimeWindows" : [ {
          "startTime" : 1372899600000,
          "endTime" : 1372924800000
        } ],
        "timeWindowPolicy" : "COMPLETE_ORDER_WITHIN_TIME_WINDOW"
      },
      "attributes" : [ "AoC108" ],
      "incompatibleAttributes" : [ ],
      "stopSequence" : 1
    }
  }, {
    "id" : 159424,
    "metadata" : {
      "name" : "mID159424"
    },
    "depot" : 0,
    "location" : {
      "latitude" : 51502341,
      "longitude" : -316047,
      "metadata" : { }
    },
    "pickupDuration" : 0,
    "serviceDuration" : 360000,
    "unloadDuration" : 0,
    "durationPerVisit" : 0,
    "priority" : 2,
    "jobType" : "DROP",
    "constraints" : {
      "demand" : {
        "values" : [ 1.0, 0.0, 0.0, 0.0 ]
      },
      "pickupTimeWindows" : [ {
        "startTime" : 1372896060000,
        "endTime" : 1372982340000
      } ],
      "timeWindowConstraints" : {
        "serviceTimeWindows" : [ {
          "startTime" : 1372899600000,
          "endTime" : 1372924800000
        } ],
        "timeWindowPolicy" : "COMPLETE_ORDER_WITHIN_TIME_WINDOW"
      },
      "attributes" : [ "AoC108" ],
      "incompatibleAttributes" : [ ],
      "stopSequence" : 1
    }
  }, {
    "id" : 159425,
    "metadata" : {
      "name" : "mID159425"
    },
    "depot" : 0,
    "location" : {
      "latitude" : 51507839,
      "longitude" : -132217,
      "metadata" : { }
    },
    "pickupDuration" : 0,
    "serviceDuration" : 360000,
    "unloadDuration" : 0,
    "durationPerVisit" : 0,
    "priority" : 2,
    "jobType" : "DROP",
    "constraints" : {
      "demand" : {
        "values" : [ 2.0, 0.0, 0.0, 0.0 ]
      },
      "pickupTimeWindows" : [ {
        "startTime" : 1372896060000,
        "endTime" : 1372982340000
      } ],
      "timeWindowConstraints" : {
        "serviceTimeWindows" : [ {
          "startTime" : 1372899600000,
          "endTime" : 1372924800000
        } ],
        "timeWindowPolicy" : "COMPLETE_ORDER_WITHIN_TIME_WINDOW"
      },
      "attributes" : [ "AoC108" ],
      "incompatibleAttributes" : [ ],
      "stopSequence" : 1
    }
  }, {
    "id" : 159426,
    "metadata" : {
      "name" : "mID159426"
    },
    "depot" : 0,
    "location" : {
      "latitude" : 51395496,
      "longitude" : -953316,
      "metadata" : { }
    },
    "pickupDuration" : 0,
    "serviceDuration" : 360000,
    "unloadDuration" : 0,
    "durationPerVisit" : 0,
    "priority" : 2,
    "jobType" : "DROP",
    "constraints" : {
      "demand" : {
        "values" : [ 1.0, 0.0, 0.0, 0.0 ]
      },
      "pickupTimeWindows" : [ {
        "startTime" : 1372896060000,
        "endTime" : 1372982340000
      } ],
      "timeWindowConstraints" : {
        "serviceTimeWindows" : [ {
          "startTime" : 1372899600000,
          "endTime" : 1372924800000
        } ],
        "timeWindowPolicy" : "COMPLETE_ORDER_WITHIN_TIME_WINDOW"
      },
      "attributes" : [ "AoC108" ],
      "incompatibleAttributes" : [ ],
      "stopSequence" : 1
    }
  }, {
    "id" : 159427,
    "metadata" : {
      "name" : "mID159427"
    },
    "depot" : 0,
    "location" : {
      "latitude" : 51303267,
      "longitude" : -328724,
      "metadata" : { }
    },
    "pickupDuration" : 0,
    "serviceDuration" : 360000,
    "unloadDuration" : 0,
    "durationPerVisit" : 0,
    "priority" : 2,
    "jobType" : "DROP",
    "constraints" : {
      "demand" : {
        "values" : [ 1.0, 0.0, 0.0, 0.0 ]
      },
      "pickupTimeWindows" : [ {
        "startTime" : 1372896060000,
        "endTime" : 1372982340000
      } ],
      "timeWindowConstraints" : {
        "serviceTimeWindows" : [ {
          "startTime" : 1372899600000,
          "endTime" : 1372924800000
        } ],
        "timeWindowPolicy" : "COMPLETE_ORDER_WITHIN_TIME_WINDOW"
      },
      "attributes" : [ "AoC108" ],
      "incompatibleAttributes" : [ ],
      "stopSequence" : 1
    }
  }, {
    "id" : 159428,
    "metadata" : {
      "name" : "mID159428"
    },
    "depot" : 0,
    "location" : {
      "latitude" : 51457339,
      "longitude" : -304016,
      "metadata" : { }
    },
    "pickupDuration" : 0,
    "serviceDuration" : 360000,
    "unloadDuration" : 0,
    "durationPerVisit" : 0,
    "priority" : 2,
    "jobType" : "DROP",
    "constraints" : {
      "demand" : {
        "values" : [ 1.0, 0.0, 0.0, 0.0 ]
      },
      "pickupTimeWindows" : [ {
        "startTime" : 1372896060000,
        "endTime" : 1372982340000
      } ],
      "timeWindowConstraints" : {
        "serviceTimeWindows" : [ {
          "startTime" : 1372899600000,
          "endTime" : 1372924800000
        } ],
        "timeWindowPolicy" : "COMPLETE_ORDER_WITHIN_TIME_WINDOW"
      },
      "attributes" : [ "AoC108" ],
      "incompatibleAttributes" : [ ],
      "stopSequence" : 1
    }
  }, {
    "id" : 159429,
    "metadata" : {
      "name" : "mID159429"
    },
    "depot" : 0,
    "location" : {
      "latitude" : 51601809,
      "longitude" : -634739,
      "metadata" : { }
    },
    "pickupDuration" : 0,
    "serviceDuration" : 360000,
    "unloadDuration" : 0,
    "durationPerVisit" : 0,
    "priority" : 2,
    "jobType" : "DROP",
    "constraints" : {
      "demand" : {
        "values" : [ 1.0, 0.0, 0.0, 0.0 ]
      },
      "pickupTimeWindows" : [ {
        "startTime" : 1372896060000,
        "endTime" : 1372982340000
      } ],
      "timeWindowConstraints" : {
        "serviceTimeWindows" : [ {
          "startTime" : 1372899600000,
          "endTime" : 1372924800000
        } ],
        "timeWindowPolicy" : "COMPLETE_ORDER_WITHIN_TIME_WINDOW"
      },
      "attributes" : [ "AoC108" ],
      "incompatibleAttributes" : [ ],
      "stopSequence" : 1
    }
  }, {
    "id" : 159430,
    "metadata" : {
      "name" : "mID159430"
    },
    "depot" : 0,
    "location" : {
      "latitude" : 51521827,
      "longitude" : -779386,
      "metadata" : { }
    },
    "pickupDuration" : 0,
    "serviceDuration" : 360000,
    "unloadDuration" : 0,
    "durationPerVisit" : 0,
    "priority" : 2,
    "jobType" : "DROP",
    "constraints" : {
      "demand" : {
        "values" : [ 1.0, 0.0, 0.0, 0.0 ]
      },
      "pickupTimeWindows" : [ {
        "startTime" : 1372896060000,
        "endTime" : 1372982340000
      } ],
      "timeWindowConstraints" : {
        "serviceTimeWindows" : [ {
          "startTime" : 1372899600000,
          "endTime" : 1372924800000
        } ],
        "timeWindowPolicy" : "COMPLETE_ORDER_WITHIN_TIME_WINDOW"
      },
      "attributes" : [ "AoC108" ],
      "incompatibleAttributes" : [ ],
      "stopSequence" : 1
    }
  }, {
    "id" : 159431,
    "metadata" : {
      "name" : "mID159431"
    },
    "depot" : 0,
    "location" : {
      "latitude" : 51542182,
      "longitude" : -144767,
      "metadata" : { }
    },
    "pickupDuration" : 0,
    "serviceDuration" : 360000,
    "unloadDuration" : 0,
    "durationPerVisit" : 0,
    "priority" : 2,
    "jobType" : "DROP",
    "constraints" : {
      "demand" : {
        "values" : [ 1.0, 0.0, 0.0, 0.0 ]
      },
      "pickupTimeWindows" : [ {
        "startTime" : 1372896060000,
        "endTime" : 1372982340000
      } ],
      "timeWindowConstraints" : {
        "serviceTimeWindows" : [ {
          "startTime" : 1372899600000,
          "endTime" : 1372924800000
        } ],
        "timeWindowPolicy" : "COMPLETE_ORDER_WITHIN_TIME_WINDOW"
      },
      "attributes" : [ "AoC108" ],
      "incompatibleAttributes" : [ ],
      "stopSequence" : 1
    }
  }, {
    "id" : 159432,
    "metadata" : {
      "name" : "mID159432"
    },
    "depot" : 0,
    "location" : {
      "latitude" : 51688435,
      "longitude" : -1201620,
      "metadata" : { }
    },
    "pickupDuration" : 0,
    "serviceDuration" : 360000,
    "unloadDuration" : 0,
    "durationPerVisit" : 0,
    "priority" : 2,
    "jobType" : "DROP",
    "constraints" : {
      "demand" : {
        "values" : [ 2.0, 0.0, 0.0, 0.0 ]
      },
      "pickupTimeWindows" : [ {
        "startTime" : 1372896060000,
        "endTime" : 1372982340000
      } ],
      "timeWindowConstraints" : {
        "serviceTimeWindows" : [ {
          "startTime" : 1372899600000,
          "endTime" : 1372924800000
        } ],
        "timeWindowPolicy" : "COMPLETE_ORDER_WITHIN_TIME_WINDOW"
      },
      "attributes" : [ "AoC108" ],
      "incompatibleAttributes" : [ ],
      "stopSequence" : 1
    }
  }, {
    "id" : 159433,
    "metadata" : {
      "name" : "mID159433"
    },
    "depot" : 0,
    "location" : {
      "latitude" : 51477656,
      "longitude" : -282007,
      "metadata" : { }
    },
    "pickupDuration" : 0,
    "serviceDuration" : 360000,
    "unloadDuration" : 0,
    "durationPerVisit" : 0,
    "priority" : 2,
    "jobType" : "DROP",
    "constraints" : {
      "demand" : {
        "values" : [ 2.0, 0.0, 0.0, 0.0 ]
      },
      "pickupTimeWindows" : [ {
        "startTime" : 1372896060000,
        "endTime" : 1372982340000
      } ],
      "timeWindowConstraints" : {
        "serviceTimeWindows" : [ {
          "startTime" : 1372899600000,
          "endTime" : 1372924800000
        } ],
        "timeWindowPolicy" : "COMPLETE_ORDER_WITHIN_TIME_WINDOW"
      },
      "attributes" : [ "AoC108" ],
      "incompatibleAttributes" : [ ],
      "stopSequence" : 1
    }
  }, {
    "id" : 159434,
    "metadata" : {
      "name" : "mID159434"
    },
    "depot" : 0,
    "location" : {
      "latitude" : 51467066,
      "longitude" : -964521,
      "metadata" : { }
    },
    "pickupDuration" : 0,
    "serviceDuration" : 360000,
    "unloadDuration" : 0,
    "durationPerVisit" : 0,
    "priority" : 2,
    "jobType" : "DROP",
    "constraints" : {
      "demand" : {
        "values" : [ 1.0, 0.0, 0.0, 0.0 ]
      },
      "pickupTimeWindows" : [ {
        "startTime" : 1372896060000,
        "endTime" : 1372982340000
      } ],
      "timeWindowConstraints" : {
        "serviceTimeWindows" : [ {
          "startTime" : 1372899600000,
          "endTime" : 1372924800000
        } ],
        "timeWindowPolicy" : "COMPLETE_ORDER_WITHIN_TIME_WINDOW"
      },
      "attributes" : [ "AoC108" ],
      "incompatibleAttributes" : [ ],
      "stopSequence" : 1
    }
  }, {
    "id" : 159435,
    "metadata" : {
      "name" : "mID159435"
    },
    "depot" : 0,
    "location" : {
      "latitude" : 51468705,
      "longitude" : -254886,
      "metadata" : { }
    },
    "pickupDuration" : 0,
    "serviceDuration" : 360000,
    "unloadDuration" : 0,
    "durationPerVisit" : 0,
    "priority" : 2,
    "jobType" : "DROP",
    "constraints" : {
      "demand" : {
        "values" : [ 1.0, 0.0, 0.0, 0.0 ]
      },
      "pickupTimeWindows" : [ {
        "startTime" : 1372896060000,
        "endTime" : 1372982340000
      } ],
      "timeWindowConstraints" : {
        "serviceTimeWindows" : [ {
          "startTime" : 1372899600000,
          "endTime" : 1372924800000
        } ],
        "timeWindowPolicy" : "COMPLETE_ORDER_WITHIN_TIME_WINDOW"
      },
      "attributes" : [ "AoC108" ],
      "incompatibleAttributes" : [ ],
      "stopSequence" : 1
    }
  }, {
    "id" : 159436,
    "metadata" : {
      "name" : "mID159436"
    },
    "depot" : 0,
    "location" : {
      "latitude" : 51541214,
      "longitude" : -901293,
      "metadata" : { }
    },
    "pickupDuration" : 0,
    "serviceDuration" : 360000,
    "unloadDuration" : 0,
    "durationPerVisit" : 0,
    "priority" : 2,
    "jobType" : "DROP",
    "constraints" : {
      "demand" : {
        "values" : [ 1.0, 0.0, 0.0, 0.0 ]
      },
      "pickupTimeWindows" : [ {
        "startTime" : 1372896060000,
        "endTime" : 1372982340000
      } ],
      "timeWindowConstraints" : {
        "serviceTimeWindows" : [ {
          "startTime" : 1372899600000,
          "endTime" : 1372924800000
        } ],
        "timeWindowPolicy" : "COMPLETE_ORDER_WITHIN_TIME_WINDOW"
      },
      "attributes" : [ "AoC108" ],
      "incompatibleAttributes" : [ ],
      "stopSequence" : 1
    }
  }, {
    "id" : 159437,
    "metadata" : {
      "name" : "mID159437"
    },
    "depot" : 0,
    "location" : {
      "latitude" : 51657831,
      "longitude" : -709595,
      "metadata" : { }
    },
    "pickupDuration" : 0,
    "serviceDuration" : 360000,
    "unloadDuration" : 0,
    "durationPerVisit" : 0,
    "priority" : 2,
    "jobType" : "DROP",
    "constraints" : {
      "demand" : {
        "values" : [ 2.0, 0.0, 0.0, 0.0 ]
      },
      "pickupTimeWindows" : [ {
        "startTime" : 1372896060000,
        "endTime" : 1372982340000
      } ],
      "timeWindowConstraints" : {
        "serviceTimeWindows" : [ {
          "startTime" : 1372899600000,
          "endTime" : 1372924800000
        } ],
        "timeWindowPolicy" : "COMPLETE_ORDER_WITHIN_TIME_WINDOW"
      },
      "attributes" : [ "AoC108" ],
      "incompatibleAttributes" : [ ],
      "stopSequence" : 1
    }
  }, {
    "id" : 159438,
    "metadata" : {
      "name" : "mID159438"
    },
    "depot" : 0,
    "location" : {
      "latitude" : 51571381,
      "longitude" : -775808,
      "metadata" : { }
    },
    "pickupDuration" : 0,
    "serviceDuration" : 360000,
    "unloadDuration" : 0,
    "durationPerVisit" : 0,
    "priority" : 2,
    "jobType" : "DROP",
    "constraints" : {
      "demand" : {
        "values" : [ 4.0, 0.0, 0.0, 0.0 ]
      },
      "pickupTimeWindows" : [ {
        "startTime" : 1372896060000,
        "endTime" : 1372982340000
      } ],
      "timeWindowConstraints" : {
        "serviceTimeWindows" : [ {
          "startTime" : 1372899600000,
          "endTime" : 1372924800000
        } ],
        "timeWindowPolicy" : "COMPLETE_ORDER_WITHIN_TIME_WINDOW"
      },
      "attributes" : [ "AoC108" ],
      "incompatibleAttributes" : [ ],
      "stopSequence" : 1
    }
  }, {
    "id" : 159439,
    "metadata" : {
      "name" : "mID159439"
    },
    "depot" : 0,
    "location" : {
      "latitude" : 51816509,
      "longitude" : -839046,
      "metadata" : { }
    },
    "pickupDuration" : 0,
    "serviceDuration" : 360000,
    "unloadDuration" : 0,
    "durationPerVisit" : 0,
    "priority" : 2,
    "jobType" : "DROP",
    "constraints" : {
      "demand" : {
        "values" : [ 1.0, 0.0, 0.0, 0.0 ]
      },
      "pickupTimeWindows" : [ {
        "startTime" : 1372896060000,
        "endTime" : 1372982340000
      } ],
      "timeWindowConstraints" : {
        "serviceTimeWindows" : [ {
          "startTime" : 1372899600000,
          "endTime" : 1372924800000
        } ],
        "timeWindowPolicy" : "COMPLETE_ORDER_WITHIN_TIME_WINDOW"
      },
      "attributes" : [ "AoC108" ],
      "incompatibleAttributes" : [ ],
      "stopSequence" : 1
    }
  }, {
    "id" : 159440,
    "metadata" : {
      "name" : "mID159440"
    },
    "depot" : 0,
    "location" : {
      "latitude" : 51515284,
      "longitude" : -304991,
      "metadata" : { }
    },
    "pickupDuration" : 0,
    "serviceDuration" : 360000,
    "unloadDuration" : 0,
    "durationPerVisit" : 0,
    "priority" : 2,
    "jobType" : "DROP",
    "constraints" : {
      "demand" : {
        "values" : [ 1.0, 0.0, 0.0, 0.0 ]
      },
      "pickupTimeWindows" : [ {
        "startTime" : 1372896060000,
        "endTime" : 1372982340000
      } ],
      "timeWindowConstraints" : {
        "serviceTimeWindows" : [ {
          "startTime" : 1372899600000,
          "endTime" : 1372924800000
        } ],
        "timeWindowPolicy" : "COMPLETE_ORDER_WITHIN_TIME_WINDOW"
      },
      "attributes" : [ "AoC108" ],
      "incompatibleAttributes" : [ ],
      "stopSequence" : 1
    }
  }, {
    "id" : 159441,
    "metadata" : {
      "name" : "mID159441"
    },
    "depot" : 0,
    "location" : {
      "latitude" : 51444581,
      "longitude" : -205657,
      "metadata" : { }
    },
    "pickupDuration" : 0,
    "serviceDuration" : 360000,
    "unloadDuration" : 0,
    "durationPerVisit" : 0,
    "priority" : 2,
    "jobType" : "DROP",
    "constraints" : {
      "demand" : {
        "values" : [ 1.0, 0.0, 0.0, 0.0 ]
      },
      "pickupTimeWindows" : [ {
        "startTime" : 1372896060000,
        "endTime" : 1372982340000
      } ],
      "timeWindowConstraints" : {
        "serviceTimeWindows" : [ {
          "startTime" : 1372899600000,
          "endTime" : 1372924800000
        } ],
        "timeWindowPolicy" : "COMPLETE_ORDER_WITHIN_TIME_WINDOW"
      },
      "attributes" : [ "AoC108" ],
      "incompatibleAttributes" : [ ],
      "stopSequence" : 1
    }
  }, {
    "id" : 159442,
    "metadata" : {
      "name" : "mID159442"
    },
    "depot" : 0,
    "location" : {
      "latitude" : 51599215,
      "longitude" : -1125364,
      "metadata" : { }
    },
    "pickupDuration" : 0,
    "serviceDuration" : 360000,
    "unloadDuration" : 0,
    "durationPerVisit" : 0,
    "priority" : 2,
    "jobType" : "DROP",
    "constraints" : {
      "demand" : {
        "values" : [ 1.0, 0.0, 0.0, 0.0 ]
      },
      "pickupTimeWindows" : [ {
        "startTime" : 1372896060000,
        "endTime" : 1372982340000
      } ],
      "timeWindowConstraints" : {
        "serviceTimeWindows" : [ {
          "startTime" : 1372899600000,
          "endTime" : 1372924800000
        } ],
        "timeWindowPolicy" : "COMPLETE_ORDER_WITHIN_TIME_WINDOW"
      },
      "attributes" : [ "AoC108" ],
      "incompatibleAttributes" : [ ],
      "stopSequence" : 1
    }
  }, {
    "id" : 159443,
    "metadata" : {
      "name" : "mID159443"
    },
    "depot" : 0,
    "location" : {
      "latitude" : 51521292,
      "longitude" : -1139858,
      "metadata" : { }
    },
    "pickupDuration" : 0,
    "serviceDuration" : 360000,
    "unloadDuration" : 0,
    "durationPerVisit" : 0,
    "priority" : 2,
    "jobType" : "DROP",
    "constraints" : {
      "demand" : {
        "values" : [ 1.0, 0.0, 0.0, 0.0 ]
      },
      "pickupTimeWindows" : [ {
        "startTime" : 1372896060000,
        "endTime" : 1372982340000
      } ],
      "timeWindowConstraints" : {
        "serviceTimeWindows" : [ {
          "startTime" : 1372899600000,
          "endTime" : 1372924800000
        } ],
        "timeWindowPolicy" : "COMPLETE_ORDER_WITHIN_TIME_WINDOW"
      },
      "attributes" : [ "AoC108" ],
      "incompatibleAttributes" : [ ],
      "stopSequence" : 1
    }
  }, {
    "id" : 159444,
    "metadata" : {
      "name" : "mID159444"
    },
    "depot" : 0,
    "location" : {
      "latitude" : 51329455,
      "longitude" : -410568,
      "metadata" : { }
    },
    "pickupDuration" : 0,
    "serviceDuration" : 360000,
    "unloadDuration" : 0,
    "durationPerVisit" : 0,
    "priority" : 2,
    "jobType" : "DROP",
    "constraints" : {
      "demand" : {
        "values" : [ 1.0, 0.0, 0.0, 0.0 ]
      },
      "pickupTimeWindows" : [ {
        "startTime" : 1372896060000,
        "endTime" : 1372982340000
      } ],
      "timeWindowConstraints" : {
        "serviceTimeWindows" : [ {
          "startTime" : 1372899600000,
          "endTime" : 1372924800000
        } ],
        "timeWindowPolicy" : "COMPLETE_ORDER_WITHIN_TIME_WINDOW"
      },
      "attributes" : [ "AoC108" ],
      "incompatibleAttributes" : [ ],
      "stopSequence" : 1
    }
  }, {
    "id" : 159445,
    "metadata" : {
      "name" : "mID159445"
    },
    "depot" : 0,
    "location" : {
      "latitude" : 51751605,
      "longitude" : -1297954,
      "metadata" : { }
    },
    "pickupDuration" : 0,
    "serviceDuration" : 360000,
    "unloadDuration" : 0,
    "durationPerVisit" : 0,
    "priority" : 2,
    "jobType" : "DROP",
    "constraints" : {
      "demand" : {
        "values" : [ 3.0, 0.0, 0.0, 0.0 ]
      },
      "pickupTimeWindows" : [ {
        "startTime" : 1372896060000,
        "endTime" : 1372982340000
      } ],
      "timeWindowConstraints" : {
        "serviceTimeWindows" : [ {
          "startTime" : 1372899600000,
          "endTime" : 1372924800000
        } ],
        "timeWindowPolicy" : "COMPLETE_ORDER_WITHIN_TIME_WINDOW"
      },
      "attributes" : [ "AoC108" ],
      "incompatibleAttributes" : [ ],
      "stopSequence" : 1
    }
  }, {
    "id" : 159446,
    "metadata" : {
      "name" : "mID159446"
    },
    "depot" : 0,
    "location" : {
      "latitude" : 51424623,
      "longitude" : -216623,
      "metadata" : { }
    },
    "pickupDuration" : 0,
    "serviceDuration" : 360000,
    "unloadDuration" : 0,
    "durationPerVisit" : 0,
    "priority" : 2,
    "jobType" : "DROP",
    "constraints" : {
      "demand" : {
        "values" : [ 2.0, 0.0, 0.0, 0.0 ]
      },
      "pickupTimeWindows" : [ {
        "startTime" : 1372896060000,
        "endTime" : 1372982340000
      } ],
      "timeWindowConstraints" : {
        "serviceTimeWindows" : [ {
          "startTime" : 1372899600000,
          "endTime" : 1372924800000
        } ],
        "timeWindowPolicy" : "COMPLETE_ORDER_WITHIN_TIME_WINDOW"
      },
      "attributes" : [ "AoC108" ],
      "incompatibleAttributes" : [ ],
      "stopSequence" : 1
    }
  }, {
    "id" : 159447,
    "metadata" : {
      "name" : "mID159447"
    },
    "depot" : 0,
    "location" : {
      "latitude" : 51786954,
      "longitude" : -1484801,
      "metadata" : { }
    },
    "pickupDuration" : 0,
    "serviceDuration" : 360000,
    "unloadDuration" : 0,
    "durationPerVisit" : 0,
    "priority" : 2,
    "jobType" : "DROP",
    "constraints" : {
      "demand" : {
        "values" : [ 1.0, 0.0, 0.0, 0.0 ]
      },
      "pickupTimeWindows" : [ {
        "startTime" : 1372896060000,
        "endTime" : 1372982340000
      } ],
      "timeWindowConstraints" : {
        "serviceTimeWindows" : [ {
          "startTime" : 1372899600000,
          "endTime" : 1372924800000
        } ],
        "timeWindowPolicy" : "COMPLETE_ORDER_WITHIN_TIME_WINDOW"
      },
      "attributes" : [ "AoC108" ],
      "incompatibleAttributes" : [ ],
      "stopSequence" : 1
    }
  }, {
    "id" : 159448,
    "metadata" : {
      "name" : "mID159448"
    },
    "depot" : 0,
    "location" : {
      "latitude" : 51706099,
      "longitude" : -416925,
      "metadata" : { }
    },
    "pickupDuration" : 0,
    "serviceDuration" : 360000,
    "unloadDuration" : 0,
    "durationPerVisit" : 0,
    "priority" : 2,
    "jobType" : "DROP",
    "constraints" : {
      "demand" : {
        "values" : [ 1.0, 0.0, 0.0, 0.0 ]
      },
      "pickupTimeWindows" : [ {
        "startTime" : 1372896060000,
        "endTime" : 1372982340000
      } ],
      "timeWindowConstraints" : {
        "serviceTimeWindows" : [ {
          "startTime" : 1372899600000,
          "endTime" : 1372924800000
        } ],
        "timeWindowPolicy" : "COMPLETE_ORDER_WITHIN_TIME_WINDOW"
      },
      "attributes" : [ "AoC108" ],
      "incompatibleAttributes" : [ ],
      "stopSequence" : 1
    }
  }, {
    "id" : 159449,
    "metadata" : {
      "name" : "mID159449"
    },
    "depot" : 0,
    "location" : {
      "latitude" : 51110552,
      "longitude" : -747982,
      "metadata" : { }
    },
    "pickupDuration" : 0,
    "serviceDuration" : 360000,
    "unloadDuration" : 0,
    "durationPerVisit" : 0,
    "priority" : 2,
    "jobType" : "DROP",
    "constraints" : {
      "demand" : {
        "values" : [ 1.0, 0.0, 0.0, 0.0 ]
      },
      "pickupTimeWindows" : [ {
        "startTime" : 1372896060000,
        "endTime" : 1372982340000
      } ],
      "timeWindowConstraints" : {
        "serviceTimeWindows" : [ {
          "startTime" : 1372899600000,
          "endTime" : 1372924800000
        } ],
        "timeWindowPolicy" : "COMPLETE_ORDER_WITHIN_TIME_WINDOW"
      },
      "attributes" : [ "AoC108" ],
      "incompatibleAttributes" : [ ],
      "stopSequence" : 1
    }
  }, {
    "id" : 159450,
    "metadata" : {
      "name" : "mID159450"
    },
    "depot" : 0,
    "location" : {
      "latitude" : 51530753,
      "longitude" : -373852,
      "metadata" : { }
    },
    "pickupDuration" : 0,
    "serviceDuration" : 360000,
    "unloadDuration" : 0,
    "durationPerVisit" : 0,
    "priority" : 2,
    "jobType" : "DROP",
    "constraints" : {
      "demand" : {
        "values" : [ 1.0, 0.0, 0.0, 0.0 ]
      },
      "pickupTimeWindows" : [ {
        "startTime" : 1372896060000,
        "endTime" : 1372982340000
      } ],
      "timeWindowConstraints" : {
        "serviceTimeWindows" : [ {
          "startTime" : 1372899600000,
          "endTime" : 1372924800000
        } ],
        "timeWindowPolicy" : "COMPLETE_ORDER_WITHIN_TIME_WINDOW"
      },
      "attributes" : [ "AoC108" ],
      "incompatibleAttributes" : [ ],
      "stopSequence" : 1
    }
  }, {
    "id" : 159451,
    "metadata" : {
      "name" : "mID159451"
    },
    "depot" : 0,
    "location" : {
      "latitude" : 51561807,
      "longitude" : -1134593,
      "metadata" : { }
    },
    "pickupDuration" : 0,
    "serviceDuration" : 360000,
    "unloadDuration" : 0,
    "durationPerVisit" : 0,
    "priority" : 2,
    "jobType" : "DROP",
    "constraints" : {
      "demand" : {
        "values" : [ 1.0, 0.0, 0.0, 0.0 ]
      },
      "pickupTimeWindows" : [ {
        "startTime" : 1372896060000,
        "endTime" : 1372982340000
      } ],
      "timeWindowConstraints" : {
        "serviceTimeWindows" : [ {
          "startTime" : 1372899600000,
          "endTime" : 1372924800000
        } ],
        "timeWindowPolicy" : "COMPLETE_ORDER_WITHIN_TIME_WINDOW"
      },
      "attributes" : [ "AoC108" ],
      "incompatibleAttributes" : [ ],
      "stopSequence" : 1
    }
  }, {
    "id" : 159452,
    "metadata" : {
      "name" : "mID159452"
    },
    "depot" : 0,
    "location" : {
      "latitude" : 51588453,
      "longitude" : -1425681,
      "metadata" : { }
    },
    "pickupDuration" : 0,
    "serviceDuration" : 360000,
    "unloadDuration" : 0,
    "durationPerVisit" : 0,
    "priority" : 2,
    "jobType" : "DROP",
    "constraints" : {
      "demand" : {
        "values" : [ 1.0, 0.0, 0.0, 0.0 ]
      },
      "pickupTimeWindows" : [ {
        "startTime" : 1372896060000,
        "endTime" : 1372982340000
      } ],
      "timeWindowConstraints" : {
        "serviceTimeWindows" : [ {
          "startTime" : 1372899600000,
          "endTime" : 1372924800000
        } ],
        "timeWindowPolicy" : "COMPLETE_ORDER_WITHIN_TIME_WINDOW"
      },
      "attributes" : [ "AoC108" ],
      "incompatibleAttributes" : [ ],
      "stopSequence" : 1
    }
  }, {
    "id" : 159453,
    "metadata" : {
      "name" : "mID159453"
    },
    "depot" : 0,
    "location" : {
      "latitude" : 51410896,
      "longitude" : -674010,
      "metadata" : { }
    },
    "pickupDuration" : 0,
    "serviceDuration" : 360000,
    "unloadDuration" : 0,
    "durationPerVisit" : 0,
    "priority" : 2,
    "jobType" : "DROP",
    "constraints" : {
      "demand" : {
        "values" : [ 2.0, 0.0, 0.0, 0.0 ]
      },
      "pickupTimeWindows" : [ {
        "startTime" : 1372896060000,
        "endTime" : 1372982340000
      } ],
      "timeWindowConstraints" : {
        "serviceTimeWindows" : [ {
          "startTime" : 1372899600000,
          "endTime" : 1372924800000
        } ],
        "timeWindowPolicy" : "COMPLETE_ORDER_WITHIN_TIME_WINDOW"
      },
      "attributes" : [ "AoC108" ],
      "incompatibleAttributes" : [ ],
      "stopSequence" : 1
    }
  }, {
    "id" : 159454,
    "metadata" : {
      "name" : "mID159454"
    },
    "depot" : 0,
    "location" : {
      "latitude" : 51505542,
      "longitude" : -150161,
      "metadata" : { }
    },
    "pickupDuration" : 0,
    "serviceDuration" : 360000,
    "unloadDuration" : 0,
    "durationPerVisit" : 0,
    "priority" : 2,
    "jobType" : "DROP",
    "constraints" : {
      "demand" : {
        "values" : [ 2.0, 0.0, 0.0, 0.0 ]
      },
      "pickupTimeWindows" : [ {
        "startTime" : 1372896060000,
        "endTime" : 1372982340000
      } ],
      "timeWindowConstraints" : {
        "serviceTimeWindows" : [ {
          "startTime" : 1372899600000,
          "endTime" : 1372924800000
        } ],
        "timeWindowPolicy" : "COMPLETE_ORDER_WITHIN_TIME_WINDOW"
      },
      "attributes" : [ "AoC108" ],
      "incompatibleAttributes" : [ ],
      "stopSequence" : 1
    }
  }, {
    "id" : 159455,
    "metadata" : {
      "name" : "mID159455"
    },
    "depot" : 0,
    "location" : {
      "latitude" : 51537606,
      "longitude" : -906010,
      "metadata" : { }
    },
    "pickupDuration" : 0,
    "serviceDuration" : 360000,
    "unloadDuration" : 0,
    "durationPerVisit" : 0,
    "priority" : 2,
    "jobType" : "DROP",
    "constraints" : {
      "demand" : {
        "values" : [ 1.0, 0.0, 0.0, 0.0 ]
      },
      "pickupTimeWindows" : [ {
        "startTime" : 1372896060000,
        "endTime" : 1372982340000
      } ],
      "timeWindowConstraints" : {
        "serviceTimeWindows" : [ {
          "startTime" : 1372899600000,
          "endTime" : 1372924800000
        } ],
        "timeWindowPolicy" : "COMPLETE_ORDER_WITHIN_TIME_WINDOW"
      },
      "attributes" : [ "AoC108" ],
      "incompatibleAttributes" : [ ],
      "stopSequence" : 1
    }
  }, {
    "id" : 159456,
    "metadata" : {
      "name" : "mID159456"
    },
    "depot" : 0,
    "location" : {
      "latitude" : 51480922,
      "longitude" : -612050,
      "metadata" : { }
    },
    "pickupDuration" : 0,
    "serviceDuration" : 360000,
    "unloadDuration" : 0,
    "durationPerVisit" : 0,
    "priority" : 2,
    "jobType" : "DROP",
    "constraints" : {
      "demand" : {
        "values" : [ 1.0, 0.0, 0.0, 0.0 ]
      },
      "pickupTimeWindows" : [ {
        "startTime" : 1372896060000,
        "endTime" : 1372982340000
      } ],
      "timeWindowConstraints" : {
        "serviceTimeWindows" : [ {
          "startTime" : 1372899600000,
          "endTime" : 1372924800000
        } ],
        "timeWindowPolicy" : "COMPLETE_ORDER_WITHIN_TIME_WINDOW"
      },
      "attributes" : [ "AoC108" ],
      "incompatibleAttributes" : [ ],
      "stopSequence" : 1
    }
  }, {
    "id" : 159457,
    "metadata" : {
      "name" : "mID159457"
    },
    "depot" : 0,
    "location" : {
      "latitude" : 51421154,
      "longitude" : -735629,
      "metadata" : { }
    },
    "pickupDuration" : 0,
    "serviceDuration" : 360000,
    "unloadDuration" : 0,
    "durationPerVisit" : 0,
    "priority" : 2,
    "jobType" : "DROP",
    "constraints" : {
      "demand" : {
        "values" : [ 1.0, 0.0, 0.0, 0.0 ]
      },
      "pickupTimeWindows" : [ {
        "startTime" : 1372896060000,
        "endTime" : 1372982340000
      } ],
      "timeWindowConstraints" : {
        "serviceTimeWindows" : [ {
          "startTime" : 1372899600000,
          "endTime" : 1372924800000
        } ],
        "timeWindowPolicy" : "COMPLETE_ORDER_WITHIN_TIME_WINDOW"
      },
      "attributes" : [ "AoC108" ],
      "incompatibleAttributes" : [ ],
      "stopSequence" : 1
    }
  }, {
    "id" : 159458,
    "metadata" : {
      "name" : "mID159458"
    },
    "depot" : 0,
    "location" : {
      "latitude" : 51764351,
      "longitude" : -1261070,
      "metadata" : { }
    },
    "pickupDuration" : 0,
    "serviceDuration" : 360000,
    "unloadDuration" : 0,
    "durationPerVisit" : 0,
    "priority" : 2,
    "jobType" : "DROP",
    "constraints" : {
      "demand" : {
        "values" : [ 2.0, 0.0, 0.0, 0.0 ]
      },
      "pickupTimeWindows" : [ {
        "startTime" : 1372896060000,
        "endTime" : 1372982340000
      } ],
      "timeWindowConstraints" : {
        "serviceTimeWindows" : [ {
          "startTime" : 1372899600000,
          "endTime" : 1372924800000
        } ],
        "timeWindowPolicy" : "COMPLETE_ORDER_WITHIN_TIME_WINDOW"
      },
      "attributes" : [ "AoC108" ],
      "incompatibleAttributes" : [ ],
      "stopSequence" : 1
    }
  }, {
    "id" : 159459,
    "metadata" : {
      "name" : "mID159459"
    },
    "depot" : 0,
    "location" : {
      "latitude" : 51478312,
      "longitude" : -1075147,
      "metadata" : { }
    },
    "pickupDuration" : 0,
    "serviceDuration" : 360000,
    "unloadDuration" : 0,
    "durationPerVisit" : 0,
    "priority" : 2,
    "jobType" : "DROP",
    "constraints" : {
      "demand" : {
        "values" : [ 1.0, 0.0, 0.0, 0.0 ]
      },
      "pickupTimeWindows" : [ {
        "startTime" : 1372896060000,
        "endTime" : 1372982340000
      } ],
      "timeWindowConstraints" : {
        "serviceTimeWindows" : [ {
          "startTime" : 1372899600000,
          "endTime" : 1372924800000
        } ],
        "timeWindowPolicy" : "COMPLETE_ORDER_WITHIN_TIME_WINDOW"
      },
      "attributes" : [ "AoC108" ],
      "incompatibleAttributes" : [ ],
      "stopSequence" : 1
    }
  } ],
  "schedules" : [ {
    "timeWindow" : {
      "startTime" : 1372896060000,
      "endTime" : 1372932000000
    },
    "runs" : [ ],
    "breaks" : [ ],
    "constraints" : { },
    "resource" : {
      "metadata" : {
        "name" : "BJ61UPY"
      },
      "id" : 1782,
      "depot" : 0,
      "hourCost" : 0.0,
      "kmCost" : 0.24860162,
      "routingProfile" : {
        "vehicleType" : "Default",
        "drivingTimeCorrectionFactor" : 1.1,
        "maxSpeed" : 64.36
      },
      "constraints" : {
        "runDistanceLimit" : "Infinity",
        "runWorkingTimeLimit" : 9223372036854775807,
        "scheduleWorkingTimeLimit" : 9223372036854775807,
        "scheduleDrivingTimeLimit" : 13140000,
        "addonCollectionDropDuration" : 0,
        "addonPickupDuration" : 2700000,
        "capacity" : {
          "values" : [ 28.0, 0.0, 0.0, 0.0 ]
        },
        "attributes" : [ "route2", "AoC108", "route1", "cargo=4.0=0.0=0.0=0.0", "cargo=3.0=0.0=0.0=0.0", "cargo=2.0=0.0=0.0=0.0", "cargo=1.0=0.0=0.0=0.0" ],
        "homeLocations" : {
          "startLocation" : {
            "latitude" : 51466180,
            "longitude" : -500106,
            "metadata" : { }
          },
          "endLocation" : {
            "latitude" : 51466180,
            "longitude" : -500106,
            "metadata" : { }
          }
        },
        "fixedStartTime" : -1
      }
    }
  }, {
    "timeWindow" : {
      "startTime" : 1372896060000,
      "endTime" : 1372932000000
    },
    "runs" : [ ],
    "breaks" : [ ],
    "constraints" : { },
    "resource" : {
      "metadata" : {
        "name" : "OV61XBS"
      },
      "id" : 1780,
      "depot" : 0,
      "hourCost" : 0.0,
      "kmCost" : 0.62150407,
      "routingProfile" : {
        "vehicleType" : "Default",
        "drivingTimeCorrectionFactor" : 1.1,
        "maxSpeed" : 64.36
      },
      "constraints" : {
        "runDistanceLimit" : "Infinity",
        "runWorkingTimeLimit" : 9223372036854775807,
        "scheduleWorkingTimeLimit" : 9223372036854775807,
        "scheduleDrivingTimeLimit" : 13140000,
        "addonCollectionDropDuration" : 0,
        "addonPickupDuration" : 2700000,
        "capacity" : {
          "values" : [ 28.0, 0.0, 0.0, 0.0 ]
        },
        "attributes" : [ "AoC108", "cargo=4.0=0.0=0.0=0.0", "cargo=3.0=0.0=0.0=0.0", "route5", "cargo=2.0=0.0=0.0=0.0", "cargo=1.0=0.0=0.0=0.0" ],
        "homeLocations" : {
          "startLocation" : {
            "latitude" : 51466180,
            "longitude" : -500106,
            "metadata" : { }
          },
          "endLocation" : {
            "latitude" : 51466180,
            "longitude" : -500106,
            "metadata" : { }
          }
        },
        "fixedStartTime" : -1
      }
    }
  }, {
    "timeWindow" : {
      "startTime" : 1372896060000,
      "endTime" : 1372932000000
    },
    "runs" : [ ],
    "breaks" : [ ],
    "constraints" : { },
    "resource" : {
      "metadata" : {
        "name" : "WJ620FV"
      },
      "id" : 1380,
      "depot" : 0,
      "hourCost" : 0.0,
      "kmCost" : 0.24860162,
      "routingProfile" : {
        "vehicleType" : "Default",
        "drivingTimeCorrectionFactor" : 1.1,
        "maxSpeed" : 64.36
      },
      "constraints" : {
        "runDistanceLimit" : "Infinity",
        "runWorkingTimeLimit" : 9223372036854775807,
        "scheduleWorkingTimeLimit" : 9223372036854775807,
        "scheduleDrivingTimeLimit" : 13140000,
        "addonCollectionDropDuration" : 0,
        "addonPickupDuration" : 2700000,
        "capacity" : {
          "values" : [ 28.0, 0.0, 0.0, 0.0 ]
        },
        "attributes" : [ "route4", "route3", "route2", "AoC108", "route1", "cargo=4.0=0.0=0.0=0.0", "cargo=3.0=0.0=0.0=0.0", "route5", "cargo=2.0=0.0=0.0=0.0", "cargo=1.0=0.0=0.0=0.0" ],
        "homeLocations" : {
          "startLocation" : {
            "latitude" : 51466180,
            "longitude" : -500106,
            "metadata" : { }
          },
          "endLocation" : {
            "latitude" : 51466180,
            "longitude" : -500106,
            "metadata" : { }
          }
        },
        "fixedStartTime" : -1
      }
    }
  }, {
    "timeWindow" : {
      "startTime" : 1372896060000,
      "endTime" : 1372932000000
    },
    "runs" : [ ],
    "breaks" : [ ],
    "constraints" : { },
    "resource" : {
      "metadata" : {
        "name" : "WL60DKE"
      },
      "id" : 1381,
      "depot" : 0,
      "hourCost" : 0.0,
      "kmCost" : 0.24860162,
      "routingProfile" : {
        "vehicleType" : "Default",
        "drivingTimeCorrectionFactor" : 1.1,
        "maxSpeed" : 64.36
      },
      "constraints" : {
        "runDistanceLimit" : "Infinity",
        "runWorkingTimeLimit" : 9223372036854775807,
        "scheduleWorkingTimeLimit" : 9223372036854775807,
        "scheduleDrivingTimeLimit" : 13140000,
        "addonCollectionDropDuration" : 0,
        "addonPickupDuration" : 2700000,
        "capacity" : {
          "values" : [ 14.0, 0.0, 0.0, 0.0 ]
        },
        "attributes" : [ "route4", "route3", "route2", "AoC108", "route1", "cargo=4.0=0.0=0.0=0.0", "cargo=3.0=0.0=0.0=0.0", "route5", "cargo=2.0=0.0=0.0=0.0", "cargo=1.0=0.0=0.0=0.0" ],
        "homeLocations" : {
          "startLocation" : {
            "latitude" : 51466180,
            "longitude" : -500106,
            "metadata" : { }
          },
          "endLocation" : {
            "latitude" : 51466180,
            "longitude" : -500106,
            "metadata" : { }
          }
        },
        "fixedStartTime" : -1
      }
    }
  }, {
    "timeWindow" : {
      "startTime" : 1372896060000,
      "endTime" : 1372932000000
    },
    "runs" : [ ],
    "breaks" : [ ],
    "constraints" : { },
    "resource" : {
      "metadata" : {
        "name" : "BJ61UPX"
      },
      "id" : 1784,
      "depot" : 0,
      "hourCost" : 0.0,
      "kmCost" : 0.24860162,
      "routingProfile" : {
        "vehicleType" : "Default",
        "drivingTimeCorrectionFactor" : 1.1,
        "maxSpeed" : 64.36
      },
      "constraints" : {
        "runDistanceLimit" : "Infinity",
        "runWorkingTimeLimit" : 9223372036854775807,
        "scheduleWorkingTimeLimit" : 9223372036854775807,
        "scheduleDrivingTimeLimit" : 13140000,
        "addonCollectionDropDuration" : 0,
        "addonPickupDuration" : 2700000,
        "capacity" : {
          "values" : [ 28.0, 0.0, 0.0, 0.0 ]
        },
        "attributes" : [ "route4", "route3", "AoC108", "cargo=4.0=0.0=0.0=0.0", "cargo=3.0=0.0=0.0=0.0", "route5", "cargo=2.0=0.0=0.0=0.0", "cargo=1.0=0.0=0.0=0.0" ],
        "homeLocations" : {
          "startLocation" : {
            "latitude" : 51466180,
            "longitude" : -500106,
            "metadata" : { }
          },
          "endLocation" : {
            "latitude" : 51466180,
            "longitude" : -500106,
            "metadata" : { }
          }
        },
        "fixedStartTime" : -1
      }
    }
  }, {
    "timeWindow" : {
      "startTime" : 1372968060000,
      "endTime" : 1373000400000
    },
    "runs" : [ ],
    "breaks" : [ ],
    "constraints" : { },
    "resource" : {
      "metadata" : {
        "name" : "OU07 MDK"
      },
      "id" : 1378,
      "depot" : 0,
      "hourCost" : 1.0,
      "kmCost" : 0.24860162,
      "routingProfile" : {
        "vehicleType" : "Default",
        "drivingTimeCorrectionFactor" : 1.1,
        "maxSpeed" : 64.36
      },
      "constraints" : {
        "runDistanceLimit" : "Infinity",
        "runWorkingTimeLimit" : 9223372036854775807,
        "scheduleWorkingTimeLimit" : 9223372036854775807,
        "scheduleDrivingTimeLimit" : 13140000,
        "addonCollectionDropDuration" : 0,
        "addonPickupDuration" : 2700000,
        "capacity" : {
          "values" : [ 28.0, 0.0, 0.0, 0.0 ]
        },
        "attributes" : [ "route4", "AoC108", "cargo=4.0=0.0=0.0=0.0", "cargo=3.0=0.0=0.0=0.0", "cargo=2.0=0.0=0.0=0.0", "cargo=1.0=0.0=0.0=0.0" ],
        "homeLocations" : {
          "startLocation" : {
            "latitude" : 51466180,
            "longitude" : -500106,
            "metadata" : { }
          },
          "endLocation" : {
            "latitude" : 51466180,
            "longitude" : -500106,
            "metadata" : { }
          }
        },
        "fixedStartTime" : -1
      }
    }
  } ],
  "depots" : [ {
    "id" : 0,
    "location" : {
      "latitude" : 51466180,
      "longitude" : -500106,
      "metadata" : { }
    },
    "constraints" : {
      "allowCollectionsWhileDrivingHome" : false,
      "allowDeliveriesWhileDrivingFromHome" : false,
      "availabilityWindows" : [ {
        "startTime" : 0,
        "endTime" : 57657355200332
      } ]
    }
  } ],
  "constraints" : {
    "allowMultipleRunsPerSchedule" : true,
    "consolidateSameSiteJobs" : "NONE"
  }
}