{
  "jobs" : [ {
    "id" : 163246,
    "metadata" : {
      "name" : "mID163246"
    },
    "depot" : 0,
    "location" : {
      "latitude" : 53915593,
      "longitude" : -163195,
      "metadata" : { }
    },
    "pickupDuration" : 57000,
    "serviceDuration" : 415980,
    "unloadDuration" : 0,
    "durationPerVisit" : 0,
    "priority" : 2,
    "jobType" : "DROP",
    "constraints" : {
      "demand" : {
        "values" : [ 57.6, 0.0, 0.0, 0.0 ]
      },
      "pickupTimeWindows" : [ {
        "startTime" : 1373428800000,
        "endTime" : 1373439540000
      } ],
      "timeWindowConstraints" : {
        "serviceTimeWindows" : [ {
          "startTime" : 1373439540000,
          "endTime" : 1373472000000
        } ],
        "timeWindowPolicy" : "COMPLETE_ORDER_WITHIN_TIME_WINDOW"
      },
      "attributes" : [ "AoC99" ],
      "incompatibleAttributes" : [ ],
      "stopSequence" : 1
    }
  }, {
    "id" : 163249,
    "metadata" : {
      "name" : "mID163249"
    },
    "depot" : 0,
    "location" : {
      "latitude" : 53856642,
      "longitude" : -1617483,
      "metadata" : { }
    },
    "pickupDuration" : 57000,
    "serviceDuration" : 415980,
    "unloadDuration" : 0,
    "durationPerVisit" : 0,
    "priority" : 2,
    "jobType" : "DROP",
    "constraints" : {
      "demand" : {
        "values" : [ 57.6, 0.0, 0.0, 0.0 ]
      },
      "pickupTimeWindows" : [ {
        "startTime" : 1373428800000,
        "endTime" : 1373439540000
      } ],
      "timeWindowConstraints" : {
        "serviceTimeWindows" : [ {
          "startTime" : 1373439540000,
          "endTime" : 1373472000000
        } ],
        "timeWindowPolicy" : "COMPLETE_ORDER_WITHIN_TIME_WINDOW"
      },
      "attributes" : [ "AoC99" ],
      "incompatibleAttributes" : [ ],
      "stopSequence" : 1
    }
  }, {
    "id" : 163250,
    "metadata" : {
      "name" : "mID163250"
    },
    "depot" : 0,
    "location" : {
      "latitude" : 53823010,
      "longitude" : -761195,
      "metadata" : { }
    },
    "pickupDuration" : 132000,
    "serviceDuration" : 565980,
    "unloadDuration" : 0,
    "durationPerVisit" : 0,
    "priority" : 2,
    "jobType" : "DROP",
    "constraints" : {
      "demand" : {
        "values" : [ 132.6, 0.0, 0.0, 0.0 ]
      },
      "pickupTimeWindows" : [ {
        "startTime" : 1373428800000,
        "endTime" : 1373439540000
      } ],
      "timeWindowConstraints" : {
        "serviceTimeWindows" : [ {
          "startTime" : 1373439540000,
          "endTime" : 1373472000000
        } ],
        "timeWindowPolicy" : "COMPLETE_ORDER_WITHIN_TIME_WINDOW"
      },
      "attributes" : [ "AoC99" ],
      "incompatibleAttributes" : [ ],
      "stopSequence" : 1
    }
  }, {
    "id" : 163255,
    "metadata" : {
      "name" : "mID163255"
    },
    "depot" : 0,
    "location" : {
      "latitude" : 53749285,
      "longitude" : -748397,
      "metadata" : { }
    },
    "pickupDuration" : 46980,
    "serviceDuration" : 393960,
    "unloadDuration" : 0,
    "durationPerVisit" : 0,
    "priority" : 2,
    "jobType" : "DROP",
    "constraints" : {
      "demand" : {
        "values" : [ 47.2, 0.0, 0.0, 0.0 ]
      },
      "pickupTimeWindows" : [ {
        "startTime" : 1373428800000,
        "endTime" : 1373439540000
      } ],
      "timeWindowConstraints" : {
        "serviceTimeWindows" : [ {
          "startTime" : 1373439540000,
          "endTime" : 1373472000000
        } ],
        "timeWindowPolicy" : "COMPLETE_ORDER_WITHIN_TIME_WINDOW"
      },
      "attributes" : [ "AoC99" ],
      "incompatibleAttributes" : [ ],
      "stopSequence" : 1
    }
  }, {
    "id" : 163268,
    "metadata" : {
      "name" : "mID163268"
    },
    "depot" : 0,
    "location" : {
      "latitude" : 53524920,
      "longitude" : -192017,
      "metadata" : { }
    },
    "pickupDuration" : 75960,
    "serviceDuration" : 453960,
    "unloadDuration" : 0,
    "durationPerVisit" : 0,
    "priority" : 2,
    "jobType" : "DROP",
    "constraints" : {
      "demand" : {
        "values" : [ 76.8, 0.0, 0.0, 0.0 ]
      },
      "pickupTimeWindows" : [ {
        "startTime" : 1373428800000,
        "endTime" : 1373439540000
      } ],
      "timeWindowConstraints" : {
        "serviceTimeWindows" : [ {
          "startTime" : 1373439540000,
          "endTime" : 1373472000000
        } ],
        "timeWindowPolicy" : "COMPLETE_ORDER_WITHIN_TIME_WINDOW"
      },
      "attributes" : [ "AoC99" ],
      "incompatibleAttributes" : [ ],
      "stopSequence" : 1
    }
  }, {
    "id" : 163305,
    "metadata" : {
      "name" : "mID163305"
    },
    "depot" : 0,
    "location" : {
      "latitude" : 53899364,
      "longitude" : -1650788,
      "metadata" : { }
    },
    "pickupDuration" : 84000,
    "serviceDuration" : 469980,
    "unloadDuration" : 0,
    "durationPerVisit" : 0,
    "priority" : 2,
    "jobType" : "DROP",
    "constraints" : {
      "demand" : {
        "values" : [ 84.92, 0.0, 0.0, 0.0 ]
      },
      "pickupTimeWindows" : [ {
        "startTime" : 1373428800000,
        "endTime" : 1373439540000
      } ],
      "timeWindowConstraints" : {
        "serviceTimeWindows" : [ {
          "startTime" : 1373443140000,
          "endTime" : 1373472000000
        } ],
        "timeWindowPolicy" : "COMPLETE_ORDER_WITHIN_TIME_WINDOW"
      },
      "attributes" : [ "AoC99" ],
      "incompatibleAttributes" : [ ],
      "stopSequence" : 1
    }
  }, {
    "id" : 163307,
    "metadata" : {
      "name" : "mID163307"
    },
    "depot" : 0,
    "location" : {
      "latitude" : 53933267,
      "longitude" : -1380880,
      "metadata" : { }
    },
    "pickupDuration" : 66960,
    "serviceDuration" : 433980,
    "unloadDuration" : 0,
    "durationPerVisit" : 0,
    "priority" : 2,
    "jobType" : "DROP",
    "constraints" : {
      "demand" : {
        "values" : [ 67.2, 0.0, 0.0, 0.0 ]
      },
      "pickupTimeWindows" : [ {
        "startTime" : 1373428800000,
        "endTime" : 1373439540000
      } ],
      "timeWindowConstraints" : {
        "serviceTimeWindows" : [ {
          "startTime" : 1373439540000,
          "endTime" : 1373472000000
        } ],
        "timeWindowPolicy" : "COMPLETE_ORDER_WITHIN_TIME_WINDOW"
      },
      "attributes" : [ "AoC99" ],
      "incompatibleAttributes" : [ ],
      "stopSequence" : 1
    }
  }, {
    "id" : 163311,
    "metadata" : {
      "name" : "mID163311"
    },
    "depot" : 0,
    "location" : {
      "latitude" : 53769867,
      "longitude" : -1065487,
      "metadata" : { }
    },
    "pickupDuration" : 318000,
    "serviceDuration" : 936000,
    "unloadDuration" : 0,
    "durationPerVisit" : 0,
    "priority" : 2,
    "jobType" : "DROP",
    "constraints" : {
      "demand" : {
        "values" : [ 318.16, 0.0, 0.0, 0.0 ]
      },
      "pickupTimeWindows" : [ {
        "startTime" : 1373428800000,
        "endTime" : 1373439540000
      } ],
      "timeWindowConstraints" : {
        "serviceTimeWindows" : [ {
          "startTime" : 1373439540000,
          "endTime" : 1373472000000
        } ],
        "timeWindowPolicy" : "COMPLETE_ORDER_WITHIN_TIME_WINDOW"
      },
      "attributes" : [ "AoC99" ],
      "incompatibleAttributes" : [ ],
      "stopSequence" : 1
    }
  }, {
    "id" : 163313,
    "metadata" : {
      "name" : "mID163313"
    },
    "depot" : 0,
    "location" : {
      "latitude" : 53528491,
      "longitude" : -1135831,
      "metadata" : { }
    },
    "pickupDuration" : 373980,
    "serviceDuration" : 1047960,
    "unloadDuration" : 0,
    "durationPerVisit" : 0,
    "priority" : 2,
    "jobType" : "DROP",
    "constraints" : {
      "demand" : {
        "values" : [ 374.12, 0.0, 0.0, 0.0 ]
      },
      "pickupTimeWindows" : [ {
        "startTime" : 1373428800000,
        "endTime" : 1373439540000
      } ],
      "timeWindowConstraints" : {
        "serviceTimeWindows" : [ {
          "startTime" : 1373439540000,
          "endTime" : 1373446800000
        } ],
        "timeWindowPolicy" : "COMPLETE_ORDER_WITHIN_TIME_WINDOW"
      },
      "attributes" : [ "AoC99" ],
      "incompatibleAttributes" : [ ],
      "stopSequence" : 1
    }
  }, {
    "id" : 163318,
    "metadata" : {
      "name" : "mID163318"
    },
    "depot" : 0,
    "location" : {
      "latitude" : 53883061,
      "longitude" : -800909,
      "metadata" : { }
    },
    "pickupDuration" : 81000,
    "serviceDuration" : 463980,
    "unloadDuration" : 0,
    "durationPerVisit" : 0,
    "priority" : 2,
    "jobType" : "DROP",
    "constraints" : {
      "demand" : {
        "values" : [ 81.6, 0.0, 0.0, 0.0 ]
      },
      "pickupTimeWindows" : [ {
        "startTime" : 1373428800000,
        "endTime" : 1373439540000
      } ],
      "timeWindowConstraints" : {
        "serviceTimeWindows" : [ {
          "startTime" : 1373439540000,
          "endTime" : 1373472000000
        } ],
        "timeWindowPolicy" : "COMPLETE_ORDER_WITHIN_TIME_WINDOW"
      },
      "attributes" : [ "AoC99" ],
      "incompatibleAttributes" : [ ],
      "stopSequence" : 1
    }
  }, {
    "id" : 163324,
    "metadata" : {
      "name" : "mID163324"
    },
    "depot" : 0,
    "location" : {
      "latitude" : 53952457,
      "longitude" : -244269,
      "metadata" : { }
    },
    "pickupDuration" : 46980,
    "serviceDuration" : 393960,
    "unloadDuration" : 0,
    "durationPerVisit" : 0,
    "priority" : 2,
    "jobType" : "DROP",
    "constraints" : {
      "demand" : {
        "values" : [ 47.0, 0.0, 0.0, 0.0 ]
      },
      "pickupTimeWindows" : [ {
        "startTime" : 1373428800000,
        "endTime" : 1373439540000
      } ],
      "timeWindowConstraints" : {
        "serviceTimeWindows" : [ {
          "startTime" : 1373439540000,
          "endTime" : 1373472000000
        } ],
        "timeWindowPolicy" : "COMPLETE_ORDER_WITHIN_TIME_WINDOW"
      },
      "attributes" : [ "AoC99" ],
      "incompatibleAttributes" : [ ],
      "stopSequence" : 1
    }
  }, {
    "id" : 163326,
    "metadata" : {
      "name" : "mID163326"
    },
    "depot" : 0,
    "location" : {
      "latitude" : 53608902,
      "longitude" : -938860,
      "metadata" : { }
    },
    "pickupDuration" : 180000,
    "serviceDuration" : 660000,
    "unloadDuration" : 0,
    "durationPerVisit" : 0,
    "priority" : 2,
    "jobType" : "DROP",
    "constraints" : {
      "demand" : {
        "values" : [ 180.0, 0.0, 0.0, 0.0 ]
      },
      "pickupTimeWindows" : [ {
        "startTime" : 1373428800000,
        "endTime" : 1373439600000
      } ],
      "timeWindowConstraints" : {
        "serviceTimeWindows" : [ {
          "startTime" : 1373439600000,
          "endTime" : 1373472000000
        } ],
        "timeWindowPolicy" : "COMPLETE_ORDER_WITHIN_TIME_WINDOW"
      },
      "attributes" : [ "AoC99" ],
      "incompatibleAttributes" : [ ],
      "stopSequence" : 1
    }
  }, {
    "id" : 163334,
    "metadata" : {
      "name" : "mID163334"
    },
    "depot" : 0,
    "location" : {
      "latitude" : 53753273,
      "longitude" : -327458,
      "metadata" : { }
    },
    "pickupDuration" : 189000,
    "serviceDuration" : 679980,
    "unloadDuration" : 0,
    "durationPerVisit" : 0,
    "priority" : 2,
    "jobType" : "DROP",
    "constraints" : {
      "demand" : {
        "values" : [ 189.6, 0.0, 0.0, 0.0 ]
      },
      "pickupTimeWindows" : [ {
        "startTime" : 1373428800000,
        "endTime" : 1373439540000
      } ],
      "timeWindowConstraints" : {
        "serviceTimeWindows" : [ {
          "startTime" : 1373439540000,
          "endTime" : 1373472000000
        } ],
        "timeWindowPolicy" : "COMPLETE_ORDER_WITHIN_TIME_WINDOW"
      },
      "attributes" : [ "AoC99" ],
      "incompatibleAttributes" : [ ],
      "stopSequence" : 1
    }
  }, {
    "id" : 163340,
    "metadata" : {
      "name" : "mID163340"
    },
    "depot" : 0,
    "location" : {
      "latitude" : 53986687,
      "longitude" : -1057879,
      "metadata" : { }
    },
    "pickupDuration" : 154980,
    "serviceDuration" : 609960,
    "unloadDuration" : 0,
    "durationPerVisit" : 0,
    "priority" : 2,
    "jobType" : "DROP",
    "constraints" : {
      "demand" : {
        "values" : [ 155.28, 0.0, 0.0, 0.0 ]
      },
      "pickupTimeWindows" : [ {
        "startTime" : 1373428800000,
        "endTime" : 1373439540000
      } ],
      "timeWindowConstraints" : {
        "serviceTimeWindows" : [ {
          "startTime" : 1373443140000,
          "endTime" : 1373461200000
        } ],
        "timeWindowPolicy" : "COMPLETE_ORDER_WITHIN_TIME_WINDOW"
      },
      "attributes" : [ "AoC99" ],
      "incompatibleAttributes" : [ ],
      "stopSequence" : 1
    }
  }, {
    "id" : 163342,
    "metadata" : {
      "name" : "mID163342"
    },
    "depot" : 0,
    "location" : {
      "latitude" : 53542979,
      "longitude" : -1100056,
      "metadata" : { }
    },
    "pickupDuration" : 96000,
    "serviceDuration" : 491940,
    "unloadDuration" : 0,
    "durationPerVisit" : 0,
    "priority" : 2,
    "jobType" : "DROP",
    "constraints" : {
      "demand" : {
        "values" : [ 96.0, 0.0, 0.0, 0.0 ]
      },
      "pickupTimeWindows" : [ {
        "startTime" : 1373428800000,
        "endTime" : 1373439540000
      } ],
      "timeWindowConstraints" : {
        "serviceTimeWindows" : [ {
          "startTime" : 1373443140000,
          "endTime" : 1373472000000
        } ],
        "timeWindowPolicy" : "COMPLETE_ORDER_WITHIN_TIME_WINDOW"
      },
      "attributes" : [ "AoC99" ],
      "incompatibleAttributes" : [ ],
      "stopSequence" : 1
    }
  }, {
    "id" : 163343,
    "metadata" : {
      "name" : "mID163343"
    },
    "depot" : 0,
    "location" : {
      "latitude" : 53745849,
      "longitude" : -429753,
      "metadata" : { }
    },
    "pickupDuration" : 54000,
    "serviceDuration" : 408000,
    "unloadDuration" : 0,
    "durationPerVisit" : 0,
    "priority" : 2,
    "jobType" : "DROP",
    "constraints" : {
      "demand" : {
        "values" : [ 54.24, 0.0, 0.0, 0.0 ]
      },
      "pickupTimeWindows" : [ {
        "startTime" : 1373428800000,
        "endTime" : 1373439540000
      } ],
      "timeWindowConstraints" : {
        "serviceTimeWindows" : [ {
          "startTime" : 1373439540000,
          "endTime" : 1373473800000
        } ],
        "timeWindowPolicy" : "COMPLETE_ORDER_WITHIN_TIME_WINDOW"
      },
      "attributes" : [ "AoC99" ],
      "incompatibleAttributes" : [ ],
      "stopSequence" : 1
    }
  }, {
    "id" : 163350,
    "metadata" : {
      "name" : "mID163350"
    },
    "depot" : 0,
    "location" : {
      "latitude" : 53834004,
      "longitude" : -485556,
      "metadata" : { }
    },
    "pickupDuration" : 103980,
    "serviceDuration" : 507900,
    "unloadDuration" : 0,
    "durationPerVisit" : 0,
    "priority" : 2,
    "jobType" : "DROP",
    "constraints" : {
      "demand" : {
        "values" : [ 104.4, 0.0, 0.0, 0.0 ]
      },
      "pickupTimeWindows" : [ {
        "startTime" : 1373428800000,
        "endTime" : 1373439540000
      } ],
      "timeWindowConstraints" : {
        "serviceTimeWindows" : [ {
          "startTime" : 1373439540000,
          "endTime" : 1373472000000
        } ],
        "timeWindowPolicy" : "COMPLETE_ORDER_WITHIN_TIME_WINDOW"
      },
      "attributes" : [ "AoC99" ],
      "incompatibleAttributes" : [ ],
      "stopSequence" : 1
    }
  }, {
    "id" : 163352,
    "metadata" : {
      "name" : "mID163352"
    },
    "depot" : 0,
    "location" : {
      "latitude" : 53745195,
      "longitude" : -865706,
      "metadata" : { }
    },
    "pickupDuration" : 54960,
    "serviceDuration" : 411960,
    "unloadDuration" : 0,
    "durationPerVisit" : 0,
    "priority" : 2,
    "jobType" : "DROP",
    "constraints" : {
      "demand" : {
        "values" : [ 55.72, 0.0, 0.0, 0.0 ]
      },
      "pickupTimeWindows" : [ {
        "startTime" : 1373428800000,
        "endTime" : 1373439540000
      } ],
      "timeWindowConstraints" : {
        "serviceTimeWindows" : [ {
          "startTime" : 1373439540000,
          "endTime" : 1373473800000
        } ],
        "timeWindowPolicy" : "COMPLETE_ORDER_WITHIN_TIME_WINDOW"
      },
      "attributes" : [ "AoC99" ],
      "incompatibleAttributes" : [ ],
      "stopSequence" : 1
    }
  }, {
    "id" : 163363,
    "metadata" : {
      "name" : "mID163363"
    },
    "depot" : 0,
    "location" : {
      "latitude" : 53864313,
      "longitude" : -665644,
      "metadata" : { }
    },
    "pickupDuration" : 109980,
    "serviceDuration" : 519960,
    "unloadDuration" : 0,
    "durationPerVisit" : 0,
    "priority" : 2,
    "jobType" : "DROP",
    "constraints" : {
      "demand" : {
        "values" : [ 110.0, 0.0, 0.0, 0.0 ]
      },
      "pickupTimeWindows" : [ {
        "startTime" : 1373428800000,
        "endTime" : 1373439540000
      } ],
      "timeWindowConstraints" : {
        "serviceTimeWindows" : [ {
          "startTime" : 1373443140000,
          "endTime" : 1373466600000
        } ],
        "timeWindowPolicy" : "COMPLETE_ORDER_WITHIN_TIME_WINDOW"
      },
      "attributes" : [ "AoC99" ],
      "incompatibleAttributes" : [ ],
      "stopSequence" : 1
    }
  }, {
    "id" : 163368,
    "metadata" : {
      "name" : "mID163368"
    },
    "depot" : 0,
    "location" : {
      "latitude" : 53330139,
      "longitude" : -955929,
      "metadata" : { }
    },
    "pickupDuration" : 102960,
    "serviceDuration" : 505980,
    "unloadDuration" : 0,
    "durationPerVisit" : 0,
    "priority" : 2,
    "jobType" : "DROP",
    "constraints" : {
      "demand" : {
        "values" : [ 103.2, 0.0, 0.0, 0.0 ]
      },
      "pickupTimeWindows" : [ {
        "startTime" : 1373428800000,
        "endTime" : 1373439540000
      } ],
      "timeWindowConstraints" : {
        "serviceTimeWindows" : [ {
          "startTime" : 1373443140000,
          "endTime" : 1373473800000
        } ],
        "timeWindowPolicy" : "COMPLETE_ORDER_WITHIN_TIME_WINDOW"
      },
      "attributes" : [ "AoC99" ],
      "incompatibleAttributes" : [ ],
      "stopSequence" : 1
    }
  }, {
    "id" : 163371,
    "metadata" : {
      "name" : "mID163371"
    },
    "depot" : 0,
    "location" : {
      "latitude" : 53387345,
      "longitude" : -336560,
      "metadata" : { }
    },
    "pickupDuration" : 78960,
    "serviceDuration" : 459960,
    "unloadDuration" : 0,
    "durationPerVisit" : 0,
    "priority" : 2,
    "jobType" : "DROP",
    "constraints" : {
      "demand" : {
        "values" : [ 79.84, 0.0, 0.0, 0.0 ]
      },
      "pickupTimeWindows" : [ {
        "startTime" : 1373428800000,
        "endTime" : 1373439540000
      } ],
      "timeWindowConstraints" : {
        "serviceTimeWindows" : [ {
          "startTime" : 1373443140000,
          "endTime" : 1373472000000
        } ],
        "timeWindowPolicy" : "COMPLETE_ORDER_WITHIN_TIME_WINDOW"
      },
      "attributes" : [ "AoC99" ],
      "incompatibleAttributes" : [ ],
      "stopSequence" : 1
    }
  }, {
    "id" : 163373,
    "metadata" : {
      "name" : "mID163373"
    },
    "depot" : 0,
    "location" : {
      "latitude" : 53943358,
      "longitude" : -1074380,
      "metadata" : { }
    },
    "pickupDuration" : 57960,
    "serviceDuration" : 417960,
    "unloadDuration" : 0,
    "durationPerVisit" : 0,
    "priority" : 2,
    "jobType" : "DROP",
    "constraints" : {
      "demand" : {
        "values" : [ 58.92, 0.0, 0.0, 0.0 ]
      },
      "pickupTimeWindows" : [ {
        "startTime" : 1373428800000,
        "endTime" : 1373439540000
      } ],
      "timeWindowConstraints" : {
        "serviceTimeWindows" : [ {
          "startTime" : 1373439540000,
          "endTime" : 1373472000000
        } ],
        "timeWindowPolicy" : "COMPLETE_ORDER_WITHIN_TIME_WINDOW"
      },
      "attributes" : [ "AoC99" ],
      "incompatibleAttributes" : [ ],
      "stopSequence" : 1
    }
  }, {
    "id" : 163374,
    "metadata" : {
      "name" : "mID163374"
    },
    "depot" : 0,
    "location" : {
      "latitude" : 53403202,
      "longitude" : -776795,
      "metadata" : { }
    },
    "pickupDuration" : 93960,
    "serviceDuration" : 487920,
    "unloadDuration" : 0,
    "durationPerVisit" : 0,
    "priority" : 2,
    "jobType" : "DROP",
    "constraints" : {
      "demand" : {
        "values" : [ 94.12, 0.0, 0.0, 0.0 ]
      },
      "pickupTimeWindows" : [ {
        "startTime" : 1373428800000,
        "endTime" : 1373439540000
      } ],
      "timeWindowConstraints" : {
        "serviceTimeWindows" : [ {
          "startTime" : 1373443140000,
          "endTime" : 1373473800000
        } ],
        "timeWindowPolicy" : "COMPLETE_ORDER_WITHIN_TIME_WINDOW"
      },
      "attributes" : [ "AoC99" ],
      "incompatibleAttributes" : [ ],
      "stopSequence" : 1
    }
  }, {
    "id" : 163375,
    "metadata" : {
      "name" : "mID163375"
    },
    "depot" : 0,
    "location" : {
      "latitude" : 53367354,
      "longitude" : -2724,
      "metadata" : { }
    },
    "pickupDuration" : 138000,
    "serviceDuration" : 576000,
    "unloadDuration" : 0,
    "durationPerVisit" : 0,
    "priority" : 2,
    "jobType" : "DROP",
    "constraints" : {
      "demand" : {
        "values" : [ 138.4, 0.0, 0.0, 0.0 ]
      },
      "pickupTimeWindows" : [ {
        "startTime" : 1373428800000,
        "endTime" : 1373439540000
      } ],
      "timeWindowConstraints" : {
        "serviceTimeWindows" : [ {
          "startTime" : 1373443140000,
          "endTime" : 1373472000000
        } ],
        "timeWindowPolicy" : "COMPLETE_ORDER_WITHIN_TIME_WINDOW"
      },
      "attributes" : [ "AoC99" ],
      "incompatibleAttributes" : [ ],
      "stopSequence" : 1
    }
  }, {
    "id" : 163379,
    "metadata" : {
      "name" : "mID163379"
    },
    "depot" : 0,
    "location" : {
      "latitude" : 53732834,
      "longitude" : -478646,
      "metadata" : { }
    },
    "pickupDuration" : 79980,
    "serviceDuration" : 462000,
    "unloadDuration" : 0,
    "durationPerVisit" : 0,
    "priority" : 2,
    "jobType" : "DROP",
    "constraints" : {
      "demand" : {
        "values" : [ 80.8, 0.0, 0.0, 0.0 ]
      },
      "pickupTimeWindows" : [ {
        "startTime" : 1373428800000,
        "endTime" : 1373439540000
      } ],
      "timeWindowConstraints" : {
        "serviceTimeWindows" : [ {
          "startTime" : 1373439540000,
          "endTime" : 1373472000000
        } ],
        "timeWindowPolicy" : "COMPLETE_ORDER_WITHIN_TIME_WINDOW"
      },
      "attributes" : [ "AoC99" ],
      "incompatibleAttributes" : [ ],
      "stopSequence" : 1
    }
  }, {
    "id" : 163386,
    "metadata" : {
      "name" : "mID163386"
    },
    "depot" : 0,
    "location" : {
      "latitude" : 53789851,
      "longitude" : -1562399,
      "metadata" : { }
    },
    "pickupDuration" : 78960,
    "serviceDuration" : 457980,
    "unloadDuration" : 0,
    "durationPerVisit" : 0,
    "priority" : 2,
    "jobType" : "DROP",
    "constraints" : {
      "demand" : {
        "values" : [ 79.2, 0.0, 0.0, 0.0 ]
      },
      "pickupTimeWindows" : [ {
        "startTime" : 1373428800000,
        "endTime" : 1373439540000
      } ],
      "timeWindowConstraints" : {
        "serviceTimeWindows" : [ {
          "startTime" : 1373444940000,
          "endTime" : 1373473800000
        } ],
        "timeWindowPolicy" : "COMPLETE_ORDER_WITHIN_TIME_WINDOW"
      },
      "attributes" : [ "AoC99" ],
      "incompatibleAttributes" : [ ],
      "stopSequence" : 1
    }
  }, {
    "id" : 163388,
    "metadata" : {
      "name" : "mID163388"
    },
    "depot" : 0,
    "location" : {
      "latitude" : 53566960,
      "longitude" : -655484,
      "metadata" : { }
    },
    "pickupDuration" : 43980,
    "serviceDuration" : 387960,
    "unloadDuration" : 0,
    "durationPerVisit" : 0,
    "priority" : 2,
    "jobType" : "DROP",
    "constraints" : {
      "demand" : {
        "values" : [ 44.2, 0.0, 0.0, 0.0 ]
      },
      "pickupTimeWindows" : [ {
        "startTime" : 1373428800000,
        "endTime" : 1373439540000
      } ],
      "timeWindowConstraints" : {
        "serviceTimeWindows" : [ {
          "startTime" : 1373441340000,
          "endTime" : 1373473800000
        } ],
        "timeWindowPolicy" : "COMPLETE_ORDER_WITHIN_TIME_WINDOW"
      },
      "attributes" : [ "AoC99" ],
      "incompatibleAttributes" : [ ],
      "stopSequence" : 1
    }
  }, {
    "id" : 163391,
    "metadata" : {
      "name" : "mID163391"
    },
    "depot" : 0,
    "location" : {
      "latitude" : 53719011,
      "longitude" : -156223,
      "metadata" : { }
    },
    "pickupDuration" : 54960,
    "serviceDuration" : 409980,
    "unloadDuration" : 0,
    "durationPerVisit" : 0,
    "priority" : 2,
    "jobType" : "DROP",
    "constraints" : {
      "demand" : {
        "values" : [ 55.2, 0.0, 0.0, 0.0 ]
      },
      "pickupTimeWindows" : [ {
        "startTime" : 1373428800000,
        "endTime" : 1373439540000
      } ],
      "timeWindowConstraints" : {
        "serviceTimeWindows" : [ {
          "startTime" : 1373439540000,
          "endTime" : 1373472000000
        } ],
        "timeWindowPolicy" : "COMPLETE_ORDER_WITHIN_TIME_WINDOW"
      },
      "attributes" : [ "AoC99" ],
      "incompatibleAttributes" : [ ],
      "stopSequence" : 1
    }
  }, {
    "id" : 163392,
    "metadata" : {
      "name" : "mID163392"
    },
    "depot" : 0,
    "location" : {
      "latitude" : 53598518,
      "longitude" : -646382,
      "metadata" : { }
    },
    "pickupDuration" : 129960,
    "serviceDuration" : 559980,
    "unloadDuration" : 0,
    "durationPerVisit" : 0,
    "priority" : 2,
    "jobType" : "DROP",
    "constraints" : {
      "demand" : {
        "values" : [ 130.4, 0.0, 0.0, 0.0 ]
      },
      "pickupTimeWindows" : [ {
        "startTime" : 1373428800000,
        "endTime" : 1373439540000
      } ],
      "timeWindowConstraints" : {
        "serviceTimeWindows" : [ {
          "startTime" : 1373442240000,
          "endTime" : 1373454000000
        } ],
        "timeWindowPolicy" : "COMPLETE_ORDER_WITHIN_TIME_WINDOW"
      },
      "attributes" : [ "AoC99" ],
      "incompatibleAttributes" : [ ],
      "stopSequence" : 1
    }
  }, {
    "id" : 163399,
    "metadata" : {
      "name" : "mID163399"
    },
    "depot" : 0,
    "location" : {
      "latitude" : 54135274,
      "longitude" : -798747,
      "metadata" : { }
    },
    "pickupDuration" : 81960,
    "serviceDuration" : 463980,
    "unloadDuration" : 0,
    "durationPerVisit" : 0,
    "priority" : 2,
    "jobType" : "DROP",
    "constraints" : {
      "demand" : {
        "values" : [ 82.4, 0.0, 0.0, 0.0 ]
      },
      "pickupTimeWindows" : [ {
        "startTime" : 1373428800000,
        "endTime" : 1373439540000
      } ],
      "timeWindowConstraints" : {
        "serviceTimeWindows" : [ {
          "startTime" : 1373443140000,
          "endTime" : 1373454000000
        } ],
        "timeWindowPolicy" : "COMPLETE_ORDER_WITHIN_TIME_WINDOW"
      },
      "attributes" : [ "AoC99" ],
      "incompatibleAttributes" : [ ],
      "stopSequence" : 1
    }
  }, {
    "id" : 163400,
    "metadata" : {
      "name" : "mID163400"
    },
    "depot" : 0,
    "location" : {
      "latitude" : 53564847,
      "longitude" : -137749,
      "metadata" : { }
    },
    "pickupDuration" : 148980,
    "serviceDuration" : 600000,
    "unloadDuration" : 0,
    "durationPerVisit" : 0,
    "priority" : 2,
    "jobType" : "DROP",
    "constraints" : {
      "demand" : {
        "values" : [ 149.6, 0.0, 0.0, 0.0 ]
      },
      "pickupTimeWindows" : [ {
        "startTime" : 1373428800000,
        "endTime" : 1373439540000
      } ],
      "timeWindowConstraints" : {
        "serviceTimeWindows" : [ {
          "startTime" : 1373439600000,
          "endTime" : 1373472000000
        } ],
        "timeWindowPolicy" : "COMPLETE_ORDER_WITHIN_TIME_WINDOW"
      },
      "attributes" : [ "AoC99" ],
      "incompatibleAttributes" : [ ],
      "stopSequence" : 1
    }
  }, {
    "id" : 163406,
    "metadata" : {
      "name" : "mID163406"
    },
    "depot" : 0,
    "location" : {
      "latitude" : 53856642,
      "longitude" : -1617483,
      "metadata" : { }
    },
    "pickupDuration" : 109980,
    "serviceDuration" : 521940,
    "unloadDuration" : 0,
    "durationPerVisit" : 0,
    "priority" : 2,
    "jobType" : "DROP",
    "constraints" : {
      "demand" : {
        "values" : [ 110.8, 0.0, 0.0, 0.0 ]
      },
      "pickupTimeWindows" : [ {
        "startTime" : 1373428800000,
        "endTime" : 1373439540000
      } ],
      "timeWindowConstraints" : {
        "serviceTimeWindows" : [ {
          "startTime" : 1373439540000,
          "endTime" : 1373479200000
        } ],
        "timeWindowPolicy" : "COMPLETE_ORDER_WITHIN_TIME_WINDOW"
      },
      "attributes" : [ "AoC99" ],
      "incompatibleAttributes" : [ ],
      "stopSequence" : 1
    }
  }, {
    "id" : 163408,
    "metadata" : {
      "name" : "mID163408"
    },
    "depot" : 0,
    "location" : {
      "latitude" : 53857988,
      "longitude" : -1617092,
      "metadata" : { }
    },
    "pickupDuration" : 52980,
    "serviceDuration" : 405960,
    "unloadDuration" : 0,
    "durationPerVisit" : 0,
    "priority" : 2,
    "jobType" : "DROP",
    "constraints" : {
      "demand" : {
        "values" : [ 53.4, 0.0, 0.0, 0.0 ]
      },
      "pickupTimeWindows" : [ {
        "startTime" : 1373428800000,
        "endTime" : 1373439540000
      } ],
      "timeWindowConstraints" : {
        "serviceTimeWindows" : [ {
          "startTime" : 1373443140000,
          "endTime" : 1373472000000
        } ],
        "timeWindowPolicy" : "COMPLETE_ORDER_WITHIN_TIME_WINDOW"
      },
      "attributes" : [ "AoC99" ],
      "incompatibleAttributes" : [ ],
      "stopSequence" : 1
    }
  }, {
    "id" : 163413,
    "metadata" : {
      "name" : "mID163413"
    },
    "depot" : 0,
    "location" : {
      "latitude" : 53871099,
      "longitude" : -1709167,
      "metadata" : { }
    },
    "pickupDuration" : 55980,
    "serviceDuration" : 411960,
    "unloadDuration" : 0,
    "durationPerVisit" : 0,
    "priority" : 2,
    "jobType" : "DROP",
    "constraints" : {
      "demand" : {
        "values" : [ 56.2, 0.0, 0.0, 0.0 ]
      },
      "pickupTimeWindows" : [ {
        "startTime" : 1373428800000,
        "endTime" : 1373439540000
      } ],
      "timeWindowConstraints" : {
        "serviceTimeWindows" : [ {
          "startTime" : 1373435940000,
          "endTime" : 1373472000000
        } ],
        "timeWindowPolicy" : "COMPLETE_ORDER_WITHIN_TIME_WINDOW"
      },
      "attributes" : [ "AoC99" ],
      "incompatibleAttributes" : [ ],
      "stopSequence" : 1
    }
  }, {
    "id" : 163414,
    "metadata" : {
      "name" : "mID163414"
    },
    "depot" : 0,
    "location" : {
      "latitude" : 53539307,
      "longitude" : -44923,
      "metadata" : { }
    },
    "pickupDuration" : 102960,
    "serviceDuration" : 505980,
    "unloadDuration" : 0,
    "durationPerVisit" : 0,
    "priority" : 2,
    "jobType" : "DROP",
    "constraints" : {
      "demand" : {
        "values" : [ 103.4, 0.0, 0.0, 0.0 ]
      },
      "pickupTimeWindows" : [ {
        "startTime" : 1373428800000,
        "endTime" : 1373439540000
      } ],
      "timeWindowConstraints" : {
        "serviceTimeWindows" : [ {
          "startTime" : 1373435940000,
          "endTime" : 1373472000000
        } ],
        "timeWindowPolicy" : "COMPLETE_ORDER_WITHIN_TIME_WINDOW"
      },
      "attributes" : [ "AoC99" ],
      "incompatibleAttributes" : [ ],
      "stopSequence" : 1
    }
  }, {
    "id" : 163415,
    "metadata" : {
      "name" : "mID163415"
    },
    "depot" : 0,
    "location" : {
      "latitude" : 53793260,
      "longitude" : -1433952,
      "metadata" : { }
    },
    "pickupDuration" : 96960,
    "serviceDuration" : 493980,
    "unloadDuration" : 0,
    "durationPerVisit" : 0,
    "priority" : 2,
    "jobType" : "DROP",
    "constraints" : {
      "demand" : {
        "values" : [ 97.0, 0.0, 0.0, 0.0 ]
      },
      "pickupTimeWindows" : [ {
        "startTime" : 1373428800000,
        "endTime" : 1373439540000
      } ],
      "timeWindowConstraints" : {
        "serviceTimeWindows" : [ {
          "startTime" : 1373435940000,
          "endTime" : 1373472000000
        } ],
        "timeWindowPolicy" : "COMPLETE_ORDER_WITHIN_TIME_WINDOW"
      },
      "attributes" : [ "AoC99" ],
      "incompatibleAttributes" : [ ],
      "stopSequence" : 1
    }
  }, {
    "id" : 163416,
    "metadata" : {
      "name" : "mID163416"
    },
    "depot" : 0,
    "location" : {
      "latitude" : 53991606,
      "longitude" : -1102765,
      "metadata" : { }
    },
    "pickupDuration" : 90000,
    "serviceDuration" : 481920,
    "unloadDuration" : 0,
    "durationPerVisit" : 0,
    "priority" : 2,
    "jobType" : "DROP",
    "constraints" : {
      "demand" : {
        "values" : [ 90.6, 0.0, 0.0, 0.0 ]
      },
      "pickupTimeWindows" : [ {
        "startTime" : 1373428800000,
        "endTime" : 1373439540000
      } ],
      "timeWindowConstraints" : {
        "serviceTimeWindows" : [ {
          "startTime" : 1373435940000,
          "endTime" : 1373472000000
        } ],
        "timeWindowPolicy" : "COMPLETE_ORDER_WITHIN_TIME_WINDOW"
      },
      "attributes" : [ "AoC99" ],
      "incompatibleAttributes" : [ ],
      "stopSequence" : 1
    }
  }, {
    "id" : 163417,
    "metadata" : {
      "name" : "mID163417"
    },
    "depot" : 0,
    "location" : {
      "latitude" : 53564784,
      "longitude" : -616731,
      "metadata" : { }
    },
    "pickupDuration" : 48960,
    "serviceDuration" : 397980,
    "unloadDuration" : 0,
    "durationPerVisit" : 0,
    "priority" : 2,
    "jobType" : "DROP",
    "constraints" : {
      "demand" : {
        "values" : [ 49.0, 0.0, 0.0, 0.0 ]
      },
      "pickupTimeWindows" : [ {
        "startTime" : 1373428800000,
        "endTime" : 1373439540000
      } ],
      "timeWindowConstraints" : {
        "serviceTimeWindows" : [ {
          "startTime" : 1373435940000,
          "endTime" : 1373472000000
        } ],
        "timeWindowPolicy" : "COMPLETE_ORDER_WITHIN_TIME_WINDOW"
      },
      "attributes" : [ "AoC99" ],
      "incompatibleAttributes" : [ ],
      "stopSequence" : 1
    }
  }, {
    "id" : 163419,
    "metadata" : {
      "name" : "mID163419"
    },
    "depot" : 0,
    "location" : {
      "latitude" : 53531723,
      "longitude" : -1146506,
      "metadata" : { }
    },
    "pickupDuration" : 90960,
    "serviceDuration" : 481920,
    "unloadDuration" : 0,
    "durationPerVisit" : 0,
    "priority" : 2,
    "jobType" : "DROP",
    "constraints" : {
      "demand" : {
        "values" : [ 91.0, 0.0, 0.0, 0.0 ]
      },
      "pickupTimeWindows" : [ {
        "startTime" : 1373428800000,
        "endTime" : 1373439540000
      } ],
      "timeWindowConstraints" : {
        "serviceTimeWindows" : [ {
          "startTime" : 1373435940000,
          "endTime" : 1373472000000
        } ],
        "timeWindowPolicy" : "COMPLETE_ORDER_WITHIN_TIME_WINDOW"
      },
      "attributes" : [ "AoC99" ],
      "incompatibleAttributes" : [ ],
      "stopSequence" : 1
    }
  }, {
    "id" : 163436,
    "metadata" : {
      "name" : "mID163436"
    },
    "depot" : 0,
    "location" : {
      "latitude" : 53727814,
      "longitude" : -374945,
      "metadata" : { }
    },
    "pickupDuration" : 46980,
    "serviceDuration" : 396000,
    "unloadDuration" : 0,
    "durationPerVisit" : 0,
    "priority" : 2,
    "jobType" : "DROP",
    "constraints" : {
      "demand" : {
        "values" : [ 47.8, 0.0, 0.0, 0.0 ]
      },
      "pickupTimeWindows" : [ {
        "startTime" : 1373428800000,
        "endTime" : 1373439540000
      } ],
      "timeWindowConstraints" : {
        "serviceTimeWindows" : [ {
          "startTime" : 1373435940000,
          "endTime" : 1373472000000
        } ],
        "timeWindowPolicy" : "COMPLETE_ORDER_WITHIN_TIME_WINDOW"
      },
      "attributes" : [ "AoC99" ],
      "incompatibleAttributes" : [ ],
      "stopSequence" : 1
    }
  }, {
    "id" : 163449,
    "metadata" : {
      "name" : "mID163449"
    },
    "depot" : 0,
    "location" : {
      "latitude" : 53769149,
      "longitude" : -330073,
      "metadata" : { }
    },
    "pickupDuration" : 72000,
    "serviceDuration" : 445980,
    "unloadDuration" : 0,
    "durationPerVisit" : 0,
    "priority" : 2,
    "jobType" : "DROP",
    "constraints" : {
      "demand" : {
        "values" : [ 72.6, 0.0, 0.0, 0.0 ]
      },
      "pickupTimeWindows" : [ {
        "startTime" : 1373428800000,
        "endTime" : 1373439540000
      } ],
      "timeWindowConstraints" : {
        "serviceTimeWindows" : [ {
          "startTime" : 1373435940000,
          "endTime" : 1373472000000
        } ],
        "timeWindowPolicy" : "COMPLETE_ORDER_WITHIN_TIME_WINDOW"
      },
      "attributes" : [ "AoC99" ],
      "incompatibleAttributes" : [ ],
      "stopSequence" : 1
    }
  }, {
    "id" : 163451,
    "metadata" : {
      "name" : "mID163451"
    },
    "depot" : 0,
    "location" : {
      "latitude" : 53769867,
      "longitude" : -1065487,
      "metadata" : { }
    },
    "pickupDuration" : 51000,
    "serviceDuration" : 402000,
    "unloadDuration" : 0,
    "durationPerVisit" : 0,
    "priority" : 2,
    "jobType" : "DROP",
    "constraints" : {
      "demand" : {
        "values" : [ 51.2, 0.0, 0.0, 0.0 ]
      },
      "pickupTimeWindows" : [ {
        "startTime" : 1373428800000,
        "endTime" : 1373439540000
      } ],
      "timeWindowConstraints" : {
        "serviceTimeWindows" : [ {
          "startTime" : 1373435940000,
          "endTime" : 1373472000000
        } ],
        "timeWindowPolicy" : "COMPLETE_ORDER_WITHIN_TIME_WINDOW"
      },
      "attributes" : [ "AoC99" ],
      "incompatibleAttributes" : [ ],
      "stopSequence" : 1
    }
  }, {
    "id" : 163463,
    "metadata" : {
      "name" : "mID163463"
    },
    "depot" : 0,
    "location" : {
      "latitude" : 54083870,
      "longitude" : -208422,
      "metadata" : { }
    },
    "pickupDuration" : 72960,
    "serviceDuration" : 445980,
    "unloadDuration" : 0,
    "durationPerVisit" : 0,
    "priority" : 2,
    "jobType" : "DROP",
    "constraints" : {
      "demand" : {
        "values" : [ 73.0, 0.0, 0.0, 0.0 ]
      },
      "pickupTimeWindows" : [ {
        "startTime" : 1373428800000,
        "endTime" : 1373439540000
      } ],
      "timeWindowConstraints" : {
        "serviceTimeWindows" : [ {
          "startTime" : 1373435940000,
          "endTime" : 1373472000000
        } ],
        "timeWindowPolicy" : "COMPLETE_ORDER_WITHIN_TIME_WINDOW"
      },
      "attributes" : [ "AoC99" ],
      "incompatibleAttributes" : [ ],
      "stopSequence" : 1
    }
  }, {
    "id" : 163467,
    "metadata" : {
      "name" : "mID163467"
    },
    "depot" : 0,
    "location" : {
      "latitude" : 53828731,
      "longitude" : -1564106,
      "metadata" : { }
    },
    "pickupDuration" : 84960,
    "serviceDuration" : 471960,
    "unloadDuration" : 0,
    "durationPerVisit" : 0,
    "priority" : 2,
    "jobType" : "DROP",
    "constraints" : {
      "demand" : {
        "values" : [ 85.6, 0.0, 0.0, 0.0 ]
      },
      "pickupTimeWindows" : [ {
        "startTime" : 1373428800000,
        "endTime" : 1373439540000
      } ],
      "timeWindowConstraints" : {
        "serviceTimeWindows" : [ {
          "startTime" : 1373435940000,
          "endTime" : 1373472000000
        } ],
        "timeWindowPolicy" : "COMPLETE_ORDER_WITHIN_TIME_WINDOW"
      },
      "attributes" : [ "AoC99" ],
      "incompatibleAttributes" : [ ],
      "stopSequence" : 1
    }
  }, {
    "id" : 163468,
    "metadata" : {
      "name" : "mID163468"
    },
    "depot" : 0,
    "location" : {
      "latitude" : 54008444,
      "longitude" : -1553717,
      "metadata" : { }
    },
    "pickupDuration" : 75960,
    "serviceDuration" : 451980,
    "unloadDuration" : 0,
    "durationPerVisit" : 0,
    "priority" : 2,
    "jobType" : "DROP",
    "constraints" : {
      "demand" : {
        "values" : [ 76.2, 0.0, 0.0, 0.0 ]
      },
      "pickupTimeWindows" : [ {
        "startTime" : 1373428800000,
        "endTime" : 1373439540000
      } ],
      "timeWindowConstraints" : {
        "serviceTimeWindows" : [ {
          "startTime" : 1373435940000,
          "endTime" : 1373472000000
        } ],
        "timeWindowPolicy" : "COMPLETE_ORDER_WITHIN_TIME_WINDOW"
      },
      "attributes" : [ "AoC99" ],
      "incompatibleAttributes" : [ ],
      "stopSequence" : 1
    }
  }, {
    "id" : 163472,
    "metadata" : {
      "name" : "mID163472"
    },
    "depot" : 0,
    "location" : {
      "latitude" : 53572018,
      "longitude" : -85206,
      "metadata" : { }
    },
    "pickupDuration" : 82980,
    "serviceDuration" : 468000,
    "unloadDuration" : 0,
    "durationPerVisit" : 0,
    "priority" : 2,
    "jobType" : "DROP",
    "constraints" : {
      "demand" : {
        "values" : [ 83.6, 0.0, 0.0, 0.0 ]
      },
      "pickupTimeWindows" : [ {
        "startTime" : 1373428800000,
        "endTime" : 1373439540000
      } ],
      "timeWindowConstraints" : {
        "serviceTimeWindows" : [ {
          "startTime" : 1373435940000,
          "endTime" : 1373472000000
        } ],
        "timeWindowPolicy" : "COMPLETE_ORDER_WITHIN_TIME_WINDOW"
      },
      "attributes" : [ "AoC99" ],
      "incompatibleAttributes" : [ ],
      "stopSequence" : 1
    }
  }, {
    "id" : 163476,
    "metadata" : {
      "name" : "mID163476"
    },
    "depot" : 0,
    "location" : {
      "latitude" : 54126998,
      "longitude" : -179520,
      "metadata" : { }
    },
    "pickupDuration" : 54000,
    "serviceDuration" : 409980,
    "unloadDuration" : 0,
    "durationPerVisit" : 0,
    "priority" : 2,
    "jobType" : "DROP",
    "constraints" : {
      "demand" : {
        "values" : [ 54.8, 0.0, 0.0, 0.0 ]
      },
      "pickupTimeWindows" : [ {
        "startTime" : 1373428800000,
        "endTime" : 1373439540000
      } ],
      "timeWindowConstraints" : {
        "serviceTimeWindows" : [ {
          "startTime" : 1373439540000,
          "endTime" : 1373472000000
        } ],
        "timeWindowPolicy" : "COMPLETE_ORDER_WITHIN_TIME_WINDOW"
      },
      "attributes" : [ "AoC99" ],
      "incompatibleAttributes" : [ ],
      "stopSequence" : 1
    }
  }, {
    "id" : 163490,
    "metadata" : {
      "name" : "mID163490"
    },
    "depot" : 0,
    "location" : {
      "latitude" : 53682471,
      "longitude" : -438441,
      "metadata" : { }
    },
    "pickupDuration" : 96960,
    "serviceDuration" : 493980,
    "unloadDuration" : 0,
    "durationPerVisit" : 0,
    "priority" : 2,
    "jobType" : "DROP",
    "constraints" : {
      "demand" : {
        "values" : [ 97.2, 0.0, 0.0, 0.0 ]
      },
      "pickupTimeWindows" : [ {
        "startTime" : 1373428800000,
        "endTime" : 1373439540000
      } ],
      "timeWindowConstraints" : {
        "serviceTimeWindows" : [ {
          "startTime" : 1373443140000,
          "endTime" : 1373472000000
        } ],
        "timeWindowPolicy" : "COMPLETE_ORDER_WITHIN_TIME_WINDOW"
      },
      "attributes" : [ "AoC99" ],
      "incompatibleAttributes" : [ ],
      "stopSequence" : 1
    }
  }, {
    "id" : 163492,
    "metadata" : {
      "name" : "mID163492"
    },
    "depot" : 0,
    "location" : {
      "latitude" : 53812660,
      "longitude" : -1625434,
      "metadata" : { }
    },
    "pickupDuration" : 93960,
    "serviceDuration" : 487920,
    "unloadDuration" : 0,
    "durationPerVisit" : 0,
    "priority" : 2,
    "jobType" : "DROP",
    "constraints" : {
      "demand" : {
        "values" : [ 94.4, 0.0, 0.0, 0.0 ]
      },
      "pickupTimeWindows" : [ {
        "startTime" : 1373428800000,
        "endTime" : 1373439540000
      } ],
      "timeWindowConstraints" : {
        "serviceTimeWindows" : [ {
          "startTime" : 1373439540000,
          "endTime" : 1373472000000
        } ],
        "timeWindowPolicy" : "COMPLETE_ORDER_WITHIN_TIME_WINDOW"
      },
      "attributes" : [ "AoC99" ],
      "incompatibleAttributes" : [ ],
      "stopSequence" : 1
    }
  }, {
    "id" : 163515,
    "metadata" : {
      "name" : "mID163515"
    },
    "depot" : 0,
    "location" : {
      "latitude" : 53902211,
      "longitude" : -1628680,
      "metadata" : { }
    },
    "pickupDuration" : 72000,
    "serviceDuration" : 444000,
    "unloadDuration" : 0,
    "durationPerVisit" : 0,
    "priority" : 2,
    "jobType" : "DROP",
    "constraints" : {
      "demand" : {
        "values" : [ 72.0, 0.0, 0.0, 0.0 ]
      },
      "pickupTimeWindows" : [ {
        "startTime" : 1373428800000,
        "endTime" : 1373439540000
      } ],
      "timeWindowConstraints" : {
        "serviceTimeWindows" : [ {
          "startTime" : 1373439540000,
          "endTime" : 1373472000000
        } ],
        "timeWindowPolicy" : "COMPLETE_ORDER_WITHIN_TIME_WINDOW"
      },
      "attributes" : [ "AoC99" ],
      "incompatibleAttributes" : [ ],
      "stopSequence" : 1
    }
  }, {
    "id" : 163517,
    "metadata" : {
      "name" : "mID163517"
    },
    "depot" : 0,
    "location" : {
      "latitude" : 53833540,
      "longitude" : -783662,
      "metadata" : { }
    },
    "pickupDuration" : 45000,
    "serviceDuration" : 391980,
    "unloadDuration" : 0,
    "durationPerVisit" : 0,
    "priority" : 2,
    "jobType" : "DROP",
    "constraints" : {
      "demand" : {
        "values" : [ 45.92, 0.0, 0.0, 0.0 ]
      },
      "pickupTimeWindows" : [ {
        "startTime" : 1373428800000,
        "endTime" : 1373439540000
      } ],
      "timeWindowConstraints" : {
        "serviceTimeWindows" : [ {
          "startTime" : 1373439540000,
          "endTime" : 1373472000000
        } ],
        "timeWindowPolicy" : "COMPLETE_ORDER_WITHIN_TIME_WINDOW"
      },
      "attributes" : [ "AoC99" ],
      "incompatibleAttributes" : [ ],
      "stopSequence" : 1
    }
  }, {
    "id" : 163522,
    "metadata" : {
      "name" : "mID163522"
    },
    "depot" : 0,
    "location" : {
      "latitude" : 53689103,
      "longitude" : -982564,
      "metadata" : { }
    },
    "pickupDuration" : 60000,
    "serviceDuration" : 421980,
    "unloadDuration" : 0,
    "durationPerVisit" : 0,
    "priority" : 2,
    "jobType" : "DROP",
    "constraints" : {
      "demand" : {
        "values" : [ 60.56, 0.0, 0.0, 0.0 ]
      },
      "pickupTimeWindows" : [ {
        "startTime" : 1373428800000,
        "endTime" : 1373439600000
      } ],
      "timeWindowConstraints" : {
        "serviceTimeWindows" : [ {
          "startTime" : 1373443140000,
          "endTime" : 1373475600000
        } ],
        "timeWindowPolicy" : "COMPLETE_ORDER_WITHIN_TIME_WINDOW"
      },
      "attributes" : [ "AoC99" ],
      "incompatibleAttributes" : [ ],
      "stopSequence" : 1
    }
  }, {
    "id" : 163527,
    "metadata" : {
      "name" : "mID163527"
    },
    "depot" : 0,
    "location" : {
      "latitude" : 53768703,
      "longitude" : -601402,
      "metadata" : { }
    },
    "pickupDuration" : 7980,
    "serviceDuration" : 315960,
    "unloadDuration" : 0,
    "durationPerVisit" : 0,
    "priority" : 2,
    "jobType" : "DROP",
    "constraints" : {
      "demand" : {
        "values" : [ 8.0, 0.0, 0.0, 0.0 ]
      },
      "pickupTimeWindows" : [ {
        "startTime" : 1373428800000,
        "endTime" : 1373439540000
      } ],
      "timeWindowConstraints" : {
        "serviceTimeWindows" : [ {
          "startTime" : 1373439540000,
          "endTime" : 1373472000000
        } ],
        "timeWindowPolicy" : "COMPLETE_ORDER_WITHIN_TIME_WINDOW"
      },
      "attributes" : [ "AoC99" ],
      "incompatibleAttributes" : [ ],
      "stopSequence" : 1
    }
  } ],
  "schedules" : [ {
    "timeWindow" : {
      "startTime" : 1373428800000,
      "endTime" : 1373472000000
    },
    "staticBreakTemplate" : {
      "timeWindow" : {
        "startTime" : 1373445000000,
        "endTime" : 1373451300000
      },
      "duration" : 2700000
    },
    "runs" : [ ],
    "breaks" : [ ],
    "constraints" : { },
    "resource" : {
      "metadata" : {
        "name" : "T800AMP"
      },
      "id" : 1176,
      "depot" : 0,
      "hourCost" : 10.0,
      "kmCost" : 0.2921069,
      "routingProfile" : {
        "vehicleType" : "Default",
        "drivingTimeCorrectionFactor" : 1.3,
        "maxSpeed" : 90.104
      },
      "constraints" : {
        "runDistanceLimit" : "Infinity",
        "runWorkingTimeLimit" : 9223372036854775807,
        "scheduleWorkingTimeLimit" : 9223372036854775807,
        "scheduleDrivingTimeLimit" : 36000000,
        "addonCollectionDropDuration" : 0,
        "addonPickupDuration" : 1200000,
        "capacity" : {
          "values" : [ 2000.0, 0.0, 0.0, 0.0 ]
        },
        "attributes" : [ "cargo=76.199=0.0=0.0=0.0", "cargo=132.60=0.0=0.0=0.0", "cargo=84.919=0.0=0.0=0.0", "cargo=155.27=0.0=0.0=0.0", "cargo=97.199=0.0=0.0=0.0", "cargo=81.599=0.0=0.0=0.0", "cargo=104.40=0.0=0.0=0.0", "cargo=73.0=0.0=0.0=0.0", "cargo=103.19=0.0=0.0=0.0", "cargo=94.400=0.0=0.0=0.0", "cargo=91.0=0.0=0.0=0.0", "cargo=83.599=0.0=0.0=0.0", "cargo=90.599=0.0=0.0=0.0", "cargo=44.200=0.0=0.0=0.0", "cargo=54.240=0.0=0.0=0.0", "cargo=47.200=0.0=0.0=0.0", "cargo=76.800=0.0=0.0=0.0", "cargo=110.0=0.0=0.0=0.0", "cargo=8.0=0.0=0.0=0.0", "cargo=47.799=0.0=0.0=0.0", "cargo=56.200=0.0=0.0=0.0", "cargo=45.919=0.0=0.0=0.0", "cargo=57.599=0.0=0.0=0.0", "cargo=47.0=0.0=0.0=0.0", "cargo=103.40=0.0=0.0=0.0", "cargo=374.11=0.0=0.0=0.0", "cargo=58.919=0.0=0.0=0.0", "cargo=72.599=0.0=0.0=0.0", "cargo=55.720=0.0=0.0=0.0", "cargo=110.80=0.0=0.0=0.0", "cargo=180.0=0.0=0.0=0.0", "cargo=55.200=0.0=0.0=0.0", "AoC99", "cargo=60.560=0.0=0.0=0.0", "cargo=82.400=0.0=0.0=0.0", "cargo=96.0=0.0=0.0=0.0", "cargo=79.839=0.0=0.0=0.0", "cargo=189.60=0.0=0.0=0.0", "cargo=51.200=0.0=0.0=0.0", "cargo=54.799=0.0=0.0=0.0", "cargo=318.16=0.0=0.0=0.0", "cargo=72.0=0.0=0.0=0.0", "cargo=53.400=0.0=0.0=0.0", "cargo=130.39=0.0=0.0=0.0", "cargo=149.60=0.0=0.0=0.0", "cargo=85.599=0.0=0.0=0.0", "cargo=80.800=0.0=0.0=0.0", "cargo=138.39=0.0=0.0=0.0", "cargo=94.120=0.0=0.0=0.0", "cargo=79.199=0.0=0.0=0.0", "cargo=49.0=0.0=0.0=0.0", "cargo=67.199=0.0=0.0=0.0", "cargo=97.0=0.0=0.0=0.0" ],
        "homeLocations" : {
          "startLocation" : {
            "latitude" : 53783808,
            "longitude" : -1572433,
            "metadata" : { }
          },
          "endLocation" : {
            "latitude" : 53783808,
            "longitude" : -1572433,
            "metadata" : { }
          }
        },
        "fixedStartTime" : -1
      }
    }
  }, {
    "timeWindow" : {
      "startTime" : 1373428800000,
      "endTime" : 1373468400000
    },
    "staticBreakTemplate" : {
      "timeWindow" : {
        "startTime" : 1373445000000,
        "endTime" : 1373451300000
      },
      "duration" : 2700000
    },
    "runs" : [ ],
    "breaks" : [ ],
    "constraints" : { },
    "resource" : {
      "metadata" : {
        "name" : "T90AMP"
      },
      "id" : 1179,
      "depot" : 0,
      "hourCost" : 10.0,
      "kmCost" : 0.2299565,
      "routingProfile" : {
        "vehicleType" : "Default",
        "drivingTimeCorrectionFactor" : 1.3,
        "maxSpeed" : 112.63
      },
      "constraints" : {
        "runDistanceLimit" : "Infinity",
        "runWorkingTimeLimit" : 9223372036854775807,
        "scheduleWorkingTimeLimit" : 9223372036854775807,
        "scheduleDrivingTimeLimit" : 36000000,
        "addonCollectionDropDuration" : 0,
        "addonPickupDuration" : 1200000,
        "capacity" : {
          "values" : [ 1098.0, 0.0, 0.0, 0.0 ]
        },
        "attributes" : [ "cargo=76.199=0.0=0.0=0.0", "cargo=132.60=0.0=0.0=0.0", "cargo=84.919=0.0=0.0=0.0", "cargo=155.27=0.0=0.0=0.0", "cargo=97.199=0.0=0.0=0.0", "cargo=81.599=0.0=0.0=0.0", "cargo=104.40=0.0=0.0=0.0", "cargo=73.0=0.0=0.0=0.0", "cargo=103.19=0.0=0.0=0.0", "cargo=94.400=0.0=0.0=0.0", "cargo=91.0=0.0=0.0=0.0", "cargo=83.599=0.0=0.0=0.0", "cargo=90.599=0.0=0.0=0.0", "cargo=44.200=0.0=0.0=0.0", "cargo=54.240=0.0=0.0=0.0", "cargo=47.200=0.0=0.0=0.0", "cargo=76.800=0.0=0.0=0.0", "cargo=110.0=0.0=0.0=0.0", "cargo=8.0=0.0=0.0=0.0", "cargo=47.799=0.0=0.0=0.0", "cargo=56.200=0.0=0.0=0.0", "cargo=45.919=0.0=0.0=0.0", "cargo=57.599=0.0=0.0=0.0", "cargo=47.0=0.0=0.0=0.0", "cargo=103.40=0.0=0.0=0.0", "cargo=374.11=0.0=0.0=0.0", "cargo=58.919=0.0=0.0=0.0", "cargo=72.599=0.0=0.0=0.0", "cargo=55.720=0.0=0.0=0.0", "cargo=110.80=0.0=0.0=0.0", "cargo=180.0=0.0=0.0=0.0", "cargo=55.200=0.0=0.0=0.0", "AoC99", "cargo=60.560=0.0=0.0=0.0", "cargo=82.400=0.0=0.0=0.0", "cargo=96.0=0.0=0.0=0.0", "cargo=79.839=0.0=0.0=0.0", "cargo=189.60=0.0=0.0=0.0", "cargo=51.200=0.0=0.0=0.0", "cargo=54.799=0.0=0.0=0.0", "cargo=318.16=0.0=0.0=0.0", "cargo=72.0=0.0=0.0=0.0", "cargo=53.400=0.0=0.0=0.0", "cargo=130.39=0.0=0.0=0.0", "cargo=149.60=0.0=0.0=0.0", "cargo=85.599=0.0=0.0=0.0", "cargo=80.800=0.0=0.0=0.0", "cargo=138.39=0.0=0.0=0.0", "cargo=94.120=0.0=0.0=0.0", "cargo=79.199=0.0=0.0=0.0", "cargo=49.0=0.0=0.0=0.0", "cargo=67.199=0.0=0.0=0.0", "cargo=97.0=0.0=0.0=0.0" ],
        "homeLocations" : {
          "startLocation" : {
            "latitude" : 53783808,
            "longitude" : -1572433,
            "metadata" : { }
          },
          "endLocation" : {
            "latitude" : 53783808,
            "longitude" : -1572433,
            "metadata" : { }
          }
        },
        "fixedStartTime" : -1
      }
    }
  }, {
    "timeWindow" : {
      "startTime" : 1373425200000,
      "endTime" : 1373475600000
    },
    "staticBreakTemplate" : {
      "timeWindow" : {
        "startTime" : 1373445000000,
        "endTime" : 1373451300000
      },
      "duration" : 2700000
    },
    "runs" : [ ],
    "breaks" : [ ],
    "constraints" : { },
    "resource" : {
      "metadata" : {
        "name" : "T333AMP"
      },
      "id" : 1167,
      "depot" : 0,
      "hourCost" : 10.0,
      "kmCost" : 0.2921069,
      "routingProfile" : {
        "vehicleType" : "Default",
        "drivingTimeCorrectionFactor" : 1.3,
        "maxSpeed" : 90.104
      },
      "constraints" : {
        "runDistanceLimit" : "Infinity",
        "runWorkingTimeLimit" : 9223372036854775807,
        "scheduleWorkingTimeLimit" : 9223372036854775807,
        "scheduleDrivingTimeLimit" : 36000000,
        "addonCollectionDropDuration" : 0,
        "addonPickupDuration" : 1200000,
        "capacity" : {
          "values" : [ 1600.0, 0.0, 0.0, 0.0 ]
        },
        "attributes" : [ "cargo=76.199=0.0=0.0=0.0", "cargo=132.60=0.0=0.0=0.0", "cargo=84.919=0.0=0.0=0.0", "cargo=155.27=0.0=0.0=0.0", "cargo=97.199=0.0=0.0=0.0", "cargo=81.599=0.0=0.0=0.0", "cargo=104.40=0.0=0.0=0.0", "cargo=73.0=0.0=0.0=0.0", "cargo=103.19=0.0=0.0=0.0", "cargo=94.400=0.0=0.0=0.0", "cargo=91.0=0.0=0.0=0.0", "cargo=83.599=0.0=0.0=0.0", "cargo=90.599=0.0=0.0=0.0", "cargo=44.200=0.0=0.0=0.0", "cargo=54.240=0.0=0.0=0.0", "cargo=47.200=0.0=0.0=0.0", "cargo=76.800=0.0=0.0=0.0", "cargo=110.0=0.0=0.0=0.0", "cargo=8.0=0.0=0.0=0.0", "cargo=47.799=0.0=0.0=0.0", "cargo=56.200=0.0=0.0=0.0", "cargo=45.919=0.0=0.0=0.0", "cargo=57.599=0.0=0.0=0.0", "cargo=47.0=0.0=0.0=0.0", "cargo=103.40=0.0=0.0=0.0", "cargo=374.11=0.0=0.0=0.0", "cargo=58.919=0.0=0.0=0.0", "cargo=72.599=0.0=0.0=0.0", "cargo=55.720=0.0=0.0=0.0", "cargo=110.80=0.0=0.0=0.0", "cargo=180.0=0.0=0.0=0.0", "cargo=55.200=0.0=0.0=0.0", "AoC99", "cargo=60.560=0.0=0.0=0.0", "cargo=82.400=0.0=0.0=0.0", "cargo=96.0=0.0=0.0=0.0", "cargo=79.839=0.0=0.0=0.0", "cargo=189.60=0.0=0.0=0.0", "cargo=51.200=0.0=0.0=0.0", "cargo=54.799=0.0=0.0=0.0", "cargo=318.16=0.0=0.0=0.0", "cargo=72.0=0.0=0.0=0.0", "cargo=53.400=0.0=0.0=0.0", "cargo=130.39=0.0=0.0=0.0", "cargo=149.60=0.0=0.0=0.0", "cargo=85.599=0.0=0.0=0.0", "cargo=80.800=0.0=0.0=0.0", "cargo=138.39=0.0=0.0=0.0", "cargo=94.120=0.0=0.0=0.0", "cargo=79.199=0.0=0.0=0.0", "cargo=49.0=0.0=0.0=0.0", "cargo=67.199=0.0=0.0=0.0", "cargo=97.0=0.0=0.0=0.0" ],
        "homeLocations" : {
          "startLocation" : {
            "latitude" : 53783808,
            "longitude" : -1572433,
            "metadata" : { }
          },
          "endLocation" : {
            "latitude" : 53783808,
            "longitude" : -1572433,
            "metadata" : { }
          }
        },
        "fixedStartTime" : -1
      }
    }
  }, {
    "timeWindow" : {
      "startTime" : 1373428800000,
      "endTime" : 1373475600000
    },
    "staticBreakTemplate" : {
      "timeWindow" : {
        "startTime" : 1373445000000,
        "endTime" : 1373451300000
      },
      "duration" : 2700000
    },
    "runs" : [ ],
    "breaks" : [ ],
    "constraints" : { },
    "resource" : {
      "metadata" : {
        "name" : "T300AMP"
      },
      "id" : 1166,
      "depot" : 0,
      "hourCost" : 10.0,
      "kmCost" : 0.2921069,
      "routingProfile" : {
        "vehicleType" : "Default",
        "drivingTimeCorrectionFactor" : 1.3,
        "maxSpeed" : 90.104
      },
      "constraints" : {
        "runDistanceLimit" : "Infinity",
        "runWorkingTimeLimit" : 9223372036854775807,
        "scheduleWorkingTimeLimit" : 9223372036854775807,
        "scheduleDrivingTimeLimit" : 36000000,
        "addonCollectionDropDuration" : 0,
        "addonPickupDuration" : 1200000,
        "capacity" : {
          "values" : [ 1600.0, 0.0, 0.0, 0.0 ]
        },
        "attributes" : [ "cargo=76.199=0.0=0.0=0.0", "cargo=132.60=0.0=0.0=0.0", "cargo=84.919=0.0=0.0=0.0", "cargo=155.27=0.0=0.0=0.0", "cargo=97.199=0.0=0.0=0.0", "cargo=81.599=0.0=0.0=0.0", "cargo=104.40=0.0=0.0=0.0", "cargo=73.0=0.0=0.0=0.0", "cargo=103.19=0.0=0.0=0.0", "cargo=94.400=0.0=0.0=0.0", "cargo=91.0=0.0=0.0=0.0", "cargo=83.599=0.0=0.0=0.0", "cargo=90.599=0.0=0.0=0.0", "cargo=44.200=0.0=0.0=0.0", "cargo=54.240=0.0=0.0=0.0", "cargo=47.200=0.0=0.0=0.0", "cargo=76.800=0.0=0.0=0.0", "cargo=110.0=0.0=0.0=0.0", "cargo=8.0=0.0=0.0=0.0", "cargo=47.799=0.0=0.0=0.0", "cargo=56.200=0.0=0.0=0.0", "cargo=45.919=0.0=0.0=0.0", "cargo=57.599=0.0=0.0=0.0", "cargo=47.0=0.0=0.0=0.0", "cargo=103.40=0.0=0.0=0.0", "cargo=374.11=0.0=0.0=0.0", "cargo=58.919=0.0=0.0=0.0", "cargo=72.599=0.0=0.0=0.0", "cargo=55.720=0.0=0.0=0.0", "cargo=110.80=0.0=0.0=0.0", "cargo=180.0=0.0=0.0=0.0", "cargo=55.200=0.0=0.0=0.0", "AoC99", "cargo=60.560=0.0=0.0=0.0", "cargo=82.400=0.0=0.0=0.0", "cargo=96.0=0.0=0.0=0.0", "cargo=79.839=0.0=0.0=0.0", "cargo=189.60=0.0=0.0=0.0", "cargo=51.200=0.0=0.0=0.0", "cargo=54.799=0.0=0.0=0.0", "cargo=318.16=0.0=0.0=0.0", "cargo=72.0=0.0=0.0=0.0", "cargo=53.400=0.0=0.0=0.0", "cargo=130.39=0.0=0.0=0.0", "cargo=149.60=0.0=0.0=0.0", "cargo=85.599=0.0=0.0=0.0", "cargo=80.800=0.0=0.0=0.0", "cargo=138.39=0.0=0.0=0.0", "cargo=94.120=0.0=0.0=0.0", "cargo=79.199=0.0=0.0=0.0", "cargo=49.0=0.0=0.0=0.0", "cargo=67.199=0.0=0.0=0.0", "cargo=97.0=0.0=0.0=0.0" ],
        "homeLocations" : {
          "startLocation" : {
            "latitude" : 53783808,
            "longitude" : -1572433,
            "metadata" : { }
          },
          "endLocation" : {
            "latitude" : 53783808,
            "longitude" : -1572433,
            "metadata" : { }
          }
        },
        "fixedStartTime" : -1
      }
    }
  } ],
  "depots" : [ {
    "id" : 0,
    "location" : {
      "latitude" : 53783808,
      "longitude" : -1572433,
      "metadata" : { }
    },
    "constraints" : {
      "allowCollectionsWhileDrivingHome" : false,
      "allowDeliveriesWhileDrivingFromHome" : false,
      "availabilityWindows" : [ {
        "startTime" : 0,
        "endTime" : 57657355200332
      } ]
    }
  } ],
  "constraints" : {
    "allowMultipleRunsPerSchedule" : true,
    "consolidateSameSiteJobs" : "NONE"
  }
}