{
  "jobs" : [ {
    "id" : 1032146,
    "metadata" : {
      "name" : "mID1032146"
    },
    "depot" : 0,
    "location" : {
      "latitude" : 51351201,
      "longitude" : 285645,
      "metadata" : { }
    },
    "pickupDuration" : 0,
    "serviceDuration" : 360000,
    "unloadDuration" : 0,
    "durationPerVisit" : 600000,
    "priority" : 2,
    "jobType" : "DROP",
    "constraints" : {
      "demand" : {
        "values" : [ 0.0, 1.0, 0.0, 0.0 ]
      },
      "pickupTimeWindows" : [ {
        "startTime" : 1420848000000,
        "endTime" : 1421539200000
      } ],
      "timeWindowConstraints" : {
        "serviceTimeWindows" : [ {
          "startTime" : 1420941600000,
          "endTime" : 1421006400000
        } ],
        "timeWindowPolicy" : "COMPLETE_ORDER_WITHIN_TIME_WINDOW"
      },
      "attributes" : [ "AoC108", "CL33910" ],
      "incompatibleAttributes" : [ ],
      "stopSequence" : 1
    }
  }, {
    "id" : 1032147,
    "metadata" : {
      "name" : "mID1032147"
    },
    "depot" : 0,
    "location" : {
      "latitude" : 51306580,
      "longitude" : 532837,
      "metadata" : { }
    },
    "pickupDuration" : 0,
    "serviceDuration" : 360000,
    "unloadDuration" : 0,
    "durationPerVisit" : 600000,
    "priority" : 2,
    "jobType" : "DROP",
    "constraints" : {
      "demand" : {
        "values" : [ 0.0, 1.0, 0.0, 0.0 ]
      },
      "pickupTimeWindows" : [ {
        "startTime" : 1420848000000,
        "endTime" : 1421539200000
      } ],
      "timeWindowConstraints" : {
        "serviceTimeWindows" : [ {
          "startTime" : 1420941600000,
          "endTime" : 1421006400000
        } ],
        "timeWindowPolicy" : "COMPLETE_ORDER_WITHIN_TIME_WINDOW"
      },
      "attributes" : [ "AoC108" ],
      "incompatibleAttributes" : [ ],
      "stopSequence" : 1
    }
  }, {
    "id" : 1032148,
    "metadata" : {
      "name" : "mID1032148"
    },
    "depot" : 0,
    "location" : {
      "latitude" : 51614606,
      "longitude" : -219726,
      "metadata" : { }
    },
    "pickupDuration" : 0,
    "serviceDuration" : 360000,
    "unloadDuration" : 0,
    "durationPerVisit" : 600000,
    "priority" : 2,
    "jobType" : "DROP",
    "constraints" : {
      "demand" : {
        "values" : [ 0.0, 2.0, 0.0, 0.0 ]
      },
      "pickupTimeWindows" : [ {
        "startTime" : 1420848000000,
        "endTime" : 1421539200000
      } ],
      "timeWindowConstraints" : {
        "serviceTimeWindows" : [ {
          "startTime" : 1420941600000,
          "endTime" : 1421006400000
        } ],
        "timeWindowPolicy" : "COMPLETE_ORDER_WITHIN_TIME_WINDOW"
      },
      "attributes" : [ "AoC108" ],
      "incompatibleAttributes" : [ ],
      "stopSequence" : 1
    }
  }, {
    "id" : 1032149,
    "metadata" : {
      "name" : "mID1032149"
    },
    "depot" : 0,
    "location" : {
      "latitude" : 51539503,
      "longitude" : -82397,
      "metadata" : { }
    },
    "pickupDuration" : 0,
    "serviceDuration" : 360000,
    "unloadDuration" : 0,
    "durationPerVisit" : 600000,
    "priority" : 2,
    "jobType" : "DROP",
    "constraints" : {
      "demand" : {
        "values" : [ 0.0, 1.0, 0.0, 0.0 ]
      },
      "pickupTimeWindows" : [ {
        "startTime" : 1420848000000,
        "endTime" : 1421539200000
      } ],
      "timeWindowConstraints" : {
        "serviceTimeWindows" : [ {
          "startTime" : 1420941600000,
          "endTime" : 1421006400000
        } ],
        "timeWindowPolicy" : "COMPLETE_ORDER_WITHIN_TIME_WINDOW"
      },
      "attributes" : [ "AoC108" ],
      "incompatibleAttributes" : [ ],
      "stopSequence" : 1
    }
  }, {
    "id" : 1032150,
    "metadata" : {
      "name" : "mID1032150"
    },
    "depot" : 0,
    "location" : {
      "latitude" : 51872330,
      "longitude" : -1481410,
      "metadata" : { }
    },
    "pickupDuration" : 0,
    "serviceDuration" : 360000,
    "unloadDuration" : 0,
    "durationPerVisit" : 600000,
    "priority" : 2,
    "jobType" : "DROP",
    "constraints" : {
      "demand" : {
        "values" : [ 0.0, 1.0, 0.0, 0.0 ]
      },
      "pickupTimeWindows" : [ {
        "startTime" : 1420848000000,
        "endTime" : 1421539200000
      } ],
      "timeWindowConstraints" : {
        "serviceTimeWindows" : [ {
          "startTime" : 1420941600000,
          "endTime" : 1421006400000
        } ],
        "timeWindowPolicy" : "COMPLETE_ORDER_WITHIN_TIME_WINDOW"
      },
      "attributes" : [ "AoC108" ],
      "incompatibleAttributes" : [ ],
      "stopSequence" : 1
    }
  }, {
    "id" : 1032151,
    "metadata" : {
      "name" : "mID1032151"
    },
    "depot" : 0,
    "location" : {
      "latitude" : 51368352,
      "longitude" : 65918,
      "metadata" : { }
    },
    "pickupDuration" : 0,
    "serviceDuration" : 360000,
    "unloadDuration" : 0,
    "durationPerVisit" : 600000,
    "priority" : 2,
    "jobType" : "DROP",
    "constraints" : {
      "demand" : {
        "values" : [ 0.0, 2.0, 0.0, 0.0 ]
      },
      "pickupTimeWindows" : [ {
        "startTime" : 1420848000000,
        "endTime" : 1421539200000
      } ],
      "timeWindowConstraints" : {
        "serviceTimeWindows" : [ {
          "startTime" : 1420941600000,
          "endTime" : 1421006400000
        } ],
        "timeWindowPolicy" : "COMPLETE_ORDER_WITHIN_TIME_WINDOW"
      },
      "attributes" : [ "AoC108" ],
      "incompatibleAttributes" : [ ],
      "stopSequence" : 1
    }
  }, {
    "id" : 1032152,
    "metadata" : {
      "name" : "mID1032152"
    },
    "depot" : 0,
    "location" : {
      "latitude" : 51450584,
      "longitude" : 148316,
      "metadata" : { }
    },
    "pickupDuration" : 0,
    "serviceDuration" : 360000,
    "unloadDuration" : 0,
    "durationPerVisit" : 600000,
    "priority" : 2,
    "jobType" : "DROP",
    "constraints" : {
      "demand" : {
        "values" : [ 0.0, 2.0, 0.0, 0.0 ]
      },
      "pickupTimeWindows" : [ {
        "startTime" : 1420848000000,
        "endTime" : 1421539200000
      } ],
      "timeWindowConstraints" : {
        "serviceTimeWindows" : [ {
          "startTime" : 1420941600000,
          "endTime" : 1421006400000
        } ],
        "timeWindowPolicy" : "COMPLETE_ORDER_WITHIN_TIME_WINDOW"
      },
      "attributes" : [ "AoC108" ],
      "incompatibleAttributes" : [ ],
      "stopSequence" : 1
    }
  }, {
    "id" : 1032153,
    "metadata" : {
      "name" : "mID1032153"
    },
    "depot" : 0,
    "location" : {
      "latitude" : 51234060,
      "longitude" : -599990,
      "metadata" : { }
    },
    "pickupDuration" : 0,
    "serviceDuration" : 360000,
    "unloadDuration" : 0,
    "durationPerVisit" : 600000,
    "priority" : 2,
    "jobType" : "DROP",
    "constraints" : {
      "demand" : {
        "values" : [ 0.0, 1.0, 0.0, 0.0 ]
      },
      "pickupTimeWindows" : [ {
        "startTime" : 1420848000000,
        "endTime" : 1421539200000
      } ],
      "timeWindowConstraints" : {
        "serviceTimeWindows" : [ {
          "startTime" : 1420941600000,
          "endTime" : 1421006400000
        } ],
        "timeWindowPolicy" : "COMPLETE_ORDER_WITHIN_TIME_WINDOW"
      },
      "attributes" : [ "AoC108" ],
      "incompatibleAttributes" : [ ],
      "stopSequence" : 1
    }
  }, {
    "id" : 1032154,
    "metadata" : {
      "name" : "mID1032154"
    },
    "depot" : 0,
    "location" : {
      "latitude" : 51533713,
      "longitude" : -902181,
      "metadata" : { }
    },
    "pickupDuration" : 0,
    "serviceDuration" : 360000,
    "unloadDuration" : 0,
    "durationPerVisit" : 600000,
    "priority" : 2,
    "jobType" : "DROP",
    "constraints" : {
      "demand" : {
        "values" : [ 0.0, 1.0, 0.0, 0.0 ]
      },
      "pickupTimeWindows" : [ {
        "startTime" : 1420848000000,
        "endTime" : 1421539200000
      } ],
      "timeWindowConstraints" : {
        "serviceTimeWindows" : [ {
          "startTime" : 1420941600000,
          "endTime" : 1421006400000
        } ],
        "timeWindowPolicy" : "COMPLETE_ORDER_WITHIN_TIME_WINDOW"
      },
      "attributes" : [ "AoC108" ],
      "incompatibleAttributes" : [ ],
      "stopSequence" : 1
    }
  }, {
    "id" : 1032155,
    "metadata" : {
      "name" : "mID1032155"
    },
    "depot" : 0,
    "location" : {
      "latitude" : 51892819,
      "longitude" : -1076499,
      "metadata" : { }
    },
    "pickupDuration" : 0,
    "serviceDuration" : 360000,
    "unloadDuration" : 0,
    "durationPerVisit" : 600000,
    "priority" : 2,
    "jobType" : "DROP",
    "constraints" : {
      "demand" : {
        "values" : [ 0.0, 1.0, 0.0, 0.0 ]
      },
      "pickupTimeWindows" : [ {
        "startTime" : 1420848000000,
        "endTime" : 1421539200000
      } ],
      "timeWindowConstraints" : {
        "serviceTimeWindows" : [ {
          "startTime" : 1420941600000,
          "endTime" : 1421006400000
        } ],
        "timeWindowPolicy" : "COMPLETE_ORDER_WITHIN_TIME_WINDOW"
      },
      "attributes" : [ "AoC108" ],
      "incompatibleAttributes" : [ ],
      "stopSequence" : 1
    }
  }, {
    "id" : 1032156,
    "metadata" : {
      "name" : "mID1032156"
    },
    "depot" : 0,
    "location" : {
      "latitude" : 51498485,
      "longitude" : -87890,
      "metadata" : { }
    },
    "pickupDuration" : 0,
    "serviceDuration" : 360000,
    "unloadDuration" : 0,
    "durationPerVisit" : 600000,
    "priority" : 2,
    "jobType" : "DROP",
    "constraints" : {
      "demand" : {
        "values" : [ 0.0, 1.0, 0.0, 0.0 ]
      },
      "pickupTimeWindows" : [ {
        "startTime" : 1420848000000,
        "endTime" : 1421539200000
      } ],
      "timeWindowConstraints" : {
        "serviceTimeWindows" : [ {
          "startTime" : 1420941600000,
          "endTime" : 1421006400000
        } ],
        "timeWindowPolicy" : "COMPLETE_ORDER_WITHIN_TIME_WINDOW"
      },
      "attributes" : [ "AoC108" ],
      "incompatibleAttributes" : [ ],
      "stopSequence" : 1
    }
  }, {
    "id" : 1032157,
    "metadata" : {
      "name" : "mID1032157"
    },
    "depot" : 0,
    "location" : {
      "latitude" : 51395496,
      "longitude" : -953316,
      "metadata" : { }
    },
    "pickupDuration" : 0,
    "serviceDuration" : 360000,
    "unloadDuration" : 0,
    "durationPerVisit" : 600000,
    "priority" : 2,
    "jobType" : "DROP",
    "constraints" : {
      "demand" : {
        "values" : [ 0.0, 1.0, 0.0, 0.0 ]
      },
      "pickupTimeWindows" : [ {
        "startTime" : 1420848000000,
        "endTime" : 1421539200000
      } ],
      "timeWindowConstraints" : {
        "serviceTimeWindows" : [ {
          "startTime" : 1420941600000,
          "endTime" : 1421006400000
        } ],
        "timeWindowPolicy" : "COMPLETE_ORDER_WITHIN_TIME_WINDOW"
      },
      "attributes" : [ "AoC108" ],
      "incompatibleAttributes" : [ ],
      "stopSequence" : 1
    }
  }, {
    "id" : 1032158,
    "metadata" : {
      "name" : "mID1032158"
    },
    "depot" : 0,
    "location" : {
      "latitude" : 51457995,
      "longitude" : -1042121,
      "metadata" : { }
    },
    "pickupDuration" : 0,
    "serviceDuration" : 360000,
    "unloadDuration" : 0,
    "durationPerVisit" : 600000,
    "priority" : 2,
    "jobType" : "DROP",
    "constraints" : {
      "demand" : {
        "values" : [ 0.0, 1.0, 0.0, 0.0 ]
      },
      "pickupTimeWindows" : [ {
        "startTime" : 1420848000000,
        "endTime" : 1421539200000
      } ],
      "timeWindowConstraints" : {
        "serviceTimeWindows" : [ {
          "startTime" : 1420941600000,
          "endTime" : 1421006400000
        } ],
        "timeWindowPolicy" : "COMPLETE_ORDER_WITHIN_TIME_WINDOW"
      },
      "attributes" : [ "AoC108" ],
      "incompatibleAttributes" : [ ],
      "stopSequence" : 1
    }
  }, {
    "id" : 1032159,
    "metadata" : {
      "name" : "mID1032159"
    },
    "depot" : 0,
    "location" : {
      "latitude" : 51443325,
      "longitude" : -144186,
      "metadata" : { }
    },
    "pickupDuration" : 0,
    "serviceDuration" : 360000,
    "unloadDuration" : 0,
    "durationPerVisit" : 600000,
    "priority" : 2,
    "jobType" : "DROP",
    "constraints" : {
      "demand" : {
        "values" : [ 0.0, 2.0, 0.0, 0.0 ]
      },
      "pickupTimeWindows" : [ {
        "startTime" : 1420848000000,
        "endTime" : 1421539200000
      } ],
      "timeWindowConstraints" : {
        "serviceTimeWindows" : [ {
          "startTime" : 1420941600000,
          "endTime" : 1421006400000
        } ],
        "timeWindowPolicy" : "COMPLETE_ORDER_WITHIN_TIME_WINDOW"
      },
      "attributes" : [ "AoC108" ],
      "incompatibleAttributes" : [ ],
      "stopSequence" : 1
    }
  }, {
    "id" : 1032160,
    "metadata" : {
      "name" : "mID1032160"
    },
    "depot" : 0,
    "location" : {
      "latitude" : 51303267,
      "longitude" : -328724,
      "metadata" : { }
    },
    "pickupDuration" : 0,
    "serviceDuration" : 360000,
    "unloadDuration" : 0,
    "durationPerVisit" : 600000,
    "priority" : 2,
    "jobType" : "DROP",
    "constraints" : {
      "demand" : {
        "values" : [ 0.0, 2.0, 0.0, 0.0 ]
      },
      "pickupTimeWindows" : [ {
        "startTime" : 1420848000000,
        "endTime" : 1421539200000
      } ],
      "timeWindowConstraints" : {
        "serviceTimeWindows" : [ {
          "startTime" : 1420941600000,
          "endTime" : 1421006400000
        } ],
        "timeWindowPolicy" : "COMPLETE_ORDER_WITHIN_TIME_WINDOW"
      },
      "attributes" : [ "AoC108" ],
      "incompatibleAttributes" : [ ],
      "stopSequence" : 1
    }
  }, {
    "id" : 1032161,
    "metadata" : {
      "name" : "mID1032161"
    },
    "depot" : 0,
    "location" : {
      "latitude" : 51474250,
      "longitude" : -286383,
      "metadata" : { }
    },
    "pickupDuration" : 0,
    "serviceDuration" : 360000,
    "unloadDuration" : 0,
    "durationPerVisit" : 600000,
    "priority" : 2,
    "jobType" : "DROP",
    "constraints" : {
      "demand" : {
        "values" : [ 0.0, 1.0, 0.0, 0.0 ]
      },
      "pickupTimeWindows" : [ {
        "startTime" : 1420848000000,
        "endTime" : 1421539200000
      } ],
      "timeWindowConstraints" : {
        "serviceTimeWindows" : [ {
          "startTime" : 1420941600000,
          "endTime" : 1421006400000
        } ],
        "timeWindowPolicy" : "COMPLETE_ORDER_WITHIN_TIME_WINDOW"
      },
      "attributes" : [ "AoC108" ],
      "incompatibleAttributes" : [ ],
      "stopSequence" : 1
    }
  }, {
    "id" : 1032162,
    "metadata" : {
      "name" : "mID1032162"
    },
    "depot" : 0,
    "location" : {
      "latitude" : 51601860,
      "longitude" : -634747,
      "metadata" : { }
    },
    "pickupDuration" : 0,
    "serviceDuration" : 360000,
    "unloadDuration" : 0,
    "durationPerVisit" : 600000,
    "priority" : 2,
    "jobType" : "DROP",
    "constraints" : {
      "demand" : {
        "values" : [ 0.0, 2.0, 0.0, 0.0 ]
      },
      "pickupTimeWindows" : [ {
        "startTime" : 1420848000000,
        "endTime" : 1421539200000
      } ],
      "timeWindowConstraints" : {
        "serviceTimeWindows" : [ {
          "startTime" : 1420941600000,
          "endTime" : 1421006400000
        } ],
        "timeWindowPolicy" : "COMPLETE_ORDER_WITHIN_TIME_WINDOW"
      },
      "attributes" : [ "AoC108" ],
      "incompatibleAttributes" : [ ],
      "stopSequence" : 1
    }
  }, {
    "id" : 1032163,
    "metadata" : {
      "name" : "mID1032163"
    },
    "depot" : 0,
    "location" : {
      "latitude" : 51521879,
      "longitude" : -779390,
      "metadata" : { }
    },
    "pickupDuration" : 0,
    "serviceDuration" : 360000,
    "unloadDuration" : 0,
    "durationPerVisit" : 600000,
    "priority" : 2,
    "jobType" : "DROP",
    "constraints" : {
      "demand" : {
        "values" : [ 0.0, 1.0, 0.0, 0.0 ]
      },
      "pickupTimeWindows" : [ {
        "startTime" : 1420848000000,
        "endTime" : 1421539200000
      } ],
      "timeWindowConstraints" : {
        "serviceTimeWindows" : [ {
          "startTime" : 1420941600000,
          "endTime" : 1421006400000
        } ],
        "timeWindowPolicy" : "COMPLETE_ORDER_WITHIN_TIME_WINDOW"
      },
      "attributes" : [ "AoC108" ],
      "incompatibleAttributes" : [ ],
      "stopSequence" : 1
    }
  }, {
    "id" : 1032164,
    "metadata" : {
      "name" : "mID1032164"
    },
    "depot" : 0,
    "location" : {
      "latitude" : 51426615,
      "longitude" : 131836,
      "metadata" : { }
    },
    "pickupDuration" : 0,
    "serviceDuration" : 360000,
    "unloadDuration" : 0,
    "durationPerVisit" : 600000,
    "priority" : 2,
    "jobType" : "DROP",
    "constraints" : {
      "demand" : {
        "values" : [ 0.0, 1.0, 0.0, 0.0 ]
      },
      "pickupTimeWindows" : [ {
        "startTime" : 1420848000000,
        "endTime" : 1421539200000
      } ],
      "timeWindowConstraints" : {
        "serviceTimeWindows" : [ {
          "startTime" : 1420941600000,
          "endTime" : 1421006400000
        } ],
        "timeWindowPolicy" : "COMPLETE_ORDER_WITHIN_TIME_WINDOW"
      },
      "attributes" : [ "AoC108" ],
      "incompatibleAttributes" : [ ],
      "stopSequence" : 1
    }
  }, {
    "id" : 1032165,
    "metadata" : {
      "name" : "mID1032165"
    },
    "depot" : 0,
    "location" : {
      "latitude" : 51607784,
      "longitude" : -796508,
      "metadata" : { }
    },
    "pickupDuration" : 0,
    "serviceDuration" : 360000,
    "unloadDuration" : 0,
    "durationPerVisit" : 600000,
    "priority" : 2,
    "jobType" : "DROP",
    "constraints" : {
      "demand" : {
        "values" : [ 0.0, 1.0, 0.0, 0.0 ]
      },
      "pickupTimeWindows" : [ {
        "startTime" : 1420848000000,
        "endTime" : 1421539200000
      } ],
      "timeWindowConstraints" : {
        "serviceTimeWindows" : [ {
          "startTime" : 1420941600000,
          "endTime" : 1421006400000
        } ],
        "timeWindowPolicy" : "COMPLETE_ORDER_WITHIN_TIME_WINDOW"
      },
      "attributes" : [ "AoC108" ],
      "incompatibleAttributes" : [ ],
      "stopSequence" : 1
    }
  }, {
    "id" : 1032166,
    "metadata" : {
      "name" : "mID1032166"
    },
    "depot" : 0,
    "location" : {
      "latitude" : 51688483,
      "longitude" : -1201617,
      "metadata" : { }
    },
    "pickupDuration" : 0,
    "serviceDuration" : 360000,
    "unloadDuration" : 0,
    "durationPerVisit" : 600000,
    "priority" : 2,
    "jobType" : "DROP",
    "constraints" : {
      "demand" : {
        "values" : [ 0.0, 1.0, 0.0, 0.0 ]
      },
      "pickupTimeWindows" : [ {
        "startTime" : 1420848000000,
        "endTime" : 1421539200000
      } ],
      "timeWindowConstraints" : {
        "serviceTimeWindows" : [ {
          "startTime" : 1420941600000,
          "endTime" : 1421006400000
        } ],
        "timeWindowPolicy" : "COMPLETE_ORDER_WITHIN_TIME_WINDOW"
      },
      "attributes" : [ "AoC108" ],
      "incompatibleAttributes" : [ ],
      "stopSequence" : 1
    }
  }, {
    "id" : 1032167,
    "metadata" : {
      "name" : "mID1032167"
    },
    "depot" : 0,
    "location" : {
      "latitude" : 51669492,
      "longitude" : -1280773,
      "metadata" : { }
    },
    "pickupDuration" : 0,
    "serviceDuration" : 360000,
    "unloadDuration" : 0,
    "durationPerVisit" : 600000,
    "priority" : 2,
    "jobType" : "DROP",
    "constraints" : {
      "demand" : {
        "values" : [ 0.0, 2.0, 0.0, 0.0 ]
      },
      "pickupTimeWindows" : [ {
        "startTime" : 1420848000000,
        "endTime" : 1421539200000
      } ],
      "timeWindowConstraints" : {
        "serviceTimeWindows" : [ {
          "startTime" : 1420941600000,
          "endTime" : 1421006400000
        } ],
        "timeWindowPolicy" : "COMPLETE_ORDER_WITHIN_TIME_WINDOW"
      },
      "attributes" : [ "AoC108" ],
      "incompatibleAttributes" : [ ],
      "stopSequence" : 1
    }
  }, {
    "id" : 1032168,
    "metadata" : {
      "name" : "mID1032168"
    },
    "depot" : 0,
    "location" : {
      "latitude" : 51521410,
      "longitude" : -723170,
      "metadata" : { }
    },
    "pickupDuration" : 0,
    "serviceDuration" : 360000,
    "unloadDuration" : 0,
    "durationPerVisit" : 600000,
    "priority" : 2,
    "jobType" : "DROP",
    "constraints" : {
      "demand" : {
        "values" : [ 0.0, 2.0, 0.0, 0.0 ]
      },
      "pickupTimeWindows" : [ {
        "startTime" : 1420848000000,
        "endTime" : 1421539200000
      } ],
      "timeWindowConstraints" : {
        "serviceTimeWindows" : [ {
          "startTime" : 1420941600000,
          "endTime" : 1421006400000
        } ],
        "timeWindowPolicy" : "COMPLETE_ORDER_WITHIN_TIME_WINDOW"
      },
      "attributes" : [ "AoC108" ],
      "incompatibleAttributes" : [ ],
      "stopSequence" : 1
    }
  }, {
    "id" : 1032169,
    "metadata" : {
      "name" : "mID1032169"
    },
    "depot" : 0,
    "location" : {
      "latitude" : 51468705,
      "longitude" : -254886,
      "metadata" : { }
    },
    "pickupDuration" : 0,
    "serviceDuration" : 360000,
    "unloadDuration" : 0,
    "durationPerVisit" : 600000,
    "priority" : 2,
    "jobType" : "DROP",
    "constraints" : {
      "demand" : {
        "values" : [ 0.0, 2.0, 0.0, 0.0 ]
      },
      "pickupTimeWindows" : [ {
        "startTime" : 1420848000000,
        "endTime" : 1421539200000
      } ],
      "timeWindowConstraints" : {
        "serviceTimeWindows" : [ {
          "startTime" : 1420941600000,
          "endTime" : 1421006400000
        } ],
        "timeWindowPolicy" : "COMPLETE_ORDER_WITHIN_TIME_WINDOW"
      },
      "attributes" : [ "AoC108" ],
      "incompatibleAttributes" : [ ],
      "stopSequence" : 1
    }
  }, {
    "id" : 1032170,
    "metadata" : {
      "name" : "mID1032170"
    },
    "depot" : 0,
    "location" : {
      "latitude" : 51571381,
      "longitude" : -775808,
      "metadata" : { }
    },
    "pickupDuration" : 0,
    "serviceDuration" : 360000,
    "unloadDuration" : 0,
    "durationPerVisit" : 600000,
    "priority" : 2,
    "jobType" : "DROP",
    "constraints" : {
      "demand" : {
        "values" : [ 0.0, 2.0, 0.0, 0.0 ]
      },
      "pickupTimeWindows" : [ {
        "startTime" : 1420848000000,
        "endTime" : 1421539200000
      } ],
      "timeWindowConstraints" : {
        "serviceTimeWindows" : [ {
          "startTime" : 1420941600000,
          "endTime" : 1421006400000
        } ],
        "timeWindowPolicy" : "COMPLETE_ORDER_WITHIN_TIME_WINDOW"
      },
      "attributes" : [ "AoC108" ],
      "incompatibleAttributes" : [ ],
      "stopSequence" : 1
    }
  }, {
    "id" : 1032171,
    "metadata" : {
      "name" : "mID1032171"
    },
    "depot" : 0,
    "location" : {
      "latitude" : 51521292,
      "longitude" : -1139858,
      "metadata" : { }
    },
    "pickupDuration" : 0,
    "serviceDuration" : 360000,
    "unloadDuration" : 0,
    "durationPerVisit" : 600000,
    "priority" : 2,
    "jobType" : "DROP",
    "constraints" : {
      "demand" : {
        "values" : [ 0.0, 2.0, 0.0, 0.0 ]
      },
      "pickupTimeWindows" : [ {
        "startTime" : 1420848000000,
        "endTime" : 1421539200000
      } ],
      "timeWindowConstraints" : {
        "serviceTimeWindows" : [ {
          "startTime" : 1420941600000,
          "endTime" : 1421006400000
        } ],
        "timeWindowPolicy" : "COMPLETE_ORDER_WITHIN_TIME_WINDOW"
      },
      "attributes" : [ "AoC108" ],
      "incompatibleAttributes" : [ ],
      "stopSequence" : 1
    }
  }, {
    "id" : 1032172,
    "metadata" : {
      "name" : "mID1032172"
    },
    "depot" : 0,
    "location" : {
      "latitude" : 51475465,
      "longitude" : -239724,
      "metadata" : { }
    },
    "pickupDuration" : 0,
    "serviceDuration" : 360000,
    "unloadDuration" : 0,
    "durationPerVisit" : 600000,
    "priority" : 2,
    "jobType" : "DROP",
    "constraints" : {
      "demand" : {
        "values" : [ 0.0, 3.0, 0.0, 0.0 ]
      },
      "pickupTimeWindows" : [ {
        "startTime" : 1420848000000,
        "endTime" : 1421539200000
      } ],
      "timeWindowConstraints" : {
        "serviceTimeWindows" : [ {
          "startTime" : 1420941600000,
          "endTime" : 1421006400000
        } ],
        "timeWindowPolicy" : "COMPLETE_ORDER_WITHIN_TIME_WINDOW"
      },
      "attributes" : [ "AoC108" ],
      "incompatibleAttributes" : [ ],
      "stopSequence" : 1
    }
  }, {
    "id" : 1032173,
    "metadata" : {
      "name" : "mID1032173"
    },
    "depot" : 0,
    "location" : {
      "latitude" : 51751605,
      "longitude" : -1297954,
      "metadata" : { }
    },
    "pickupDuration" : 0,
    "serviceDuration" : 360000,
    "unloadDuration" : 0,
    "durationPerVisit" : 600000,
    "priority" : 2,
    "jobType" : "DROP",
    "constraints" : {
      "demand" : {
        "values" : [ 0.0, 2.0, 0.0, 0.0 ]
      },
      "pickupTimeWindows" : [ {
        "startTime" : 1420848000000,
        "endTime" : 1421539200000
      } ],
      "timeWindowConstraints" : {
        "serviceTimeWindows" : [ {
          "startTime" : 1420941600000,
          "endTime" : 1421006400000
        } ],
        "timeWindowPolicy" : "COMPLETE_ORDER_WITHIN_TIME_WINDOW"
      },
      "attributes" : [ "AoC108" ],
      "incompatibleAttributes" : [ ],
      "stopSequence" : 1
    }
  }, {
    "id" : 1032174,
    "metadata" : {
      "name" : "mID1032174"
    },
    "depot" : 0,
    "location" : {
      "latitude" : 51723662,
      "longitude" : -831470,
      "metadata" : { }
    },
    "pickupDuration" : 0,
    "serviceDuration" : 360000,
    "unloadDuration" : 0,
    "durationPerVisit" : 600000,
    "priority" : 2,
    "jobType" : "DROP",
    "constraints" : {
      "demand" : {
        "values" : [ 0.0, 1.0, 0.0, 0.0 ]
      },
      "pickupTimeWindows" : [ {
        "startTime" : 1420848000000,
        "endTime" : 1421539200000
      } ],
      "timeWindowConstraints" : {
        "serviceTimeWindows" : [ {
          "startTime" : 1420941600000,
          "endTime" : 1421006400000
        } ],
        "timeWindowPolicy" : "COMPLETE_ORDER_WITHIN_TIME_WINDOW"
      },
      "attributes" : [ "AoC108" ],
      "incompatibleAttributes" : [ ],
      "stopSequence" : 1
    }
  }, {
    "id" : 1032175,
    "metadata" : {
      "name" : "mID1032175"
    },
    "depot" : 0,
    "location" : {
      "latitude" : 51424623,
      "longitude" : -216623,
      "metadata" : { }
    },
    "pickupDuration" : 0,
    "serviceDuration" : 360000,
    "unloadDuration" : 0,
    "durationPerVisit" : 600000,
    "priority" : 2,
    "jobType" : "DROP",
    "constraints" : {
      "demand" : {
        "values" : [ 0.0, 2.0, 0.0, 0.0 ]
      },
      "pickupTimeWindows" : [ {
        "startTime" : 1420848000000,
        "endTime" : 1421539200000
      } ],
      "timeWindowConstraints" : {
        "serviceTimeWindows" : [ {
          "startTime" : 1420941600000,
          "endTime" : 1421006400000
        } ],
        "timeWindowPolicy" : "COMPLETE_ORDER_WITHIN_TIME_WINDOW"
      },
      "attributes" : [ "AoC108" ],
      "incompatibleAttributes" : [ ],
      "stopSequence" : 1
    }
  }, {
    "id" : 1032176,
    "metadata" : {
      "name" : "mID1032176"
    },
    "depot" : 0,
    "location" : {
      "latitude" : 51786954,
      "longitude" : -1484801,
      "metadata" : { }
    },
    "pickupDuration" : 0,
    "serviceDuration" : 360000,
    "unloadDuration" : 0,
    "durationPerVisit" : 600000,
    "priority" : 2,
    "jobType" : "DROP",
    "constraints" : {
      "demand" : {
        "values" : [ 0.0, 2.0, 0.0, 0.0 ]
      },
      "pickupTimeWindows" : [ {
        "startTime" : 1420848000000,
        "endTime" : 1421539200000
      } ],
      "timeWindowConstraints" : {
        "serviceTimeWindows" : [ {
          "startTime" : 1420941600000,
          "endTime" : 1421006400000
        } ],
        "timeWindowPolicy" : "COMPLETE_ORDER_WITHIN_TIME_WINDOW"
      },
      "attributes" : [ "AoC108" ],
      "incompatibleAttributes" : [ ],
      "stopSequence" : 1
    }
  }, {
    "id" : 1032177,
    "metadata" : {
      "name" : "mID1032177"
    },
    "depot" : 0,
    "location" : {
      "latitude" : 51706099,
      "longitude" : -416925,
      "metadata" : { }
    },
    "pickupDuration" : 0,
    "serviceDuration" : 360000,
    "unloadDuration" : 0,
    "durationPerVisit" : 600000,
    "priority" : 2,
    "jobType" : "DROP",
    "constraints" : {
      "demand" : {
        "values" : [ 0.0, 1.0, 0.0, 0.0 ]
      },
      "pickupTimeWindows" : [ {
        "startTime" : 1420848000000,
        "endTime" : 1421539200000
      } ],
      "timeWindowConstraints" : {
        "serviceTimeWindows" : [ {
          "startTime" : 1420941600000,
          "endTime" : 1421006400000
        } ],
        "timeWindowPolicy" : "COMPLETE_ORDER_WITHIN_TIME_WINDOW"
      },
      "attributes" : [ "AoC108" ],
      "incompatibleAttributes" : [ ],
      "stopSequence" : 1
    }
  }, {
    "id" : 1032178,
    "metadata" : {
      "name" : "mID1032178"
    },
    "depot" : 0,
    "location" : {
      "latitude" : 51393717,
      "longitude" : -304573,
      "metadata" : { }
    },
    "pickupDuration" : 0,
    "serviceDuration" : 360000,
    "unloadDuration" : 0,
    "durationPerVisit" : 600000,
    "priority" : 2,
    "jobType" : "DROP",
    "constraints" : {
      "demand" : {
        "values" : [ 0.0, 1.0, 0.0, 0.0 ]
      },
      "pickupTimeWindows" : [ {
        "startTime" : 1420848000000,
        "endTime" : 1421539200000
      } ],
      "timeWindowConstraints" : {
        "serviceTimeWindows" : [ {
          "startTime" : 1420941600000,
          "endTime" : 1421006400000
        } ],
        "timeWindowPolicy" : "COMPLETE_ORDER_WITHIN_TIME_WINDOW"
      },
      "attributes" : [ "AoC108" ],
      "incompatibleAttributes" : [ ],
      "stopSequence" : 1
    }
  }, {
    "id" : 1032179,
    "metadata" : {
      "name" : "mID1032179"
    },
    "depot" : 0,
    "location" : {
      "latitude" : 51372094,
      "longitude" : -457927,
      "metadata" : { }
    },
    "pickupDuration" : 0,
    "serviceDuration" : 360000,
    "unloadDuration" : 0,
    "durationPerVisit" : 600000,
    "priority" : 2,
    "jobType" : "DROP",
    "constraints" : {
      "demand" : {
        "values" : [ 0.0, 3.0, 0.0, 0.0 ]
      },
      "pickupTimeWindows" : [ {
        "startTime" : 1420848000000,
        "endTime" : 1421539200000
      } ],
      "timeWindowConstraints" : {
        "serviceTimeWindows" : [ {
          "startTime" : 1420941600000,
          "endTime" : 1421006400000
        } ],
        "timeWindowPolicy" : "COMPLETE_ORDER_WITHIN_TIME_WINDOW"
      },
      "attributes" : [ "AoC108" ],
      "incompatibleAttributes" : [ ],
      "stopSequence" : 1
    }
  }, {
    "id" : 1032180,
    "metadata" : {
      "name" : "mID1032180"
    },
    "depot" : 0,
    "location" : {
      "latitude" : 51483277,
      "longitude" : -610472,
      "metadata" : { }
    },
    "pickupDuration" : 0,
    "serviceDuration" : 360000,
    "unloadDuration" : 0,
    "durationPerVisit" : 600000,
    "priority" : 2,
    "jobType" : "DROP",
    "constraints" : {
      "demand" : {
        "values" : [ 0.0, 2.0, 0.0, 0.0 ]
      },
      "pickupTimeWindows" : [ {
        "startTime" : 1420848000000,
        "endTime" : 1421539200000
      } ],
      "timeWindowConstraints" : {
        "serviceTimeWindows" : [ {
          "startTime" : 1420941600000,
          "endTime" : 1421006400000
        } ],
        "timeWindowPolicy" : "COMPLETE_ORDER_WITHIN_TIME_WINDOW"
      },
      "attributes" : [ "AoC108" ],
      "incompatibleAttributes" : [ ],
      "stopSequence" : 1
    }
  }, {
    "id" : 1032181,
    "metadata" : {
      "name" : "mID1032181"
    },
    "depot" : 0,
    "location" : {
      "latitude" : 51530807,
      "longitude" : -373864,
      "metadata" : { }
    },
    "pickupDuration" : 0,
    "serviceDuration" : 360000,
    "unloadDuration" : 0,
    "durationPerVisit" : 600000,
    "priority" : 2,
    "jobType" : "DROP",
    "constraints" : {
      "demand" : {
        "values" : [ 0.0, 3.0, 0.0, 0.0 ]
      },
      "pickupTimeWindows" : [ {
        "startTime" : 1420848000000,
        "endTime" : 1421539200000
      } ],
      "timeWindowConstraints" : {
        "serviceTimeWindows" : [ {
          "startTime" : 1420941600000,
          "endTime" : 1421006400000
        } ],
        "timeWindowPolicy" : "COMPLETE_ORDER_WITHIN_TIME_WINDOW"
      },
      "attributes" : [ "AoC108" ],
      "incompatibleAttributes" : [ ],
      "stopSequence" : 1
    }
  }, {
    "id" : 1032182,
    "metadata" : {
      "name" : "mID1032182"
    },
    "depot" : 0,
    "location" : {
      "latitude" : 51588504,
      "longitude" : -1425673,
      "metadata" : { }
    },
    "pickupDuration" : 0,
    "serviceDuration" : 360000,
    "unloadDuration" : 0,
    "durationPerVisit" : 600000,
    "priority" : 2,
    "jobType" : "DROP",
    "constraints" : {
      "demand" : {
        "values" : [ 0.0, 1.0, 0.0, 0.0 ]
      },
      "pickupTimeWindows" : [ {
        "startTime" : 1420848000000,
        "endTime" : 1421539200000
      } ],
      "timeWindowConstraints" : {
        "serviceTimeWindows" : [ {
          "startTime" : 1420941600000,
          "endTime" : 1421006400000
        } ],
        "timeWindowPolicy" : "COMPLETE_ORDER_WITHIN_TIME_WINDOW"
      },
      "attributes" : [ "AoC108" ],
      "incompatibleAttributes" : [ ],
      "stopSequence" : 1
    }
  }, {
    "id" : 1032183,
    "metadata" : {
      "name" : "mID1032183"
    },
    "depot" : 0,
    "location" : {
      "latitude" : 51444709,
      "longitude" : -166841,
      "metadata" : { }
    },
    "pickupDuration" : 0,
    "serviceDuration" : 360000,
    "unloadDuration" : 0,
    "durationPerVisit" : 600000,
    "priority" : 2,
    "jobType" : "DROP",
    "constraints" : {
      "demand" : {
        "values" : [ 0.0, 1.0, 0.0, 0.0 ]
      },
      "pickupTimeWindows" : [ {
        "startTime" : 1420848000000,
        "endTime" : 1421539200000
      } ],
      "timeWindowConstraints" : {
        "serviceTimeWindows" : [ {
          "startTime" : 1420941600000,
          "endTime" : 1421006400000
        } ],
        "timeWindowPolicy" : "COMPLETE_ORDER_WITHIN_TIME_WINDOW"
      },
      "attributes" : [ "AoC108" ],
      "incompatibleAttributes" : [ ],
      "stopSequence" : 1
    }
  }, {
    "id" : 1032184,
    "metadata" : {
      "name" : "mID1032184"
    },
    "depot" : 0,
    "location" : {
      "latitude" : 51518780,
      "longitude" : -482954,
      "metadata" : { }
    },
    "pickupDuration" : 0,
    "serviceDuration" : 360000,
    "unloadDuration" : 0,
    "durationPerVisit" : 600000,
    "priority" : 2,
    "jobType" : "DROP",
    "constraints" : {
      "demand" : {
        "values" : [ 0.0, 2.0, 0.0, 0.0 ]
      },
      "pickupTimeWindows" : [ {
        "startTime" : 1420848000000,
        "endTime" : 1421539200000
      } ],
      "timeWindowConstraints" : {
        "serviceTimeWindows" : [ {
          "startTime" : 1420941600000,
          "endTime" : 1421006400000
        } ],
        "timeWindowPolicy" : "COMPLETE_ORDER_WITHIN_TIME_WINDOW"
      },
      "attributes" : [ "AoC108" ],
      "incompatibleAttributes" : [ ],
      "stopSequence" : 1
    }
  }, {
    "id" : 1032185,
    "metadata" : {
      "name" : "mID1032185"
    },
    "depot" : 0,
    "location" : {
      "latitude" : 51537685,
      "longitude" : -905895,
      "metadata" : { }
    },
    "pickupDuration" : 0,
    "serviceDuration" : 360000,
    "unloadDuration" : 0,
    "durationPerVisit" : 600000,
    "priority" : 2,
    "jobType" : "DROP",
    "constraints" : {
      "demand" : {
        "values" : [ 0.0, 2.0, 0.0, 0.0 ]
      },
      "pickupTimeWindows" : [ {
        "startTime" : 1420848000000,
        "endTime" : 1421539200000
      } ],
      "timeWindowConstraints" : {
        "serviceTimeWindows" : [ {
          "startTime" : 1420941600000,
          "endTime" : 1421006400000
        } ],
        "timeWindowPolicy" : "COMPLETE_ORDER_WITHIN_TIME_WINDOW"
      },
      "attributes" : [ "AoC108" ],
      "incompatibleAttributes" : [ ],
      "stopSequence" : 1
    }
  }, {
    "id" : 1032186,
    "metadata" : {
      "name" : "mID1032186"
    },
    "depot" : 0,
    "location" : {
      "latitude" : 51391938,
      "longitude" : -632955,
      "metadata" : { }
    },
    "pickupDuration" : 0,
    "serviceDuration" : 360000,
    "unloadDuration" : 0,
    "durationPerVisit" : 600000,
    "priority" : 2,
    "jobType" : "DROP",
    "constraints" : {
      "demand" : {
        "values" : [ 0.0, 1.0, 0.0, 0.0 ]
      },
      "pickupTimeWindows" : [ {
        "startTime" : 1420848000000,
        "endTime" : 1421539200000
      } ],
      "timeWindowConstraints" : {
        "serviceTimeWindows" : [ {
          "startTime" : 1420941600000,
          "endTime" : 1421006400000
        } ],
        "timeWindowPolicy" : "COMPLETE_ORDER_WITHIN_TIME_WINDOW"
      },
      "attributes" : [ "AoC108" ],
      "incompatibleAttributes" : [ ],
      "stopSequence" : 1
    }
  }, {
    "id" : 1032187,
    "metadata" : {
      "name" : "mID1032187"
    },
    "depot" : 0,
    "location" : {
      "latitude" : 51480922,
      "longitude" : -612050,
      "metadata" : { }
    },
    "pickupDuration" : 0,
    "serviceDuration" : 360000,
    "unloadDuration" : 0,
    "durationPerVisit" : 600000,
    "priority" : 2,
    "jobType" : "DROP",
    "constraints" : {
      "demand" : {
        "values" : [ 0.0, 1.0, 0.0, 0.0 ]
      },
      "pickupTimeWindows" : [ {
        "startTime" : 1420848000000,
        "endTime" : 1421539200000
      } ],
      "timeWindowConstraints" : {
        "serviceTimeWindows" : [ {
          "startTime" : 1420941600000,
          "endTime" : 1421006400000
        } ],
        "timeWindowPolicy" : "COMPLETE_ORDER_WITHIN_TIME_WINDOW"
      },
      "attributes" : [ "AoC108" ],
      "incompatibleAttributes" : [ ],
      "stopSequence" : 1
    }
  }, {
    "id" : 1032188,
    "metadata" : {
      "name" : "mID1032188"
    },
    "depot" : 0,
    "location" : {
      "latitude" : 51764398,
      "longitude" : -1261066,
      "metadata" : { }
    },
    "pickupDuration" : 0,
    "serviceDuration" : 360000,
    "unloadDuration" : 0,
    "durationPerVisit" : 600000,
    "priority" : 2,
    "jobType" : "DROP",
    "constraints" : {
      "demand" : {
        "values" : [ 0.0, 2.0, 0.0, 0.0 ]
      },
      "pickupTimeWindows" : [ {
        "startTime" : 1420848000000,
        "endTime" : 1421539200000
      } ],
      "timeWindowConstraints" : {
        "serviceTimeWindows" : [ {
          "startTime" : 1420941600000,
          "endTime" : 1421006400000
        } ],
        "timeWindowPolicy" : "COMPLETE_ORDER_WITHIN_TIME_WINDOW"
      },
      "attributes" : [ "AoC108" ],
      "incompatibleAttributes" : [ ],
      "stopSequence" : 1
    }
  }, {
    "id" : 1032189,
    "metadata" : {
      "name" : "mID1032189"
    },
    "depot" : 0,
    "location" : {
      "latitude" : 51483596,
      "longitude" : -1082644,
      "metadata" : { }
    },
    "pickupDuration" : 0,
    "serviceDuration" : 360000,
    "unloadDuration" : 0,
    "durationPerVisit" : 600000,
    "priority" : 2,
    "jobType" : "DROP",
    "constraints" : {
      "demand" : {
        "values" : [ 0.0, 2.0, 0.0, 0.0 ]
      },
      "pickupTimeWindows" : [ {
        "startTime" : 1420848000000,
        "endTime" : 1421539200000
      } ],
      "timeWindowConstraints" : {
        "serviceTimeWindows" : [ {
          "startTime" : 1420941600000,
          "endTime" : 1421006400000
        } ],
        "timeWindowPolicy" : "COMPLETE_ORDER_WITHIN_TIME_WINDOW"
      },
      "attributes" : [ "AoC108" ],
      "incompatibleAttributes" : [ ],
      "stopSequence" : 1
    }
  } ],
  "schedules" : [ {
    "timeWindow" : {
      "startTime" : 1420934460000,
      "endTime" : 1421020740000
    },
    "runs" : [ ],
    "breaks" : [ ],
    "constraints" : { },
    "resource" : {
      "metadata" : {
        "name" : "JYJ"
      },
      "id" : 8195,
      "depot" : 0,
      "hourCost" : 0.0,
      "kmCost" : 0.62150407,
      "routingProfile" : {
        "vehicleType" : "Default",
        "drivingTimeCorrectionFactor" : 1.0,
        "maxSpeed" : 64.36
      },
      "constraints" : {
        "runDistanceLimit" : "Infinity",
        "runWorkingTimeLimit" : 9223372036854775807,
        "scheduleWorkingTimeLimit" : 39600000,
        "scheduleDrivingTimeLimit" : 13140000,
        "addonCollectionDropDuration" : 0,
        "addonPickupDuration" : 3000000,
        "capacity" : {
          "values" : [ 30.0, 30.0, 0.0, 0.0 ]
        },
        "attributes" : [ "AoC108" ],
        "homeLocations" : {
          "startLocation" : {
            "latitude" : 51466235,
            "longitude" : -500116,
            "metadata" : { }
          },
          "endLocation" : {
            "latitude" : 51466235,
            "longitude" : -500116,
            "metadata" : { }
          }
        },
        "fixedStartTime" : -1
      }
    }
  }, {
    "timeWindow" : {
      "startTime" : 1420934460000,
      "endTime" : 1421020740000
    },
    "runs" : [ ],
    "breaks" : [ ],
    "constraints" : { },
    "resource" : {
      "metadata" : {
        "name" : "TVXQ"
      },
      "id" : 8193,
      "depot" : 0,
      "hourCost" : 0.0,
      "kmCost" : 0.62150407,
      "routingProfile" : {
        "vehicleType" : "Default",
        "drivingTimeCorrectionFactor" : 1.0,
        "maxSpeed" : 96.54
      },
      "constraints" : {
        "runDistanceLimit" : "Infinity",
        "runWorkingTimeLimit" : 9223372036854775807,
        "scheduleWorkingTimeLimit" : 39600000,
        "scheduleDrivingTimeLimit" : 13140000,
        "addonCollectionDropDuration" : 0,
        "addonPickupDuration" : 3000000,
        "capacity" : {
          "values" : [ 20.0, 20.0, 0.0, 0.0 ]
        },
        "attributes" : [ "AoC108" ],
        "homeLocations" : {
          "startLocation" : {
            "latitude" : 51466235,
            "longitude" : -500116,
            "metadata" : { }
          },
          "endLocation" : {
            "latitude" : 51466235,
            "longitude" : -500116,
            "metadata" : { }
          }
        },
        "fixedStartTime" : -1
      }
    }
  }, {
    "timeWindow" : {
      "startTime" : 1420934460000,
      "endTime" : 1420966800000
    },
    "runs" : [ ],
    "breaks" : [ ],
    "constraints" : { },
    "resource" : {
      "metadata" : {
        "name" : "BJ61UPY"
      },
      "id" : 1782,
      "depot" : 0,
      "hourCost" : 0.0,
      "kmCost" : 0.24860162,
      "routingProfile" : {
        "vehicleType" : "Default",
        "drivingTimeCorrectionFactor" : 1.0,
        "maxSpeed" : 64.36
      },
      "constraints" : {
        "runDistanceLimit" : "Infinity",
        "runWorkingTimeLimit" : 9223372036854775807,
        "scheduleWorkingTimeLimit" : 39600000,
        "scheduleDrivingTimeLimit" : 13140000,
        "addonCollectionDropDuration" : 0,
        "addonPickupDuration" : 3000000,
        "capacity" : {
          "values" : [ 28.0, 28.0, 0.0, 0.0 ]
        },
        "attributes" : [ "AoC108", "route1", "route1.route1" ],
        "homeLocations" : {
          "startLocation" : {
            "latitude" : 51466235,
            "longitude" : -500116,
            "metadata" : { }
          },
          "endLocation" : {
            "latitude" : 51466235,
            "longitude" : -500116,
            "metadata" : { }
          }
        },
        "fixedStartTime" : -1
      }
    }
  }, {
    "timeWindow" : {
      "startTime" : 1420934460000,
      "endTime" : 1420966800000
    },
    "runs" : [ ],
    "breaks" : [ ],
    "constraints" : { },
    "resource" : {
      "metadata" : {
        "name" : "OV61XBS"
      },
      "id" : 1780,
      "depot" : 0,
      "hourCost" : 0.0,
      "kmCost" : 0.62150407,
      "routingProfile" : {
        "vehicleType" : "Default",
        "drivingTimeCorrectionFactor" : 1.0,
        "maxSpeed" : 64.36
      },
      "constraints" : {
        "runDistanceLimit" : "Infinity",
        "runWorkingTimeLimit" : 9223372036854775807,
        "scheduleWorkingTimeLimit" : 39600000,
        "scheduleDrivingTimeLimit" : 13140000,
        "addonCollectionDropDuration" : 0,
        "addonPickupDuration" : 3000000,
        "capacity" : {
          "values" : [ 28.0, 28.0, 0.0, 0.0 ]
        },
        "attributes" : [ "AoC108", "route1", "route1.route1" ],
        "homeLocations" : {
          "startLocation" : {
            "latitude" : 51466235,
            "longitude" : -500116,
            "metadata" : { }
          },
          "endLocation" : {
            "latitude" : 51466235,
            "longitude" : -500116,
            "metadata" : { }
          }
        },
        "fixedStartTime" : -1
      }
    }
  }, {
    "timeWindow" : {
      "startTime" : 1420934460000,
      "endTime" : 1420966800000
    },
    "runs" : [ ],
    "breaks" : [ ],
    "constraints" : { },
    "resource" : {
      "metadata" : {
        "name" : "WJ620FV"
      },
      "id" : 1380,
      "depot" : 0,
      "hourCost" : 0.0,
      "kmCost" : 0.24860162,
      "routingProfile" : {
        "vehicleType" : "Default",
        "drivingTimeCorrectionFactor" : 1.0,
        "maxSpeed" : 64.36
      },
      "constraints" : {
        "runDistanceLimit" : "Infinity",
        "runWorkingTimeLimit" : 9223372036854775807,
        "scheduleWorkingTimeLimit" : 39600000,
        "scheduleDrivingTimeLimit" : 13140000,
        "addonCollectionDropDuration" : 0,
        "addonPickupDuration" : 3000000,
        "capacity" : {
          "values" : [ 28.0, 28.0, 0.0, 0.0 ]
        },
        "attributes" : [ "route4", "route3", "route2", "AoC108", "route1", "route5" ],
        "homeLocations" : {
          "startLocation" : {
            "latitude" : 51466235,
            "longitude" : -500116,
            "metadata" : { }
          },
          "endLocation" : {
            "latitude" : 51466235,
            "longitude" : -500116,
            "metadata" : { }
          }
        },
        "fixedStartTime" : -1
      }
    }
  }, {
    "timeWindow" : {
      "startTime" : 1420934460000,
      "endTime" : 1420966800000
    },
    "runs" : [ ],
    "breaks" : [ ],
    "constraints" : { },
    "resource" : {
      "metadata" : {
        "name" : "WL60DKE"
      },
      "id" : 1381,
      "depot" : 0,
      "hourCost" : 0.0,
      "kmCost" : 0.24860162,
      "routingProfile" : {
        "vehicleType" : "Default",
        "drivingTimeCorrectionFactor" : 1.0,
        "maxSpeed" : 64.36
      },
      "constraints" : {
        "runDistanceLimit" : "Infinity",
        "runWorkingTimeLimit" : 9223372036854775807,
        "scheduleWorkingTimeLimit" : 39600000,
        "scheduleDrivingTimeLimit" : 13140000,
        "addonCollectionDropDuration" : 0,
        "addonPickupDuration" : 3000000,
        "capacity" : {
          "values" : [ 14.0, 14.0, 0.0, 0.0 ]
        },
        "attributes" : [ "route4", "route3", "route2", "AoC108", "route1", "route5" ],
        "homeLocations" : {
          "startLocation" : {
            "latitude" : 51466235,
            "longitude" : -500116,
            "metadata" : { }
          },
          "endLocation" : {
            "latitude" : 51466235,
            "longitude" : -500116,
            "metadata" : { }
          }
        },
        "fixedStartTime" : -1
      }
    }
  }, {
    "timeWindow" : {
      "startTime" : 1420934460000,
      "endTime" : 1420966800000
    },
    "runs" : [ ],
    "breaks" : [ ],
    "constraints" : { },
    "resource" : {
      "metadata" : {
        "name" : "BJ61UPX"
      },
      "id" : 1784,
      "depot" : 0,
      "hourCost" : 0.0,
      "kmCost" : 0.24860162,
      "routingProfile" : {
        "vehicleType" : "Default",
        "drivingTimeCorrectionFactor" : 1.0,
        "maxSpeed" : 64.36
      },
      "constraints" : {
        "runDistanceLimit" : "Infinity",
        "runWorkingTimeLimit" : 9223372036854775807,
        "scheduleWorkingTimeLimit" : 39600000,
        "scheduleDrivingTimeLimit" : 13140000,
        "addonCollectionDropDuration" : 0,
        "addonPickupDuration" : 3000000,
        "capacity" : {
          "values" : [ 28.0, 28.0, 0.0, 0.0 ]
        },
        "attributes" : [ "AoC108", "route1", "CL33910", "route1.route1" ],
        "homeLocations" : {
          "startLocation" : {
            "latitude" : 51466235,
            "longitude" : -500116,
            "metadata" : { }
          },
          "endLocation" : {
            "latitude" : 51466235,
            "longitude" : -500116,
            "metadata" : { }
          }
        },
        "fixedStartTime" : -1
      }
    }
  }, {
    "timeWindow" : {
      "startTime" : 1420934460000,
      "endTime" : 1420966800000
    },
    "runs" : [ ],
    "breaks" : [ ],
    "constraints" : { },
    "resource" : {
      "metadata" : {
        "name" : "OU07 MDK"
      },
      "id" : 1378,
      "depot" : 0,
      "hourCost" : 0.0,
      "kmCost" : 0.24860162,
      "routingProfile" : {
        "vehicleType" : "Default",
        "drivingTimeCorrectionFactor" : 1.0,
        "maxSpeed" : 64.36
      },
      "constraints" : {
        "runDistanceLimit" : "Infinity",
        "runWorkingTimeLimit" : 9223372036854775807,
        "scheduleWorkingTimeLimit" : 39600000,
        "scheduleDrivingTimeLimit" : 13140000,
        "addonCollectionDropDuration" : 0,
        "addonPickupDuration" : 3000000,
        "capacity" : {
          "values" : [ 28.0, 28.0, 0.0, 0.0 ]
        },
        "attributes" : [ "AoC108", "route1", "route1.route1" ],
        "homeLocations" : {
          "startLocation" : {
            "latitude" : 51466235,
            "longitude" : -500116,
            "metadata" : { }
          },
          "endLocation" : {
            "latitude" : 51466235,
            "longitude" : -500116,
            "metadata" : { }
          }
        },
        "fixedStartTime" : -1
      }
    }
  }, {
    "timeWindow" : {
      "startTime" : 1420934460000,
      "endTime" : 1420966800000
    },
    "runs" : [ ],
    "breaks" : [ ],
    "constraints" : { },
    "resource" : {
      "metadata" : {
        "name" : "VK59FBL"
      },
      "id" : 1379,
      "depot" : 0,
      "hourCost" : 0.0,
      "kmCost" : 0.24860162,
      "routingProfile" : {
        "vehicleType" : "Default",
        "drivingTimeCorrectionFactor" : 1.0,
        "maxSpeed" : 64.36
      },
      "constraints" : {
        "runDistanceLimit" : "Infinity",
        "runWorkingTimeLimit" : 9223372036854775807,
        "scheduleWorkingTimeLimit" : 39600000,
        "scheduleDrivingTimeLimit" : 13140000,
        "addonCollectionDropDuration" : 0,
        "addonPickupDuration" : 3000000,
        "capacity" : {
          "values" : [ 10.0, 10.0, 0.0, 0.0 ]
        },
        "attributes" : [ "AoC108", "route1", "route1.route1" ],
        "homeLocations" : {
          "startLocation" : {
            "latitude" : 51466235,
            "longitude" : -500116,
            "metadata" : { }
          },
          "endLocation" : {
            "latitude" : 51466235,
            "longitude" : -500116,
            "metadata" : { }
          }
        },
        "fixedStartTime" : -1
      }
    }
  } ],
  "depots" : [ {
    "id" : 0,
    "location" : {
      "latitude" : 51466235,
      "longitude" : -500116,
      "metadata" : { }
    },
    "constraints" : {
      "allowCollectionsWhileDrivingHome" : false,
      "allowDeliveriesWhileDrivingFromHome" : false,
      "availabilityWindows" : [ {
        "startTime" : 0,
        "endTime" : 57657355200332
      } ]
    }
  } ],
  "constraints" : {
    "allowMultipleRunsPerSchedule" : true,
    "consolidateSameSiteJobs" : "NONE"
  }
}