{
  "jobs" : [ {
    "id" : 161988,
    "metadata" : {
      "name" : "mID161988"
    },
    "depot" : 0,
    "location" : {
      "latitude" : 51515863,
      "longitude" : -1251493,
      "metadata" : { }
    },
    "pickupDuration" : 39960,
    "serviceDuration" : 379980,
    "unloadDuration" : 0,
    "durationPerVisit" : 0,
    "priority" : 2,
    "jobType" : "DROP",
    "constraints" : {
      "demand" : {
        "values" : [ 40.0, 0.0, 0.0, 0.0 ]
      },
      "pickupTimeWindows" : [ {
        "startTime" : 1372818600000,
        "endTime" : 1372838340000
      } ],
      "timeWindowConstraints" : {
        "serviceTimeWindows" : [ {
          "startTime" : 1372834740000,
          "endTime" : 1372867200000
        } ],
        "timeWindowPolicy" : "COMPLETE_ORDER_WITHIN_TIME_WINDOW"
      },
      "attributes" : [ "AoC98" ],
      "incompatibleAttributes" : [ ],
      "stopSequence" : 1
    }
  }, {
    "id" : 161992,
    "metadata" : {
      "name" : "mID161992"
    },
    "depot" : 0,
    "location" : {
      "latitude" : 51847030,
      "longitude" : -2199725,
      "metadata" : { }
    },
    "pickupDuration" : 40980,
    "serviceDuration" : 381960,
    "unloadDuration" : 0,
    "durationPerVisit" : 0,
    "priority" : 2,
    "jobType" : "DROP",
    "constraints" : {
      "demand" : {
        "values" : [ 41.2, 0.0, 0.0, 0.0 ]
      },
      "pickupTimeWindows" : [ {
        "startTime" : 1372818600000,
        "endTime" : 1372838340000
      } ],
      "timeWindowConstraints" : {
        "serviceTimeWindows" : [ {
          "startTime" : 1372834740000,
          "endTime" : 1372867200000
        } ],
        "timeWindowPolicy" : "COMPLETE_ORDER_WITHIN_TIME_WINDOW"
      },
      "attributes" : [ "AoC98" ],
      "incompatibleAttributes" : [ ],
      "stopSequence" : 1
    }
  }, {
    "id" : 161993,
    "metadata" : {
      "name" : "mID161993"
    },
    "depot" : 0,
    "location" : {
      "latitude" : 51774301,
      "longitude" : -1492490,
      "metadata" : { }
    },
    "pickupDuration" : 49980,
    "serviceDuration" : 399960,
    "unloadDuration" : 0,
    "durationPerVisit" : 0,
    "priority" : 2,
    "jobType" : "DROP",
    "constraints" : {
      "demand" : {
        "values" : [ 50.4, 0.0, 0.0, 0.0 ]
      },
      "pickupTimeWindows" : [ {
        "startTime" : 1372818600000,
        "endTime" : 1372838340000
      } ],
      "timeWindowConstraints" : {
        "serviceTimeWindows" : [ {
          "startTime" : 1372834740000,
          "endTime" : 1372867200000
        } ],
        "timeWindowPolicy" : "COMPLETE_ORDER_WITHIN_TIME_WINDOW"
      },
      "attributes" : [ "AoC98" ],
      "incompatibleAttributes" : [ ],
      "stopSequence" : 1
    }
  }, {
    "id" : 161994,
    "metadata" : {
      "name" : "mID161994"
    },
    "depot" : 0,
    "location" : {
      "latitude" : 51648124,
      "longitude" : -2364788,
      "metadata" : { }
    },
    "pickupDuration" : 36000,
    "serviceDuration" : 372000,
    "unloadDuration" : 0,
    "durationPerVisit" : 0,
    "priority" : 2,
    "jobType" : "DROP",
    "constraints" : {
      "demand" : {
        "values" : [ 36.0, 0.0, 0.0, 0.0 ]
      },
      "pickupTimeWindows" : [ {
        "startTime" : 1372818600000,
        "endTime" : 1372838340000
      } ],
      "timeWindowConstraints" : {
        "serviceTimeWindows" : [ {
          "startTime" : 1372834740000,
          "endTime" : 1372867200000
        } ],
        "timeWindowPolicy" : "COMPLETE_ORDER_WITHIN_TIME_WINDOW"
      },
      "attributes" : [ "AoC98" ],
      "incompatibleAttributes" : [ ],
      "stopSequence" : 1
    }
  }, {
    "id" : 161995,
    "metadata" : {
      "name" : "mID161995"
    },
    "depot" : 0,
    "location" : {
      "latitude" : 51407463,
      "longitude" : -1282781,
      "metadata" : { }
    },
    "pickupDuration" : 43980,
    "serviceDuration" : 390000,
    "unloadDuration" : 0,
    "durationPerVisit" : 0,
    "priority" : 2,
    "jobType" : "DROP",
    "constraints" : {
      "demand" : {
        "values" : [ 44.64, 0.0, 0.0, 0.0 ]
      },
      "pickupTimeWindows" : [ {
        "startTime" : 1372818600000,
        "endTime" : 1372838340000
      } ],
      "timeWindowConstraints" : {
        "serviceTimeWindows" : [ {
          "startTime" : 1372834740000,
          "endTime" : 1372867200000
        } ],
        "timeWindowPolicy" : "COMPLETE_ORDER_WITHIN_TIME_WINDOW"
      },
      "attributes" : [ "AoC98" ],
      "incompatibleAttributes" : [ ],
      "stopSequence" : 1
    }
  }, {
    "id" : 161997,
    "metadata" : {
      "name" : "mID161997"
    },
    "depot" : 0,
    "location" : {
      "latitude" : 51741077,
      "longitude" : -2286546,
      "metadata" : { }
    },
    "pickupDuration" : 39960,
    "serviceDuration" : 379980,
    "unloadDuration" : 0,
    "durationPerVisit" : 0,
    "priority" : 2,
    "jobType" : "DROP",
    "constraints" : {
      "demand" : {
        "values" : [ 40.0, 0.0, 0.0, 0.0 ]
      },
      "pickupTimeWindows" : [ {
        "startTime" : 1372818600000,
        "endTime" : 1372838340000
      } ],
      "timeWindowConstraints" : {
        "serviceTimeWindows" : [ {
          "startTime" : 1372834740000,
          "endTime" : 1372867200000
        } ],
        "timeWindowPolicy" : "COMPLETE_ORDER_WITHIN_TIME_WINDOW"
      },
      "attributes" : [ "AoC98" ],
      "incompatibleAttributes" : [ ],
      "stopSequence" : 1
    }
  }, {
    "id" : 162006,
    "metadata" : {
      "name" : "mID162006"
    },
    "depot" : 0,
    "location" : {
      "latitude" : 51381054,
      "longitude" : -1936259,
      "metadata" : { }
    },
    "pickupDuration" : 42960,
    "serviceDuration" : 385980,
    "unloadDuration" : 0,
    "durationPerVisit" : 0,
    "priority" : 2,
    "jobType" : "DROP",
    "constraints" : {
      "demand" : {
        "values" : [ 43.2, 0.0, 0.0, 0.0 ]
      },
      "pickupTimeWindows" : [ {
        "startTime" : 1372818600000,
        "endTime" : 1372838340000
      } ],
      "timeWindowConstraints" : {
        "serviceTimeWindows" : [ {
          "startTime" : 1372834740000,
          "endTime" : 1372869000000
        } ],
        "timeWindowPolicy" : "COMPLETE_ORDER_WITHIN_TIME_WINDOW"
      },
      "attributes" : [ "AoC98" ],
      "incompatibleAttributes" : [ ],
      "stopSequence" : 1
    }
  }, {
    "id" : 162007,
    "metadata" : {
      "name" : "mID162007"
    },
    "depot" : 0,
    "location" : {
      "latitude" : 51981952,
      "longitude" : -1767424,
      "metadata" : { }
    },
    "pickupDuration" : 37980,
    "serviceDuration" : 375960,
    "unloadDuration" : 0,
    "durationPerVisit" : 0,
    "priority" : 2,
    "jobType" : "DROP",
    "constraints" : {
      "demand" : {
        "values" : [ 38.0, 0.0, 0.0, 0.0 ]
      },
      "pickupTimeWindows" : [ {
        "startTime" : 1372818600000,
        "endTime" : 1372838340000
      } ],
      "timeWindowConstraints" : {
        "serviceTimeWindows" : [ {
          "startTime" : 1372834740000,
          "endTime" : 1372867200000
        } ],
        "timeWindowPolicy" : "COMPLETE_ORDER_WITHIN_TIME_WINDOW"
      },
      "attributes" : [ "AoC98" ],
      "incompatibleAttributes" : [ ],
      "stopSequence" : 1
    }
  }, {
    "id" : 162010,
    "metadata" : {
      "name" : "mID162010"
    },
    "depot" : 0,
    "location" : {
      "latitude" : 52810305,
      "longitude" : -2903626,
      "metadata" : { }
    },
    "pickupDuration" : 33000,
    "serviceDuration" : 366000,
    "unloadDuration" : 0,
    "durationPerVisit" : 0,
    "priority" : 2,
    "jobType" : "DROP",
    "constraints" : {
      "demand" : {
        "values" : [ 33.0, 0.0, 0.0, 0.0 ]
      },
      "pickupTimeWindows" : [ {
        "startTime" : 1372818600000,
        "endTime" : 1372838340000
      } ],
      "timeWindowConstraints" : {
        "serviceTimeWindows" : [ {
          "startTime" : 1372834740000,
          "endTime" : 1372867200000
        } ],
        "timeWindowPolicy" : "COMPLETE_ORDER_WITHIN_TIME_WINDOW"
      },
      "attributes" : [ "AoC98" ],
      "incompatibleAttributes" : [ ],
      "stopSequence" : 1
    }
  }, {
    "id" : 162013,
    "metadata" : {
      "name" : "mID162013"
    },
    "depot" : 0,
    "location" : {
      "latitude" : 51383390,
      "longitude" : -1107211,
      "metadata" : { }
    },
    "pickupDuration" : 72000,
    "serviceDuration" : 444000,
    "unloadDuration" : 0,
    "durationPerVisit" : 0,
    "priority" : 2,
    "jobType" : "DROP",
    "constraints" : {
      "demand" : {
        "values" : [ 72.0, 0.0, 0.0, 0.0 ]
      },
      "pickupTimeWindows" : [ {
        "startTime" : 1372818600000,
        "endTime" : 1372838340000
      } ],
      "timeWindowConstraints" : {
        "serviceTimeWindows" : [ {
          "startTime" : 1372834740000,
          "endTime" : 1372867200000
        } ],
        "timeWindowPolicy" : "COMPLETE_ORDER_WITHIN_TIME_WINDOW"
      },
      "attributes" : [ "AoC98" ],
      "incompatibleAttributes" : [ ],
      "stopSequence" : 1
    }
  }, {
    "id" : 162015,
    "metadata" : {
      "name" : "mID162015"
    },
    "depot" : 0,
    "location" : {
      "latitude" : 51819732,
      "longitude" : -2003815,
      "metadata" : { }
    },
    "pickupDuration" : 93960,
    "serviceDuration" : 487920,
    "unloadDuration" : 0,
    "durationPerVisit" : 0,
    "priority" : 2,
    "jobType" : "DROP",
    "constraints" : {
      "demand" : {
        "values" : [ 94.4, 0.0, 0.0, 0.0 ]
      },
      "pickupTimeWindows" : [ {
        "startTime" : 1372818600000,
        "endTime" : 1372838340000
      } ],
      "timeWindowConstraints" : {
        "serviceTimeWindows" : [ {
          "startTime" : 1372834740000,
          "endTime" : 1372867200000
        } ],
        "timeWindowPolicy" : "COMPLETE_ORDER_WITHIN_TIME_WINDOW"
      },
      "attributes" : [ "AoC98" ],
      "incompatibleAttributes" : [ ],
      "stopSequence" : 1
    }
  }, {
    "id" : 162017,
    "metadata" : {
      "name" : "mID162017"
    },
    "depot" : 0,
    "location" : {
      "latitude" : 51401469,
      "longitude" : -1253247,
      "metadata" : { }
    },
    "pickupDuration" : 46980,
    "serviceDuration" : 393960,
    "unloadDuration" : 0,
    "durationPerVisit" : 0,
    "priority" : 2,
    "jobType" : "DROP",
    "constraints" : {
      "demand" : {
        "values" : [ 47.4, 0.0, 0.0, 0.0 ]
      },
      "pickupTimeWindows" : [ {
        "startTime" : 1372818600000,
        "endTime" : 1372838340000
      } ],
      "timeWindowConstraints" : {
        "serviceTimeWindows" : [ {
          "startTime" : 1372836540000,
          "endTime" : 1372867200000
        } ],
        "timeWindowPolicy" : "COMPLETE_ORDER_WITHIN_TIME_WINDOW"
      },
      "attributes" : [ "AoC98" ],
      "incompatibleAttributes" : [ ],
      "stopSequence" : 1
    }
  }, {
    "id" : 162018,
    "metadata" : {
      "name" : "mID162018"
    },
    "depot" : 0,
    "location" : {
      "latitude" : 51597518,
      "longitude" : -1769393,
      "metadata" : { }
    },
    "pickupDuration" : 54960,
    "serviceDuration" : 411960,
    "unloadDuration" : 0,
    "durationPerVisit" : 0,
    "priority" : 2,
    "jobType" : "DROP",
    "constraints" : {
      "demand" : {
        "values" : [ 55.52, 0.0, 0.0, 0.0 ]
      },
      "pickupTimeWindows" : [ {
        "startTime" : 1372818600000,
        "endTime" : 1372838340000
      } ],
      "timeWindowConstraints" : {
        "serviceTimeWindows" : [ {
          "startTime" : 1372836540000,
          "endTime" : 1372869000000
        } ],
        "timeWindowPolicy" : "COMPLETE_ORDER_WITHIN_TIME_WINDOW"
      },
      "attributes" : [ "AoC98" ],
      "incompatibleAttributes" : [ ],
      "stopSequence" : 1
    }
  }, {
    "id" : 162020,
    "metadata" : {
      "name" : "mID162020"
    },
    "depot" : 0,
    "location" : {
      "latitude" : 51260632,
      "longitude" : -2184405,
      "metadata" : { }
    },
    "pickupDuration" : 51960,
    "serviceDuration" : 405960,
    "unloadDuration" : 0,
    "durationPerVisit" : 0,
    "priority" : 2,
    "jobType" : "DROP",
    "constraints" : {
      "demand" : {
        "values" : [ 52.64, 0.0, 0.0, 0.0 ]
      },
      "pickupTimeWindows" : [ {
        "startTime" : 1372818600000,
        "endTime" : 1372838340000
      } ],
      "timeWindowConstraints" : {
        "serviceTimeWindows" : [ {
          "startTime" : 1372838340000,
          "endTime" : 1372867200000
        } ],
        "timeWindowPolicy" : "COMPLETE_ORDER_WITHIN_TIME_WINDOW"
      },
      "attributes" : [ "AoC98" ],
      "incompatibleAttributes" : [ ],
      "stopSequence" : 1
    }
  }, {
    "id" : 162021,
    "metadata" : {
      "name" : "mID162021"
    },
    "depot" : 0,
    "location" : {
      "latitude" : 52908082,
      "longitude" : -2415698,
      "metadata" : { }
    },
    "pickupDuration" : 54960,
    "serviceDuration" : 411960,
    "unloadDuration" : 0,
    "durationPerVisit" : 0,
    "priority" : 2,
    "jobType" : "DROP",
    "constraints" : {
      "demand" : {
        "values" : [ 55.52, 0.0, 0.0, 0.0 ]
      },
      "pickupTimeWindows" : [ {
        "startTime" : 1372818600000,
        "endTime" : 1372838340000
      } ],
      "timeWindowConstraints" : {
        "serviceTimeWindows" : [ {
          "startTime" : 1372834740000,
          "endTime" : 1372867200000
        } ],
        "timeWindowPolicy" : "COMPLETE_ORDER_WITHIN_TIME_WINDOW"
      },
      "attributes" : [ "AoC98" ],
      "incompatibleAttributes" : [ ],
      "stopSequence" : 1
    }
  }, {
    "id" : 162022,
    "metadata" : {
      "name" : "mID162022"
    },
    "depot" : 0,
    "location" : {
      "latitude" : 52682187,
      "longitude" : -2452942,
      "metadata" : { }
    },
    "pickupDuration" : 132000,
    "serviceDuration" : 565980,
    "unloadDuration" : 0,
    "durationPerVisit" : 0,
    "priority" : 2,
    "jobType" : "DROP",
    "constraints" : {
      "demand" : {
        "values" : [ 132.76, 0.0, 0.0, 0.0 ]
      },
      "pickupTimeWindows" : [ {
        "startTime" : 1372818600000,
        "endTime" : 1372838340000
      } ],
      "timeWindowConstraints" : {
        "serviceTimeWindows" : [ {
          "startTime" : 1372834740000,
          "endTime" : 1372867200000
        } ],
        "timeWindowPolicy" : "COMPLETE_ORDER_WITHIN_TIME_WINDOW"
      },
      "attributes" : [ "AoC98" ],
      "incompatibleAttributes" : [ ],
      "stopSequence" : 1
    }
  }, {
    "id" : 162023,
    "metadata" : {
      "name" : "mID162023"
    },
    "depot" : 0,
    "location" : {
      "latitude" : 52707445,
      "longitude" : -2467606,
      "metadata" : { }
    },
    "pickupDuration" : 30000,
    "serviceDuration" : 360000,
    "unloadDuration" : 0,
    "durationPerVisit" : 0,
    "priority" : 2,
    "jobType" : "DROP",
    "constraints" : {
      "demand" : {
        "values" : [ 30.24, 0.0, 0.0, 0.0 ]
      },
      "pickupTimeWindows" : [ {
        "startTime" : 1372818600000,
        "endTime" : 1372838340000
      } ],
      "timeWindowConstraints" : {
        "serviceTimeWindows" : [ {
          "startTime" : 1372838400000,
          "endTime" : 1372860000000
        } ],
        "timeWindowPolicy" : "COMPLETE_ORDER_WITHIN_TIME_WINDOW"
      },
      "attributes" : [ "AoC98" ],
      "incompatibleAttributes" : [ ],
      "stopSequence" : 1
    }
  }, {
    "id" : 162029,
    "metadata" : {
      "name" : "mID162029"
    },
    "depot" : 0,
    "location" : {
      "latitude" : 51400457,
      "longitude" : -1054452,
      "metadata" : { }
    },
    "pickupDuration" : 99960,
    "serviceDuration" : 501960,
    "unloadDuration" : 0,
    "durationPerVisit" : 0,
    "priority" : 2,
    "jobType" : "DROP",
    "constraints" : {
      "demand" : {
        "values" : [ 100.8, 0.0, 0.0, 0.0 ]
      },
      "pickupTimeWindows" : [ {
        "startTime" : 1372818600000,
        "endTime" : 1372838340000
      } ],
      "timeWindowConstraints" : {
        "serviceTimeWindows" : [ {
          "startTime" : 1372838340000,
          "endTime" : 1372867200000
        } ],
        "timeWindowPolicy" : "COMPLETE_ORDER_WITHIN_TIME_WINDOW"
      },
      "attributes" : [ "AoC98" ],
      "incompatibleAttributes" : [ ],
      "stopSequence" : 1
    }
  }, {
    "id" : 162031,
    "metadata" : {
      "name" : "mID162031"
    },
    "depot" : 0,
    "location" : {
      "latitude" : 51918506,
      "longitude" : -2104645,
      "metadata" : { }
    },
    "pickupDuration" : 94980,
    "serviceDuration" : 489960,
    "unloadDuration" : 0,
    "durationPerVisit" : 0,
    "priority" : 2,
    "jobType" : "DROP",
    "constraints" : {
      "demand" : {
        "values" : [ 95.4, 0.0, 0.0, 0.0 ]
      },
      "pickupTimeWindows" : [ {
        "startTime" : 1372818600000,
        "endTime" : 1372838340000
      } ],
      "timeWindowConstraints" : {
        "serviceTimeWindows" : [ {
          "startTime" : 1372831140000,
          "endTime" : 1372867200000
        } ],
        "timeWindowPolicy" : "COMPLETE_ORDER_WITHIN_TIME_WINDOW"
      },
      "attributes" : [ "AoC98" ],
      "incompatibleAttributes" : [ ],
      "stopSequence" : 1
    }
  }, {
    "id" : 162035,
    "metadata" : {
      "name" : "mID162035"
    },
    "depot" : 0,
    "location" : {
      "latitude" : 52691062,
      "longitude" : -2493054,
      "metadata" : { }
    },
    "pickupDuration" : 108000,
    "serviceDuration" : 516000,
    "unloadDuration" : 0,
    "durationPerVisit" : 0,
    "priority" : 2,
    "jobType" : "DROP",
    "constraints" : {
      "demand" : {
        "values" : [ 108.0, 0.0, 0.0, 0.0 ]
      },
      "pickupTimeWindows" : [ {
        "startTime" : 1372818600000,
        "endTime" : 1372838340000
      } ],
      "timeWindowConstraints" : {
        "serviceTimeWindows" : [ {
          "startTime" : 1372831140000,
          "endTime" : 1372867200000
        } ],
        "timeWindowPolicy" : "COMPLETE_ORDER_WITHIN_TIME_WINDOW"
      },
      "attributes" : [ "AoC98" ],
      "incompatibleAttributes" : [ ],
      "stopSequence" : 1
    }
  }, {
    "id" : 162050,
    "metadata" : {
      "name" : "mID162050"
    },
    "depot" : 0,
    "location" : {
      "latitude" : 51430857,
      "longitude" : -2541773,
      "metadata" : { }
    },
    "pickupDuration" : 96000,
    "serviceDuration" : 491940,
    "unloadDuration" : 0,
    "durationPerVisit" : 0,
    "priority" : 2,
    "jobType" : "DROP",
    "constraints" : {
      "demand" : {
        "values" : [ 96.4, 0.0, 0.0, 0.0 ]
      },
      "pickupTimeWindows" : [ {
        "startTime" : 1372818600000,
        "endTime" : 1372838340000
      } ],
      "timeWindowConstraints" : {
        "serviceTimeWindows" : [ {
          "startTime" : 1372831140000,
          "endTime" : 1372867200000
        } ],
        "timeWindowPolicy" : "COMPLETE_ORDER_WITHIN_TIME_WINDOW"
      },
      "attributes" : [ "AoC98" ],
      "incompatibleAttributes" : [ ],
      "stopSequence" : 1
    }
  }, {
    "id" : 162051,
    "metadata" : {
      "name" : "mID162051"
    },
    "depot" : 0,
    "location" : {
      "latitude" : 51353943,
      "longitude" : -1994342,
      "metadata" : { }
    },
    "pickupDuration" : 82980,
    "serviceDuration" : 465960,
    "unloadDuration" : 0,
    "durationPerVisit" : 0,
    "priority" : 2,
    "jobType" : "DROP",
    "constraints" : {
      "demand" : {
        "values" : [ 83.36, 0.0, 0.0, 0.0 ]
      },
      "pickupTimeWindows" : [ {
        "startTime" : 1372818600000,
        "endTime" : 1372838340000
      } ],
      "timeWindowConstraints" : {
        "serviceTimeWindows" : [ {
          "startTime" : 1372834740000,
          "endTime" : 1372867200000
        } ],
        "timeWindowPolicy" : "COMPLETE_ORDER_WITHIN_TIME_WINDOW"
      },
      "attributes" : [ "AoC98" ],
      "incompatibleAttributes" : [ ],
      "stopSequence" : 1
    }
  }, {
    "id" : 162059,
    "metadata" : {
      "name" : "mID162059"
    },
    "depot" : 0,
    "location" : {
      "latitude" : 51342388,
      "longitude" : -1983274,
      "metadata" : { }
    },
    "pickupDuration" : 78000,
    "serviceDuration" : 456000,
    "unloadDuration" : 0,
    "durationPerVisit" : 0,
    "priority" : 2,
    "jobType" : "DROP",
    "constraints" : {
      "demand" : {
        "values" : [ 78.0, 0.0, 0.0, 0.0 ]
      },
      "pickupTimeWindows" : [ {
        "startTime" : 1372818600000,
        "endTime" : 1372838340000
      } ],
      "timeWindowConstraints" : {
        "serviceTimeWindows" : [ {
          "startTime" : 1372834740000,
          "endTime" : 1372867200000
        } ],
        "timeWindowPolicy" : "COMPLETE_ORDER_WITHIN_TIME_WINDOW"
      },
      "attributes" : [ "AoC98" ],
      "incompatibleAttributes" : [ ],
      "stopSequence" : 1
    }
  }, {
    "id" : 162060,
    "metadata" : {
      "name" : "mID162060"
    },
    "depot" : 0,
    "location" : {
      "latitude" : 51718047,
      "longitude" : -1973785,
      "metadata" : { }
    },
    "pickupDuration" : 30960,
    "serviceDuration" : 361980,
    "unloadDuration" : 0,
    "durationPerVisit" : 0,
    "priority" : 2,
    "jobType" : "DROP",
    "constraints" : {
      "demand" : {
        "values" : [ 31.2, 0.0, 0.0, 0.0 ]
      },
      "pickupTimeWindows" : [ {
        "startTime" : 1372818600000,
        "endTime" : 1372838340000
      } ],
      "timeWindowConstraints" : {
        "serviceTimeWindows" : [ {
          "startTime" : 1372834740000,
          "endTime" : 1372867200000
        } ],
        "timeWindowPolicy" : "COMPLETE_ORDER_WITHIN_TIME_WINDOW"
      },
      "attributes" : [ "AoC98" ],
      "incompatibleAttributes" : [ ],
      "stopSequence" : 1
    }
  }, {
    "id" : 162071,
    "metadata" : {
      "name" : "mID162071"
    },
    "depot" : 0,
    "location" : {
      "latitude" : 51855940,
      "longitude" : -2250787,
      "metadata" : { }
    },
    "pickupDuration" : 96960,
    "serviceDuration" : 495960,
    "unloadDuration" : 0,
    "durationPerVisit" : 0,
    "priority" : 2,
    "jobType" : "DROP",
    "constraints" : {
      "demand" : {
        "values" : [ 97.8, 0.0, 0.0, 0.0 ]
      },
      "pickupTimeWindows" : [ {
        "startTime" : 1372818600000,
        "endTime" : 1372838340000
      } ],
      "timeWindowConstraints" : {
        "serviceTimeWindows" : [ {
          "startTime" : 1372831140000,
          "endTime" : 1372867200000
        } ],
        "timeWindowPolicy" : "COMPLETE_ORDER_WITHIN_TIME_WINDOW"
      },
      "attributes" : [ "AoC98" ],
      "incompatibleAttributes" : [ ],
      "stopSequence" : 1
    }
  }, {
    "id" : 162072,
    "metadata" : {
      "name" : "mID162072"
    },
    "depot" : 0,
    "location" : {
      "latitude" : 51578454,
      "longitude" : -1730237,
      "metadata" : { }
    },
    "pickupDuration" : 132000,
    "serviceDuration" : 564000,
    "unloadDuration" : 0,
    "durationPerVisit" : 0,
    "priority" : 2,
    "jobType" : "DROP",
    "constraints" : {
      "demand" : {
        "values" : [ 132.0, 0.0, 0.0, 0.0 ]
      },
      "pickupTimeWindows" : [ {
        "startTime" : 1372818600000,
        "endTime" : 1372838340000
      } ],
      "timeWindowConstraints" : {
        "serviceTimeWindows" : [ {
          "startTime" : 1372831140000,
          "endTime" : 1372867200000
        } ],
        "timeWindowPolicy" : "COMPLETE_ORDER_WITHIN_TIME_WINDOW"
      },
      "attributes" : [ "AoC98" ],
      "incompatibleAttributes" : [ ],
      "stopSequence" : 1
    }
  }, {
    "id" : 162076,
    "metadata" : {
      "name" : "mID162076"
    },
    "depot" : 0,
    "location" : {
      "latitude" : 51303044,
      "longitude" : -2207885,
      "metadata" : { }
    },
    "pickupDuration" : 72000,
    "serviceDuration" : 444000,
    "unloadDuration" : 0,
    "durationPerVisit" : 0,
    "priority" : 2,
    "jobType" : "DROP",
    "constraints" : {
      "demand" : {
        "values" : [ 72.4, 0.0, 0.0, 0.0 ]
      },
      "pickupTimeWindows" : [ {
        "startTime" : 1372818600000,
        "endTime" : 1372838340000
      } ],
      "timeWindowConstraints" : {
        "serviceTimeWindows" : [ {
          "startTime" : 1372831140000,
          "endTime" : 1372867200000
        } ],
        "timeWindowPolicy" : "COMPLETE_ORDER_WITHIN_TIME_WINDOW"
      },
      "attributes" : [ "AoC98" ],
      "incompatibleAttributes" : [ ],
      "stopSequence" : 1
    }
  }, {
    "id" : 162077,
    "metadata" : {
      "name" : "mID162077"
    },
    "depot" : 0,
    "location" : {
      "latitude" : 52688812,
      "longitude" : -2752071,
      "metadata" : { }
    },
    "pickupDuration" : 126000,
    "serviceDuration" : 552000,
    "unloadDuration" : 0,
    "durationPerVisit" : 0,
    "priority" : 2,
    "jobType" : "DROP",
    "constraints" : {
      "demand" : {
        "values" : [ 126.2, 0.0, 0.0, 0.0 ]
      },
      "pickupTimeWindows" : [ {
        "startTime" : 1372818600000,
        "endTime" : 1372838340000
      } ],
      "timeWindowConstraints" : {
        "serviceTimeWindows" : [ {
          "startTime" : 1372831140000,
          "endTime" : 1372867200000
        } ],
        "timeWindowPolicy" : "COMPLETE_ORDER_WITHIN_TIME_WINDOW"
      },
      "attributes" : [ "AoC98" ],
      "incompatibleAttributes" : [ ],
      "stopSequence" : 1
    }
  }, {
    "id" : 162079,
    "metadata" : {
      "name" : "mID162079"
    },
    "depot" : 0,
    "location" : {
      "latitude" : 51405348,
      "longitude" : -1315508,
      "metadata" : { }
    },
    "pickupDuration" : 63960,
    "serviceDuration" : 427980,
    "unloadDuration" : 0,
    "durationPerVisit" : 0,
    "priority" : 2,
    "jobType" : "DROP",
    "constraints" : {
      "demand" : {
        "values" : [ 64.0, 0.0, 0.0, 0.0 ]
      },
      "pickupTimeWindows" : [ {
        "startTime" : 1372818600000,
        "endTime" : 1372838340000
      } ],
      "timeWindowConstraints" : {
        "serviceTimeWindows" : [ {
          "startTime" : 1372831140000,
          "endTime" : 1372867200000
        } ],
        "timeWindowPolicy" : "COMPLETE_ORDER_WITHIN_TIME_WINDOW"
      },
      "attributes" : [ "AoC98" ],
      "incompatibleAttributes" : [ ],
      "stopSequence" : 1
    }
  }, {
    "id" : 162080,
    "metadata" : {
      "name" : "mID162080"
    },
    "depot" : 0,
    "location" : {
      "latitude" : 52212973,
      "longitude" : -2200454,
      "metadata" : { }
    },
    "pickupDuration" : 54000,
    "serviceDuration" : 408000,
    "unloadDuration" : 0,
    "durationPerVisit" : 0,
    "priority" : 2,
    "jobType" : "DROP",
    "constraints" : {
      "demand" : {
        "values" : [ 54.4, 0.0, 0.0, 0.0 ]
      },
      "pickupTimeWindows" : [ {
        "startTime" : 1372818600000,
        "endTime" : 1372838340000
      } ],
      "timeWindowConstraints" : {
        "serviceTimeWindows" : [ {
          "startTime" : 1372831140000,
          "endTime" : 1372867200000
        } ],
        "timeWindowPolicy" : "COMPLETE_ORDER_WITHIN_TIME_WINDOW"
      },
      "attributes" : [ "AoC98" ],
      "incompatibleAttributes" : [ ],
      "stopSequence" : 1
    }
  }, {
    "id" : 162095,
    "metadata" : {
      "name" : "mID162095"
    },
    "depot" : 0,
    "location" : {
      "latitude" : 52077665,
      "longitude" : -1936483,
      "metadata" : { }
    },
    "pickupDuration" : 84000,
    "serviceDuration" : 469980,
    "unloadDuration" : 0,
    "durationPerVisit" : 0,
    "priority" : 2,
    "jobType" : "DROP",
    "constraints" : {
      "demand" : {
        "values" : [ 84.8, 0.0, 0.0, 0.0 ]
      },
      "pickupTimeWindows" : [ {
        "startTime" : 1372818600000,
        "endTime" : 1372838340000
      } ],
      "timeWindowConstraints" : {
        "serviceTimeWindows" : [ {
          "startTime" : 1372831140000,
          "endTime" : 1372867200000
        } ],
        "timeWindowPolicy" : "COMPLETE_ORDER_WITHIN_TIME_WINDOW"
      },
      "attributes" : [ "AoC98" ],
      "incompatibleAttributes" : [ ],
      "stopSequence" : 1
    }
  }, {
    "id" : 162108,
    "metadata" : {
      "name" : "mID162108"
    },
    "depot" : 0,
    "location" : {
      "latitude" : 51554527,
      "longitude" : -1813113,
      "metadata" : { }
    },
    "pickupDuration" : 81000,
    "serviceDuration" : 462000,
    "unloadDuration" : 0,
    "durationPerVisit" : 0,
    "priority" : 2,
    "jobType" : "DROP",
    "constraints" : {
      "demand" : {
        "values" : [ 81.2, 0.0, 0.0, 0.0 ]
      },
      "pickupTimeWindows" : [ {
        "startTime" : 1372818600000,
        "endTime" : 1372838340000
      } ],
      "timeWindowConstraints" : {
        "serviceTimeWindows" : [ {
          "startTime" : 1372831140000,
          "endTime" : 1372867200000
        } ],
        "timeWindowPolicy" : "COMPLETE_ORDER_WITHIN_TIME_WINDOW"
      },
      "attributes" : [ "AoC98" ],
      "incompatibleAttributes" : [ ],
      "stopSequence" : 1
    }
  }, {
    "id" : 162119,
    "metadata" : {
      "name" : "mID162119"
    },
    "depot" : 0,
    "location" : {
      "latitude" : 51893621,
      "longitude" : -2128971,
      "metadata" : { }
    },
    "pickupDuration" : 64980,
    "serviceDuration" : 432000,
    "unloadDuration" : 0,
    "durationPerVisit" : 0,
    "priority" : 2,
    "jobType" : "DROP",
    "constraints" : {
      "demand" : {
        "values" : [ 65.6, 0.0, 0.0, 0.0 ]
      },
      "pickupTimeWindows" : [ {
        "startTime" : 1372818600000,
        "endTime" : 1372838340000
      } ],
      "timeWindowConstraints" : {
        "serviceTimeWindows" : [ {
          "startTime" : 1372834740000,
          "endTime" : 1372867200000
        } ],
        "timeWindowPolicy" : "COMPLETE_ORDER_WITHIN_TIME_WINDOW"
      },
      "attributes" : [ "AoC98" ],
      "incompatibleAttributes" : [ ],
      "stopSequence" : 1
    }
  }, {
    "id" : 162120,
    "metadata" : {
      "name" : "mID162120"
    },
    "depot" : 0,
    "location" : {
      "latitude" : 51589844,
      "longitude" : -1415661,
      "metadata" : { }
    },
    "pickupDuration" : 108000,
    "serviceDuration" : 517920,
    "unloadDuration" : 0,
    "durationPerVisit" : 0,
    "priority" : 2,
    "jobType" : "DROP",
    "constraints" : {
      "demand" : {
        "values" : [ 108.64, 0.0, 0.0, 0.0 ]
      },
      "pickupTimeWindows" : [ {
        "startTime" : 1372818600000,
        "endTime" : 1372838340000
      } ],
      "timeWindowConstraints" : {
        "serviceTimeWindows" : [ {
          "startTime" : 1372838340000,
          "endTime" : 1372867200000
        } ],
        "timeWindowPolicy" : "COMPLETE_ORDER_WITHIN_TIME_WINDOW"
      },
      "attributes" : [ "AoC98" ],
      "incompatibleAttributes" : [ ],
      "stopSequence" : 1
    }
  }, {
    "id" : 162122,
    "metadata" : {
      "name" : "mID162122"
    },
    "depot" : 0,
    "location" : {
      "latitude" : 51827375,
      "longitude" : -2279360,
      "metadata" : { }
    },
    "pickupDuration" : 63960,
    "serviceDuration" : 429960,
    "unloadDuration" : 0,
    "durationPerVisit" : 0,
    "priority" : 2,
    "jobType" : "DROP",
    "constraints" : {
      "demand" : {
        "values" : [ 64.56, 0.0, 0.0, 0.0 ]
      },
      "pickupTimeWindows" : [ {
        "startTime" : 1372818600000,
        "endTime" : 1372838340000
      } ],
      "timeWindowConstraints" : {
        "serviceTimeWindows" : [ {
          "startTime" : 1372834740000,
          "endTime" : 1372867200000
        } ],
        "timeWindowPolicy" : "COMPLETE_ORDER_WITHIN_TIME_WINDOW"
      },
      "attributes" : [ "AoC98" ],
      "incompatibleAttributes" : [ ],
      "stopSequence" : 1
    }
  }, {
    "id" : 162126,
    "metadata" : {
      "name" : "mID162126"
    },
    "depot" : 0,
    "location" : {
      "latitude" : 51870241,
      "longitude" : -2253496,
      "metadata" : { }
    },
    "pickupDuration" : 195000,
    "serviceDuration" : 691980,
    "unloadDuration" : 0,
    "durationPerVisit" : 0,
    "priority" : 2,
    "jobType" : "DROP",
    "constraints" : {
      "demand" : {
        "values" : [ 195.88, 0.0, 0.0, 0.0 ]
      },
      "pickupTimeWindows" : [ {
        "startTime" : 1372818600000,
        "endTime" : 1372838340000
      } ],
      "timeWindowConstraints" : {
        "serviceTimeWindows" : [ {
          "startTime" : 1372834740000,
          "endTime" : 1372867200000
        } ],
        "timeWindowPolicy" : "COMPLETE_ORDER_WITHIN_TIME_WINDOW"
      },
      "attributes" : [ "AoC98" ],
      "incompatibleAttributes" : [ ],
      "stopSequence" : 1
    }
  }, {
    "id" : 162128,
    "metadata" : {
      "name" : "mID162128"
    },
    "depot" : 0,
    "location" : {
      "latitude" : 51374512,
      "longitude" : -2148814,
      "metadata" : { }
    },
    "pickupDuration" : 45960,
    "serviceDuration" : 391980,
    "unloadDuration" : 0,
    "durationPerVisit" : 0,
    "priority" : 2,
    "jobType" : "DROP",
    "constraints" : {
      "demand" : {
        "values" : [ 46.2, 0.0, 0.0, 0.0 ]
      },
      "pickupTimeWindows" : [ {
        "startTime" : 1372818600000,
        "endTime" : 1372838340000
      } ],
      "timeWindowConstraints" : {
        "serviceTimeWindows" : [ {
          "startTime" : 1372834740000,
          "endTime" : 1372867200000
        } ],
        "timeWindowPolicy" : "COMPLETE_ORDER_WITHIN_TIME_WINDOW"
      },
      "attributes" : [ "AoC98" ],
      "incompatibleAttributes" : [ ],
      "stopSequence" : 1
    }
  }, {
    "id" : 162129,
    "metadata" : {
      "name" : "mID162129"
    },
    "depot" : 0,
    "location" : {
      "latitude" : 52702624,
      "longitude" : -2522266,
      "metadata" : { }
    },
    "pickupDuration" : 100980,
    "serviceDuration" : 501960,
    "unloadDuration" : 0,
    "durationPerVisit" : 0,
    "priority" : 2,
    "jobType" : "DROP",
    "constraints" : {
      "demand" : {
        "values" : [ 101.08, 0.0, 0.0, 0.0 ]
      },
      "pickupTimeWindows" : [ {
        "startTime" : 1372818600000,
        "endTime" : 1372838340000
      } ],
      "timeWindowConstraints" : {
        "serviceTimeWindows" : [ {
          "startTime" : 1372834740000,
          "endTime" : 1372867200000
        } ],
        "timeWindowPolicy" : "COMPLETE_ORDER_WITHIN_TIME_WINDOW"
      },
      "attributes" : [ "AoC98" ],
      "incompatibleAttributes" : [ ],
      "stopSequence" : 1
    }
  }, {
    "id" : 162135,
    "metadata" : {
      "name" : "mID162135"
    },
    "depot" : 0,
    "location" : {
      "latitude" : 51444406,
      "longitude" : -2497500,
      "metadata" : { }
    },
    "pickupDuration" : 195000,
    "serviceDuration" : 691980,
    "unloadDuration" : 0,
    "durationPerVisit" : 0,
    "priority" : 2,
    "jobType" : "DROP",
    "constraints" : {
      "demand" : {
        "values" : [ 195.6, 0.0, 0.0, 0.0 ]
      },
      "pickupTimeWindows" : [ {
        "startTime" : 1372818600000,
        "endTime" : 1372838340000
      } ],
      "timeWindowConstraints" : {
        "serviceTimeWindows" : [ {
          "startTime" : 1372838340000,
          "endTime" : 1372863600000
        } ],
        "timeWindowPolicy" : "COMPLETE_ORDER_WITHIN_TIME_WINDOW"
      },
      "attributes" : [ "AoC98" ],
      "incompatibleAttributes" : [ ],
      "stopSequence" : 1
    }
  }, {
    "id" : 162145,
    "metadata" : {
      "name" : "mID162145"
    },
    "depot" : 0,
    "location" : {
      "latitude" : 52737208,
      "longitude" : -2729843,
      "metadata" : { }
    },
    "pickupDuration" : 121980,
    "serviceDuration" : 546000,
    "unloadDuration" : 0,
    "durationPerVisit" : 0,
    "priority" : 2,
    "jobType" : "DROP",
    "constraints" : {
      "demand" : {
        "values" : [ 122.92, 0.0, 0.0, 0.0 ]
      },
      "pickupTimeWindows" : [ {
        "startTime" : 1372818600000,
        "endTime" : 1372838340000
      } ],
      "timeWindowConstraints" : {
        "serviceTimeWindows" : [ {
          "startTime" : 1372838340000,
          "endTime" : 1372867200000
        } ],
        "timeWindowPolicy" : "COMPLETE_ORDER_WITHIN_TIME_WINDOW"
      },
      "attributes" : [ "AoC98" ],
      "incompatibleAttributes" : [ ],
      "stopSequence" : 1
    }
  }, {
    "id" : 162146,
    "metadata" : {
      "name" : "mID162146"
    },
    "depot" : 0,
    "location" : {
      "latitude" : 51518638,
      "longitude" : -1732435,
      "metadata" : { }
    },
    "pickupDuration" : 21000,
    "serviceDuration" : 342000,
    "unloadDuration" : 0,
    "durationPerVisit" : 0,
    "priority" : 2,
    "jobType" : "DROP",
    "constraints" : {
      "demand" : {
        "values" : [ 21.12, 0.0, 0.0, 0.0 ]
      },
      "pickupTimeWindows" : [ {
        "startTime" : 1372818600000,
        "endTime" : 1372838340000
      } ],
      "timeWindowConstraints" : {
        "serviceTimeWindows" : [ {
          "startTime" : 1372834740000,
          "endTime" : 1372867200000
        } ],
        "timeWindowPolicy" : "COMPLETE_ORDER_WITHIN_TIME_WINDOW"
      },
      "attributes" : [ "AoC98" ],
      "incompatibleAttributes" : [ ],
      "stopSequence" : 1
    }
  }, {
    "id" : 162157,
    "metadata" : {
      "name" : "mID162157"
    },
    "depot" : 0,
    "location" : {
      "latitude" : 51748030,
      "longitude" : -2285923,
      "metadata" : { }
    },
    "pickupDuration" : 75000,
    "serviceDuration" : 450000,
    "unloadDuration" : 0,
    "durationPerVisit" : 0,
    "priority" : 2,
    "jobType" : "DROP",
    "constraints" : {
      "demand" : {
        "values" : [ 75.2, 0.0, 0.0, 0.0 ]
      },
      "pickupTimeWindows" : [ {
        "startTime" : 1372818600000,
        "endTime" : 1372838340000
      } ],
      "timeWindowConstraints" : {
        "serviceTimeWindows" : [ {
          "startTime" : 1372838340000,
          "endTime" : 1372860000000
        } ],
        "timeWindowPolicy" : "COMPLETE_ORDER_WITHIN_TIME_WINDOW"
      },
      "attributes" : [ "AoC98" ],
      "incompatibleAttributes" : [ ],
      "stopSequence" : 1
    }
  }, {
    "id" : 162162,
    "metadata" : {
      "name" : "mID162162"
    },
    "depot" : 0,
    "location" : {
      "latitude" : 52664153,
      "longitude" : -2469242,
      "metadata" : { }
    },
    "pickupDuration" : 72000,
    "serviceDuration" : 445980,
    "unloadDuration" : 0,
    "durationPerVisit" : 0,
    "priority" : 2,
    "jobType" : "DROP",
    "constraints" : {
      "demand" : {
        "values" : [ 72.64, 0.0, 0.0, 0.0 ]
      },
      "pickupTimeWindows" : [ {
        "startTime" : 1372818600000,
        "endTime" : 1372838340000
      } ],
      "timeWindowConstraints" : {
        "serviceTimeWindows" : [ {
          "startTime" : 1372838400000,
          "endTime" : 1372867200000
        } ],
        "timeWindowPolicy" : "COMPLETE_ORDER_WITHIN_TIME_WINDOW"
      },
      "attributes" : [ "AoC98" ],
      "incompatibleAttributes" : [ ],
      "stopSequence" : 1
    }
  }, {
    "id" : 162166,
    "metadata" : {
      "name" : "mID162166"
    },
    "depot" : 0,
    "location" : {
      "latitude" : 51621621,
      "longitude" : -2485078,
      "metadata" : { }
    },
    "pickupDuration" : 57960,
    "serviceDuration" : 417960,
    "unloadDuration" : 0,
    "durationPerVisit" : 0,
    "priority" : 2,
    "jobType" : "DROP",
    "constraints" : {
      "demand" : {
        "values" : [ 58.8, 0.0, 0.0, 0.0 ]
      },
      "pickupTimeWindows" : [ {
        "startTime" : 1372818600000,
        "endTime" : 1372838340000
      } ],
      "timeWindowConstraints" : {
        "serviceTimeWindows" : [ {
          "startTime" : 1372834740000,
          "endTime" : 1372867200000
        } ],
        "timeWindowPolicy" : "COMPLETE_ORDER_WITHIN_TIME_WINDOW"
      },
      "attributes" : [ "AoC98" ],
      "incompatibleAttributes" : [ ],
      "stopSequence" : 1
    }
  }, {
    "id" : 162175,
    "metadata" : {
      "name" : "mID162175"
    },
    "depot" : 0,
    "location" : {
      "latitude" : 51793822,
      "longitude" : -1525041,
      "metadata" : { }
    },
    "pickupDuration" : 111000,
    "serviceDuration" : 523980,
    "unloadDuration" : 0,
    "durationPerVisit" : 0,
    "priority" : 2,
    "jobType" : "DROP",
    "constraints" : {
      "demand" : {
        "values" : [ 111.84, 0.0, 0.0, 0.0 ]
      },
      "pickupTimeWindows" : [ {
        "startTime" : 1372818600000,
        "endTime" : 1372838340000
      } ],
      "timeWindowConstraints" : {
        "serviceTimeWindows" : [ {
          "startTime" : 1372836540000,
          "endTime" : 1372867200000
        } ],
        "timeWindowPolicy" : "COMPLETE_ORDER_WITHIN_TIME_WINDOW"
      },
      "attributes" : [ "AoC98" ],
      "incompatibleAttributes" : [ ],
      "stopSequence" : 1
    }
  }, {
    "id" : 162179,
    "metadata" : {
      "name" : "mID162179"
    },
    "depot" : 0,
    "location" : {
      "latitude" : 51545957,
      "longitude" : -1852721,
      "metadata" : { }
    },
    "pickupDuration" : 85980,
    "serviceDuration" : 471960,
    "unloadDuration" : 0,
    "durationPerVisit" : 0,
    "priority" : 2,
    "jobType" : "DROP",
    "constraints" : {
      "demand" : {
        "values" : [ 86.4, 0.0, 0.0, 0.0 ]
      },
      "pickupTimeWindows" : [ {
        "startTime" : 1372818600000,
        "endTime" : 1372838340000
      } ],
      "timeWindowConstraints" : {
        "serviceTimeWindows" : [ {
          "startTime" : 1372834740000,
          "endTime" : 1372849200000
        } ],
        "timeWindowPolicy" : "COMPLETE_ORDER_WITHIN_TIME_WINDOW"
      },
      "attributes" : [ "AoC98" ],
      "incompatibleAttributes" : [ ],
      "stopSequence" : 1
    }
  }, {
    "id" : 162182,
    "metadata" : {
      "name" : "mID162182"
    },
    "depot" : 0,
    "location" : {
      "latitude" : 51221087,
      "longitude" : -2328025,
      "metadata" : { }
    },
    "pickupDuration" : 156960,
    "serviceDuration" : 615960,
    "unloadDuration" : 0,
    "durationPerVisit" : 0,
    "priority" : 2,
    "jobType" : "DROP",
    "constraints" : {
      "demand" : {
        "values" : [ 157.6, 0.0, 0.0, 0.0 ]
      },
      "pickupTimeWindows" : [ {
        "startTime" : 1372818600000,
        "endTime" : 1372838340000
      } ],
      "timeWindowConstraints" : {
        "serviceTimeWindows" : [ {
          "startTime" : 1372834740000,
          "endTime" : 1372867200000
        } ],
        "timeWindowPolicy" : "COMPLETE_ORDER_WITHIN_TIME_WINDOW"
      },
      "attributes" : [ "AoC98" ],
      "incompatibleAttributes" : [ ],
      "stopSequence" : 1
    }
  }, {
    "id" : 162185,
    "metadata" : {
      "name" : "mID162185"
    },
    "depot" : 0,
    "location" : {
      "latitude" : 52093952,
      "longitude" : -1944604,
      "metadata" : { }
    },
    "pickupDuration" : 51960,
    "serviceDuration" : 403980,
    "unloadDuration" : 0,
    "durationPerVisit" : 0,
    "priority" : 2,
    "jobType" : "DROP",
    "constraints" : {
      "demand" : {
        "values" : [ 52.0, 0.0, 0.0, 0.0 ]
      },
      "pickupTimeWindows" : [ {
        "startTime" : 1372818600000,
        "endTime" : 1372838340000
      } ],
      "timeWindowConstraints" : {
        "serviceTimeWindows" : [ {
          "startTime" : 1372838340000,
          "endTime" : 1372867200000
        } ],
        "timeWindowPolicy" : "COMPLETE_ORDER_WITHIN_TIME_WINDOW"
      },
      "attributes" : [ "AoC98" ],
      "incompatibleAttributes" : [ ],
      "stopSequence" : 1
    }
  }, {
    "id" : 162189,
    "metadata" : {
      "name" : "mID162189"
    },
    "depot" : 0,
    "location" : {
      "latitude" : 51595966,
      "longitude" : -1762053,
      "metadata" : { }
    },
    "pickupDuration" : 27960,
    "serviceDuration" : 357960,
    "unloadDuration" : 0,
    "durationPerVisit" : 0,
    "priority" : 2,
    "jobType" : "DROP",
    "constraints" : {
      "demand" : {
        "values" : [ 28.8, 0.0, 0.0, 0.0 ]
      },
      "pickupTimeWindows" : [ {
        "startTime" : 1372818600000,
        "endTime" : 1372838340000
      } ],
      "timeWindowConstraints" : {
        "serviceTimeWindows" : [ {
          "startTime" : 1372834740000,
          "endTime" : 1372867200000
        } ],
        "timeWindowPolicy" : "COMPLETE_ORDER_WITHIN_TIME_WINDOW"
      },
      "attributes" : [ "AoC98" ],
      "incompatibleAttributes" : [ ],
      "stopSequence" : 1
    }
  }, {
    "id" : 162192,
    "metadata" : {
      "name" : "mID162192"
    },
    "depot" : 0,
    "location" : {
      "latitude" : 51868108,
      "longitude" : -2253817,
      "metadata" : { }
    },
    "pickupDuration" : 85980,
    "serviceDuration" : 471960,
    "unloadDuration" : 0,
    "durationPerVisit" : 0,
    "priority" : 2,
    "jobType" : "DROP",
    "constraints" : {
      "demand" : {
        "values" : [ 86.4, 0.0, 0.0, 0.0 ]
      },
      "pickupTimeWindows" : [ {
        "startTime" : 1372818600000,
        "endTime" : 1372838340000
      } ],
      "timeWindowConstraints" : {
        "serviceTimeWindows" : [ {
          "startTime" : 1372836540000,
          "endTime" : 1372878000000
        } ],
        "timeWindowPolicy" : "COMPLETE_ORDER_WITHIN_TIME_WINDOW"
      },
      "attributes" : [ "AoC98" ],
      "incompatibleAttributes" : [ ],
      "stopSequence" : 1
    }
  }, {
    "id" : 162200,
    "metadata" : {
      "name" : "mID162200"
    },
    "depot" : 0,
    "location" : {
      "latitude" : 51463272,
      "longitude" : -2115548,
      "metadata" : { }
    },
    "pickupDuration" : 187980,
    "serviceDuration" : 675960,
    "unloadDuration" : 0,
    "durationPerVisit" : 0,
    "priority" : 2,
    "jobType" : "DROP",
    "constraints" : {
      "demand" : {
        "values" : [ 188.32, 0.0, 0.0, 0.0 ]
      },
      "pickupTimeWindows" : [ {
        "startTime" : 1372818600000,
        "endTime" : 1372838340000
      } ],
      "timeWindowConstraints" : {
        "serviceTimeWindows" : [ {
          "startTime" : 1372838340000,
          "endTime" : 1372867200000
        } ],
        "timeWindowPolicy" : "COMPLETE_ORDER_WITHIN_TIME_WINDOW"
      },
      "attributes" : [ "AoC98" ],
      "incompatibleAttributes" : [ ],
      "stopSequence" : 1
    }
  }, {
    "id" : 162201,
    "metadata" : {
      "name" : "mID162201"
    },
    "depot" : 0,
    "location" : {
      "latitude" : 51681894,
      "longitude" : -2356223,
      "metadata" : { }
    },
    "pickupDuration" : 109980,
    "serviceDuration" : 519960,
    "unloadDuration" : 0,
    "durationPerVisit" : 0,
    "priority" : 2,
    "jobType" : "DROP",
    "constraints" : {
      "demand" : {
        "values" : [ 110.4, 0.0, 0.0, 0.0 ]
      },
      "pickupTimeWindows" : [ {
        "startTime" : 1372818600000,
        "endTime" : 1372838340000
      } ],
      "timeWindowConstraints" : {
        "serviceTimeWindows" : [ {
          "startTime" : 1372838340000,
          "endTime" : 1372869000000
        } ],
        "timeWindowPolicy" : "COMPLETE_ORDER_WITHIN_TIME_WINDOW"
      },
      "attributes" : [ "AoC98" ],
      "incompatibleAttributes" : [ ],
      "stopSequence" : 1
    }
  }, {
    "id" : 162203,
    "metadata" : {
      "name" : "mID162203"
    },
    "depot" : 0,
    "location" : {
      "latitude" : 51538498,
      "longitude" : -1846932,
      "metadata" : { }
    },
    "pickupDuration" : 78960,
    "serviceDuration" : 457980,
    "unloadDuration" : 0,
    "durationPerVisit" : 0,
    "priority" : 2,
    "jobType" : "DROP",
    "constraints" : {
      "demand" : {
        "values" : [ 79.0, 0.0, 0.0, 0.0 ]
      },
      "pickupTimeWindows" : [ {
        "startTime" : 1372818600000,
        "endTime" : 1372838340000
      } ],
      "timeWindowConstraints" : {
        "serviceTimeWindows" : [ {
          "startTime" : 1372838340000,
          "endTime" : 1372863600000
        } ],
        "timeWindowPolicy" : "COMPLETE_ORDER_WITHIN_TIME_WINDOW"
      },
      "attributes" : [ "AoC98" ],
      "incompatibleAttributes" : [ ],
      "stopSequence" : 1
    }
  }, {
    "id" : 162204,
    "metadata" : {
      "name" : "mID162204"
    },
    "depot" : 0,
    "location" : {
      "latitude" : 52441805,
      "longitude" : -2835366,
      "metadata" : { }
    },
    "pickupDuration" : 153960,
    "serviceDuration" : 607980,
    "unloadDuration" : 0,
    "durationPerVisit" : 0,
    "priority" : 2,
    "jobType" : "DROP",
    "constraints" : {
      "demand" : {
        "values" : [ 154.32, 0.0, 0.0, 0.0 ]
      },
      "pickupTimeWindows" : [ {
        "startTime" : 1372818600000,
        "endTime" : 1372838340000
      } ],
      "timeWindowConstraints" : {
        "serviceTimeWindows" : [ {
          "startTime" : 1372834740000,
          "endTime" : 1372869000000
        } ],
        "timeWindowPolicy" : "COMPLETE_ORDER_WITHIN_TIME_WINDOW"
      },
      "attributes" : [ "AoC98" ],
      "incompatibleAttributes" : [ ],
      "stopSequence" : 1
    }
  }, {
    "id" : 162207,
    "metadata" : {
      "name" : "mID162207"
    },
    "depot" : 0,
    "location" : {
      "latitude" : 51830191,
      "longitude" : -2275081,
      "metadata" : { }
    },
    "pickupDuration" : 64980,
    "serviceDuration" : 432000,
    "unloadDuration" : 0,
    "durationPerVisit" : 0,
    "priority" : 2,
    "jobType" : "DROP",
    "constraints" : {
      "demand" : {
        "values" : [ 65.6, 0.0, 0.0, 0.0 ]
      },
      "pickupTimeWindows" : [ {
        "startTime" : 1372818600000,
        "endTime" : 1372838340000
      } ],
      "timeWindowConstraints" : {
        "serviceTimeWindows" : [ {
          "startTime" : 1372838340000,
          "endTime" : 1372869000000
        } ],
        "timeWindowPolicy" : "COMPLETE_ORDER_WITHIN_TIME_WINDOW"
      },
      "attributes" : [ "AoC98" ],
      "incompatibleAttributes" : [ ],
      "stopSequence" : 1
    }
  }, {
    "id" : 162208,
    "metadata" : {
      "name" : "mID162208"
    },
    "depot" : 0,
    "location" : {
      "latitude" : 51356077,
      "longitude" : -1166394,
      "metadata" : { }
    },
    "pickupDuration" : 61920,
    "serviceDuration" : 423960,
    "unloadDuration" : 0,
    "durationPerVisit" : 0,
    "priority" : 2,
    "jobType" : "DROP",
    "constraints" : {
      "demand" : {
        "values" : [ 62.4, 0.0, 0.0, 0.0 ]
      },
      "pickupTimeWindows" : [ {
        "startTime" : 1372818600000,
        "endTime" : 1372838340000
      } ],
      "timeWindowConstraints" : {
        "serviceTimeWindows" : [ {
          "startTime" : 1372836540000,
          "endTime" : 1372869000000
        } ],
        "timeWindowPolicy" : "COMPLETE_ORDER_WITHIN_TIME_WINDOW"
      },
      "attributes" : [ "AoC98" ],
      "incompatibleAttributes" : [ ],
      "stopSequence" : 1
    }
  }, {
    "id" : 162213,
    "metadata" : {
      "name" : "mID162213"
    },
    "depot" : 0,
    "location" : {
      "latitude" : 51575844,
      "longitude" : -1856374,
      "metadata" : { }
    },
    "pickupDuration" : 36000,
    "serviceDuration" : 373980,
    "unloadDuration" : 0,
    "durationPerVisit" : 0,
    "priority" : 2,
    "jobType" : "DROP",
    "constraints" : {
      "demand" : {
        "values" : [ 36.72, 0.0, 0.0, 0.0 ]
      },
      "pickupTimeWindows" : [ {
        "startTime" : 1372818600000,
        "endTime" : 1372838340000
      } ],
      "timeWindowConstraints" : {
        "serviceTimeWindows" : [ {
          "startTime" : 1372838340000,
          "endTime" : 1372869000000
        } ],
        "timeWindowPolicy" : "COMPLETE_ORDER_WITHIN_TIME_WINDOW"
      },
      "attributes" : [ "AoC98" ],
      "incompatibleAttributes" : [ ],
      "stopSequence" : 1
    }
  }, {
    "id" : 162214,
    "metadata" : {
      "name" : "mID162214"
    },
    "depot" : 0,
    "location" : {
      "latitude" : 51230755,
      "longitude" : -2320676,
      "metadata" : { }
    },
    "pickupDuration" : 39960,
    "serviceDuration" : 381960,
    "unloadDuration" : 0,
    "durationPerVisit" : 0,
    "priority" : 2,
    "jobType" : "DROP",
    "constraints" : {
      "demand" : {
        "values" : [ 40.56, 0.0, 0.0, 0.0 ]
      },
      "pickupTimeWindows" : [ {
        "startTime" : 1372818600000,
        "endTime" : 1372838340000
      } ],
      "timeWindowConstraints" : {
        "serviceTimeWindows" : [ {
          "startTime" : 1372837440000,
          "endTime" : 1372867200000
        } ],
        "timeWindowPolicy" : "COMPLETE_ORDER_WITHIN_TIME_WINDOW"
      },
      "attributes" : [ "AoC98" ],
      "incompatibleAttributes" : [ ],
      "stopSequence" : 1
    }
  } ],
  "schedules" : [ {
    "timeWindow" : {
      "startTime" : 1372824000000,
      "endTime" : 1372870800000
    },
    "staticBreakTemplate" : {
      "timeWindow" : {
        "startTime" : 1372836600000,
        "endTime" : 1372842900000
      },
      "duration" : 2700000
    },
    "runs" : [ ],
    "breaks" : [ ],
    "constraints" : { },
    "resource" : {
      "metadata" : {
        "name" : "T50AMP"
      },
      "id" : 1171,
      "depot" : 0,
      "hourCost" : 10.0,
      "kmCost" : 0.62150407,
      "routingProfile" : {
        "vehicleType" : "Default",
        "drivingTimeCorrectionFactor" : 1.3,
        "maxSpeed" : 112.63
      },
      "constraints" : {
        "runDistanceLimit" : "Infinity",
        "runWorkingTimeLimit" : 9223372036854775807,
        "scheduleWorkingTimeLimit" : 9223372036854775807,
        "scheduleDrivingTimeLimit" : 36000000,
        "addonCollectionDropDuration" : 0,
        "addonPickupDuration" : 1200000,
        "capacity" : {
          "values" : [ 1085.0, 0.0, 0.0, 0.0 ]
        },
        "attributes" : [ "cargo=154.32=0.0=0.0=0.0", "cargo=111.83=0.0=0.0=0.0", "cargo=97.800=0.0=0.0=0.0", "cargo=43.200=0.0=0.0=0.0", "cargo=52.639=0.0=0.0=0.0", "cargo=46.200=0.0=0.0=0.0", "cargo=132.0=0.0=0.0=0.0", "cargo=52.0=0.0=0.0=0.0", "cargo=55.520=0.0=0.0=0.0", "cargo=79.0=0.0=0.0=0.0", "cargo=108.0=0.0=0.0=0.0", "cargo=36.720=0.0=0.0=0.0", "cargo=58.799=0.0=0.0=0.0", "cargo=94.400=0.0=0.0=0.0", "cargo=84.800=0.0=0.0=0.0", "cargo=195.88=0.0=0.0=0.0", "cargo=44.639=0.0=0.0=0.0", "cargo=100.80=0.0=0.0=0.0", "cargo=83.360=0.0=0.0=0.0", "cargo=72.400=0.0=0.0=0.0", "cargo=21.120=0.0=0.0=0.0", "cargo=41.200=0.0=0.0=0.0", "cargo=96.400=0.0=0.0=0.0", "cargo=157.60=0.0=0.0=0.0", "cargo=78.0=0.0=0.0=0.0", "cargo=40.560=0.0=0.0=0.0", "cargo=132.75=0.0=0.0=0.0", "cargo=36.0=0.0=0.0=0.0", "cargo=188.32=0.0=0.0=0.0", "cargo=108.63=0.0=0.0=0.0", "cargo=95.400=0.0=0.0=0.0", "cargo=28.799=0.0=0.0=0.0", "cargo=54.400=0.0=0.0=0.0", "AoC98", "cargo=65.599=0.0=0.0=0.0", "cargo=64.0=0.0=0.0=0.0", "cargo=75.199=0.0=0.0=0.0", "cargo=81.199=0.0=0.0=0.0", "cargo=33.0=0.0=0.0=0.0", "cargo=47.400=0.0=0.0=0.0", "cargo=38.0=0.0=0.0=0.0", "cargo=101.08=0.0=0.0=0.0", "cargo=50.400=0.0=0.0=0.0", "cargo=72.0=0.0=0.0=0.0", "cargo=30.239=0.0=0.0=0.0", "cargo=62.400=0.0=0.0=0.0", "cargo=195.60=0.0=0.0=0.0", "cargo=40.0=0.0=0.0=0.0", "cargo=122.91=0.0=0.0=0.0", "cargo=72.639=0.0=0.0=0.0", "cargo=86.400=0.0=0.0=0.0", "cargo=64.559=0.0=0.0=0.0", "cargo=110.40=0.0=0.0=0.0", "cargo=126.19=0.0=0.0=0.0", "cargo=31.200=0.0=0.0=0.0" ],
        "homeLocations" : {
          "startLocation" : {
            "latitude" : 51444277,
            "longitude" : -2570094,
            "metadata" : { }
          },
          "endLocation" : {
            "latitude" : 51444277,
            "longitude" : -2570094,
            "metadata" : { }
          }
        },
        "fixedStartTime" : -1
      }
    }
  }, {
    "timeWindow" : {
      "startTime" : 1372820400000,
      "endTime" : 1372865400000
    },
    "staticBreakTemplate" : {
      "timeWindow" : {
        "startTime" : 1372840200000,
        "endTime" : 1372846500000
      },
      "duration" : 2700000
    },
    "runs" : [ ],
    "breaks" : [ ],
    "constraints" : { },
    "resource" : {
      "metadata" : {
        "name" : "T666AMP"
      },
      "id" : 1173,
      "depot" : 0,
      "hourCost" : 10.0,
      "kmCost" : 0.2921069,
      "routingProfile" : {
        "vehicleType" : "Default",
        "drivingTimeCorrectionFactor" : 1.3,
        "maxSpeed" : 90.104
      },
      "constraints" : {
        "runDistanceLimit" : "Infinity",
        "runWorkingTimeLimit" : 9223372036854775807,
        "scheduleWorkingTimeLimit" : 9223372036854775807,
        "scheduleDrivingTimeLimit" : 32400000,
        "addonCollectionDropDuration" : 0,
        "addonPickupDuration" : 1200000,
        "capacity" : {
          "values" : [ 2500.0, 0.0, 0.0, 0.0 ]
        },
        "attributes" : [ "cargo=154.32=0.0=0.0=0.0", "cargo=111.83=0.0=0.0=0.0", "cargo=97.800=0.0=0.0=0.0", "cargo=43.200=0.0=0.0=0.0", "cargo=52.639=0.0=0.0=0.0", "cargo=46.200=0.0=0.0=0.0", "cargo=132.0=0.0=0.0=0.0", "cargo=52.0=0.0=0.0=0.0", "cargo=55.520=0.0=0.0=0.0", "cargo=79.0=0.0=0.0=0.0", "cargo=108.0=0.0=0.0=0.0", "cargo=36.720=0.0=0.0=0.0", "cargo=58.799=0.0=0.0=0.0", "cargo=94.400=0.0=0.0=0.0", "cargo=84.800=0.0=0.0=0.0", "cargo=195.88=0.0=0.0=0.0", "cargo=44.639=0.0=0.0=0.0", "cargo=100.80=0.0=0.0=0.0", "cargo=83.360=0.0=0.0=0.0", "cargo=72.400=0.0=0.0=0.0", "cargo=21.120=0.0=0.0=0.0", "cargo=41.200=0.0=0.0=0.0", "cargo=96.400=0.0=0.0=0.0", "cargo=157.60=0.0=0.0=0.0", "cargo=78.0=0.0=0.0=0.0", "cargo=40.560=0.0=0.0=0.0", "cargo=132.75=0.0=0.0=0.0", "cargo=36.0=0.0=0.0=0.0", "cargo=188.32=0.0=0.0=0.0", "cargo=108.63=0.0=0.0=0.0", "cargo=95.400=0.0=0.0=0.0", "cargo=28.799=0.0=0.0=0.0", "cargo=54.400=0.0=0.0=0.0", "AoC98", "cargo=65.599=0.0=0.0=0.0", "cargo=64.0=0.0=0.0=0.0", "cargo=75.199=0.0=0.0=0.0", "cargo=81.199=0.0=0.0=0.0", "cargo=33.0=0.0=0.0=0.0", "cargo=47.400=0.0=0.0=0.0", "cargo=38.0=0.0=0.0=0.0", "cargo=101.08=0.0=0.0=0.0", "cargo=50.400=0.0=0.0=0.0", "cargo=72.0=0.0=0.0=0.0", "cargo=30.239=0.0=0.0=0.0", "cargo=62.400=0.0=0.0=0.0", "cargo=195.60=0.0=0.0=0.0", "cargo=40.0=0.0=0.0=0.0", "cargo=122.91=0.0=0.0=0.0", "cargo=72.639=0.0=0.0=0.0", "cargo=86.400=0.0=0.0=0.0", "cargo=64.559=0.0=0.0=0.0", "cargo=110.40=0.0=0.0=0.0", "cargo=126.19=0.0=0.0=0.0", "cargo=31.200=0.0=0.0=0.0" ],
        "homeLocations" : {
          "startLocation" : {
            "latitude" : 51444277,
            "longitude" : -2570094,
            "metadata" : { }
          },
          "endLocation" : {
            "latitude" : 51444277,
            "longitude" : -2570094,
            "metadata" : { }
          }
        },
        "fixedStartTime" : -1
      }
    }
  }, {
    "timeWindow" : {
      "startTime" : 1372820400000,
      "endTime" : 1372867200000
    },
    "staticBreakTemplate" : {
      "timeWindow" : {
        "startTime" : 1372840200000,
        "endTime" : 1372846500000
      },
      "duration" : 2700000
    },
    "runs" : [ ],
    "breaks" : [ ],
    "constraints" : { },
    "resource" : {
      "metadata" : {
        "name" : "T111AMP"
      },
      "id" : 1159,
      "depot" : 0,
      "hourCost" : 10.0,
      "kmCost" : 0.2921069,
      "routingProfile" : {
        "vehicleType" : "Default",
        "drivingTimeCorrectionFactor" : 1.3,
        "maxSpeed" : 90.104
      },
      "constraints" : {
        "runDistanceLimit" : "Infinity",
        "runWorkingTimeLimit" : 9223372036854775807,
        "scheduleWorkingTimeLimit" : 9223372036854775807,
        "scheduleDrivingTimeLimit" : 43200000,
        "addonCollectionDropDuration" : 0,
        "addonPickupDuration" : 1200000,
        "capacity" : {
          "values" : [ 2000.0, 0.0, 0.0, 0.0 ]
        },
        "attributes" : [ "cargo=154.32=0.0=0.0=0.0", "cargo=111.83=0.0=0.0=0.0", "cargo=97.800=0.0=0.0=0.0", "cargo=43.200=0.0=0.0=0.0", "cargo=52.639=0.0=0.0=0.0", "cargo=46.200=0.0=0.0=0.0", "cargo=132.0=0.0=0.0=0.0", "cargo=52.0=0.0=0.0=0.0", "cargo=55.520=0.0=0.0=0.0", "cargo=79.0=0.0=0.0=0.0", "cargo=108.0=0.0=0.0=0.0", "cargo=36.720=0.0=0.0=0.0", "cargo=58.799=0.0=0.0=0.0", "cargo=94.400=0.0=0.0=0.0", "cargo=84.800=0.0=0.0=0.0", "cargo=195.88=0.0=0.0=0.0", "cargo=44.639=0.0=0.0=0.0", "cargo=100.80=0.0=0.0=0.0", "cargo=83.360=0.0=0.0=0.0", "cargo=72.400=0.0=0.0=0.0", "cargo=21.120=0.0=0.0=0.0", "cargo=41.200=0.0=0.0=0.0", "cargo=96.400=0.0=0.0=0.0", "cargo=157.60=0.0=0.0=0.0", "cargo=78.0=0.0=0.0=0.0", "cargo=40.560=0.0=0.0=0.0", "cargo=132.75=0.0=0.0=0.0", "cargo=36.0=0.0=0.0=0.0", "cargo=188.32=0.0=0.0=0.0", "cargo=108.63=0.0=0.0=0.0", "cargo=95.400=0.0=0.0=0.0", "cargo=28.799=0.0=0.0=0.0", "cargo=54.400=0.0=0.0=0.0", "AoC98", "cargo=65.599=0.0=0.0=0.0", "cargo=64.0=0.0=0.0=0.0", "cargo=75.199=0.0=0.0=0.0", "cargo=81.199=0.0=0.0=0.0", "cargo=33.0=0.0=0.0=0.0", "cargo=47.400=0.0=0.0=0.0", "cargo=38.0=0.0=0.0=0.0", "cargo=101.08=0.0=0.0=0.0", "cargo=50.400=0.0=0.0=0.0", "cargo=72.0=0.0=0.0=0.0", "cargo=30.239=0.0=0.0=0.0", "cargo=62.400=0.0=0.0=0.0", "cargo=195.60=0.0=0.0=0.0", "cargo=40.0=0.0=0.0=0.0", "cargo=122.91=0.0=0.0=0.0", "cargo=72.639=0.0=0.0=0.0", "cargo=86.400=0.0=0.0=0.0", "cargo=64.559=0.0=0.0=0.0", "cargo=110.40=0.0=0.0=0.0", "cargo=126.19=0.0=0.0=0.0", "cargo=31.200=0.0=0.0=0.0" ],
        "homeLocations" : {
          "startLocation" : {
            "latitude" : 51444277,
            "longitude" : -2570094,
            "metadata" : { }
          },
          "endLocation" : {
            "latitude" : 51444277,
            "longitude" : -2570094,
            "metadata" : { }
          }
        },
        "fixedStartTime" : -1
      }
    }
  }, {
    "timeWindow" : {
      "startTime" : 1372820400000,
      "endTime" : 1372870800000
    },
    "staticBreakTemplate" : {
      "timeWindow" : {
        "startTime" : 1372840200000,
        "endTime" : 1372846500000
      },
      "duration" : 2700000
    },
    "runs" : [ ],
    "breaks" : [ ],
    "constraints" : { },
    "resource" : {
      "metadata" : {
        "name" : "T777AMP"
      },
      "id" : 1175,
      "depot" : 0,
      "hourCost" : 10.0,
      "kmCost" : 0.2921069,
      "routingProfile" : {
        "vehicleType" : "Default",
        "drivingTimeCorrectionFactor" : 1.3,
        "maxSpeed" : 90.104
      },
      "constraints" : {
        "runDistanceLimit" : "Infinity",
        "runWorkingTimeLimit" : 9223372036854775807,
        "scheduleWorkingTimeLimit" : 9223372036854775807,
        "scheduleDrivingTimeLimit" : 32400000,
        "addonCollectionDropDuration" : 0,
        "addonPickupDuration" : 1200000,
        "capacity" : {
          "values" : [ 2000.0, 0.0, 0.0, 0.0 ]
        },
        "attributes" : [ "cargo=154.32=0.0=0.0=0.0", "cargo=111.83=0.0=0.0=0.0", "cargo=97.800=0.0=0.0=0.0", "cargo=43.200=0.0=0.0=0.0", "cargo=52.639=0.0=0.0=0.0", "cargo=46.200=0.0=0.0=0.0", "cargo=132.0=0.0=0.0=0.0", "cargo=52.0=0.0=0.0=0.0", "cargo=55.520=0.0=0.0=0.0", "cargo=79.0=0.0=0.0=0.0", "cargo=108.0=0.0=0.0=0.0", "cargo=36.720=0.0=0.0=0.0", "cargo=58.799=0.0=0.0=0.0", "cargo=94.400=0.0=0.0=0.0", "cargo=84.800=0.0=0.0=0.0", "cargo=195.88=0.0=0.0=0.0", "cargo=44.639=0.0=0.0=0.0", "cargo=100.80=0.0=0.0=0.0", "cargo=83.360=0.0=0.0=0.0", "cargo=72.400=0.0=0.0=0.0", "cargo=21.120=0.0=0.0=0.0", "cargo=41.200=0.0=0.0=0.0", "cargo=96.400=0.0=0.0=0.0", "cargo=157.60=0.0=0.0=0.0", "cargo=78.0=0.0=0.0=0.0", "cargo=40.560=0.0=0.0=0.0", "cargo=132.75=0.0=0.0=0.0", "cargo=36.0=0.0=0.0=0.0", "cargo=188.32=0.0=0.0=0.0", "cargo=108.63=0.0=0.0=0.0", "cargo=95.400=0.0=0.0=0.0", "cargo=28.799=0.0=0.0=0.0", "cargo=54.400=0.0=0.0=0.0", "AoC98", "cargo=65.599=0.0=0.0=0.0", "cargo=64.0=0.0=0.0=0.0", "cargo=75.199=0.0=0.0=0.0", "cargo=81.199=0.0=0.0=0.0", "cargo=33.0=0.0=0.0=0.0", "cargo=47.400=0.0=0.0=0.0", "cargo=38.0=0.0=0.0=0.0", "cargo=101.08=0.0=0.0=0.0", "cargo=50.400=0.0=0.0=0.0", "cargo=72.0=0.0=0.0=0.0", "cargo=30.239=0.0=0.0=0.0", "cargo=62.400=0.0=0.0=0.0", "cargo=195.60=0.0=0.0=0.0", "cargo=40.0=0.0=0.0=0.0", "cargo=122.91=0.0=0.0=0.0", "cargo=72.639=0.0=0.0=0.0", "cargo=86.400=0.0=0.0=0.0", "cargo=64.559=0.0=0.0=0.0", "cargo=110.40=0.0=0.0=0.0", "cargo=126.19=0.0=0.0=0.0", "cargo=31.200=0.0=0.0=0.0" ],
        "homeLocations" : {
          "startLocation" : {
            "latitude" : 51444277,
            "longitude" : -2570094,
            "metadata" : { }
          },
          "endLocation" : {
            "latitude" : 51444277,
            "longitude" : -2570094,
            "metadata" : { }
          }
        },
        "fixedStartTime" : -1
      }
    }
  }, {
    "timeWindow" : {
      "startTime" : 1372820400000,
      "endTime" : 1372863600000
    },
    "staticBreakTemplate" : {
      "timeWindow" : {
        "startTime" : 1372840200000,
        "endTime" : 1372846500000
      },
      "duration" : 2700000
    },
    "runs" : [ ],
    "breaks" : [ ],
    "constraints" : { },
    "resource" : {
      "metadata" : {
        "name" : "T888AMP"
      },
      "id" : 1177,
      "depot" : 0,
      "hourCost" : 10.0,
      "kmCost" : 0.2921069,
      "routingProfile" : {
        "vehicleType" : "Default",
        "drivingTimeCorrectionFactor" : 1.3,
        "maxSpeed" : 90.104
      },
      "constraints" : {
        "runDistanceLimit" : "Infinity",
        "runWorkingTimeLimit" : 9223372036854775807,
        "scheduleWorkingTimeLimit" : 9223372036854775807,
        "scheduleDrivingTimeLimit" : 36000000,
        "addonCollectionDropDuration" : 0,
        "addonPickupDuration" : 1200000,
        "capacity" : {
          "values" : [ 1600.0, 0.0, 0.0, 0.0 ]
        },
        "attributes" : [ "cargo=154.32=0.0=0.0=0.0", "cargo=111.83=0.0=0.0=0.0", "cargo=97.800=0.0=0.0=0.0", "cargo=43.200=0.0=0.0=0.0", "cargo=52.639=0.0=0.0=0.0", "cargo=46.200=0.0=0.0=0.0", "cargo=132.0=0.0=0.0=0.0", "cargo=52.0=0.0=0.0=0.0", "cargo=55.520=0.0=0.0=0.0", "cargo=79.0=0.0=0.0=0.0", "cargo=108.0=0.0=0.0=0.0", "cargo=36.720=0.0=0.0=0.0", "cargo=58.799=0.0=0.0=0.0", "cargo=94.400=0.0=0.0=0.0", "cargo=84.800=0.0=0.0=0.0", "cargo=195.88=0.0=0.0=0.0", "cargo=44.639=0.0=0.0=0.0", "cargo=100.80=0.0=0.0=0.0", "cargo=83.360=0.0=0.0=0.0", "cargo=72.400=0.0=0.0=0.0", "cargo=21.120=0.0=0.0=0.0", "cargo=41.200=0.0=0.0=0.0", "cargo=96.400=0.0=0.0=0.0", "cargo=157.60=0.0=0.0=0.0", "cargo=78.0=0.0=0.0=0.0", "cargo=40.560=0.0=0.0=0.0", "cargo=132.75=0.0=0.0=0.0", "cargo=36.0=0.0=0.0=0.0", "cargo=188.32=0.0=0.0=0.0", "cargo=108.63=0.0=0.0=0.0", "cargo=95.400=0.0=0.0=0.0", "cargo=28.799=0.0=0.0=0.0", "cargo=54.400=0.0=0.0=0.0", "AoC98", "cargo=65.599=0.0=0.0=0.0", "cargo=64.0=0.0=0.0=0.0", "cargo=75.199=0.0=0.0=0.0", "cargo=81.199=0.0=0.0=0.0", "cargo=33.0=0.0=0.0=0.0", "cargo=47.400=0.0=0.0=0.0", "cargo=38.0=0.0=0.0=0.0", "cargo=101.08=0.0=0.0=0.0", "cargo=50.400=0.0=0.0=0.0", "cargo=72.0=0.0=0.0=0.0", "cargo=30.239=0.0=0.0=0.0", "cargo=62.400=0.0=0.0=0.0", "cargo=195.60=0.0=0.0=0.0", "cargo=40.0=0.0=0.0=0.0", "cargo=122.91=0.0=0.0=0.0", "cargo=72.639=0.0=0.0=0.0", "cargo=86.400=0.0=0.0=0.0", "cargo=64.559=0.0=0.0=0.0", "cargo=110.40=0.0=0.0=0.0", "cargo=126.19=0.0=0.0=0.0", "cargo=31.200=0.0=0.0=0.0" ],
        "homeLocations" : {
          "startLocation" : {
            "latitude" : 51444277,
            "longitude" : -2570094,
            "metadata" : { }
          },
          "endLocation" : {
            "latitude" : 51444277,
            "longitude" : -2570094,
            "metadata" : { }
          }
        },
        "fixedStartTime" : -1
      }
    }
  }, {
    "timeWindow" : {
      "startTime" : 1372824000000,
      "endTime" : 1372867200000
    },
    "staticBreakTemplate" : {
      "timeWindow" : {
        "startTime" : 1372840200000,
        "endTime" : 1372846500000
      },
      "duration" : 2700000
    },
    "runs" : [ ],
    "breaks" : [ ],
    "constraints" : { },
    "resource" : {
      "metadata" : {
        "name" : "T111AMP1"
      },
      "id" : 1163,
      "depot" : 1,
      "hourCost" : 10.0,
      "kmCost" : 0.2921069,
      "routingProfile" : {
        "vehicleType" : "Default",
        "drivingTimeCorrectionFactor" : 1.3,
        "maxSpeed" : 90.104
      },
      "constraints" : {
        "runDistanceLimit" : "Infinity",
        "runWorkingTimeLimit" : 9223372036854775807,
        "scheduleWorkingTimeLimit" : 9223372036854775807,
        "scheduleDrivingTimeLimit" : 36000000,
        "addonCollectionDropDuration" : 0,
        "addonPickupDuration" : 1200000,
        "capacity" : {
          "values" : [ 2000.0, 0.0, 0.0, 0.0 ]
        },
        "attributes" : [ "cargo=154.32=0.0=0.0=0.0", "cargo=111.83=0.0=0.0=0.0", "cargo=97.800=0.0=0.0=0.0", "cargo=43.200=0.0=0.0=0.0", "cargo=52.639=0.0=0.0=0.0", "cargo=46.200=0.0=0.0=0.0", "cargo=132.0=0.0=0.0=0.0", "cargo=52.0=0.0=0.0=0.0", "cargo=55.520=0.0=0.0=0.0", "cargo=79.0=0.0=0.0=0.0", "cargo=108.0=0.0=0.0=0.0", "cargo=36.720=0.0=0.0=0.0", "cargo=58.799=0.0=0.0=0.0", "cargo=94.400=0.0=0.0=0.0", "cargo=84.800=0.0=0.0=0.0", "cargo=195.88=0.0=0.0=0.0", "cargo=44.639=0.0=0.0=0.0", "cargo=100.80=0.0=0.0=0.0", "cargo=83.360=0.0=0.0=0.0", "cargo=72.400=0.0=0.0=0.0", "cargo=21.120=0.0=0.0=0.0", "cargo=41.200=0.0=0.0=0.0", "cargo=96.400=0.0=0.0=0.0", "cargo=157.60=0.0=0.0=0.0", "cargo=78.0=0.0=0.0=0.0", "cargo=40.560=0.0=0.0=0.0", "cargo=132.75=0.0=0.0=0.0", "cargo=36.0=0.0=0.0=0.0", "cargo=188.32=0.0=0.0=0.0", "cargo=108.63=0.0=0.0=0.0", "cargo=95.400=0.0=0.0=0.0", "cargo=28.799=0.0=0.0=0.0", "cargo=54.400=0.0=0.0=0.0", "AoC98", "cargo=65.599=0.0=0.0=0.0", "cargo=64.0=0.0=0.0=0.0", "cargo=75.199=0.0=0.0=0.0", "cargo=81.199=0.0=0.0=0.0", "cargo=33.0=0.0=0.0=0.0", "cargo=47.400=0.0=0.0=0.0", "cargo=38.0=0.0=0.0=0.0", "cargo=101.08=0.0=0.0=0.0", "cargo=50.400=0.0=0.0=0.0", "cargo=72.0=0.0=0.0=0.0", "cargo=30.239=0.0=0.0=0.0", "cargo=62.400=0.0=0.0=0.0", "cargo=195.60=0.0=0.0=0.0", "cargo=40.0=0.0=0.0=0.0", "cargo=122.91=0.0=0.0=0.0", "cargo=72.639=0.0=0.0=0.0", "cargo=86.400=0.0=0.0=0.0", "cargo=64.559=0.0=0.0=0.0", "cargo=110.40=0.0=0.0=0.0", "cargo=126.19=0.0=0.0=0.0", "cargo=31.200=0.0=0.0=0.0" ],
        "homeLocations" : {
          "startLocation" : {
            "latitude" : 52569213,
            "longitude" : 802504,
            "metadata" : { }
          },
          "endLocation" : {
            "latitude" : 52569213,
            "longitude" : 802504,
            "metadata" : { }
          }
        },
        "fixedStartTime" : -1
      }
    }
  } ],
  "depots" : [ {
    "id" : 0,
    "location" : {
      "latitude" : 51444277,
      "longitude" : -2570094,
      "metadata" : { }
    },
    "constraints" : {
      "allowCollectionsWhileDrivingHome" : false,
      "allowDeliveriesWhileDrivingFromHome" : false,
      "availabilityWindows" : [ {
        "startTime" : 0,
        "endTime" : 57657355200332
      } ]
    }
  }, {
    "id" : 1,
    "location" : {
      "latitude" : 52569213,
      "longitude" : 802504,
      "metadata" : { }
    },
    "constraints" : {
      "allowCollectionsWhileDrivingHome" : false,
      "allowDeliveriesWhileDrivingFromHome" : false,
      "availabilityWindows" : [ {
        "startTime" : 0,
        "endTime" : 57657355200332
      } ]
    }
  } ],
  "constraints" : {
    "allowMultipleRunsPerSchedule" : true,
    "consolidateSameSiteJobs" : "NONE"
  }
}