{
  "jobs" : [ {
    "id" : 165973,
    "metadata" : {
      "name" : "mID165973"
    },
    "depot" : 0,
    "location" : {
      "latitude" : 51026723,
      "longitude" : -3131971,
      "metadata" : { }
    },
    "pickupDuration" : 0,
    "serviceDuration" : 1920000,
    "unloadDuration" : 0,
    "durationPerVisit" : 0,
    "priority" : 2,
    "jobType" : "DROP",
    "constraints" : {
      "demand" : {
        "values" : [ 1.0, 0.0, 0.0, 0.0 ]
      },
      "pickupTimeWindows" : [ {
        "startTime" : 1374541260000,
        "endTime" : 1374623940000
      } ],
      "timeWindowConstraints" : {
        "serviceTimeWindows" : [ {
          "startTime" : 1374552000000,
          "endTime" : 1374595200000
        } ],
        "timeWindowPolicy" : "COMPLETE_ORDER_WITHIN_TIME_WINDOW"
      },
      "attributes" : [ "AoC136" ],
      "incompatibleAttributes" : [ ],
      "stopSequence" : 1
    }
  }, {
    "id" : 165974,
    "metadata" : {
      "name" : "mID165974"
    },
    "depot" : 0,
    "location" : {
      "latitude" : 52459994,
      "longitude" : -1828406,
      "metadata" : { }
    },
    "pickupDuration" : 0,
    "serviceDuration" : 2280000,
    "unloadDuration" : 0,
    "durationPerVisit" : 0,
    "priority" : 2,
    "jobType" : "DROP",
    "constraints" : {
      "demand" : {
        "values" : [ 4.0, 0.0, 0.0, 0.0 ]
      },
      "pickupTimeWindows" : [ {
        "startTime" : 1374541260000,
        "endTime" : 1374623940000
      } ],
      "timeWindowConstraints" : {
        "serviceTimeWindows" : [ {
          "startTime" : 1374552000000,
          "endTime" : 1374595200000
        } ],
        "timeWindowPolicy" : "COMPLETE_ORDER_WITHIN_TIME_WINDOW"
      },
      "attributes" : [ "AoC136" ],
      "incompatibleAttributes" : [ ],
      "stopSequence" : 1
    }
  }, {
    "id" : 165975,
    "metadata" : {
      "name" : "mID165975"
    },
    "depot" : 0,
    "location" : {
      "latitude" : 52459994,
      "longitude" : -1828406,
      "metadata" : { }
    },
    "pickupDuration" : 0,
    "serviceDuration" : 120000,
    "unloadDuration" : 0,
    "durationPerVisit" : 0,
    "priority" : 2,
    "jobType" : "DROP",
    "constraints" : {
      "demand" : {
        "values" : [ 1.0, 0.0, 0.0, 0.0 ]
      },
      "pickupTimeWindows" : [ {
        "startTime" : 1374541260000,
        "endTime" : 1374623940000
      } ],
      "timeWindowConstraints" : {
        "serviceTimeWindows" : [ {
          "startTime" : 1374552000000,
          "endTime" : 1374595200000
        } ],
        "timeWindowPolicy" : "COMPLETE_ORDER_WITHIN_TIME_WINDOW"
      },
      "attributes" : [ "AoC136" ],
      "incompatibleAttributes" : [ ],
      "stopSequence" : 1
    }
  }, {
    "id" : 165976,
    "metadata" : {
      "name" : "mID165976"
    },
    "depot" : 0,
    "location" : {
      "latitude" : 53494734,
      "longitude" : -2285615,
      "metadata" : { }
    },
    "pickupDuration" : 0,
    "serviceDuration" : 2040000,
    "unloadDuration" : 0,
    "durationPerVisit" : 0,
    "priority" : 2,
    "jobType" : "DROP",
    "constraints" : {
      "demand" : {
        "values" : [ 2.0, 0.0, 0.0, 0.0 ]
      },
      "pickupTimeWindows" : [ {
        "startTime" : 1374541260000,
        "endTime" : 1374623940000
      } ],
      "timeWindowConstraints" : {
        "serviceTimeWindows" : [ {
          "startTime" : 1374552000000,
          "endTime" : 1374595200000
        } ],
        "timeWindowPolicy" : "COMPLETE_ORDER_WITHIN_TIME_WINDOW"
      },
      "attributes" : [ "AoC136" ],
      "incompatibleAttributes" : [ ],
      "stopSequence" : 1
    }
  }, {
    "id" : 165977,
    "metadata" : {
      "name" : "mID165977"
    },
    "depot" : 0,
    "location" : {
      "latitude" : 50628439,
      "longitude" : -4381358,
      "metadata" : { }
    },
    "pickupDuration" : 0,
    "serviceDuration" : 2640000,
    "unloadDuration" : 0,
    "durationPerVisit" : 0,
    "priority" : 2,
    "jobType" : "DROP",
    "constraints" : {
      "demand" : {
        "values" : [ 7.0, 0.0, 0.0, 0.0 ]
      },
      "pickupTimeWindows" : [ {
        "startTime" : 1374541260000,
        "endTime" : 1374623940000
      } ],
      "timeWindowConstraints" : {
        "serviceTimeWindows" : [ {
          "startTime" : 1374552000000,
          "endTime" : 1374595200000
        } ],
        "timeWindowPolicy" : "COMPLETE_ORDER_WITHIN_TIME_WINDOW"
      },
      "attributes" : [ "AoC136" ],
      "incompatibleAttributes" : [ ],
      "stopSequence" : 1
    }
  }, {
    "id" : 165978,
    "metadata" : {
      "name" : "mID165978"
    },
    "depot" : 0,
    "location" : {
      "latitude" : 50628439,
      "longitude" : -4381358,
      "metadata" : { }
    },
    "pickupDuration" : 0,
    "serviceDuration" : 240000,
    "unloadDuration" : 0,
    "durationPerVisit" : 0,
    "priority" : 2,
    "jobType" : "DROP",
    "constraints" : {
      "demand" : {
        "values" : [ 2.0, 0.0, 0.0, 0.0 ]
      },
      "pickupTimeWindows" : [ {
        "startTime" : 1374541260000,
        "endTime" : 1374623940000
      } ],
      "timeWindowConstraints" : {
        "serviceTimeWindows" : [ {
          "startTime" : 1374552000000,
          "endTime" : 1374595200000
        } ],
        "timeWindowPolicy" : "COMPLETE_ORDER_WITHIN_TIME_WINDOW"
      },
      "attributes" : [ "AoC136" ],
      "incompatibleAttributes" : [ ],
      "stopSequence" : 1
    }
  }, {
    "id" : 165979,
    "metadata" : {
      "name" : "mID165979"
    },
    "depot" : 0,
    "location" : {
      "latitude" : 50628439,
      "longitude" : -4381358,
      "metadata" : { }
    },
    "pickupDuration" : 0,
    "serviceDuration" : 120000,
    "unloadDuration" : 0,
    "durationPerVisit" : 0,
    "priority" : 2,
    "jobType" : "DROP",
    "constraints" : {
      "demand" : {
        "values" : [ 1.0, 0.0, 0.0, 0.0 ]
      },
      "pickupTimeWindows" : [ {
        "startTime" : 1374541260000,
        "endTime" : 1374623940000
      } ],
      "timeWindowConstraints" : {
        "serviceTimeWindows" : [ {
          "startTime" : 1374552000000,
          "endTime" : 1374595200000
        } ],
        "timeWindowPolicy" : "COMPLETE_ORDER_WITHIN_TIME_WINDOW"
      },
      "attributes" : [ "AoC136" ],
      "incompatibleAttributes" : [ ],
      "stopSequence" : 1
    }
  }, {
    "id" : 165980,
    "metadata" : {
      "name" : "mID165980"
    },
    "depot" : 0,
    "location" : {
      "latitude" : 50627569,
      "longitude" : -4379051,
      "metadata" : { }
    },
    "pickupDuration" : 0,
    "serviceDuration" : 2160000,
    "unloadDuration" : 0,
    "durationPerVisit" : 0,
    "priority" : 2,
    "jobType" : "DROP",
    "constraints" : {
      "demand" : {
        "values" : [ 3.0, 0.0, 0.0, 0.0 ]
      },
      "pickupTimeWindows" : [ {
        "startTime" : 1374541260000,
        "endTime" : 1374623940000
      } ],
      "timeWindowConstraints" : {
        "serviceTimeWindows" : [ {
          "startTime" : 1374552000000,
          "endTime" : 1374595200000
        } ],
        "timeWindowPolicy" : "COMPLETE_ORDER_WITHIN_TIME_WINDOW"
      },
      "attributes" : [ "AoC136" ],
      "incompatibleAttributes" : [ ],
      "stopSequence" : 1
    }
  }, {
    "id" : 165981,
    "metadata" : {
      "name" : "mID165981"
    },
    "depot" : 0,
    "location" : {
      "latitude" : 50627569,
      "longitude" : -4379051,
      "metadata" : { }
    },
    "pickupDuration" : 0,
    "serviceDuration" : 240000,
    "unloadDuration" : 0,
    "durationPerVisit" : 0,
    "priority" : 2,
    "jobType" : "DROP",
    "constraints" : {
      "demand" : {
        "values" : [ 2.0, 0.0, 0.0, 0.0 ]
      },
      "pickupTimeWindows" : [ {
        "startTime" : 1374541260000,
        "endTime" : 1374623940000
      } ],
      "timeWindowConstraints" : {
        "serviceTimeWindows" : [ {
          "startTime" : 1374552000000,
          "endTime" : 1374595200000
        } ],
        "timeWindowPolicy" : "COMPLETE_ORDER_WITHIN_TIME_WINDOW"
      },
      "attributes" : [ "AoC136" ],
      "incompatibleAttributes" : [ ],
      "stopSequence" : 1
    }
  }, {
    "id" : 165982,
    "metadata" : {
      "name" : "mID165982"
    },
    "depot" : 0,
    "location" : {
      "latitude" : 50627569,
      "longitude" : -4379051,
      "metadata" : { }
    },
    "pickupDuration" : 0,
    "serviceDuration" : 120000,
    "unloadDuration" : 0,
    "durationPerVisit" : 0,
    "priority" : 2,
    "jobType" : "DROP",
    "constraints" : {
      "demand" : {
        "values" : [ 1.0, 0.0, 0.0, 0.0 ]
      },
      "pickupTimeWindows" : [ {
        "startTime" : 1374541260000,
        "endTime" : 1374623940000
      } ],
      "timeWindowConstraints" : {
        "serviceTimeWindows" : [ {
          "startTime" : 1374552000000,
          "endTime" : 1374595200000
        } ],
        "timeWindowPolicy" : "COMPLETE_ORDER_WITHIN_TIME_WINDOW"
      },
      "attributes" : [ "AoC136" ],
      "incompatibleAttributes" : [ ],
      "stopSequence" : 1
    }
  }, {
    "id" : 165983,
    "metadata" : {
      "name" : "mID165983"
    },
    "depot" : 0,
    "location" : {
      "latitude" : 52579244,
      "longitude" : -1125307,
      "metadata" : { }
    },
    "pickupDuration" : 0,
    "serviceDuration" : 2400000,
    "unloadDuration" : 0,
    "durationPerVisit" : 0,
    "priority" : 2,
    "jobType" : "DROP",
    "constraints" : {
      "demand" : {
        "values" : [ 5.0, 0.0, 0.0, 0.0 ]
      },
      "pickupTimeWindows" : [ {
        "startTime" : 1374541260000,
        "endTime" : 1374623940000
      } ],
      "timeWindowConstraints" : {
        "serviceTimeWindows" : [ {
          "startTime" : 1374552000000,
          "endTime" : 1374595200000
        } ],
        "timeWindowPolicy" : "COMPLETE_ORDER_WITHIN_TIME_WINDOW"
      },
      "attributes" : [ "AoC136" ],
      "incompatibleAttributes" : [ ],
      "stopSequence" : 1
    }
  }, {
    "id" : 165984,
    "metadata" : {
      "name" : "mID165984"
    },
    "depot" : 0,
    "location" : {
      "latitude" : 52579244,
      "longitude" : -1125307,
      "metadata" : { }
    },
    "pickupDuration" : 0,
    "serviceDuration" : 360000,
    "unloadDuration" : 0,
    "durationPerVisit" : 0,
    "priority" : 2,
    "jobType" : "DROP",
    "constraints" : {
      "demand" : {
        "values" : [ 3.0, 0.0, 0.0, 0.0 ]
      },
      "pickupTimeWindows" : [ {
        "startTime" : 1374541260000,
        "endTime" : 1374623940000
      } ],
      "timeWindowConstraints" : {
        "serviceTimeWindows" : [ {
          "startTime" : 1374552000000,
          "endTime" : 1374595200000
        } ],
        "timeWindowPolicy" : "COMPLETE_ORDER_WITHIN_TIME_WINDOW"
      },
      "attributes" : [ "AoC136" ],
      "incompatibleAttributes" : [ ],
      "stopSequence" : 1
    }
  }, {
    "id" : 165985,
    "metadata" : {
      "name" : "mID165985"
    },
    "depot" : 0,
    "location" : {
      "latitude" : 52804942,
      "longitude" : -1641464,
      "metadata" : { }
    },
    "pickupDuration" : 0,
    "serviceDuration" : 1920000,
    "unloadDuration" : 0,
    "durationPerVisit" : 0,
    "priority" : 2,
    "jobType" : "DROP",
    "constraints" : {
      "demand" : {
        "values" : [ 1.0, 0.0, 0.0, 0.0 ]
      },
      "pickupTimeWindows" : [ {
        "startTime" : 1374541260000,
        "endTime" : 1374623940000
      } ],
      "timeWindowConstraints" : {
        "serviceTimeWindows" : [ {
          "startTime" : 1374552000000,
          "endTime" : 1374595200000
        } ],
        "timeWindowPolicy" : "COMPLETE_ORDER_WITHIN_TIME_WINDOW"
      },
      "attributes" : [ "AoC136" ],
      "incompatibleAttributes" : [ ],
      "stopSequence" : 1
    }
  }, {
    "id" : 165986,
    "metadata" : {
      "name" : "mID165986"
    },
    "depot" : 0,
    "location" : {
      "latitude" : 52671314,
      "longitude" : -1166850,
      "metadata" : { }
    },
    "pickupDuration" : 0,
    "serviceDuration" : 2040000,
    "unloadDuration" : 0,
    "durationPerVisit" : 0,
    "priority" : 2,
    "jobType" : "DROP",
    "constraints" : {
      "demand" : {
        "values" : [ 2.0, 0.0, 0.0, 0.0 ]
      },
      "pickupTimeWindows" : [ {
        "startTime" : 1374541260000,
        "endTime" : 1374623940000
      } ],
      "timeWindowConstraints" : {
        "serviceTimeWindows" : [ {
          "startTime" : 1374552000000,
          "endTime" : 1374595200000
        } ],
        "timeWindowPolicy" : "COMPLETE_ORDER_WITHIN_TIME_WINDOW"
      },
      "attributes" : [ "AoC136" ],
      "incompatibleAttributes" : [ ],
      "stopSequence" : 1
    }
  }, {
    "id" : 165987,
    "metadata" : {
      "name" : "mID165987"
    },
    "depot" : 0,
    "location" : {
      "latitude" : 51508570,
      "longitude" : -355247,
      "metadata" : { }
    },
    "pickupDuration" : 0,
    "serviceDuration" : 1920000,
    "unloadDuration" : 0,
    "durationPerVisit" : 0,
    "priority" : 2,
    "jobType" : "DROP",
    "constraints" : {
      "demand" : {
        "values" : [ 1.0, 0.0, 0.0, 0.0 ]
      },
      "pickupTimeWindows" : [ {
        "startTime" : 1374541260000,
        "endTime" : 1374623940000
      } ],
      "timeWindowConstraints" : {
        "serviceTimeWindows" : [ {
          "startTime" : 1374552000000,
          "endTime" : 1374595200000
        } ],
        "timeWindowPolicy" : "COMPLETE_ORDER_WITHIN_TIME_WINDOW"
      },
      "attributes" : [ "AoC136" ],
      "incompatibleAttributes" : [ ],
      "stopSequence" : 1
    }
  }, {
    "id" : 165988,
    "metadata" : {
      "name" : "mID165988"
    },
    "depot" : 0,
    "location" : {
      "latitude" : 51508570,
      "longitude" : -355247,
      "metadata" : { }
    },
    "pickupDuration" : 0,
    "serviceDuration" : 120000,
    "unloadDuration" : 0,
    "durationPerVisit" : 0,
    "priority" : 2,
    "jobType" : "DROP",
    "constraints" : {
      "demand" : {
        "values" : [ 1.0, 0.0, 0.0, 0.0 ]
      },
      "pickupTimeWindows" : [ {
        "startTime" : 1374541260000,
        "endTime" : 1374623940000
      } ],
      "timeWindowConstraints" : {
        "serviceTimeWindows" : [ {
          "startTime" : 1374552000000,
          "endTime" : 1374595200000
        } ],
        "timeWindowPolicy" : "COMPLETE_ORDER_WITHIN_TIME_WINDOW"
      },
      "attributes" : [ "AoC136" ],
      "incompatibleAttributes" : [ ],
      "stopSequence" : 1
    }
  }, {
    "id" : 165989,
    "metadata" : {
      "name" : "mID165989"
    },
    "depot" : 0,
    "location" : {
      "latitude" : 51508570,
      "longitude" : -355247,
      "metadata" : { }
    },
    "pickupDuration" : 0,
    "serviceDuration" : 240000,
    "unloadDuration" : 0,
    "durationPerVisit" : 0,
    "priority" : 2,
    "jobType" : "DROP",
    "constraints" : {
      "demand" : {
        "values" : [ 2.0, 0.0, 0.0, 0.0 ]
      },
      "pickupTimeWindows" : [ {
        "startTime" : 1374541260000,
        "endTime" : 1374623940000
      } ],
      "timeWindowConstraints" : {
        "serviceTimeWindows" : [ {
          "startTime" : 1374552000000,
          "endTime" : 1374595200000
        } ],
        "timeWindowPolicy" : "COMPLETE_ORDER_WITHIN_TIME_WINDOW"
      },
      "attributes" : [ "AoC136" ],
      "incompatibleAttributes" : [ ],
      "stopSequence" : 1
    }
  }, {
    "id" : 165990,
    "metadata" : {
      "name" : "mID165990"
    },
    "depot" : 0,
    "location" : {
      "latitude" : 51508570,
      "longitude" : -355247,
      "metadata" : { }
    },
    "pickupDuration" : 0,
    "serviceDuration" : 240000,
    "unloadDuration" : 0,
    "durationPerVisit" : 0,
    "priority" : 2,
    "jobType" : "DROP",
    "constraints" : {
      "demand" : {
        "values" : [ 2.0, 0.0, 0.0, 0.0 ]
      },
      "pickupTimeWindows" : [ {
        "startTime" : 1374541260000,
        "endTime" : 1374623940000
      } ],
      "timeWindowConstraints" : {
        "serviceTimeWindows" : [ {
          "startTime" : 1374552000000,
          "endTime" : 1374595200000
        } ],
        "timeWindowPolicy" : "COMPLETE_ORDER_WITHIN_TIME_WINDOW"
      },
      "attributes" : [ "AoC136" ],
      "incompatibleAttributes" : [ ],
      "stopSequence" : 1
    }
  }, {
    "id" : 165991,
    "metadata" : {
      "name" : "mID165991"
    },
    "depot" : 0,
    "location" : {
      "latitude" : 51508570,
      "longitude" : -355247,
      "metadata" : { }
    },
    "pickupDuration" : 0,
    "serviceDuration" : 240000,
    "unloadDuration" : 0,
    "durationPerVisit" : 0,
    "priority" : 2,
    "jobType" : "DROP",
    "constraints" : {
      "demand" : {
        "values" : [ 2.0, 0.0, 0.0, 0.0 ]
      },
      "pickupTimeWindows" : [ {
        "startTime" : 1374541260000,
        "endTime" : 1374623940000
      } ],
      "timeWindowConstraints" : {
        "serviceTimeWindows" : [ {
          "startTime" : 1374552000000,
          "endTime" : 1374595200000
        } ],
        "timeWindowPolicy" : "COMPLETE_ORDER_WITHIN_TIME_WINDOW"
      },
      "attributes" : [ "AoC136" ],
      "incompatibleAttributes" : [ ],
      "stopSequence" : 1
    }
  }, {
    "id" : 165992,
    "metadata" : {
      "name" : "mID165992"
    },
    "depot" : 0,
    "location" : {
      "latitude" : 51508570,
      "longitude" : -355247,
      "metadata" : { }
    },
    "pickupDuration" : 0,
    "serviceDuration" : 480000,
    "unloadDuration" : 0,
    "durationPerVisit" : 0,
    "priority" : 2,
    "jobType" : "DROP",
    "constraints" : {
      "demand" : {
        "values" : [ 4.0, 0.0, 0.0, 0.0 ]
      },
      "pickupTimeWindows" : [ {
        "startTime" : 1374541260000,
        "endTime" : 1374623940000
      } ],
      "timeWindowConstraints" : {
        "serviceTimeWindows" : [ {
          "startTime" : 1374552000000,
          "endTime" : 1374595200000
        } ],
        "timeWindowPolicy" : "COMPLETE_ORDER_WITHIN_TIME_WINDOW"
      },
      "attributes" : [ "AoC136" ],
      "incompatibleAttributes" : [ ],
      "stopSequence" : 1
    }
  }, {
    "id" : 165993,
    "metadata" : {
      "name" : "mID165993"
    },
    "depot" : 0,
    "location" : {
      "latitude" : 51508570,
      "longitude" : -355247,
      "metadata" : { }
    },
    "pickupDuration" : 0,
    "serviceDuration" : 120000,
    "unloadDuration" : 0,
    "durationPerVisit" : 0,
    "priority" : 2,
    "jobType" : "DROP",
    "constraints" : {
      "demand" : {
        "values" : [ 1.0, 0.0, 0.0, 0.0 ]
      },
      "pickupTimeWindows" : [ {
        "startTime" : 1374541260000,
        "endTime" : 1374623940000
      } ],
      "timeWindowConstraints" : {
        "serviceTimeWindows" : [ {
          "startTime" : 1374552000000,
          "endTime" : 1374595200000
        } ],
        "timeWindowPolicy" : "COMPLETE_ORDER_WITHIN_TIME_WINDOW"
      },
      "attributes" : [ "AoC136" ],
      "incompatibleAttributes" : [ ],
      "stopSequence" : 1
    }
  }, {
    "id" : 165994,
    "metadata" : {
      "name" : "mID165994"
    },
    "depot" : 0,
    "location" : {
      "latitude" : 51508570,
      "longitude" : -355247,
      "metadata" : { }
    },
    "pickupDuration" : 0,
    "serviceDuration" : 240000,
    "unloadDuration" : 0,
    "durationPerVisit" : 0,
    "priority" : 2,
    "jobType" : "DROP",
    "constraints" : {
      "demand" : {
        "values" : [ 2.0, 0.0, 0.0, 0.0 ]
      },
      "pickupTimeWindows" : [ {
        "startTime" : 1374541260000,
        "endTime" : 1374623940000
      } ],
      "timeWindowConstraints" : {
        "serviceTimeWindows" : [ {
          "startTime" : 1374552000000,
          "endTime" : 1374595200000
        } ],
        "timeWindowPolicy" : "COMPLETE_ORDER_WITHIN_TIME_WINDOW"
      },
      "attributes" : [ "AoC136" ],
      "incompatibleAttributes" : [ ],
      "stopSequence" : 1
    }
  }, {
    "id" : 165995,
    "metadata" : {
      "name" : "mID165995"
    },
    "depot" : 0,
    "location" : {
      "latitude" : 53347203,
      "longitude" : -1356777,
      "metadata" : { }
    },
    "pickupDuration" : 0,
    "serviceDuration" : 1920000,
    "unloadDuration" : 0,
    "durationPerVisit" : 0,
    "priority" : 2,
    "jobType" : "DROP",
    "constraints" : {
      "demand" : {
        "values" : [ 1.0, 0.0, 0.0, 0.0 ]
      },
      "pickupTimeWindows" : [ {
        "startTime" : 1374541260000,
        "endTime" : 1374623940000
      } ],
      "timeWindowConstraints" : {
        "serviceTimeWindows" : [ {
          "startTime" : 1374552000000,
          "endTime" : 1374595200000
        } ],
        "timeWindowPolicy" : "COMPLETE_ORDER_WITHIN_TIME_WINDOW"
      },
      "attributes" : [ "AoC136" ],
      "incompatibleAttributes" : [ ],
      "stopSequence" : 1
    }
  }, {
    "id" : 165996,
    "metadata" : {
      "name" : "mID165996"
    },
    "depot" : 0,
    "location" : {
      "latitude" : 53347203,
      "longitude" : -1356777,
      "metadata" : { }
    },
    "pickupDuration" : 0,
    "serviceDuration" : 120000,
    "unloadDuration" : 0,
    "durationPerVisit" : 0,
    "priority" : 2,
    "jobType" : "DROP",
    "constraints" : {
      "demand" : {
        "values" : [ 1.0, 0.0, 0.0, 0.0 ]
      },
      "pickupTimeWindows" : [ {
        "startTime" : 1374541260000,
        "endTime" : 1374623940000
      } ],
      "timeWindowConstraints" : {
        "serviceTimeWindows" : [ {
          "startTime" : 1374552000000,
          "endTime" : 1374595200000
        } ],
        "timeWindowPolicy" : "COMPLETE_ORDER_WITHIN_TIME_WINDOW"
      },
      "attributes" : [ "AoC136" ],
      "incompatibleAttributes" : [ ],
      "stopSequence" : 1
    }
  }, {
    "id" : 165997,
    "metadata" : {
      "name" : "mID165997"
    },
    "depot" : 0,
    "location" : {
      "latitude" : 53347203,
      "longitude" : -1356777,
      "metadata" : { }
    },
    "pickupDuration" : 0,
    "serviceDuration" : 1920000,
    "unloadDuration" : 0,
    "durationPerVisit" : 0,
    "priority" : 2,
    "jobType" : "DROP",
    "constraints" : {
      "demand" : {
        "values" : [ 16.0, 0.0, 0.0, 0.0 ]
      },
      "pickupTimeWindows" : [ {
        "startTime" : 1374541260000,
        "endTime" : 1374623940000
      } ],
      "timeWindowConstraints" : {
        "serviceTimeWindows" : [ {
          "startTime" : 1374552000000,
          "endTime" : 1374595200000
        } ],
        "timeWindowPolicy" : "COMPLETE_ORDER_WITHIN_TIME_WINDOW"
      },
      "attributes" : [ "AoC136" ],
      "incompatibleAttributes" : [ ],
      "stopSequence" : 1
    }
  }, {
    "id" : 165998,
    "metadata" : {
      "name" : "mID165998"
    },
    "depot" : 0,
    "location" : {
      "latitude" : 53347203,
      "longitude" : -1356777,
      "metadata" : { }
    },
    "pickupDuration" : 0,
    "serviceDuration" : 240000,
    "unloadDuration" : 0,
    "durationPerVisit" : 0,
    "priority" : 2,
    "jobType" : "DROP",
    "constraints" : {
      "demand" : {
        "values" : [ 2.0, 0.0, 0.0, 0.0 ]
      },
      "pickupTimeWindows" : [ {
        "startTime" : 1374541260000,
        "endTime" : 1374623940000
      } ],
      "timeWindowConstraints" : {
        "serviceTimeWindows" : [ {
          "startTime" : 1374552000000,
          "endTime" : 1374595200000
        } ],
        "timeWindowPolicy" : "COMPLETE_ORDER_WITHIN_TIME_WINDOW"
      },
      "attributes" : [ "AoC136" ],
      "incompatibleAttributes" : [ ],
      "stopSequence" : 1
    }
  }, {
    "id" : 165999,
    "metadata" : {
      "name" : "mID165999"
    },
    "depot" : 0,
    "location" : {
      "latitude" : 53347203,
      "longitude" : -1356777,
      "metadata" : { }
    },
    "pickupDuration" : 0,
    "serviceDuration" : 120000,
    "unloadDuration" : 0,
    "durationPerVisit" : 0,
    "priority" : 2,
    "jobType" : "DROP",
    "constraints" : {
      "demand" : {
        "values" : [ 1.0, 0.0, 0.0, 0.0 ]
      },
      "pickupTimeWindows" : [ {
        "startTime" : 1374541260000,
        "endTime" : 1374623940000
      } ],
      "timeWindowConstraints" : {
        "serviceTimeWindows" : [ {
          "startTime" : 1374552000000,
          "endTime" : 1374595200000
        } ],
        "timeWindowPolicy" : "COMPLETE_ORDER_WITHIN_TIME_WINDOW"
      },
      "attributes" : [ "AoC136" ],
      "incompatibleAttributes" : [ ],
      "stopSequence" : 1
    }
  }, {
    "id" : 166000,
    "metadata" : {
      "name" : "mID166000"
    },
    "depot" : 0,
    "location" : {
      "latitude" : 53347203,
      "longitude" : -1356777,
      "metadata" : { }
    },
    "pickupDuration" : 0,
    "serviceDuration" : 120000,
    "unloadDuration" : 0,
    "durationPerVisit" : 0,
    "priority" : 2,
    "jobType" : "DROP",
    "constraints" : {
      "demand" : {
        "values" : [ 1.0, 0.0, 0.0, 0.0 ]
      },
      "pickupTimeWindows" : [ {
        "startTime" : 1374541260000,
        "endTime" : 1374623940000
      } ],
      "timeWindowConstraints" : {
        "serviceTimeWindows" : [ {
          "startTime" : 1374552000000,
          "endTime" : 1374595200000
        } ],
        "timeWindowPolicy" : "COMPLETE_ORDER_WITHIN_TIME_WINDOW"
      },
      "attributes" : [ "AoC136" ],
      "incompatibleAttributes" : [ ],
      "stopSequence" : 1
    }
  }, {
    "id" : 166001,
    "metadata" : {
      "name" : "mID166001"
    },
    "depot" : 0,
    "location" : {
      "latitude" : 50879989,
      "longitude" : -2957820,
      "metadata" : { }
    },
    "pickupDuration" : 0,
    "serviceDuration" : 3840000,
    "unloadDuration" : 0,
    "durationPerVisit" : 0,
    "priority" : 2,
    "jobType" : "DROP",
    "constraints" : {
      "demand" : {
        "values" : [ 17.0, 0.0, 0.0, 0.0 ]
      },
      "pickupTimeWindows" : [ {
        "startTime" : 1374541260000,
        "endTime" : 1374623940000
      } ],
      "timeWindowConstraints" : {
        "serviceTimeWindows" : [ {
          "startTime" : 1374552000000,
          "endTime" : 1374595200000
        } ],
        "timeWindowPolicy" : "COMPLETE_ORDER_WITHIN_TIME_WINDOW"
      },
      "attributes" : [ "AoC136" ],
      "incompatibleAttributes" : [ ],
      "stopSequence" : 1
    }
  }, {
    "id" : 166002,
    "metadata" : {
      "name" : "mID166002"
    },
    "depot" : 0,
    "location" : {
      "latitude" : 50879989,
      "longitude" : -2957820,
      "metadata" : { }
    },
    "pickupDuration" : 0,
    "serviceDuration" : 240000,
    "unloadDuration" : 0,
    "durationPerVisit" : 0,
    "priority" : 2,
    "jobType" : "DROP",
    "constraints" : {
      "demand" : {
        "values" : [ 2.0, 0.0, 0.0, 0.0 ]
      },
      "pickupTimeWindows" : [ {
        "startTime" : 1374541260000,
        "endTime" : 1374623940000
      } ],
      "timeWindowConstraints" : {
        "serviceTimeWindows" : [ {
          "startTime" : 1374552000000,
          "endTime" : 1374595200000
        } ],
        "timeWindowPolicy" : "COMPLETE_ORDER_WITHIN_TIME_WINDOW"
      },
      "attributes" : [ "AoC136" ],
      "incompatibleAttributes" : [ ],
      "stopSequence" : 1
    }
  }, {
    "id" : 166003,
    "metadata" : {
      "name" : "mID166003"
    },
    "depot" : 0,
    "location" : {
      "latitude" : 53304155,
      "longitude" : -1482159,
      "metadata" : { }
    },
    "pickupDuration" : 0,
    "serviceDuration" : 1920000,
    "unloadDuration" : 0,
    "durationPerVisit" : 0,
    "priority" : 2,
    "jobType" : "DROP",
    "constraints" : {
      "demand" : {
        "values" : [ 1.0, 0.0, 0.0, 0.0 ]
      },
      "pickupTimeWindows" : [ {
        "startTime" : 1374541260000,
        "endTime" : 1374623940000
      } ],
      "timeWindowConstraints" : {
        "serviceTimeWindows" : [ {
          "startTime" : 1374552000000,
          "endTime" : 1374595200000
        } ],
        "timeWindowPolicy" : "COMPLETE_ORDER_WITHIN_TIME_WINDOW"
      },
      "attributes" : [ "AoC136" ],
      "incompatibleAttributes" : [ ],
      "stopSequence" : 1
    }
  }, {
    "id" : 166004,
    "metadata" : {
      "name" : "mID166004"
    },
    "depot" : 0,
    "location" : {
      "latitude" : 51588385,
      "longitude" : -3053680,
      "metadata" : { }
    },
    "pickupDuration" : 0,
    "serviceDuration" : 1920000,
    "unloadDuration" : 0,
    "durationPerVisit" : 0,
    "priority" : 2,
    "jobType" : "DROP",
    "constraints" : {
      "demand" : {
        "values" : [ 1.0, 0.0, 0.0, 0.0 ]
      },
      "pickupTimeWindows" : [ {
        "startTime" : 1374541260000,
        "endTime" : 1374623940000
      } ],
      "timeWindowConstraints" : {
        "serviceTimeWindows" : [ {
          "startTime" : 1374552000000,
          "endTime" : 1374595200000
        } ],
        "timeWindowPolicy" : "COMPLETE_ORDER_WITHIN_TIME_WINDOW"
      },
      "attributes" : [ "AoC136" ],
      "incompatibleAttributes" : [ ],
      "stopSequence" : 1
    }
  }, {
    "id" : 166005,
    "metadata" : {
      "name" : "mID166005"
    },
    "depot" : 0,
    "location" : {
      "latitude" : 52936227,
      "longitude" : -1163925,
      "metadata" : { }
    },
    "pickupDuration" : 0,
    "serviceDuration" : 2760000,
    "unloadDuration" : 0,
    "durationPerVisit" : 0,
    "priority" : 2,
    "jobType" : "DROP",
    "constraints" : {
      "demand" : {
        "values" : [ 8.0, 0.0, 0.0, 0.0 ]
      },
      "pickupTimeWindows" : [ {
        "startTime" : 1374541260000,
        "endTime" : 1374623940000
      } ],
      "timeWindowConstraints" : {
        "serviceTimeWindows" : [ {
          "startTime" : 1374552000000,
          "endTime" : 1374595200000
        } ],
        "timeWindowPolicy" : "COMPLETE_ORDER_WITHIN_TIME_WINDOW"
      },
      "attributes" : [ "AoC136" ],
      "incompatibleAttributes" : [ ],
      "stopSequence" : 1
    }
  }, {
    "id" : 166006,
    "metadata" : {
      "name" : "mID166006"
    },
    "depot" : 0,
    "location" : {
      "latitude" : 52629691,
      "longitude" : -1211608,
      "metadata" : { }
    },
    "pickupDuration" : 0,
    "serviceDuration" : 1920000,
    "unloadDuration" : 0,
    "durationPerVisit" : 0,
    "priority" : 2,
    "jobType" : "DROP",
    "constraints" : {
      "demand" : {
        "values" : [ 1.0, 0.0, 0.0, 0.0 ]
      },
      "pickupTimeWindows" : [ {
        "startTime" : 1374541260000,
        "endTime" : 1374623940000
      } ],
      "timeWindowConstraints" : {
        "serviceTimeWindows" : [ {
          "startTime" : 1374552000000,
          "endTime" : 1374595200000
        } ],
        "timeWindowPolicy" : "COMPLETE_ORDER_WITHIN_TIME_WINDOW"
      },
      "attributes" : [ "AoC136" ],
      "incompatibleAttributes" : [ ],
      "stopSequence" : 1
    }
  }, {
    "id" : 166007,
    "metadata" : {
      "name" : "mID166007"
    },
    "depot" : 0,
    "location" : {
      "latitude" : 52629691,
      "longitude" : -1211608,
      "metadata" : { }
    },
    "pickupDuration" : 0,
    "serviceDuration" : 120000,
    "unloadDuration" : 0,
    "durationPerVisit" : 0,
    "priority" : 2,
    "jobType" : "DROP",
    "constraints" : {
      "demand" : {
        "values" : [ 1.0, 0.0, 0.0, 0.0 ]
      },
      "pickupTimeWindows" : [ {
        "startTime" : 1374541260000,
        "endTime" : 1374623940000
      } ],
      "timeWindowConstraints" : {
        "serviceTimeWindows" : [ {
          "startTime" : 1374552000000,
          "endTime" : 1374595200000
        } ],
        "timeWindowPolicy" : "COMPLETE_ORDER_WITHIN_TIME_WINDOW"
      },
      "attributes" : [ "AoC136" ],
      "incompatibleAttributes" : [ ],
      "stopSequence" : 1
    }
  }, {
    "id" : 166008,
    "metadata" : {
      "name" : "mID166008"
    },
    "depot" : 0,
    "location" : {
      "latitude" : 52629691,
      "longitude" : -1211608,
      "metadata" : { }
    },
    "pickupDuration" : 0,
    "serviceDuration" : 120000,
    "unloadDuration" : 0,
    "durationPerVisit" : 0,
    "priority" : 2,
    "jobType" : "DROP",
    "constraints" : {
      "demand" : {
        "values" : [ 1.0, 0.0, 0.0, 0.0 ]
      },
      "pickupTimeWindows" : [ {
        "startTime" : 1374541260000,
        "endTime" : 1374623940000
      } ],
      "timeWindowConstraints" : {
        "serviceTimeWindows" : [ {
          "startTime" : 1374552000000,
          "endTime" : 1374595200000
        } ],
        "timeWindowPolicy" : "COMPLETE_ORDER_WITHIN_TIME_WINDOW"
      },
      "attributes" : [ "AoC136" ],
      "incompatibleAttributes" : [ ],
      "stopSequence" : 1
    }
  }, {
    "id" : 166009,
    "metadata" : {
      "name" : "mID166009"
    },
    "depot" : 0,
    "location" : {
      "latitude" : 52629691,
      "longitude" : -1211608,
      "metadata" : { }
    },
    "pickupDuration" : 0,
    "serviceDuration" : 120000,
    "unloadDuration" : 0,
    "durationPerVisit" : 0,
    "priority" : 2,
    "jobType" : "DROP",
    "constraints" : {
      "demand" : {
        "values" : [ 1.0, 0.0, 0.0, 0.0 ]
      },
      "pickupTimeWindows" : [ {
        "startTime" : 1374541260000,
        "endTime" : 1374623940000
      } ],
      "timeWindowConstraints" : {
        "serviceTimeWindows" : [ {
          "startTime" : 1374552000000,
          "endTime" : 1374595200000
        } ],
        "timeWindowPolicy" : "COMPLETE_ORDER_WITHIN_TIME_WINDOW"
      },
      "attributes" : [ "AoC136" ],
      "incompatibleAttributes" : [ ],
      "stopSequence" : 1
    }
  }, {
    "id" : 166010,
    "metadata" : {
      "name" : "mID166010"
    },
    "depot" : 0,
    "location" : {
      "latitude" : 52629691,
      "longitude" : -1211608,
      "metadata" : { }
    },
    "pickupDuration" : 0,
    "serviceDuration" : 120000,
    "unloadDuration" : 0,
    "durationPerVisit" : 0,
    "priority" : 2,
    "jobType" : "DROP",
    "constraints" : {
      "demand" : {
        "values" : [ 1.0, 0.0, 0.0, 0.0 ]
      },
      "pickupTimeWindows" : [ {
        "startTime" : 1374541260000,
        "endTime" : 1374623940000
      } ],
      "timeWindowConstraints" : {
        "serviceTimeWindows" : [ {
          "startTime" : 1374552000000,
          "endTime" : 1374595200000
        } ],
        "timeWindowPolicy" : "COMPLETE_ORDER_WITHIN_TIME_WINDOW"
      },
      "attributes" : [ "AoC136" ],
      "incompatibleAttributes" : [ ],
      "stopSequence" : 1
    }
  }, {
    "id" : 166011,
    "metadata" : {
      "name" : "mID166011"
    },
    "depot" : 0,
    "location" : {
      "latitude" : 52828150,
      "longitude" : -607355,
      "metadata" : { }
    },
    "pickupDuration" : 0,
    "serviceDuration" : 5640000,
    "unloadDuration" : 0,
    "durationPerVisit" : 0,
    "priority" : 2,
    "jobType" : "DROP",
    "constraints" : {
      "demand" : {
        "values" : [ 32.0, 0.0, 0.0, 0.0 ]
      },
      "pickupTimeWindows" : [ {
        "startTime" : 1374541260000,
        "endTime" : 1374623940000
      } ],
      "timeWindowConstraints" : {
        "serviceTimeWindows" : [ {
          "startTime" : 1374552000000,
          "endTime" : 1374595200000
        } ],
        "timeWindowPolicy" : "COMPLETE_ORDER_WITHIN_TIME_WINDOW"
      },
      "attributes" : [ "AoC136" ],
      "incompatibleAttributes" : [ ],
      "stopSequence" : 1
    }
  }, {
    "id" : 166012,
    "metadata" : {
      "name" : "mID166012"
    },
    "depot" : 0,
    "location" : {
      "latitude" : 50898406,
      "longitude" : -3347629,
      "metadata" : { }
    },
    "pickupDuration" : 0,
    "serviceDuration" : 2520000,
    "unloadDuration" : 0,
    "durationPerVisit" : 0,
    "priority" : 2,
    "jobType" : "DROP",
    "constraints" : {
      "demand" : {
        "values" : [ 6.0, 0.0, 0.0, 0.0 ]
      },
      "pickupTimeWindows" : [ {
        "startTime" : 1374541260000,
        "endTime" : 1374623940000
      } ],
      "timeWindowConstraints" : {
        "serviceTimeWindows" : [ {
          "startTime" : 1374552000000,
          "endTime" : 1374595200000
        } ],
        "timeWindowPolicy" : "COMPLETE_ORDER_WITHIN_TIME_WINDOW"
      },
      "attributes" : [ "AoC136" ],
      "incompatibleAttributes" : [ ],
      "stopSequence" : 1
    }
  }, {
    "id" : 166013,
    "metadata" : {
      "name" : "mID166013"
    },
    "depot" : 0,
    "location" : {
      "latitude" : 51149394,
      "longitude" : -2506374,
      "metadata" : { }
    },
    "pickupDuration" : 0,
    "serviceDuration" : 2040000,
    "unloadDuration" : 0,
    "durationPerVisit" : 0,
    "priority" : 2,
    "jobType" : "DROP",
    "constraints" : {
      "demand" : {
        "values" : [ 2.0, 0.0, 0.0, 0.0 ]
      },
      "pickupTimeWindows" : [ {
        "startTime" : 1374541260000,
        "endTime" : 1374623940000
      } ],
      "timeWindowConstraints" : {
        "serviceTimeWindows" : [ {
          "startTime" : 1374552000000,
          "endTime" : 1374595200000
        } ],
        "timeWindowPolicy" : "COMPLETE_ORDER_WITHIN_TIME_WINDOW"
      },
      "attributes" : [ "AoC136" ],
      "incompatibleAttributes" : [ ],
      "stopSequence" : 1
    }
  }, {
    "id" : 166014,
    "metadata" : {
      "name" : "mID166014"
    },
    "depot" : 0,
    "location" : {
      "latitude" : 51254927,
      "longitude" : -2306857,
      "metadata" : { }
    },
    "pickupDuration" : 0,
    "serviceDuration" : 1920000,
    "unloadDuration" : 0,
    "durationPerVisit" : 0,
    "priority" : 2,
    "jobType" : "DROP",
    "constraints" : {
      "demand" : {
        "values" : [ 1.0, 0.0, 0.0, 0.0 ]
      },
      "pickupTimeWindows" : [ {
        "startTime" : 1374541260000,
        "endTime" : 1374623940000
      } ],
      "timeWindowConstraints" : {
        "serviceTimeWindows" : [ {
          "startTime" : 1374552000000,
          "endTime" : 1374595200000
        } ],
        "timeWindowPolicy" : "COMPLETE_ORDER_WITHIN_TIME_WINDOW"
      },
      "attributes" : [ "AoC136" ],
      "incompatibleAttributes" : [ ],
      "stopSequence" : 1
    }
  }, {
    "id" : 166015,
    "metadata" : {
      "name" : "mID166015"
    },
    "depot" : 0,
    "location" : {
      "latitude" : 53399631,
      "longitude" : -1258316,
      "metadata" : { }
    },
    "pickupDuration" : 0,
    "serviceDuration" : 1920000,
    "unloadDuration" : 0,
    "durationPerVisit" : 0,
    "priority" : 2,
    "jobType" : "DROP",
    "constraints" : {
      "demand" : {
        "values" : [ 1.0, 0.0, 0.0, 0.0 ]
      },
      "pickupTimeWindows" : [ {
        "startTime" : 1374541260000,
        "endTime" : 1374623940000
      } ],
      "timeWindowConstraints" : {
        "serviceTimeWindows" : [ {
          "startTime" : 1374552000000,
          "endTime" : 1374595200000
        } ],
        "timeWindowPolicy" : "COMPLETE_ORDER_WITHIN_TIME_WINDOW"
      },
      "attributes" : [ "AoC136" ],
      "incompatibleAttributes" : [ ],
      "stopSequence" : 1
    }
  }, {
    "id" : 166016,
    "metadata" : {
      "name" : "mID166016"
    },
    "depot" : 0,
    "location" : {
      "latitude" : 53399631,
      "longitude" : -1258316,
      "metadata" : { }
    },
    "pickupDuration" : 0,
    "serviceDuration" : 120000,
    "unloadDuration" : 0,
    "durationPerVisit" : 0,
    "priority" : 2,
    "jobType" : "DROP",
    "constraints" : {
      "demand" : {
        "values" : [ 1.0, 0.0, 0.0, 0.0 ]
      },
      "pickupTimeWindows" : [ {
        "startTime" : 1374541260000,
        "endTime" : 1374623940000
      } ],
      "timeWindowConstraints" : {
        "serviceTimeWindows" : [ {
          "startTime" : 1374552000000,
          "endTime" : 1374595200000
        } ],
        "timeWindowPolicy" : "COMPLETE_ORDER_WITHIN_TIME_WINDOW"
      },
      "attributes" : [ "AoC136" ],
      "incompatibleAttributes" : [ ],
      "stopSequence" : 1
    }
  }, {
    "id" : 166017,
    "metadata" : {
      "name" : "mID166017"
    },
    "depot" : 0,
    "location" : {
      "latitude" : 53399631,
      "longitude" : -1258316,
      "metadata" : { }
    },
    "pickupDuration" : 0,
    "serviceDuration" : 2040000,
    "unloadDuration" : 0,
    "durationPerVisit" : 0,
    "priority" : 2,
    "jobType" : "DROP",
    "constraints" : {
      "demand" : {
        "values" : [ 17.0, 0.0, 0.0, 0.0 ]
      },
      "pickupTimeWindows" : [ {
        "startTime" : 1374541260000,
        "endTime" : 1374623940000
      } ],
      "timeWindowConstraints" : {
        "serviceTimeWindows" : [ {
          "startTime" : 1374552000000,
          "endTime" : 1374595200000
        } ],
        "timeWindowPolicy" : "COMPLETE_ORDER_WITHIN_TIME_WINDOW"
      },
      "attributes" : [ "AoC136" ],
      "incompatibleAttributes" : [ ],
      "stopSequence" : 1
    }
  }, {
    "id" : 166018,
    "metadata" : {
      "name" : "mID166018"
    },
    "depot" : 0,
    "location" : {
      "latitude" : 53399631,
      "longitude" : -1258316,
      "metadata" : { }
    },
    "pickupDuration" : 0,
    "serviceDuration" : 960000,
    "unloadDuration" : 0,
    "durationPerVisit" : 0,
    "priority" : 2,
    "jobType" : "DROP",
    "constraints" : {
      "demand" : {
        "values" : [ 8.0, 0.0, 0.0, 0.0 ]
      },
      "pickupTimeWindows" : [ {
        "startTime" : 1374541260000,
        "endTime" : 1374623940000
      } ],
      "timeWindowConstraints" : {
        "serviceTimeWindows" : [ {
          "startTime" : 1374552000000,
          "endTime" : 1374595200000
        } ],
        "timeWindowPolicy" : "COMPLETE_ORDER_WITHIN_TIME_WINDOW"
      },
      "attributes" : [ "AoC136" ],
      "incompatibleAttributes" : [ ],
      "stopSequence" : 1
    }
  }, {
    "id" : 166019,
    "metadata" : {
      "name" : "mID166019"
    },
    "depot" : 0,
    "location" : {
      "latitude" : 51288098,
      "longitude" : -2795778,
      "metadata" : { }
    },
    "pickupDuration" : 0,
    "serviceDuration" : 1920000,
    "unloadDuration" : 0,
    "durationPerVisit" : 0,
    "priority" : 2,
    "jobType" : "DROP",
    "constraints" : {
      "demand" : {
        "values" : [ 1.0, 0.0, 0.0, 0.0 ]
      },
      "pickupTimeWindows" : [ {
        "startTime" : 1374541260000,
        "endTime" : 1374623940000
      } ],
      "timeWindowConstraints" : {
        "serviceTimeWindows" : [ {
          "startTime" : 1374552000000,
          "endTime" : 1374595200000
        } ],
        "timeWindowPolicy" : "COMPLETE_ORDER_WITHIN_TIME_WINDOW"
      },
      "attributes" : [ "AoC136" ],
      "incompatibleAttributes" : [ ],
      "stopSequence" : 1
    }
  }, {
    "id" : 166020,
    "metadata" : {
      "name" : "mID166020"
    },
    "depot" : 0,
    "location" : {
      "latitude" : 51288098,
      "longitude" : -2795778,
      "metadata" : { }
    },
    "pickupDuration" : 0,
    "serviceDuration" : 120000,
    "unloadDuration" : 0,
    "durationPerVisit" : 0,
    "priority" : 2,
    "jobType" : "DROP",
    "constraints" : {
      "demand" : {
        "values" : [ 1.0, 0.0, 0.0, 0.0 ]
      },
      "pickupTimeWindows" : [ {
        "startTime" : 1374541260000,
        "endTime" : 1374623940000
      } ],
      "timeWindowConstraints" : {
        "serviceTimeWindows" : [ {
          "startTime" : 1374552000000,
          "endTime" : 1374595200000
        } ],
        "timeWindowPolicy" : "COMPLETE_ORDER_WITHIN_TIME_WINDOW"
      },
      "attributes" : [ "AoC136" ],
      "incompatibleAttributes" : [ ],
      "stopSequence" : 1
    }
  }, {
    "id" : 166021,
    "metadata" : {
      "name" : "mID166021"
    },
    "depot" : 0,
    "location" : {
      "latitude" : 51288098,
      "longitude" : -2795778,
      "metadata" : { }
    },
    "pickupDuration" : 0,
    "serviceDuration" : 240000,
    "unloadDuration" : 0,
    "durationPerVisit" : 0,
    "priority" : 2,
    "jobType" : "DROP",
    "constraints" : {
      "demand" : {
        "values" : [ 2.0, 0.0, 0.0, 0.0 ]
      },
      "pickupTimeWindows" : [ {
        "startTime" : 1374541260000,
        "endTime" : 1374623940000
      } ],
      "timeWindowConstraints" : {
        "serviceTimeWindows" : [ {
          "startTime" : 1374552000000,
          "endTime" : 1374595200000
        } ],
        "timeWindowPolicy" : "COMPLETE_ORDER_WITHIN_TIME_WINDOW"
      },
      "attributes" : [ "AoC136" ],
      "incompatibleAttributes" : [ ],
      "stopSequence" : 1
    }
  }, {
    "id" : 166022,
    "metadata" : {
      "name" : "mID166022"
    },
    "depot" : 0,
    "location" : {
      "latitude" : 51288098,
      "longitude" : -2795778,
      "metadata" : { }
    },
    "pickupDuration" : 0,
    "serviceDuration" : 1920000,
    "unloadDuration" : 0,
    "durationPerVisit" : 0,
    "priority" : 2,
    "jobType" : "DROP",
    "constraints" : {
      "demand" : {
        "values" : [ 16.0, 0.0, 0.0, 0.0 ]
      },
      "pickupTimeWindows" : [ {
        "startTime" : 1374541260000,
        "endTime" : 1374623940000
      } ],
      "timeWindowConstraints" : {
        "serviceTimeWindows" : [ {
          "startTime" : 1374552000000,
          "endTime" : 1374595200000
        } ],
        "timeWindowPolicy" : "COMPLETE_ORDER_WITHIN_TIME_WINDOW"
      },
      "attributes" : [ "AoC136" ],
      "incompatibleAttributes" : [ ],
      "stopSequence" : 1
    }
  }, {
    "id" : 166023,
    "metadata" : {
      "name" : "mID166023"
    },
    "depot" : 0,
    "location" : {
      "latitude" : 51288098,
      "longitude" : -2795778,
      "metadata" : { }
    },
    "pickupDuration" : 0,
    "serviceDuration" : 240000,
    "unloadDuration" : 0,
    "durationPerVisit" : 0,
    "priority" : 2,
    "jobType" : "DROP",
    "constraints" : {
      "demand" : {
        "values" : [ 2.0, 0.0, 0.0, 0.0 ]
      },
      "pickupTimeWindows" : [ {
        "startTime" : 1374541260000,
        "endTime" : 1374623940000
      } ],
      "timeWindowConstraints" : {
        "serviceTimeWindows" : [ {
          "startTime" : 1374552000000,
          "endTime" : 1374595200000
        } ],
        "timeWindowPolicy" : "COMPLETE_ORDER_WITHIN_TIME_WINDOW"
      },
      "attributes" : [ "AoC136" ],
      "incompatibleAttributes" : [ ],
      "stopSequence" : 1
    }
  }, {
    "id" : 166024,
    "metadata" : {
      "name" : "mID166024"
    },
    "depot" : 0,
    "location" : {
      "latitude" : 51288098,
      "longitude" : -2795778,
      "metadata" : { }
    },
    "pickupDuration" : 0,
    "serviceDuration" : 120000,
    "unloadDuration" : 0,
    "durationPerVisit" : 0,
    "priority" : 2,
    "jobType" : "DROP",
    "constraints" : {
      "demand" : {
        "values" : [ 1.0, 0.0, 0.0, 0.0 ]
      },
      "pickupTimeWindows" : [ {
        "startTime" : 1374541260000,
        "endTime" : 1374623940000
      } ],
      "timeWindowConstraints" : {
        "serviceTimeWindows" : [ {
          "startTime" : 1374552000000,
          "endTime" : 1374595200000
        } ],
        "timeWindowPolicy" : "COMPLETE_ORDER_WITHIN_TIME_WINDOW"
      },
      "attributes" : [ "AoC136" ],
      "incompatibleAttributes" : [ ],
      "stopSequence" : 1
    }
  }, {
    "id" : 166025,
    "metadata" : {
      "name" : "mID166025"
    },
    "depot" : 0,
    "location" : {
      "latitude" : 52352065,
      "longitude" : -1179322,
      "metadata" : { }
    },
    "pickupDuration" : 0,
    "serviceDuration" : 3840000,
    "unloadDuration" : 0,
    "durationPerVisit" : 0,
    "priority" : 2,
    "jobType" : "DROP",
    "constraints" : {
      "demand" : {
        "values" : [ 17.0, 0.0, 0.0, 0.0 ]
      },
      "pickupTimeWindows" : [ {
        "startTime" : 1374541260000,
        "endTime" : 1374623940000
      } ],
      "timeWindowConstraints" : {
        "serviceTimeWindows" : [ {
          "startTime" : 1374552000000,
          "endTime" : 1374595200000
        } ],
        "timeWindowPolicy" : "COMPLETE_ORDER_WITHIN_TIME_WINDOW"
      },
      "attributes" : [ "AoC136" ],
      "incompatibleAttributes" : [ ],
      "stopSequence" : 1
    }
  }, {
    "id" : 166026,
    "metadata" : {
      "name" : "mID166026"
    },
    "depot" : 0,
    "location" : {
      "latitude" : 51639856,
      "longitude" : -3023861,
      "metadata" : { }
    },
    "pickupDuration" : 0,
    "serviceDuration" : 2880000,
    "unloadDuration" : 0,
    "durationPerVisit" : 0,
    "priority" : 2,
    "jobType" : "DROP",
    "constraints" : {
      "demand" : {
        "values" : [ 9.0, 0.0, 0.0, 0.0 ]
      },
      "pickupTimeWindows" : [ {
        "startTime" : 1374541260000,
        "endTime" : 1374623940000
      } ],
      "timeWindowConstraints" : {
        "serviceTimeWindows" : [ {
          "startTime" : 1374573600000,
          "endTime" : 1374577200000
        } ],
        "timeWindowPolicy" : "COMPLETE_ORDER_WITHIN_TIME_WINDOW"
      },
      "attributes" : [ "AoC136" ],
      "incompatibleAttributes" : [ ],
      "stopSequence" : 1
    }
  } ],
  "schedules" : [ {
    "timeWindow" : {
      "startTime" : 1374552000000,
      "endTime" : 1374623940000
    },
    "runs" : [ ],
    "breaks" : [ ],
    "constraints" : { },
    "resource" : {
      "metadata" : {
        "name" : "Sprinter"
      },
      "id" : 1822,
      "depot" : 0,
      "hourCost" : 12.0,
      "kmCost" : 0.31075203,
      "routingProfile" : {
        "vehicleType" : "Default",
        "drivingTimeCorrectionFactor" : 1.0,
        "maxSpeed" : 90.104
      },
      "constraints" : {
        "runDistanceLimit" : "Infinity",
        "runWorkingTimeLimit" : 9223372036854775807,
        "scheduleWorkingTimeLimit" : 9223372036854775807,
        "scheduleDrivingTimeLimit" : 28800000,
        "addonCollectionDropDuration" : 0,
        "addonPickupDuration" : 0,
        "capacity" : {
          "values" : [ 3.0, 0.0, 0.0, 0.0 ]
        },
        "attributes" : [ "Van.Regular", "Van", "cargo=3.0=0.0=0.0=0.0", "AoC136", "cargo=2.0=0.0=0.0=0.0", "cargo=1.0=0.0=0.0=0.0" ],
        "homeLocations" : {
          "startLocation" : {
            "latitude" : 52697623,
            "longitude" : -1337156,
            "metadata" : { }
          },
          "endLocation" : {
            "latitude" : 52697623,
            "longitude" : -1337156,
            "metadata" : { }
          }
        },
        "fixedStartTime" : -1
      }
    }
  }, {
    "timeWindow" : {
      "startTime" : 1374552000000,
      "endTime" : 1374623940000
    },
    "runs" : [ ],
    "breaks" : [ ],
    "constraints" : { },
    "resource" : {
      "metadata" : {
        "name" : "ParcelRite"
      },
      "id" : 1820,
      "depot" : 0,
      "hourCost" : 12.0,
      "kmCost" : 0.31075203,
      "routingProfile" : {
        "vehicleType" : "Default",
        "drivingTimeCorrectionFactor" : 1.0,
        "maxSpeed" : 90.104
      },
      "constraints" : {
        "runDistanceLimit" : "Infinity",
        "runWorkingTimeLimit" : 9223372036854775807,
        "scheduleWorkingTimeLimit" : 9223372036854775807,
        "scheduleDrivingTimeLimit" : 32400000,
        "addonCollectionDropDuration" : 0,
        "addonPickupDuration" : 0,
        "capacity" : {
          "values" : [ 1.0, 0.0, 0.0, 0.0 ]
        },
        "attributes" : [ "Van.Regular", "Van", "AoC136", "cargo=1.0=0.0=0.0=0.0" ],
        "homeLocations" : {
          "startLocation" : {
            "latitude" : 52697623,
            "longitude" : -1337156,
            "metadata" : { }
          },
          "endLocation" : {
            "latitude" : 52697623,
            "longitude" : -1337156,
            "metadata" : { }
          }
        },
        "fixedStartTime" : -1
      }
    }
  }, {
    "timeWindow" : {
      "startTime" : 1374552000000,
      "endTime" : 1374623940000
    },
    "runs" : [ ],
    "breaks" : [ ],
    "constraints" : { },
    "resource" : {
      "metadata" : {
        "name" : "FN62AFZ"
      },
      "id" : 1849,
      "depot" : 0,
      "hourCost" : 12.0,
      "kmCost" : 0.31075203,
      "routingProfile" : {
        "vehicleType" : "Default",
        "drivingTimeCorrectionFactor" : 1.0,
        "maxSpeed" : 90.104
      },
      "constraints" : {
        "runDistanceLimit" : "Infinity",
        "runWorkingTimeLimit" : 9223372036854775807,
        "scheduleWorkingTimeLimit" : 9223372036854775807,
        "scheduleDrivingTimeLimit" : 32400000,
        "addonCollectionDropDuration" : 0,
        "addonPickupDuration" : 0,
        "capacity" : {
          "values" : [ 3.0, 0.0, 0.0, 0.0 ]
        },
        "attributes" : [ "Van.Regular", "Van", "cargo=3.0=0.0=0.0=0.0", "AoC136", "cargo=2.0=0.0=0.0=0.0", "cargo=1.0=0.0=0.0=0.0" ],
        "homeLocations" : {
          "startLocation" : {
            "latitude" : 52697623,
            "longitude" : -1337156,
            "metadata" : { }
          },
          "endLocation" : {
            "latitude" : 52697623,
            "longitude" : -1337156,
            "metadata" : { }
          }
        },
        "fixedStartTime" : -1
      }
    }
  }, {
    "timeWindow" : {
      "startTime" : 1374552000000,
      "endTime" : 1374623940000
    },
    "runs" : [ ],
    "breaks" : [ ],
    "constraints" : { },
    "resource" : {
      "metadata" : {
        "name" : "Hire_7.5Tonne"
      },
      "id" : 1818,
      "depot" : 0,
      "hourCost" : 12.0,
      "kmCost" : 0.40397763,
      "routingProfile" : {
        "vehicleType" : "Default",
        "drivingTimeCorrectionFactor" : 1.0,
        "maxSpeed" : 90.104
      },
      "constraints" : {
        "runDistanceLimit" : "Infinity",
        "runWorkingTimeLimit" : 9223372036854775807,
        "scheduleWorkingTimeLimit" : 9223372036854775807,
        "scheduleDrivingTimeLimit" : 32400000,
        "addonCollectionDropDuration" : 0,
        "addonPickupDuration" : 0,
        "capacity" : {
          "values" : [ 8.0, 0.0, 0.0, 0.0 ]
        },
        "attributes" : [ "cargo=6.0=0.0=0.0=0.0", "Van.Regular", "Van", "cargo=4.0=0.0=0.0=0.0", "cargo=7.0=0.0=0.0=0.0", "cargo=3.0=0.0=0.0=0.0", "cargo=8.0=0.0=0.0=0.0", "AoC136", "cargo=2.0=0.0=0.0=0.0", "cargo=5.0=0.0=0.0=0.0", "cargo=1.0=0.0=0.0=0.0" ],
        "homeLocations" : {
          "startLocation" : {
            "latitude" : 52697623,
            "longitude" : -1337156,
            "metadata" : { }
          },
          "endLocation" : {
            "latitude" : 52697623,
            "longitude" : -1337156,
            "metadata" : { }
          }
        },
        "fixedStartTime" : -1
      }
    }
  }, {
    "timeWindow" : {
      "startTime" : 1374552000000,
      "endTime" : 1374623940000
    },
    "runs" : [ ],
    "breaks" : [ ],
    "constraints" : { },
    "resource" : {
      "metadata" : {
        "name" : "FM62ANV"
      },
      "id" : 1851,
      "depot" : 0,
      "hourCost" : 12.0,
      "kmCost" : 0.31075203,
      "routingProfile" : {
        "vehicleType" : "Default",
        "drivingTimeCorrectionFactor" : 1.0,
        "maxSpeed" : 90.104
      },
      "constraints" : {
        "runDistanceLimit" : "Infinity",
        "runWorkingTimeLimit" : 9223372036854775807,
        "scheduleWorkingTimeLimit" : 9223372036854775807,
        "scheduleDrivingTimeLimit" : 32400000,
        "addonCollectionDropDuration" : 0,
        "addonPickupDuration" : 0,
        "capacity" : {
          "values" : [ 3.0, 0.0, 0.0, 0.0 ]
        },
        "attributes" : [ "Van.Regular", "Van", "cargo=3.0=0.0=0.0=0.0", "AoC136", "cargo=2.0=0.0=0.0=0.0", "cargo=1.0=0.0=0.0=0.0" ],
        "homeLocations" : {
          "startLocation" : {
            "latitude" : 52697623,
            "longitude" : -1337156,
            "metadata" : { }
          },
          "endLocation" : {
            "latitude" : 52697623,
            "longitude" : -1337156,
            "metadata" : { }
          }
        },
        "fixedStartTime" : -1
      }
    }
  }, {
    "timeWindow" : {
      "startTime" : 1374552000000,
      "endTime" : 1374623940000
    },
    "runs" : [ ],
    "breaks" : [ ],
    "constraints" : { },
    "resource" : {
      "metadata" : {
        "name" : "Hire_18_Tonne"
      },
      "id" : 1816,
      "depot" : 0,
      "hourCost" : 12.0,
      "kmCost" : 0.40397763,
      "routingProfile" : {
        "vehicleType" : "Default",
        "drivingTimeCorrectionFactor" : 1.0,
        "maxSpeed" : 90.104
      },
      "constraints" : {
        "runDistanceLimit" : "Infinity",
        "runWorkingTimeLimit" : 9223372036854775807,
        "scheduleWorkingTimeLimit" : 9223372036854775807,
        "scheduleDrivingTimeLimit" : 32400000,
        "addonCollectionDropDuration" : 0,
        "addonPickupDuration" : 0,
        "capacity" : {
          "values" : [ 14.0, 0.0, 0.0, 0.0 ]
        },
        "attributes" : [ "cargo=9.0=0.0=0.0=0.0", "cargo=6.0=0.0=0.0=0.0", "Van.Regular", "Van", "cargo=4.0=0.0=0.0=0.0", "cargo=7.0=0.0=0.0=0.0", "cargo=3.0=0.0=0.0=0.0", "cargo=8.0=0.0=0.0=0.0", "AoC136", "cargo=2.0=0.0=0.0=0.0", "cargo=5.0=0.0=0.0=0.0", "cargo=1.0=0.0=0.0=0.0" ],
        "homeLocations" : {
          "startLocation" : {
            "latitude" : 52697623,
            "longitude" : -1337156,
            "metadata" : { }
          },
          "endLocation" : {
            "latitude" : 52697623,
            "longitude" : -1337156,
            "metadata" : { }
          }
        },
        "fixedStartTime" : -1
      }
    }
  }, {
    "timeWindow" : {
      "startTime" : 1374552000000,
      "endTime" : 1374623940000
    },
    "runs" : [ ],
    "breaks" : [ ],
    "constraints" : { },
    "resource" : {
      "metadata" : {
        "name" : "HireUnit+Step"
      },
      "id" : 1814,
      "depot" : 0,
      "hourCost" : 12.0,
      "kmCost" : 0.49720323,
      "routingProfile" : {
        "vehicleType" : "Default",
        "drivingTimeCorrectionFactor" : 1.0,
        "maxSpeed" : 90.104
      },
      "constraints" : {
        "runDistanceLimit" : "Infinity",
        "runWorkingTimeLimit" : 9223372036854775807,
        "scheduleWorkingTimeLimit" : 9223372036854775807,
        "scheduleDrivingTimeLimit" : 32400000,
        "addonCollectionDropDuration" : 0,
        "addonPickupDuration" : 0,
        "capacity" : {
          "values" : [ 46.0, 0.0, 0.0, 0.0 ]
        },
        "attributes" : [ "cargo=6.0=0.0=0.0=0.0", "Van", "cargo=7.0=0.0=0.0=0.0", "cargo=32.0=0.0=0.0=0.0", "cargo=5.0=0.0=0.0=0.0", "cargo=9.0=0.0=0.0=0.0", "Van.Regular", "cargo=16.0=0.0=0.0=0.0", "cargo=4.0=0.0=0.0=0.0", "cargo=3.0=0.0=0.0=0.0", "cargo=8.0=0.0=0.0=0.0", "cargo=17.0=0.0=0.0=0.0", "AoC136", "cargo=2.0=0.0=0.0=0.0", "cargo=1.0=0.0=0.0=0.0" ],
        "homeLocations" : {
          "startLocation" : {
            "latitude" : 52697623,
            "longitude" : -1337156,
            "metadata" : { }
          },
          "endLocation" : {
            "latitude" : 52697623,
            "longitude" : -1337156,
            "metadata" : { }
          }
        },
        "fixedStartTime" : -1
      }
    }
  }, {
    "timeWindow" : {
      "startTime" : 1374552000000,
      "endTime" : 1374623940000
    },
    "runs" : [ ],
    "breaks" : [ ],
    "constraints" : { },
    "resource" : {
      "metadata" : {
        "name" : "FN09AFF DD"
      },
      "id" : 1812,
      "depot" : 0,
      "hourCost" : 12.0,
      "kmCost" : 0.49720323,
      "routingProfile" : {
        "vehicleType" : "Default",
        "drivingTimeCorrectionFactor" : 1.0,
        "maxSpeed" : 90.104
      },
      "constraints" : {
        "runDistanceLimit" : "Infinity",
        "runWorkingTimeLimit" : 9223372036854775807,
        "scheduleWorkingTimeLimit" : 9223372036854775807,
        "scheduleDrivingTimeLimit" : 32400000,
        "addonCollectionDropDuration" : 0,
        "addonPickupDuration" : 0,
        "capacity" : {
          "values" : [ 46.0, 0.0, 0.0, 0.0 ]
        },
        "attributes" : [ "cargo=6.0=0.0=0.0=0.0", "Van", "cargo=7.0=0.0=0.0=0.0", "cargo=32.0=0.0=0.0=0.0", "cargo=5.0=0.0=0.0=0.0", "cargo=9.0=0.0=0.0=0.0", "Van.Regular", "cargo=16.0=0.0=0.0=0.0", "cargo=4.0=0.0=0.0=0.0", "cargo=3.0=0.0=0.0=0.0", "cargo=8.0=0.0=0.0=0.0", "cargo=17.0=0.0=0.0=0.0", "AoC136", "cargo=2.0=0.0=0.0=0.0", "cargo=1.0=0.0=0.0=0.0" ],
        "homeLocations" : {
          "startLocation" : {
            "latitude" : 52697623,
            "longitude" : -1337156,
            "metadata" : { }
          },
          "endLocation" : {
            "latitude" : 52697623,
            "longitude" : -1337156,
            "metadata" : { }
          }
        },
        "fixedStartTime" : -1
      }
    }
  }, {
    "timeWindow" : {
      "startTime" : 1374552000000,
      "endTime" : 1374623940000
    },
    "runs" : [ ],
    "breaks" : [ ],
    "constraints" : { },
    "resource" : {
      "metadata" : {
        "name" : "FJ58HGE"
      },
      "id" : 1810,
      "depot" : 0,
      "hourCost" : 12.0,
      "kmCost" : 0.40397763,
      "routingProfile" : {
        "vehicleType" : "Default",
        "drivingTimeCorrectionFactor" : 1.0,
        "maxSpeed" : 90.104
      },
      "constraints" : {
        "runDistanceLimit" : "Infinity",
        "runWorkingTimeLimit" : 9223372036854775807,
        "scheduleWorkingTimeLimit" : 9223372036854775807,
        "scheduleDrivingTimeLimit" : 32400000,
        "addonCollectionDropDuration" : 0,
        "addonPickupDuration" : 0,
        "capacity" : {
          "values" : [ 8.0, 0.0, 0.0, 0.0 ]
        },
        "attributes" : [ "cargo=6.0=0.0=0.0=0.0", "Van.Regular", "Van", "cargo=4.0=0.0=0.0=0.0", "cargo=7.0=0.0=0.0=0.0", "cargo=3.0=0.0=0.0=0.0", "cargo=8.0=0.0=0.0=0.0", "AoC136", "cargo=2.0=0.0=0.0=0.0", "cargo=5.0=0.0=0.0=0.0", "cargo=1.0=0.0=0.0=0.0" ],
        "homeLocations" : {
          "startLocation" : {
            "latitude" : 52697623,
            "longitude" : -1337156,
            "metadata" : { }
          },
          "endLocation" : {
            "latitude" : 52697623,
            "longitude" : -1337156,
            "metadata" : { }
          }
        },
        "fixedStartTime" : -1
      }
    }
  }, {
    "timeWindow" : {
      "startTime" : 1374555600000,
      "endTime" : 1374623940000
    },
    "runs" : [ ],
    "breaks" : [ ],
    "constraints" : { },
    "resource" : {
      "metadata" : {
        "name" : "FJ11FKK+Step"
      },
      "id" : 1808,
      "depot" : 0,
      "hourCost" : 12.0,
      "kmCost" : 0.49720323,
      "routingProfile" : {
        "vehicleType" : "Default",
        "drivingTimeCorrectionFactor" : 1.0,
        "maxSpeed" : 90.104
      },
      "constraints" : {
        "runDistanceLimit" : "Infinity",
        "runWorkingTimeLimit" : 9223372036854775807,
        "scheduleWorkingTimeLimit" : 9223372036854775807,
        "scheduleDrivingTimeLimit" : 32400000,
        "addonCollectionDropDuration" : 0,
        "addonPickupDuration" : 0,
        "capacity" : {
          "values" : [ 46.0, 0.0, 0.0, 0.0 ]
        },
        "attributes" : [ "cargo=6.0=0.0=0.0=0.0", "Van", "cargo=7.0=0.0=0.0=0.0", "cargo=32.0=0.0=0.0=0.0", "cargo=5.0=0.0=0.0=0.0", "cargo=9.0=0.0=0.0=0.0", "Van.Regular", "cargo=16.0=0.0=0.0=0.0", "cargo=4.0=0.0=0.0=0.0", "cargo=3.0=0.0=0.0=0.0", "cargo=8.0=0.0=0.0=0.0", "cargo=17.0=0.0=0.0=0.0", "AoC136", "cargo=2.0=0.0=0.0=0.0", "cargo=1.0=0.0=0.0=0.0" ],
        "homeLocations" : {
          "startLocation" : {
            "latitude" : 52697623,
            "longitude" : -1337156,
            "metadata" : { }
          },
          "endLocation" : {
            "latitude" : 52697623,
            "longitude" : -1337156,
            "metadata" : { }
          }
        },
        "fixedStartTime" : -1
      }
    }
  }, {
    "timeWindow" : {
      "startTime" : 1374552000000,
      "endTime" : 1374623940000
    },
    "runs" : [ ],
    "breaks" : [ ],
    "constraints" : { },
    "resource" : {
      "metadata" : {
        "name" : "FJ10EFD+Step"
      },
      "id" : 1806,
      "depot" : 0,
      "hourCost" : 12.0,
      "kmCost" : 0.49720323,
      "routingProfile" : {
        "vehicleType" : "Default",
        "drivingTimeCorrectionFactor" : 1.0,
        "maxSpeed" : 90.104
      },
      "constraints" : {
        "runDistanceLimit" : "Infinity",
        "runWorkingTimeLimit" : 9223372036854775807,
        "scheduleWorkingTimeLimit" : 9223372036854775807,
        "scheduleDrivingTimeLimit" : 32400000,
        "addonCollectionDropDuration" : 0,
        "addonPickupDuration" : 0,
        "capacity" : {
          "values" : [ 46.0, 0.0, 0.0, 0.0 ]
        },
        "attributes" : [ "cargo=6.0=0.0=0.0=0.0", "Van", "cargo=7.0=0.0=0.0=0.0", "cargo=32.0=0.0=0.0=0.0", "cargo=5.0=0.0=0.0=0.0", "cargo=9.0=0.0=0.0=0.0", "Van.Regular", "cargo=16.0=0.0=0.0=0.0", "cargo=4.0=0.0=0.0=0.0", "cargo=3.0=0.0=0.0=0.0", "cargo=8.0=0.0=0.0=0.0", "cargo=17.0=0.0=0.0=0.0", "AoC136", "cargo=2.0=0.0=0.0=0.0", "cargo=1.0=0.0=0.0=0.0" ],
        "homeLocations" : {
          "startLocation" : {
            "latitude" : 52697623,
            "longitude" : -1337156,
            "metadata" : { }
          },
          "endLocation" : {
            "latitude" : 52697623,
            "longitude" : -1337156,
            "metadata" : { }
          }
        },
        "fixedStartTime" : -1
      }
    }
  }, {
    "timeWindow" : {
      "startTime" : 1374552000000,
      "endTime" : 1374623940000
    },
    "runs" : [ ],
    "breaks" : [ ],
    "constraints" : { },
    "resource" : {
      "metadata" : {
        "name" : "FJ10EFC+Step"
      },
      "id" : 1804,
      "depot" : 0,
      "hourCost" : 12.0,
      "kmCost" : 0.49720323,
      "routingProfile" : {
        "vehicleType" : "Default",
        "drivingTimeCorrectionFactor" : 1.0,
        "maxSpeed" : 90.104
      },
      "constraints" : {
        "runDistanceLimit" : "Infinity",
        "runWorkingTimeLimit" : 9223372036854775807,
        "scheduleWorkingTimeLimit" : 9223372036854775807,
        "scheduleDrivingTimeLimit" : 32400000,
        "addonCollectionDropDuration" : 0,
        "addonPickupDuration" : 0,
        "capacity" : {
          "values" : [ 46.0, 0.0, 0.0, 0.0 ]
        },
        "attributes" : [ "cargo=6.0=0.0=0.0=0.0", "Van", "cargo=7.0=0.0=0.0=0.0", "cargo=32.0=0.0=0.0=0.0", "cargo=5.0=0.0=0.0=0.0", "cargo=9.0=0.0=0.0=0.0", "Van.Regular", "cargo=16.0=0.0=0.0=0.0", "cargo=4.0=0.0=0.0=0.0", "cargo=3.0=0.0=0.0=0.0", "cargo=8.0=0.0=0.0=0.0", "cargo=17.0=0.0=0.0=0.0", "AoC136", "cargo=2.0=0.0=0.0=0.0", "cargo=1.0=0.0=0.0=0.0" ],
        "homeLocations" : {
          "startLocation" : {
            "latitude" : 52697623,
            "longitude" : -1337156,
            "metadata" : { }
          },
          "endLocation" : {
            "latitude" : 52697623,
            "longitude" : -1337156,
            "metadata" : { }
          }
        },
        "fixedStartTime" : -1
      }
    }
  }, {
    "timeWindow" : {
      "startTime" : 1374552000000,
      "endTime" : 1374623940000
    },
    "runs" : [ ],
    "breaks" : [ ],
    "constraints" : { },
    "resource" : {
      "metadata" : {
        "name" : "FD59XNR"
      },
      "id" : 1802,
      "depot" : 0,
      "hourCost" : 12.0,
      "kmCost" : 0.31075203,
      "routingProfile" : {
        "vehicleType" : "Default",
        "drivingTimeCorrectionFactor" : 1.0,
        "maxSpeed" : 90.104
      },
      "constraints" : {
        "runDistanceLimit" : "Infinity",
        "runWorkingTimeLimit" : 9223372036854775807,
        "scheduleWorkingTimeLimit" : 9223372036854775807,
        "scheduleDrivingTimeLimit" : 32400000,
        "addonCollectionDropDuration" : 0,
        "addonPickupDuration" : 0,
        "capacity" : {
          "values" : [ 3.0, 0.0, 0.0, 0.0 ]
        },
        "attributes" : [ "Van.Regular", "Van", "cargo=3.0=0.0=0.0=0.0", "AoC136", "cargo=2.0=0.0=0.0=0.0", "cargo=1.0=0.0=0.0=0.0" ],
        "homeLocations" : {
          "startLocation" : {
            "latitude" : 52697623,
            "longitude" : -1337156,
            "metadata" : { }
          },
          "endLocation" : {
            "latitude" : 52697623,
            "longitude" : -1337156,
            "metadata" : { }
          }
        },
        "fixedStartTime" : -1
      }
    }
  }, {
    "timeWindow" : {
      "startTime" : 1374566400000,
      "endTime" : 1374623940000
    },
    "runs" : [ ],
    "breaks" : [ ],
    "constraints" : { },
    "resource" : {
      "metadata" : {
        "name" : "FD10KCC"
      },
      "id" : 1800,
      "depot" : 0,
      "hourCost" : 12.0,
      "kmCost" : 0.31075203,
      "routingProfile" : {
        "vehicleType" : "Default",
        "drivingTimeCorrectionFactor" : 1.0,
        "maxSpeed" : 90.104
      },
      "constraints" : {
        "runDistanceLimit" : "Infinity",
        "runWorkingTimeLimit" : 9223372036854775807,
        "scheduleWorkingTimeLimit" : 9223372036854775807,
        "scheduleDrivingTimeLimit" : 32400000,
        "addonCollectionDropDuration" : 0,
        "addonPickupDuration" : 0,
        "capacity" : {
          "values" : [ 3.0, 0.0, 0.0, 0.0 ]
        },
        "attributes" : [ "Van.Regular", "Van", "cargo=3.0=0.0=0.0=0.0", "AoC136", "cargo=2.0=0.0=0.0=0.0", "cargo=1.0=0.0=0.0=0.0" ],
        "homeLocations" : {
          "startLocation" : {
            "latitude" : 52697623,
            "longitude" : -1337156,
            "metadata" : { }
          },
          "endLocation" : {
            "latitude" : 52697623,
            "longitude" : -1337156,
            "metadata" : { }
          }
        },
        "fixedStartTime" : -1
      }
    }
  }, {
    "timeWindow" : {
      "startTime" : 1374552000000,
      "endTime" : 1374623940000
    },
    "runs" : [ ],
    "breaks" : [ ],
    "constraints" : { },
    "resource" : {
      "metadata" : {
        "name" : "BV62DLK+Step"
      },
      "id" : 1798,
      "depot" : 0,
      "hourCost" : 12.0,
      "kmCost" : 0.49720323,
      "routingProfile" : {
        "vehicleType" : "Default",
        "drivingTimeCorrectionFactor" : 1.0,
        "maxSpeed" : 90.104
      },
      "constraints" : {
        "runDistanceLimit" : "Infinity",
        "runWorkingTimeLimit" : 9223372036854775807,
        "scheduleWorkingTimeLimit" : 9223372036854775807,
        "scheduleDrivingTimeLimit" : 32400000,
        "addonCollectionDropDuration" : 0,
        "addonPickupDuration" : 0,
        "capacity" : {
          "values" : [ 46.0, 0.0, 0.0, 0.0 ]
        },
        "attributes" : [ "cargo=6.0=0.0=0.0=0.0", "Van", "cargo=7.0=0.0=0.0=0.0", "cargo=32.0=0.0=0.0=0.0", "cargo=5.0=0.0=0.0=0.0", "cargo=9.0=0.0=0.0=0.0", "Van.Regular", "cargo=16.0=0.0=0.0=0.0", "cargo=4.0=0.0=0.0=0.0", "cargo=3.0=0.0=0.0=0.0", "cargo=8.0=0.0=0.0=0.0", "cargo=17.0=0.0=0.0=0.0", "AoC136", "cargo=2.0=0.0=0.0=0.0", "cargo=1.0=0.0=0.0=0.0" ],
        "homeLocations" : {
          "startLocation" : {
            "latitude" : 52697623,
            "longitude" : -1337156,
            "metadata" : { }
          },
          "endLocation" : {
            "latitude" : 52697623,
            "longitude" : -1337156,
            "metadata" : { }
          }
        },
        "fixedStartTime" : -1
      }
    }
  }, {
    "timeWindow" : {
      "startTime" : 1374552000000,
      "endTime" : 1374623940000
    },
    "runs" : [ ],
    "breaks" : [ ],
    "constraints" : { },
    "resource" : {
      "metadata" : {
        "name" : "BP11ZBR+Step"
      },
      "id" : 1796,
      "depot" : 0,
      "hourCost" : 12.0,
      "kmCost" : 0.49720323,
      "routingProfile" : {
        "vehicleType" : "Default",
        "drivingTimeCorrectionFactor" : 1.0,
        "maxSpeed" : 90.104
      },
      "constraints" : {
        "runDistanceLimit" : "Infinity",
        "runWorkingTimeLimit" : 9223372036854775807,
        "scheduleWorkingTimeLimit" : 9223372036854775807,
        "scheduleDrivingTimeLimit" : 32400000,
        "addonCollectionDropDuration" : 0,
        "addonPickupDuration" : 0,
        "capacity" : {
          "values" : [ 46.0, 0.0, 0.0, 0.0 ]
        },
        "attributes" : [ "cargo=6.0=0.0=0.0=0.0", "Van", "cargo=7.0=0.0=0.0=0.0", "cargo=32.0=0.0=0.0=0.0", "cargo=5.0=0.0=0.0=0.0", "cargo=9.0=0.0=0.0=0.0", "Van.Regular", "cargo=16.0=0.0=0.0=0.0", "cargo=4.0=0.0=0.0=0.0", "cargo=3.0=0.0=0.0=0.0", "cargo=8.0=0.0=0.0=0.0", "cargo=17.0=0.0=0.0=0.0", "AoC136", "cargo=2.0=0.0=0.0=0.0", "cargo=1.0=0.0=0.0=0.0" ],
        "homeLocations" : {
          "startLocation" : {
            "latitude" : 52697623,
            "longitude" : -1337156,
            "metadata" : { }
          },
          "endLocation" : {
            "latitude" : 52697623,
            "longitude" : -1337156,
            "metadata" : { }
          }
        },
        "fixedStartTime" : -1
      }
    }
  }, {
    "timeWindow" : {
      "startTime" : 1374552000000,
      "endTime" : 1374623940000
    },
    "runs" : [ ],
    "breaks" : [ ],
    "constraints" : { },
    "resource" : {
      "metadata" : {
        "name" : "BK62JTX"
      },
      "id" : 1794,
      "depot" : 0,
      "hourCost" : 12.0,
      "kmCost" : 0.40397763,
      "routingProfile" : {
        "vehicleType" : "Default",
        "drivingTimeCorrectionFactor" : 1.0,
        "maxSpeed" : 90.104
      },
      "constraints" : {
        "runDistanceLimit" : "Infinity",
        "runWorkingTimeLimit" : 9223372036854775807,
        "scheduleWorkingTimeLimit" : 9223372036854775807,
        "scheduleDrivingTimeLimit" : 32400000,
        "addonCollectionDropDuration" : 0,
        "addonPickupDuration" : 0,
        "capacity" : {
          "values" : [ 16.0, 0.0, 0.0, 0.0 ]
        },
        "attributes" : [ "cargo=6.0=0.0=0.0=0.0", "Van", "cargo=7.0=0.0=0.0=0.0", "cargo=5.0=0.0=0.0=0.0", "cargo=9.0=0.0=0.0=0.0", "Van.Regular", "cargo=16.0=0.0=0.0=0.0", "cargo=4.0=0.0=0.0=0.0", "cargo=3.0=0.0=0.0=0.0", "cargo=8.0=0.0=0.0=0.0", "AoC136", "cargo=2.0=0.0=0.0=0.0", "cargo=1.0=0.0=0.0=0.0" ],
        "homeLocations" : {
          "startLocation" : {
            "latitude" : 52697623,
            "longitude" : -1337156,
            "metadata" : { }
          },
          "endLocation" : {
            "latitude" : 52697623,
            "longitude" : -1337156,
            "metadata" : { }
          }
        },
        "fixedStartTime" : -1
      }
    }
  }, {
    "timeWindow" : {
      "startTime" : 1374552000000,
      "endTime" : 1374623940000
    },
    "runs" : [ ],
    "breaks" : [ ],
    "constraints" : { },
    "resource" : {
      "metadata" : {
        "name" : "BN62VMF DD"
      },
      "id" : 1824,
      "depot" : 0,
      "hourCost" : 12.0,
      "kmCost" : 0.49720323,
      "routingProfile" : {
        "vehicleType" : "Default",
        "drivingTimeCorrectionFactor" : 1.0,
        "maxSpeed" : 90.104
      },
      "constraints" : {
        "runDistanceLimit" : "Infinity",
        "runWorkingTimeLimit" : 9223372036854775807,
        "scheduleWorkingTimeLimit" : 9223372036854775807,
        "scheduleDrivingTimeLimit" : 28800000,
        "addonCollectionDropDuration" : 0,
        "addonPickupDuration" : 0,
        "capacity" : {
          "values" : [ 44.0, 0.0, 0.0, 0.0 ]
        },
        "attributes" : [ "cargo=6.0=0.0=0.0=0.0", "Van", "cargo=7.0=0.0=0.0=0.0", "cargo=32.0=0.0=0.0=0.0", "cargo=5.0=0.0=0.0=0.0", "cargo=9.0=0.0=0.0=0.0", "Van.Regular", "cargo=16.0=0.0=0.0=0.0", "cargo=4.0=0.0=0.0=0.0", "cargo=3.0=0.0=0.0=0.0", "cargo=8.0=0.0=0.0=0.0", "cargo=17.0=0.0=0.0=0.0", "AoC136", "cargo=2.0=0.0=0.0=0.0", "cargo=1.0=0.0=0.0=0.0" ],
        "homeLocations" : {
          "startLocation" : {
            "latitude" : 52697623,
            "longitude" : -1337156,
            "metadata" : { }
          },
          "endLocation" : {
            "latitude" : 52697623,
            "longitude" : -1337156,
            "metadata" : { }
          }
        },
        "fixedStartTime" : -1
      }
    }
  }, {
    "timeWindow" : {
      "startTime" : 1374552000000,
      "endTime" : 1374623940000
    },
    "runs" : [ ],
    "breaks" : [ ],
    "constraints" : { },
    "resource" : {
      "metadata" : {
        "name" : "BG12FRC+Step"
      },
      "id" : 1792,
      "depot" : 0,
      "hourCost" : 12.0,
      "kmCost" : 0.49720323,
      "routingProfile" : {
        "vehicleType" : "Default",
        "drivingTimeCorrectionFactor" : 1.0,
        "maxSpeed" : 90.104
      },
      "constraints" : {
        "runDistanceLimit" : "Infinity",
        "runWorkingTimeLimit" : 9223372036854775807,
        "scheduleWorkingTimeLimit" : 9223372036854775807,
        "scheduleDrivingTimeLimit" : 32400000,
        "addonCollectionDropDuration" : 0,
        "addonPickupDuration" : 0,
        "capacity" : {
          "values" : [ 46.0, 0.0, 0.0, 0.0 ]
        },
        "attributes" : [ "cargo=6.0=0.0=0.0=0.0", "Van", "cargo=7.0=0.0=0.0=0.0", "cargo=32.0=0.0=0.0=0.0", "cargo=5.0=0.0=0.0=0.0", "cargo=9.0=0.0=0.0=0.0", "Van.Regular", "cargo=16.0=0.0=0.0=0.0", "cargo=4.0=0.0=0.0=0.0", "cargo=3.0=0.0=0.0=0.0", "cargo=8.0=0.0=0.0=0.0", "cargo=17.0=0.0=0.0=0.0", "AoC136", "cargo=2.0=0.0=0.0=0.0", "cargo=1.0=0.0=0.0=0.0" ],
        "homeLocations" : {
          "startLocation" : {
            "latitude" : 52697623,
            "longitude" : -1337156,
            "metadata" : { }
          },
          "endLocation" : {
            "latitude" : 52697623,
            "longitude" : -1337156,
            "metadata" : { }
          }
        },
        "fixedStartTime" : -1
      }
    }
  }, {
    "timeWindow" : {
      "startTime" : 1374552000000,
      "endTime" : 1374623940000
    },
    "runs" : [ ],
    "breaks" : [ ],
    "constraints" : { },
    "resource" : {
      "metadata" : {
        "name" : "YJ07LCU"
      },
      "id" : 1826,
      "depot" : 0,
      "hourCost" : 12.0,
      "kmCost" : 0.49720323,
      "routingProfile" : {
        "vehicleType" : "Default",
        "drivingTimeCorrectionFactor" : 1.0,
        "maxSpeed" : 90.104
      },
      "constraints" : {
        "runDistanceLimit" : "Infinity",
        "runWorkingTimeLimit" : 9223372036854775807,
        "scheduleWorkingTimeLimit" : 9223372036854775807,
        "scheduleDrivingTimeLimit" : 32400000,
        "addonCollectionDropDuration" : 0,
        "addonPickupDuration" : 0,
        "capacity" : {
          "values" : [ 44.0, 0.0, 0.0, 0.0 ]
        },
        "attributes" : [ "cargo=6.0=0.0=0.0=0.0", "Van", "cargo=7.0=0.0=0.0=0.0", "cargo=32.0=0.0=0.0=0.0", "cargo=5.0=0.0=0.0=0.0", "cargo=9.0=0.0=0.0=0.0", "Van.Regular", "cargo=16.0=0.0=0.0=0.0", "cargo=4.0=0.0=0.0=0.0", "cargo=3.0=0.0=0.0=0.0", "cargo=8.0=0.0=0.0=0.0", "cargo=17.0=0.0=0.0=0.0", "AoC136", "cargo=2.0=0.0=0.0=0.0", "cargo=1.0=0.0=0.0=0.0" ],
        "homeLocations" : {
          "startLocation" : {
            "latitude" : 52697623,
            "longitude" : -1337156,
            "metadata" : { }
          },
          "endLocation" : {
            "latitude" : 52697623,
            "longitude" : -1337156,
            "metadata" : { }
          }
        },
        "fixedStartTime" : -1
      }
    }
  } ],
  "depots" : [ {
    "id" : 0,
    "location" : {
      "latitude" : 52697623,
      "longitude" : -1337156,
      "metadata" : { }
    },
    "constraints" : {
      "allowCollectionsWhileDrivingHome" : false,
      "allowDeliveriesWhileDrivingFromHome" : false,
      "availabilityWindows" : [ {
        "startTime" : 0,
        "endTime" : 57657355200332
      } ]
    }
  } ],
  "constraints" : {
    "allowMultipleRunsPerSchedule" : true,
    "consolidateSameSiteJobs" : "NONE"
  }
}