{
  "jobs" : [ {
    "id" : 924133,
    "metadata" : {
      "name" : "mID530110"
    },
    "depot" : 0,
    "location" : {
      "latitude" : 55656956,
      "longitude" : 37608050,
      "metadata" : { }
    },
    "pickupDuration" : 0,
    "serviceDuration" : 900000,
    "unloadDuration" : 0,
    "durationPerVisit" : 0,
    "priority" : 2,
    "jobType" : "DROP",
    "constraints" : {
      "demand" : {
        "values" : [ 48.0, 0.0, 0.0, 0.0 ]
      },
      "pickupTimeWindows" : [ {
        "startTime" : 1417741200000,
        "endTime" : 1417791600000
      } ],
      "timeWindowConstraints" : {
        "serviceTimeWindows" : [ {
          "startTime" : 1417744800000,
          "endTime" : 1417752000000
        } ],
        "timeWindowPolicy" : "COMPLETE_ORDER_WITHIN_TIME_WINDOW"
      },
      "attributes" : [ "AoC433" ],
      "incompatibleAttributes" : [ ],
      "stopSequence" : 1
    }
  }, {
    "id" : 924134,
    "metadata" : {
      "name" : "mID530074"
    },
    "depot" : 0,
    "location" : {
      "latitude" : 55686528,
      "longitude" : 37614500,
      "metadata" : { }
    },
    "pickupDuration" : 0,
    "serviceDuration" : 1200000,
    "unloadDuration" : 0,
    "durationPerVisit" : 0,
    "priority" : 2,
    "jobType" : "DROP",
    "constraints" : {
      "demand" : {
        "values" : [ 60.0, 0.0, 0.0, 0.0 ]
      },
      "pickupTimeWindows" : [ {
        "startTime" : 1417741200000,
        "endTime" : 1417791600000
      } ],
      "timeWindowConstraints" : {
        "serviceTimeWindows" : [ {
          "startTime" : 1417748400000,
          "endTime" : 1417750200000
        } ],
        "timeWindowPolicy" : "COMPLETE_ORDER_WITHIN_TIME_WINDOW"
      },
      "attributes" : [ "AoC433" ],
      "incompatibleAttributes" : [ ],
      "stopSequence" : 1
    }
  }, {
    "id" : 924135,
    "metadata" : {
      "name" : "mID530062"
    },
    "depot" : 0,
    "location" : {
      "latitude" : 55668026,
      "longitude" : 37836904,
      "metadata" : { }
    },
    "pickupDuration" : 0,
    "serviceDuration" : 600000,
    "unloadDuration" : 0,
    "durationPerVisit" : 0,
    "priority" : 2,
    "jobType" : "DROP",
    "constraints" : {
      "demand" : {
        "values" : [ 50.0, 0.0, 0.0, 0.0 ]
      },
      "pickupTimeWindows" : [ {
        "startTime" : 1417741200000,
        "endTime" : 1417791600000
      } ],
      "timeWindowConstraints" : {
        "serviceTimeWindows" : [ {
          "startTime" : 1417723200000,
          "endTime" : 1417809480000
        } ],
        "timeWindowPolicy" : "COMPLETE_ORDER_WITHIN_TIME_WINDOW"
      },
      "attributes" : [ "AoC433" ],
      "incompatibleAttributes" : [ ],
      "stopSequence" : 1
    }
  }, {
    "id" : 924136,
    "metadata" : {
      "name" : "mID530053"
    },
    "depot" : 0,
    "location" : {
      "latitude" : 55715652,
      "longitude" : 37815460,
      "metadata" : { }
    },
    "pickupDuration" : 0,
    "serviceDuration" : 900000,
    "unloadDuration" : 0,
    "durationPerVisit" : 0,
    "priority" : 2,
    "jobType" : "DROP",
    "constraints" : {
      "demand" : {
        "values" : [ 27.0, 0.0, 0.0, 0.0 ]
      },
      "pickupTimeWindows" : [ {
        "startTime" : 1417741200000,
        "endTime" : 1417791600000
      } ],
      "timeWindowConstraints" : {
        "serviceTimeWindows" : [ {
          "startTime" : 1417723200000,
          "endTime" : 1417809540000
        } ],
        "timeWindowPolicy" : "COMPLETE_ORDER_WITHIN_TIME_WINDOW"
      },
      "attributes" : [ "AoC433" ],
      "incompatibleAttributes" : [ ],
      "stopSequence" : 1
    }
  }, {
    "id" : 924137,
    "metadata" : {
      "name" : "mID530054"
    },
    "depot" : 0,
    "location" : {
      "latitude" : 55750848,
      "longitude" : 37783448,
      "metadata" : { }
    },
    "pickupDuration" : 0,
    "serviceDuration" : 600000,
    "unloadDuration" : 0,
    "durationPerVisit" : 0,
    "priority" : 2,
    "jobType" : "DROP",
    "constraints" : {
      "demand" : {
        "values" : [ 20.0, 0.0, 0.0, 0.0 ]
      },
      "pickupTimeWindows" : [ {
        "startTime" : 1417741200000,
        "endTime" : 1417791600000
      } ],
      "timeWindowConstraints" : {
        "serviceTimeWindows" : [ {
          "startTime" : 1417752000000,
          "endTime" : 1417784280000
        } ],
        "timeWindowPolicy" : "COMPLETE_ORDER_WITHIN_TIME_WINDOW"
      },
      "attributes" : [ "AoC433" ],
      "incompatibleAttributes" : [ ],
      "stopSequence" : 1
    }
  }, {
    "id" : 924138,
    "metadata" : {
      "name" : "mID530055"
    },
    "depot" : 0,
    "location" : {
      "latitude" : 55796843,
      "longitude" : 37934418,
      "metadata" : { }
    },
    "pickupDuration" : 0,
    "serviceDuration" : 1200000,
    "unloadDuration" : 0,
    "durationPerVisit" : 0,
    "priority" : 2,
    "jobType" : "DROP",
    "constraints" : {
      "demand" : {
        "values" : [ 42.0, 0.0, 0.0, 0.0 ]
      },
      "pickupTimeWindows" : [ {
        "startTime" : 1417741200000,
        "endTime" : 1417791600000
      } ],
      "timeWindowConstraints" : {
        "serviceTimeWindows" : [ {
          "startTime" : 1417748400000,
          "endTime" : 1417809540000
        } ],
        "timeWindowPolicy" : "COMPLETE_ORDER_WITHIN_TIME_WINDOW"
      },
      "attributes" : [ "AoC433" ],
      "incompatibleAttributes" : [ ],
      "stopSequence" : 1
    }
  }, {
    "id" : 924139,
    "metadata" : {
      "name" : "mID530056"
    },
    "depot" : 0,
    "location" : {
      "latitude" : 55796663,
      "longitude" : 37933438,
      "metadata" : { }
    },
    "pickupDuration" : 0,
    "serviceDuration" : 1200000,
    "unloadDuration" : 0,
    "durationPerVisit" : 0,
    "priority" : 2,
    "jobType" : "DROP",
    "constraints" : {
      "demand" : {
        "values" : [ 25.0, 0.0, 0.0, 0.0 ]
      },
      "pickupTimeWindows" : [ {
        "startTime" : 1417741200000,
        "endTime" : 1417791600000
      } ],
      "timeWindowConstraints" : {
        "serviceTimeWindows" : [ {
          "startTime" : 1417755600000,
          "endTime" : 1417784280000
        } ],
        "timeWindowPolicy" : "COMPLETE_ORDER_WITHIN_TIME_WINDOW"
      },
      "attributes" : [ "AoC433" ],
      "incompatibleAttributes" : [ ],
      "stopSequence" : 1
    }
  }, {
    "id" : 924140,
    "metadata" : {
      "name" : "mID530058"
    },
    "depot" : 0,
    "location" : {
      "latitude" : 55747652,
      "longitude" : 37991694,
      "metadata" : { }
    },
    "pickupDuration" : 0,
    "serviceDuration" : 1200000,
    "unloadDuration" : 0,
    "durationPerVisit" : 0,
    "priority" : 2,
    "jobType" : "DROP",
    "constraints" : {
      "demand" : {
        "values" : [ 44.0, 0.0, 0.0, 0.0 ]
      },
      "pickupTimeWindows" : [ {
        "startTime" : 1417741200000,
        "endTime" : 1417791600000
      } ],
      "timeWindowConstraints" : {
        "serviceTimeWindows" : [ {
          "startTime" : 1417723200000,
          "endTime" : 1417809540000
        } ],
        "timeWindowPolicy" : "COMPLETE_ORDER_WITHIN_TIME_WINDOW"
      },
      "attributes" : [ "AoC433" ],
      "incompatibleAttributes" : [ ],
      "stopSequence" : 1
    }
  }, {
    "id" : 924141,
    "metadata" : {
      "name" : "mID530057"
    },
    "depot" : 0,
    "location" : {
      "latitude" : 55751379,
      "longitude" : 38012331,
      "metadata" : { }
    },
    "pickupDuration" : 0,
    "serviceDuration" : 1200000,
    "unloadDuration" : 0,
    "durationPerVisit" : 0,
    "priority" : 2,
    "jobType" : "DROP",
    "constraints" : {
      "demand" : {
        "values" : [ 31.0, 0.0, 0.0, 0.0 ]
      },
      "pickupTimeWindows" : [ {
        "startTime" : 1417741200000,
        "endTime" : 1417791600000
      } ],
      "timeWindowConstraints" : {
        "serviceTimeWindows" : [ {
          "startTime" : 1417759200000,
          "endTime" : 1417766400000
        } ],
        "timeWindowPolicy" : "COMPLETE_ORDER_WITHIN_TIME_WINDOW"
      },
      "attributes" : [ "{{{Territory(SchedulingZone)_ATTRIBUTE_PREFIX}}}_141", "AoC433" ],
      "incompatibleAttributes" : [ ],
      "stopSequence" : 1
    }
  }, {
    "id" : 924142,
    "metadata" : {
      "name" : "mID530101"
    },
    "depot" : 0,
    "location" : {
      "latitude" : 55633333,
      "longitude" : 37601421,
      "metadata" : { }
    },
    "pickupDuration" : 0,
    "serviceDuration" : 1200000,
    "unloadDuration" : 0,
    "durationPerVisit" : 0,
    "priority" : 2,
    "jobType" : "DROP",
    "constraints" : {
      "demand" : {
        "values" : [ 110.0, 0.0, 0.0, 0.0 ]
      },
      "pickupTimeWindows" : [ {
        "startTime" : 1417741200000,
        "endTime" : 1417791600000
      } ],
      "timeWindowConstraints" : {
        "serviceTimeWindows" : [ {
          "startTime" : 1417748400000,
          "endTime" : 1417753200000
        } ],
        "timeWindowPolicy" : "COMPLETE_ORDER_WITHIN_TIME_WINDOW"
      },
      "attributes" : [ "AoC433" ],
      "incompatibleAttributes" : [ ],
      "stopSequence" : 1
    }
  }, {
    "id" : 924143,
    "metadata" : {
      "name" : "mID530073"
    },
    "depot" : 0,
    "location" : {
      "latitude" : 55619335,
      "longitude" : 37609191,
      "metadata" : { }
    },
    "pickupDuration" : 0,
    "serviceDuration" : 1200000,
    "unloadDuration" : 0,
    "durationPerVisit" : 0,
    "priority" : 2,
    "jobType" : "DROP",
    "constraints" : {
      "demand" : {
        "values" : [ 30.0, 0.0, 0.0, 0.0 ]
      },
      "pickupTimeWindows" : [ {
        "startTime" : 1417741200000,
        "endTime" : 1417791600000
      } ],
      "timeWindowConstraints" : {
        "serviceTimeWindows" : [ {
          "startTime" : 1417746600000,
          "endTime" : 1417752000000
        } ],
        "timeWindowPolicy" : "COMPLETE_ORDER_WITHIN_TIME_WINDOW"
      },
      "attributes" : [ "AoC433" ],
      "incompatibleAttributes" : [ ],
      "stopSequence" : 1
    }
  }, {
    "id" : 924144,
    "metadata" : {
      "name" : "mID530085"
    },
    "depot" : 0,
    "location" : {
      "latitude" : 55570014,
      "longitude" : 37580643,
      "metadata" : { }
    },
    "pickupDuration" : 0,
    "serviceDuration" : 1800000,
    "unloadDuration" : 0,
    "durationPerVisit" : 0,
    "priority" : 2,
    "jobType" : "DROP",
    "constraints" : {
      "demand" : {
        "values" : [ 300.0, 0.0, 0.0, 0.0 ]
      },
      "pickupTimeWindows" : [ {
        "startTime" : 1417741200000,
        "endTime" : 1417791600000
      } ],
      "timeWindowConstraints" : {
        "serviceTimeWindows" : [ {
          "startTime" : 1417752000000,
          "endTime" : 1417753800000
        } ],
        "timeWindowPolicy" : "COMPLETE_ORDER_WITHIN_TIME_WINDOW"
      },
      "attributes" : [ "AoC433" ],
      "incompatibleAttributes" : [ ],
      "stopSequence" : 1
    }
  }, {
    "id" : 924145,
    "metadata" : {
      "name" : "mID530066"
    },
    "depot" : 0,
    "location" : {
      "latitude" : 55702170,
      "longitude" : 37565713,
      "metadata" : { }
    },
    "pickupDuration" : 0,
    "serviceDuration" : 900000,
    "unloadDuration" : 0,
    "durationPerVisit" : 0,
    "priority" : 2,
    "jobType" : "DROP",
    "constraints" : {
      "demand" : {
        "values" : [ 300.0, 0.0, 0.0, 0.0 ]
      },
      "pickupTimeWindows" : [ {
        "startTime" : 1417741200000,
        "endTime" : 1417791600000
      } ],
      "timeWindowConstraints" : {
        "serviceTimeWindows" : [ {
          "startTime" : 1417752000000,
          "endTime" : 1417766400000
        } ],
        "timeWindowPolicy" : "COMPLETE_ORDER_WITHIN_TIME_WINDOW"
      },
      "attributes" : [ "AoC433" ],
      "incompatibleAttributes" : [ ],
      "stopSequence" : 1
    }
  }, {
    "id" : 924146,
    "metadata" : {
      "name" : "mID530069"
    },
    "depot" : 0,
    "location" : {
      "latitude" : 55910542,
      "longitude" : 37396431,
      "metadata" : { }
    },
    "pickupDuration" : 0,
    "serviceDuration" : 1200000,
    "unloadDuration" : 0,
    "durationPerVisit" : 0,
    "priority" : 2,
    "jobType" : "DROP",
    "constraints" : {
      "demand" : {
        "values" : [ 58.0, 0.0, 0.0, 0.0 ]
      },
      "pickupTimeWindows" : [ {
        "startTime" : 1417741200000,
        "endTime" : 1417791600000
      } ],
      "timeWindowConstraints" : {
        "serviceTimeWindows" : [ {
          "startTime" : 1417755600000,
          "endTime" : 1417795200000
        } ],
        "timeWindowPolicy" : "COMPLETE_ORDER_WITHIN_TIME_WINDOW"
      },
      "attributes" : [ "AoC433" ],
      "incompatibleAttributes" : [ ],
      "stopSequence" : 1
    }
  }, {
    "id" : 924147,
    "metadata" : {
      "name" : "mID530070"
    },
    "depot" : 0,
    "location" : {
      "latitude" : 55875721,
      "longitude" : 37334826,
      "metadata" : { }
    },
    "pickupDuration" : 0,
    "serviceDuration" : 1200000,
    "unloadDuration" : 0,
    "durationPerVisit" : 0,
    "priority" : 2,
    "jobType" : "DROP",
    "constraints" : {
      "demand" : {
        "values" : [ 31.0, 0.0, 0.0, 0.0 ]
      },
      "pickupTimeWindows" : [ {
        "startTime" : 1417741200000,
        "endTime" : 1417791600000
      } ],
      "timeWindowConstraints" : {
        "serviceTimeWindows" : [ {
          "startTime" : 1417755600000,
          "endTime" : 1417784280000
        } ],
        "timeWindowPolicy" : "COMPLETE_ORDER_WITHIN_TIME_WINDOW"
      },
      "attributes" : [ "AoC433" ],
      "incompatibleAttributes" : [ ],
      "stopSequence" : 1
    }
  }, {
    "id" : 924148,
    "metadata" : {
      "name" : "mID530120"
    },
    "depot" : 0,
    "location" : {
      "latitude" : 55777353,
      "longitude" : 37580391,
      "metadata" : { }
    },
    "pickupDuration" : 0,
    "serviceDuration" : 1200000,
    "unloadDuration" : 0,
    "durationPerVisit" : 0,
    "priority" : 2,
    "jobType" : "DROP",
    "constraints" : {
      "demand" : {
        "values" : [ 63.0, 0.0, 0.0, 0.0 ]
      },
      "pickupTimeWindows" : [ {
        "startTime" : 1417741200000,
        "endTime" : 1417791600000
      } ],
      "timeWindowConstraints" : {
        "serviceTimeWindows" : [ {
          "startTime" : 1417752000000,
          "endTime" : 1417784280000
        } ],
        "timeWindowPolicy" : "COMPLETE_ORDER_WITHIN_TIME_WINDOW"
      },
      "attributes" : [ "{{{Territory(SchedulingZone)_ATTRIBUTE_PREFIX}}}_141", "AoC433" ],
      "incompatibleAttributes" : [ ],
      "stopSequence" : 1
    }
  }, {
    "id" : 924149,
    "metadata" : {
      "name" : "mID530072"
    },
    "depot" : 0,
    "location" : {
      "latitude" : 55723080,
      "longitude" : 37610215,
      "metadata" : { }
    },
    "pickupDuration" : 0,
    "serviceDuration" : 900000,
    "unloadDuration" : 0,
    "durationPerVisit" : 0,
    "priority" : 2,
    "jobType" : "DROP",
    "constraints" : {
      "demand" : {
        "values" : [ 41.0, 0.0, 0.0, 0.0 ]
      },
      "pickupTimeWindows" : [ {
        "startTime" : 1417741200000,
        "endTime" : 1417791600000
      } ],
      "timeWindowConstraints" : {
        "serviceTimeWindows" : [ {
          "startTime" : 1417723200000,
          "endTime" : 1417784280000
        } ],
        "timeWindowPolicy" : "COMPLETE_ORDER_WITHIN_TIME_WINDOW"
      },
      "attributes" : [ "{{{Territory(SchedulingZone)_ATTRIBUTE_PREFIX}}}_141", "AoC433" ],
      "incompatibleAttributes" : [ ],
      "stopSequence" : 1
    }
  }, {
    "id" : 924150,
    "metadata" : {
      "name" : "mID530112"
    },
    "depot" : 0,
    "location" : {
      "latitude" : 55757511,
      "longitude" : 37660808,
      "metadata" : { }
    },
    "pickupDuration" : 0,
    "serviceDuration" : 900000,
    "unloadDuration" : 0,
    "durationPerVisit" : 0,
    "priority" : 2,
    "jobType" : "DROP",
    "constraints" : {
      "demand" : {
        "values" : [ 28.0, 0.0, 0.0, 0.0 ]
      },
      "pickupTimeWindows" : [ {
        "startTime" : 1417741200000,
        "endTime" : 1417791600000
      } ],
      "timeWindowConstraints" : {
        "serviceTimeWindows" : [ {
          "startTime" : 1417723200000,
          "endTime" : 1417809540000
        } ],
        "timeWindowPolicy" : "COMPLETE_ORDER_WITHIN_TIME_WINDOW"
      },
      "attributes" : [ "{{{Territory(SchedulingZone)_ATTRIBUTE_PREFIX}}}_141", "AoC433" ],
      "incompatibleAttributes" : [ ],
      "stopSequence" : 1
    }
  }, {
    "id" : 924151,
    "metadata" : {
      "name" : "mID530115"
    },
    "depot" : 0,
    "location" : {
      "latitude" : 55790337,
      "longitude" : 37679826,
      "metadata" : { }
    },
    "pickupDuration" : 0,
    "serviceDuration" : 600000,
    "unloadDuration" : 0,
    "durationPerVisit" : 0,
    "priority" : 2,
    "jobType" : "DROP",
    "constraints" : {
      "demand" : {
        "values" : [ 22.0, 0.0, 0.0, 0.0 ]
      },
      "pickupTimeWindows" : [ {
        "startTime" : 1417741200000,
        "endTime" : 1417791600000
      } ],
      "timeWindowConstraints" : {
        "serviceTimeWindows" : [ {
          "startTime" : 1417752000000,
          "endTime" : 1417784280000
        } ],
        "timeWindowPolicy" : "COMPLETE_ORDER_WITHIN_TIME_WINDOW"
      },
      "attributes" : [ "AoC433" ],
      "incompatibleAttributes" : [ ],
      "stopSequence" : 1
    }
  }, {
    "id" : 924152,
    "metadata" : {
      "name" : "mID530079"
    },
    "depot" : 0,
    "location" : {
      "latitude" : 55795732,
      "longitude" : 37592060,
      "metadata" : { }
    },
    "pickupDuration" : 0,
    "serviceDuration" : 600000,
    "unloadDuration" : 0,
    "durationPerVisit" : 0,
    "priority" : 2,
    "jobType" : "DROP",
    "constraints" : {
      "demand" : {
        "values" : [ 30.0, 0.0, 0.0, 0.0 ]
      },
      "pickupTimeWindows" : [ {
        "startTime" : 1417741200000,
        "endTime" : 1417791600000
      } ],
      "timeWindowConstraints" : {
        "serviceTimeWindows" : [ {
          "startTime" : 1417755600000,
          "endTime" : 1417764600000
        } ],
        "timeWindowPolicy" : "COMPLETE_ORDER_WITHIN_TIME_WINDOW"
      },
      "attributes" : [ "AoC433" ],
      "incompatibleAttributes" : [ ],
      "stopSequence" : 1
    }
  }, {
    "id" : 924153,
    "metadata" : {
      "name" : "mID530080"
    },
    "depot" : 0,
    "location" : {
      "latitude" : 55792620,
      "longitude" : 37583203,
      "metadata" : { }
    },
    "pickupDuration" : 0,
    "serviceDuration" : 600000,
    "unloadDuration" : 0,
    "durationPerVisit" : 0,
    "priority" : 2,
    "jobType" : "DROP",
    "constraints" : {
      "demand" : {
        "values" : [ 37.0, 0.0, 0.0, 0.0 ]
      },
      "pickupTimeWindows" : [ {
        "startTime" : 1417741200000,
        "endTime" : 1417791600000
      } ],
      "timeWindowConstraints" : {
        "serviceTimeWindows" : [ {
          "startTime" : 1417723200000,
          "endTime" : 1417809480000
        } ],
        "timeWindowPolicy" : "COMPLETE_ORDER_WITHIN_TIME_WINDOW"
      },
      "attributes" : [ "AoC433" ],
      "incompatibleAttributes" : [ ],
      "stopSequence" : 1
    }
  }, {
    "id" : 924154,
    "metadata" : {
      "name" : "mID530081"
    },
    "depot" : 0,
    "location" : {
      "latitude" : 55801263,
      "longitude" : 37586212,
      "metadata" : { }
    },
    "pickupDuration" : 0,
    "serviceDuration" : 600000,
    "unloadDuration" : 0,
    "durationPerVisit" : 0,
    "priority" : 2,
    "jobType" : "DROP",
    "constraints" : {
      "demand" : {
        "values" : [ 35.0, 0.0, 0.0, 0.0 ]
      },
      "pickupTimeWindows" : [ {
        "startTime" : 1417741200000,
        "endTime" : 1417791600000
      } ],
      "timeWindowConstraints" : {
        "serviceTimeWindows" : [ {
          "startTime" : 1417752000000,
          "endTime" : 1417795200000
        } ],
        "timeWindowPolicy" : "COMPLETE_ORDER_WITHIN_TIME_WINDOW"
      },
      "attributes" : [ "AoC433" ],
      "incompatibleAttributes" : [ ],
      "stopSequence" : 1
    }
  }, {
    "id" : 924155,
    "metadata" : {
      "name" : "mID530082"
    },
    "depot" : 0,
    "location" : {
      "latitude" : 55807972,
      "longitude" : 37579798,
      "metadata" : { }
    },
    "pickupDuration" : 0,
    "serviceDuration" : 600000,
    "unloadDuration" : 0,
    "durationPerVisit" : 0,
    "priority" : 2,
    "jobType" : "DROP",
    "constraints" : {
      "demand" : {
        "values" : [ 60.0, 0.0, 0.0, 0.0 ]
      },
      "pickupTimeWindows" : [ {
        "startTime" : 1417741200000,
        "endTime" : 1417791600000
      } ],
      "timeWindowConstraints" : {
        "serviceTimeWindows" : [ {
          "startTime" : 1417723200000,
          "endTime" : 1417809540000
        } ],
        "timeWindowPolicy" : "COMPLETE_ORDER_WITHIN_TIME_WINDOW"
      },
      "attributes" : [ "AoC433" ],
      "incompatibleAttributes" : [ ],
      "stopSequence" : 1
    }
  }, {
    "id" : 924156,
    "metadata" : {
      "name" : "mID530116"
    },
    "depot" : 0,
    "location" : {
      "latitude" : 55846133,
      "longitude" : 37662596,
      "metadata" : { }
    },
    "pickupDuration" : 0,
    "serviceDuration" : 1200000,
    "unloadDuration" : 0,
    "durationPerVisit" : 0,
    "priority" : 2,
    "jobType" : "DROP",
    "constraints" : {
      "demand" : {
        "values" : [ 40.0, 0.0, 0.0, 0.0 ]
      },
      "pickupTimeWindows" : [ {
        "startTime" : 1417741200000,
        "endTime" : 1417791600000
      } ],
      "timeWindowConstraints" : {
        "serviceTimeWindows" : [ {
          "startTime" : 1417758300000,
          "endTime" : 1417784280000
        } ],
        "timeWindowPolicy" : "COMPLETE_ORDER_WITHIN_TIME_WINDOW"
      },
      "attributes" : [ "AoC433" ],
      "incompatibleAttributes" : [ ],
      "stopSequence" : 1
    }
  }, {
    "id" : 924157,
    "metadata" : {
      "name" : "mID530114"
    },
    "depot" : 0,
    "location" : {
      "latitude" : 55775019,
      "longitude" : 37657098,
      "metadata" : { }
    },
    "pickupDuration" : 0,
    "serviceDuration" : 1200000,
    "unloadDuration" : 0,
    "durationPerVisit" : 0,
    "priority" : 2,
    "jobType" : "DROP",
    "constraints" : {
      "demand" : {
        "values" : [ 48.0, 0.0, 0.0, 0.0 ]
      },
      "pickupTimeWindows" : [ {
        "startTime" : 1417741200000,
        "endTime" : 1417791600000
      } ],
      "timeWindowConstraints" : {
        "serviceTimeWindows" : [ {
          "startTime" : 1417723200000,
          "endTime" : 1417809540000
        } ],
        "timeWindowPolicy" : "COMPLETE_ORDER_WITHIN_TIME_WINDOW"
      },
      "attributes" : [ "{{{Territory(SchedulingZone)_ATTRIBUTE_PREFIX}}}_141", "AoC433" ],
      "incompatibleAttributes" : [ ],
      "stopSequence" : 1
    }
  }, {
    "id" : 924158,
    "metadata" : {
      "name" : "mID530091"
    },
    "depot" : 0,
    "location" : {
      "latitude" : 55600084,
      "longitude" : 37719917,
      "metadata" : { }
    },
    "pickupDuration" : 0,
    "serviceDuration" : 1200000,
    "unloadDuration" : 0,
    "durationPerVisit" : 0,
    "priority" : 2,
    "jobType" : "DROP",
    "constraints" : {
      "demand" : {
        "values" : [ 80.0, 0.0, 0.0, 0.0 ]
      },
      "pickupTimeWindows" : [ {
        "startTime" : 1417741200000,
        "endTime" : 1417791600000
      } ],
      "timeWindowConstraints" : {
        "serviceTimeWindows" : [ {
          "startTime" : 1417755600000,
          "endTime" : 1417784280000
        } ],
        "timeWindowPolicy" : "COMPLETE_ORDER_WITHIN_TIME_WINDOW"
      },
      "attributes" : [ "AoC433" ],
      "incompatibleAttributes" : [ ],
      "stopSequence" : 1
    }
  }, {
    "id" : 924159,
    "metadata" : {
      "name" : "mID530090"
    },
    "depot" : 0,
    "location" : {
      "latitude" : 55586265,
      "longitude" : 37724798,
      "metadata" : { }
    },
    "pickupDuration" : 0,
    "serviceDuration" : 900000,
    "unloadDuration" : 0,
    "durationPerVisit" : 0,
    "priority" : 2,
    "jobType" : "DROP",
    "constraints" : {
      "demand" : {
        "values" : [ 32.0, 0.0, 0.0, 0.0 ]
      },
      "pickupTimeWindows" : [ {
        "startTime" : 1417741200000,
        "endTime" : 1417791600000
      } ],
      "timeWindowConstraints" : {
        "serviceTimeWindows" : [ {
          "startTime" : 1417759200000,
          "endTime" : 1417784280000
        } ],
        "timeWindowPolicy" : "COMPLETE_ORDER_WITHIN_TIME_WINDOW"
      },
      "attributes" : [ "AoC433" ],
      "incompatibleAttributes" : [ ],
      "stopSequence" : 1
    }
  }, {
    "id" : 924160,
    "metadata" : {
      "name" : "mID530111"
    },
    "depot" : 0,
    "location" : {
      "latitude" : 55637423,
      "longitude" : 37595213,
      "metadata" : { }
    },
    "pickupDuration" : 0,
    "serviceDuration" : 1200000,
    "unloadDuration" : 0,
    "durationPerVisit" : 0,
    "priority" : 2,
    "jobType" : "DROP",
    "constraints" : {
      "demand" : {
        "values" : [ 70.0, 0.0, 0.0, 0.0 ]
      },
      "pickupTimeWindows" : [ {
        "startTime" : 1417741200000,
        "endTime" : 1417791600000
      } ],
      "timeWindowConstraints" : {
        "serviceTimeWindows" : [ {
          "startTime" : 1417752000000,
          "endTime" : 1417755600000
        } ],
        "timeWindowPolicy" : "COMPLETE_ORDER_WITHIN_TIME_WINDOW"
      },
      "attributes" : [ "AoC433" ],
      "incompatibleAttributes" : [ ],
      "stopSequence" : 1
    }
  }, {
    "id" : 924161,
    "metadata" : {
      "name" : "mID530094"
    },
    "depot" : 0,
    "location" : {
      "latitude" : 55681732,
      "longitude" : 37566153,
      "metadata" : { }
    },
    "pickupDuration" : 0,
    "serviceDuration" : 600000,
    "unloadDuration" : 0,
    "durationPerVisit" : 0,
    "priority" : 2,
    "jobType" : "DROP",
    "constraints" : {
      "demand" : {
        "values" : [ 23.0, 0.0, 0.0, 0.0 ]
      },
      "pickupTimeWindows" : [ {
        "startTime" : 1417741200000,
        "endTime" : 1417791600000
      } ],
      "timeWindowConstraints" : {
        "serviceTimeWindows" : [ {
          "startTime" : 1417752000000,
          "endTime" : 1417784280000
        } ],
        "timeWindowPolicy" : "COMPLETE_ORDER_WITHIN_TIME_WINDOW"
      },
      "attributes" : [ "AoC433" ],
      "incompatibleAttributes" : [ ],
      "stopSequence" : 1
    }
  }, {
    "id" : 924162,
    "metadata" : {
      "name" : "mID530096"
    },
    "depot" : 0,
    "location" : {
      "latitude" : 55704657,
      "longitude" : 37573259,
      "metadata" : { }
    },
    "pickupDuration" : 0,
    "serviceDuration" : 1800000,
    "unloadDuration" : 0,
    "durationPerVisit" : 0,
    "priority" : 2,
    "jobType" : "DROP",
    "constraints" : {
      "demand" : {
        "values" : [ 118.0, 0.0, 0.0, 0.0 ]
      },
      "pickupTimeWindows" : [ {
        "startTime" : 1417741200000,
        "endTime" : 1417791600000
      } ],
      "timeWindowConstraints" : {
        "serviceTimeWindows" : [ {
          "startTime" : 1417753200000,
          "endTime" : 1417759200000
        } ],
        "timeWindowPolicy" : "COMPLETE_ORDER_WITHIN_TIME_WINDOW"
      },
      "attributes" : [ "AoC433" ],
      "incompatibleAttributes" : [ ],
      "stopSequence" : 1
    }
  }, {
    "id" : 924163,
    "metadata" : {
      "name" : "mID530113"
    },
    "depot" : 0,
    "location" : {
      "latitude" : 55768881,
      "longitude" : 37651601,
      "metadata" : { }
    },
    "pickupDuration" : 0,
    "serviceDuration" : 1200000,
    "unloadDuration" : 0,
    "durationPerVisit" : 0,
    "priority" : 2,
    "jobType" : "DROP",
    "constraints" : {
      "demand" : {
        "values" : [ 40.0, 0.0, 0.0, 0.0 ]
      },
      "pickupTimeWindows" : [ {
        "startTime" : 1417741200000,
        "endTime" : 1417791600000
      } ],
      "timeWindowConstraints" : {
        "serviceTimeWindows" : [ {
          "startTime" : 1417752120000,
          "endTime" : 1417784280000
        } ],
        "timeWindowPolicy" : "COMPLETE_ORDER_WITHIN_TIME_WINDOW"
      },
      "attributes" : [ "{{{Territory(SchedulingZone)_ATTRIBUTE_PREFIX}}}_141", "AoC433" ],
      "incompatibleAttributes" : [ ],
      "stopSequence" : 1
    }
  }, {
    "id" : 924164,
    "metadata" : {
      "name" : "mID530098"
    },
    "depot" : 0,
    "location" : {
      "latitude" : 55745029,
      "longitude" : 37515581,
      "metadata" : { }
    },
    "pickupDuration" : 0,
    "serviceDuration" : 1200000,
    "unloadDuration" : 0,
    "durationPerVisit" : 0,
    "priority" : 2,
    "jobType" : "DROP",
    "constraints" : {
      "demand" : {
        "values" : [ 30.0, 0.0, 0.0, 0.0 ]
      },
      "pickupTimeWindows" : [ {
        "startTime" : 1417741200000,
        "endTime" : 1417791600000
      } ],
      "timeWindowConstraints" : {
        "serviceTimeWindows" : [ {
          "startTime" : 1417759200000,
          "endTime" : 1417784280000
        } ],
        "timeWindowPolicy" : "COMPLETE_ORDER_WITHIN_TIME_WINDOW"
      },
      "attributes" : [ "AoC433" ],
      "incompatibleAttributes" : [ ],
      "stopSequence" : 1
    }
  }, {
    "id" : 924165,
    "metadata" : {
      "name" : "mID530107"
    },
    "depot" : 0,
    "location" : {
      "latitude" : 55689629,
      "longitude" : 37473626,
      "metadata" : { }
    },
    "pickupDuration" : 0,
    "serviceDuration" : 900000,
    "unloadDuration" : 0,
    "durationPerVisit" : 0,
    "priority" : 2,
    "jobType" : "DROP",
    "constraints" : {
      "demand" : {
        "values" : [ 22.0, 0.0, 0.0, 0.0 ]
      },
      "pickupTimeWindows" : [ {
        "startTime" : 1417741200000,
        "endTime" : 1417791600000
      } ],
      "timeWindowConstraints" : {
        "serviceTimeWindows" : [ {
          "startTime" : 1417755600000,
          "endTime" : 1417784280000
        } ],
        "timeWindowPolicy" : "COMPLETE_ORDER_WITHIN_TIME_WINDOW"
      },
      "attributes" : [ "AoC433" ],
      "incompatibleAttributes" : [ ],
      "stopSequence" : 1
    }
  }, {
    "id" : 924166,
    "metadata" : {
      "name" : "mID530108"
    },
    "depot" : 0,
    "location" : {
      "latitude" : 55653462,
      "longitude" : 37501645,
      "metadata" : { }
    },
    "pickupDuration" : 0,
    "serviceDuration" : 600000,
    "unloadDuration" : 0,
    "durationPerVisit" : 0,
    "priority" : 2,
    "jobType" : "DROP",
    "constraints" : {
      "demand" : {
        "values" : [ 29.0, 0.0, 0.0, 0.0 ]
      },
      "pickupTimeWindows" : [ {
        "startTime" : 1417741200000,
        "endTime" : 1417791600000
      } ],
      "timeWindowConstraints" : {
        "serviceTimeWindows" : [ {
          "startTime" : 1417723200000,
          "endTime" : 1417809540000
        } ],
        "timeWindowPolicy" : "COMPLETE_ORDER_WITHIN_TIME_WINDOW"
      },
      "attributes" : [ "AoC433" ],
      "incompatibleAttributes" : [ ],
      "stopSequence" : 1
    }
  }, {
    "id" : 924167,
    "metadata" : {
      "name" : "mID530099"
    },
    "depot" : 0,
    "location" : {
      "latitude" : 55643856,
      "longitude" : 37499920,
      "metadata" : { }
    },
    "pickupDuration" : 0,
    "serviceDuration" : 900000,
    "unloadDuration" : 0,
    "durationPerVisit" : 0,
    "priority" : 2,
    "jobType" : "DROP",
    "constraints" : {
      "demand" : {
        "values" : [ 130.0, 0.0, 0.0, 0.0 ]
      },
      "pickupTimeWindows" : [ {
        "startTime" : 1417741200000,
        "endTime" : 1417791600000
      } ],
      "timeWindowConstraints" : {
        "serviceTimeWindows" : [ {
          "startTime" : 1417757400000,
          "endTime" : 1417770000000
        } ],
        "timeWindowPolicy" : "COMPLETE_ORDER_WITHIN_TIME_WINDOW"
      },
      "attributes" : [ "AoC433" ],
      "incompatibleAttributes" : [ ],
      "stopSequence" : 1
    }
  }, {
    "id" : 924168,
    "metadata" : {
      "name" : "mID530109"
    },
    "depot" : 0,
    "location" : {
      "latitude" : 55627244,
      "longitude" : 37621211,
      "metadata" : { }
    },
    "pickupDuration" : 0,
    "serviceDuration" : 1200000,
    "unloadDuration" : 0,
    "durationPerVisit" : 0,
    "priority" : 2,
    "jobType" : "DROP",
    "constraints" : {
      "demand" : {
        "values" : [ 105.0, 0.0, 0.0, 0.0 ]
      },
      "pickupTimeWindows" : [ {
        "startTime" : 1417741200000,
        "endTime" : 1417791600000
      } ],
      "timeWindowConstraints" : {
        "serviceTimeWindows" : [ {
          "startTime" : 1417744800000,
          "endTime" : 1417746600000
        } ],
        "timeWindowPolicy" : "COMPLETE_ORDER_WITHIN_TIME_WINDOW"
      },
      "attributes" : [ "AoC433" ],
      "incompatibleAttributes" : [ ],
      "stopSequence" : 1
    }
  }, {
    "id" : 924169,
    "metadata" : {
      "name" : "mID530051"
    },
    "depot" : 0,
    "location" : {
      "latitude" : 55624724,
      "longitude" : 37617211,
      "metadata" : { }
    },
    "pickupDuration" : 0,
    "serviceDuration" : 1200000,
    "unloadDuration" : 0,
    "durationPerVisit" : 0,
    "priority" : 2,
    "jobType" : "DROP",
    "constraints" : {
      "demand" : {
        "values" : [ 75.0, 0.0, 0.0, 0.0 ]
      },
      "pickupTimeWindows" : [ {
        "startTime" : 1417741200000,
        "endTime" : 1417791600000
      } ],
      "timeWindowConstraints" : {
        "serviceTimeWindows" : [ {
          "startTime" : 1417745700000,
          "endTime" : 1417748400000
        } ],
        "timeWindowPolicy" : "COMPLETE_ORDER_WITHIN_TIME_WINDOW"
      },
      "attributes" : [ "AoC433" ],
      "incompatibleAttributes" : [ ],
      "stopSequence" : 1
    }
  }, {
    "id" : 924170,
    "metadata" : {
      "name" : "mID530084"
    },
    "depot" : 0,
    "location" : {
      "latitude" : 55553739,
      "longitude" : 37558866,
      "metadata" : { }
    },
    "pickupDuration" : 0,
    "serviceDuration" : 600000,
    "unloadDuration" : 0,
    "durationPerVisit" : 0,
    "priority" : 2,
    "jobType" : "DROP",
    "constraints" : {
      "demand" : {
        "values" : [ 20.0, 0.0, 0.0, 0.0 ]
      },
      "pickupTimeWindows" : [ {
        "startTime" : 1417741200000,
        "endTime" : 1417791600000
      } ],
      "timeWindowConstraints" : {
        "serviceTimeWindows" : [ {
          "startTime" : 1417723200000,
          "endTime" : 1417809540000
        } ],
        "timeWindowPolicy" : "COMPLETE_ORDER_WITHIN_TIME_WINDOW"
      },
      "attributes" : [ "AoC433" ],
      "incompatibleAttributes" : [ ],
      "stopSequence" : 1
    }
  }, {
    "id" : 924171,
    "metadata" : {
      "name" : "mID530086"
    },
    "depot" : 0,
    "location" : {
      "latitude" : 55566313,
      "longitude" : 37571929,
      "metadata" : { }
    },
    "pickupDuration" : 0,
    "serviceDuration" : 900000,
    "unloadDuration" : 0,
    "durationPerVisit" : 0,
    "priority" : 2,
    "jobType" : "DROP",
    "constraints" : {
      "demand" : {
        "values" : [ 60.0, 0.0, 0.0, 0.0 ]
      },
      "pickupTimeWindows" : [ {
        "startTime" : 1417741200000,
        "endTime" : 1417791600000
      } ],
      "timeWindowConstraints" : {
        "serviceTimeWindows" : [ {
          "startTime" : 1417753800000,
          "endTime" : 1417761000000
        } ],
        "timeWindowPolicy" : "COMPLETE_ORDER_WITHIN_TIME_WINDOW"
      },
      "attributes" : [ "AoC433" ],
      "incompatibleAttributes" : [ ],
      "stopSequence" : 1
    }
  }, {
    "id" : 924172,
    "metadata" : {
      "name" : "mID530089"
    },
    "depot" : 0,
    "location" : {
      "latitude" : 55472822,
      "longitude" : 37747460,
      "metadata" : { }
    },
    "pickupDuration" : 0,
    "serviceDuration" : 1200000,
    "unloadDuration" : 0,
    "durationPerVisit" : 0,
    "priority" : 2,
    "jobType" : "DROP",
    "constraints" : {
      "demand" : {
        "values" : [ 160.0, 0.0, 0.0, 0.0 ]
      },
      "pickupTimeWindows" : [ {
        "startTime" : 1417741200000,
        "endTime" : 1417791600000
      } ],
      "timeWindowConstraints" : {
        "serviceTimeWindows" : [ {
          "startTime" : 1417752000000,
          "endTime" : 1417784280000
        } ],
        "timeWindowPolicy" : "COMPLETE_ORDER_WITHIN_TIME_WINDOW"
      },
      "attributes" : [ "AoC433" ],
      "incompatibleAttributes" : [ ],
      "stopSequence" : 1
    }
  }, {
    "id" : 924173,
    "metadata" : {
      "name" : "mID530059"
    },
    "depot" : 0,
    "location" : {
      "latitude" : 55669432,
      "longitude" : 37952518,
      "metadata" : { }
    },
    "pickupDuration" : 0,
    "serviceDuration" : 1200000,
    "unloadDuration" : 0,
    "durationPerVisit" : 0,
    "priority" : 2,
    "jobType" : "DROP",
    "constraints" : {
      "demand" : {
        "values" : [ 20.0, 0.0, 0.0, 0.0 ]
      },
      "pickupTimeWindows" : [ {
        "startTime" : 1417741200000,
        "endTime" : 1417791600000
      } ],
      "timeWindowConstraints" : {
        "serviceTimeWindows" : [ {
          "startTime" : 1417759200000,
          "endTime" : 1417784280000
        } ],
        "timeWindowPolicy" : "COMPLETE_ORDER_WITHIN_TIME_WINDOW"
      },
      "attributes" : [ "AoC433" ],
      "incompatibleAttributes" : [ ],
      "stopSequence" : 1
    }
  }, {
    "id" : 924174,
    "metadata" : {
      "name" : "mID530060"
    },
    "depot" : 0,
    "location" : {
      "latitude" : 55714116,
      "longitude" : 37815521,
      "metadata" : { }
    },
    "pickupDuration" : 0,
    "serviceDuration" : 1200000,
    "unloadDuration" : 0,
    "durationPerVisit" : 0,
    "priority" : 2,
    "jobType" : "DROP",
    "constraints" : {
      "demand" : {
        "values" : [ 45.0, 0.0, 0.0, 0.0 ]
      },
      "pickupTimeWindows" : [ {
        "startTime" : 1417741200000,
        "endTime" : 1417791600000
      } ],
      "timeWindowConstraints" : {
        "serviceTimeWindows" : [ {
          "startTime" : 1417755600000,
          "endTime" : 1417777200000
        } ],
        "timeWindowPolicy" : "COMPLETE_ORDER_WITHIN_TIME_WINDOW"
      },
      "attributes" : [ "AoC433" ],
      "incompatibleAttributes" : [ ],
      "stopSequence" : 1
    }
  }, {
    "id" : 924175,
    "metadata" : {
      "name" : "mID530061"
    },
    "depot" : 0,
    "location" : {
      "latitude" : 55711706,
      "longitude" : 37796283,
      "metadata" : { }
    },
    "pickupDuration" : 0,
    "serviceDuration" : 1800000,
    "unloadDuration" : 0,
    "durationPerVisit" : 0,
    "priority" : 2,
    "jobType" : "DROP",
    "constraints" : {
      "demand" : {
        "values" : [ 20.0, 0.0, 0.0, 0.0 ]
      },
      "pickupTimeWindows" : [ {
        "startTime" : 1417741200000,
        "endTime" : 1417791600000
      } ],
      "timeWindowConstraints" : {
        "serviceTimeWindows" : [ {
          "startTime" : 1417753800000,
          "endTime" : 1417777200000
        } ],
        "timeWindowPolicy" : "COMPLETE_ORDER_WITHIN_TIME_WINDOW"
      },
      "attributes" : [ "AoC433" ],
      "incompatibleAttributes" : [ ],
      "stopSequence" : 1
    }
  }, {
    "id" : 924176,
    "metadata" : {
      "name" : "mID530063"
    },
    "depot" : 0,
    "location" : {
      "latitude" : 55660379,
      "longitude" : 37583769,
      "metadata" : { }
    },
    "pickupDuration" : 0,
    "serviceDuration" : 1200000,
    "unloadDuration" : 0,
    "durationPerVisit" : 0,
    "priority" : 2,
    "jobType" : "DROP",
    "constraints" : {
      "demand" : {
        "values" : [ 85.0, 0.0, 0.0, 0.0 ]
      },
      "pickupTimeWindows" : [ {
        "startTime" : 1417741200000,
        "endTime" : 1417791600000
      } ],
      "timeWindowConstraints" : {
        "serviceTimeWindows" : [ {
          "startTime" : 1417723200000,
          "endTime" : 1417755600000
        } ],
        "timeWindowPolicy" : "COMPLETE_ORDER_WITHIN_TIME_WINDOW"
      },
      "attributes" : [ "AoC433" ],
      "incompatibleAttributes" : [ ],
      "stopSequence" : 1
    }
  }, {
    "id" : 924177,
    "metadata" : {
      "name" : "mID530064"
    },
    "depot" : 0,
    "location" : {
      "latitude" : 55661600,
      "longitude" : 37577392,
      "metadata" : { }
    },
    "pickupDuration" : 0,
    "serviceDuration" : 900000,
    "unloadDuration" : 0,
    "durationPerVisit" : 0,
    "priority" : 2,
    "jobType" : "DROP",
    "constraints" : {
      "demand" : {
        "values" : [ 65.0, 0.0, 0.0, 0.0 ]
      },
      "pickupTimeWindows" : [ {
        "startTime" : 1417741200000,
        "endTime" : 1417791600000
      } ],
      "timeWindowConstraints" : {
        "serviceTimeWindows" : [ {
          "startTime" : 1417723200000,
          "endTime" : 1417809540000
        } ],
        "timeWindowPolicy" : "COMPLETE_ORDER_WITHIN_TIME_WINDOW"
      },
      "attributes" : [ "AoC433" ],
      "incompatibleAttributes" : [ ],
      "stopSequence" : 1
    }
  }, {
    "id" : 924178,
    "metadata" : {
      "name" : "mID530104"
    },
    "depot" : 0,
    "location" : {
      "latitude" : 55554640,
      "longitude" : 37432730,
      "metadata" : { }
    },
    "pickupDuration" : 0,
    "serviceDuration" : 900000,
    "unloadDuration" : 0,
    "durationPerVisit" : 0,
    "priority" : 2,
    "jobType" : "DROP",
    "constraints" : {
      "demand" : {
        "values" : [ 52.0, 0.0, 0.0, 0.0 ]
      },
      "pickupTimeWindows" : [ {
        "startTime" : 1417741200000,
        "endTime" : 1417791600000
      } ],
      "timeWindowConstraints" : {
        "serviceTimeWindows" : [ {
          "startTime" : 1417750200000,
          "endTime" : 1417762800000
        } ],
        "timeWindowPolicy" : "COMPLETE_ORDER_WITHIN_TIME_WINDOW"
      },
      "attributes" : [ "AoC433" ],
      "incompatibleAttributes" : [ ],
      "stopSequence" : 1
    }
  }, {
    "id" : 924179,
    "metadata" : {
      "name" : "mID530106"
    },
    "depot" : 0,
    "location" : {
      "latitude" : 55605439,
      "longitude" : 37286732,
      "metadata" : { }
    },
    "pickupDuration" : 0,
    "serviceDuration" : 900000,
    "unloadDuration" : 0,
    "durationPerVisit" : 0,
    "priority" : 2,
    "jobType" : "DROP",
    "constraints" : {
      "demand" : {
        "values" : [ 24.0, 0.0, 0.0, 0.0 ]
      },
      "pickupTimeWindows" : [ {
        "startTime" : 1417741200000,
        "endTime" : 1417791600000
      } ],
      "timeWindowConstraints" : {
        "serviceTimeWindows" : [ {
          "startTime" : 1417755600000,
          "endTime" : 1417784280000
        } ],
        "timeWindowPolicy" : "COMPLETE_ORDER_WITHIN_TIME_WINDOW"
      },
      "attributes" : [ "AoC433" ],
      "incompatibleAttributes" : [ ],
      "stopSequence" : 1
    }
  }, {
    "id" : 924180,
    "metadata" : {
      "name" : "mID530105"
    },
    "depot" : 0,
    "location" : {
      "latitude" : 55602342,
      "longitude" : 36995709,
      "metadata" : { }
    },
    "pickupDuration" : 0,
    "serviceDuration" : 1200000,
    "unloadDuration" : 0,
    "durationPerVisit" : 0,
    "priority" : 2,
    "jobType" : "DROP",
    "constraints" : {
      "demand" : {
        "values" : [ 84.0, 0.0, 0.0, 0.0 ]
      },
      "pickupTimeWindows" : [ {
        "startTime" : 1417741200000,
        "endTime" : 1417791600000
      } ],
      "timeWindowConstraints" : {
        "serviceTimeWindows" : [ {
          "startTime" : 1417723200000,
          "endTime" : 1417809540000
        } ],
        "timeWindowPolicy" : "COMPLETE_ORDER_WITHIN_TIME_WINDOW"
      },
      "attributes" : [ "AoC433" ],
      "incompatibleAttributes" : [ ],
      "stopSequence" : 1
    }
  }, {
    "id" : 924181,
    "metadata" : {
      "name" : "mID530097"
    },
    "depot" : 0,
    "location" : {
      "latitude" : 55742245,
      "longitude" : 37501851,
      "metadata" : { }
    },
    "pickupDuration" : 0,
    "serviceDuration" : 1200000,
    "unloadDuration" : 0,
    "durationPerVisit" : 0,
    "priority" : 2,
    "jobType" : "DROP",
    "constraints" : {
      "demand" : {
        "values" : [ 46.0, 0.0, 0.0, 0.0 ]
      },
      "pickupTimeWindows" : [ {
        "startTime" : 1417741200000,
        "endTime" : 1417791600000
      } ],
      "timeWindowConstraints" : {
        "serviceTimeWindows" : [ {
          "startTime" : 1417759200000,
          "endTime" : 1417784280000
        } ],
        "timeWindowPolicy" : "COMPLETE_ORDER_WITHIN_TIME_WINDOW"
      },
      "attributes" : [ "AoC433" ],
      "incompatibleAttributes" : [ ],
      "stopSequence" : 1
    }
  }, {
    "id" : 924182,
    "metadata" : {
      "name" : "mID530083"
    },
    "depot" : 0,
    "location" : {
      "latitude" : 55790094,
      "longitude" : 37595878,
      "metadata" : { }
    },
    "pickupDuration" : 0,
    "serviceDuration" : 1200000,
    "unloadDuration" : 0,
    "durationPerVisit" : 0,
    "priority" : 2,
    "jobType" : "DROP",
    "constraints" : {
      "demand" : {
        "values" : [ 27.0, 0.0, 0.0, 0.0 ]
      },
      "pickupTimeWindows" : [ {
        "startTime" : 1417741200000,
        "endTime" : 1417791600000
      } ],
      "timeWindowConstraints" : {
        "serviceTimeWindows" : [ {
          "startTime" : 1417762800000,
          "endTime" : 1417795080000
        } ],
        "timeWindowPolicy" : "COMPLETE_ORDER_WITHIN_TIME_WINDOW"
      },
      "attributes" : [ "{{{Territory(SchedulingZone)_ATTRIBUTE_PREFIX}}}_141", "AoC433" ],
      "incompatibleAttributes" : [ ],
      "stopSequence" : 1
    }
  }, {
    "id" : 924183,
    "metadata" : {
      "name" : "mID530103"
    },
    "depot" : 0,
    "location" : {
      "latitude" : 55633013,
      "longitude" : 37521560,
      "metadata" : { }
    },
    "pickupDuration" : 0,
    "serviceDuration" : 600000,
    "unloadDuration" : 0,
    "durationPerVisit" : 0,
    "priority" : 2,
    "jobType" : "DROP",
    "constraints" : {
      "demand" : {
        "values" : [ 40.0, 0.0, 0.0, 0.0 ]
      },
      "pickupTimeWindows" : [ {
        "startTime" : 1417741200000,
        "endTime" : 1417791600000
      } ],
      "timeWindowConstraints" : {
        "serviceTimeWindows" : [ {
          "startTime" : 1417723200000,
          "endTime" : 1417784280000
        } ],
        "timeWindowPolicy" : "COMPLETE_ORDER_WITHIN_TIME_WINDOW"
      },
      "attributes" : [ "AoC433" ],
      "incompatibleAttributes" : [ ],
      "stopSequence" : 1
    }
  }, {
    "id" : 924184,
    "metadata" : {
      "name" : "mID530102"
    },
    "depot" : 0,
    "location" : {
      "latitude" : 55647255,
      "longitude" : 37543719,
      "metadata" : { }
    },
    "pickupDuration" : 0,
    "serviceDuration" : 1200000,
    "unloadDuration" : 0,
    "durationPerVisit" : 0,
    "priority" : 2,
    "jobType" : "DROP",
    "constraints" : {
      "demand" : {
        "values" : [ 100.0, 0.0, 0.0, 0.0 ]
      },
      "pickupTimeWindows" : [ {
        "startTime" : 1417741200000,
        "endTime" : 1417791600000
      } ],
      "timeWindowConstraints" : {
        "serviceTimeWindows" : [ {
          "startTime" : 1417749300000,
          "endTime" : 1417752000000
        } ],
        "timeWindowPolicy" : "COMPLETE_ORDER_WITHIN_TIME_WINDOW"
      },
      "attributes" : [ "AoC433" ],
      "incompatibleAttributes" : [ ],
      "stopSequence" : 1
    }
  }, {
    "id" : 924185,
    "metadata" : {
      "name" : "mID530067"
    },
    "depot" : 0,
    "location" : {
      "latitude" : 55793526,
      "longitude" : 37492841,
      "metadata" : { }
    },
    "pickupDuration" : 0,
    "serviceDuration" : 900000,
    "unloadDuration" : 0,
    "durationPerVisit" : 0,
    "priority" : 2,
    "jobType" : "DROP",
    "constraints" : {
      "demand" : {
        "values" : [ 30.0, 0.0, 0.0, 0.0 ]
      },
      "pickupTimeWindows" : [ {
        "startTime" : 1417741200000,
        "endTime" : 1417791600000
      } ],
      "timeWindowConstraints" : {
        "serviceTimeWindows" : [ {
          "startTime" : 1417752000000,
          "endTime" : 1417755600000
        } ],
        "timeWindowPolicy" : "COMPLETE_ORDER_WITHIN_TIME_WINDOW"
      },
      "attributes" : [ "AoC433" ],
      "incompatibleAttributes" : [ ],
      "stopSequence" : 1
    }
  }, {
    "id" : 924186,
    "metadata" : {
      "name" : "mID530068"
    },
    "depot" : 0,
    "location" : {
      "latitude" : 55808002,
      "longitude" : 37511913,
      "metadata" : { }
    },
    "pickupDuration" : 0,
    "serviceDuration" : 1200000,
    "unloadDuration" : 0,
    "durationPerVisit" : 0,
    "priority" : 2,
    "jobType" : "DROP",
    "constraints" : {
      "demand" : {
        "values" : [ 44.0, 0.0, 0.0, 0.0 ]
      },
      "pickupTimeWindows" : [ {
        "startTime" : 1417741200000,
        "endTime" : 1417791600000
      } ],
      "timeWindowConstraints" : {
        "serviceTimeWindows" : [ {
          "startTime" : 1417752000000,
          "endTime" : 1417784280000
        } ],
        "timeWindowPolicy" : "COMPLETE_ORDER_WITHIN_TIME_WINDOW"
      },
      "attributes" : [ "AoC433" ],
      "incompatibleAttributes" : [ ],
      "stopSequence" : 1
    }
  }, {
    "id" : 924187,
    "metadata" : {
      "name" : "mID530118"
    },
    "depot" : 0,
    "location" : {
      "latitude" : 55836160,
      "longitude" : 37537083,
      "metadata" : { }
    },
    "pickupDuration" : 0,
    "serviceDuration" : 900000,
    "unloadDuration" : 0,
    "durationPerVisit" : 0,
    "priority" : 2,
    "jobType" : "DROP",
    "constraints" : {
      "demand" : {
        "values" : [ 35.0, 0.0, 0.0, 0.0 ]
      },
      "pickupTimeWindows" : [ {
        "startTime" : 1417741200000,
        "endTime" : 1417791600000
      } ],
      "timeWindowConstraints" : {
        "serviceTimeWindows" : [ {
          "startTime" : 1417723200000,
          "endTime" : 1417809540000
        } ],
        "timeWindowPolicy" : "COMPLETE_ORDER_WITHIN_TIME_WINDOW"
      },
      "attributes" : [ "AoC433" ],
      "incompatibleAttributes" : [ ],
      "stopSequence" : 1
    }
  }, {
    "id" : 924188,
    "metadata" : {
      "name" : "mID530117"
    },
    "depot" : 0,
    "location" : {
      "latitude" : 55837293,
      "longitude" : 37575136,
      "metadata" : { }
    },
    "pickupDuration" : 0,
    "serviceDuration" : 1200000,
    "unloadDuration" : 0,
    "durationPerVisit" : 0,
    "priority" : 2,
    "jobType" : "DROP",
    "constraints" : {
      "demand" : {
        "values" : [ 41.0, 0.0, 0.0, 0.0 ]
      },
      "pickupTimeWindows" : [ {
        "startTime" : 1417741200000,
        "endTime" : 1417791600000
      } ],
      "timeWindowConstraints" : {
        "serviceTimeWindows" : [ {
          "startTime" : 1417759200000,
          "endTime" : 1417784280000
        } ],
        "timeWindowPolicy" : "COMPLETE_ORDER_WITHIN_TIME_WINDOW"
      },
      "attributes" : [ "AoC433" ],
      "incompatibleAttributes" : [ ],
      "stopSequence" : 1
    }
  }, {
    "id" : 924189,
    "metadata" : {
      "name" : "mID530078"
    },
    "depot" : 0,
    "location" : {
      "latitude" : 55765063,
      "longitude" : 37635611,
      "metadata" : { }
    },
    "pickupDuration" : 0,
    "serviceDuration" : 1200000,
    "unloadDuration" : 0,
    "durationPerVisit" : 0,
    "priority" : 2,
    "jobType" : "DROP",
    "constraints" : {
      "demand" : {
        "values" : [ 21.0, 0.0, 0.0, 0.0 ]
      },
      "pickupTimeWindows" : [ {
        "startTime" : 1417741200000,
        "endTime" : 1417791600000
      } ],
      "timeWindowConstraints" : {
        "serviceTimeWindows" : [ {
          "startTime" : 1417755600000,
          "endTime" : 1417780800000
        } ],
        "timeWindowPolicy" : "COMPLETE_ORDER_WITHIN_TIME_WINDOW"
      },
      "attributes" : [ "{{{Territory(SchedulingZone)_ATTRIBUTE_PREFIX}}}_141", "AoC433" ],
      "incompatibleAttributes" : [ ],
      "stopSequence" : 1
    }
  }, {
    "id" : 924190,
    "metadata" : {
      "name" : "mID530052"
    },
    "depot" : 0,
    "location" : {
      "latitude" : 55708820,
      "longitude" : 37735575,
      "metadata" : { }
    },
    "pickupDuration" : 0,
    "serviceDuration" : 900000,
    "unloadDuration" : 0,
    "durationPerVisit" : 0,
    "priority" : 2,
    "jobType" : "DROP",
    "constraints" : {
      "demand" : {
        "values" : [ 23.0, 0.0, 0.0, 0.0 ]
      },
      "pickupTimeWindows" : [ {
        "startTime" : 1417741200000,
        "endTime" : 1417791600000
      } ],
      "timeWindowConstraints" : {
        "serviceTimeWindows" : [ {
          "startTime" : 1417723200000,
          "endTime" : 1417809480000
        } ],
        "timeWindowPolicy" : "COMPLETE_ORDER_WITHIN_TIME_WINDOW"
      },
      "attributes" : [ "AoC433" ],
      "incompatibleAttributes" : [ ],
      "stopSequence" : 1
    }
  }, {
    "id" : 924191,
    "metadata" : {
      "name" : "mID530071"
    },
    "depot" : 0,
    "location" : {
      "latitude" : 55736577,
      "longitude" : 37588070,
      "metadata" : { }
    },
    "pickupDuration" : 0,
    "serviceDuration" : 900000,
    "unloadDuration" : 0,
    "durationPerVisit" : 0,
    "priority" : 2,
    "jobType" : "DROP",
    "constraints" : {
      "demand" : {
        "values" : [ 20.0, 0.0, 0.0, 0.0 ]
      },
      "pickupTimeWindows" : [ {
        "startTime" : 1417741200000,
        "endTime" : 1417791600000
      } ],
      "timeWindowConstraints" : {
        "serviceTimeWindows" : [ {
          "startTime" : 1417752000000,
          "endTime" : 1417784280000
        } ],
        "timeWindowPolicy" : "COMPLETE_ORDER_WITHIN_TIME_WINDOW"
      },
      "attributes" : [ "{{{Territory(SchedulingZone)_ATTRIBUTE_PREFIX}}}_141", "AoC433" ],
      "incompatibleAttributes" : [ ],
      "stopSequence" : 1
    }
  }, {
    "id" : 924192,
    "metadata" : {
      "name" : "mID530065"
    },
    "depot" : 0,
    "location" : {
      "latitude" : 55714044,
      "longitude" : 37574067,
      "metadata" : { }
    },
    "pickupDuration" : 0,
    "serviceDuration" : 1200000,
    "unloadDuration" : 0,
    "durationPerVisit" : 0,
    "priority" : 2,
    "jobType" : "DROP",
    "constraints" : {
      "demand" : {
        "values" : [ 125.0, 0.0, 0.0, 0.0 ]
      },
      "pickupTimeWindows" : [ {
        "startTime" : 1417741200000,
        "endTime" : 1417791600000
      } ],
      "timeWindowConstraints" : {
        "serviceTimeWindows" : [ {
          "startTime" : 1417723200000,
          "endTime" : 1417805880000
        } ],
        "timeWindowPolicy" : "COMPLETE_ORDER_WITHIN_TIME_WINDOW"
      },
      "attributes" : [ "AoC433" ],
      "incompatibleAttributes" : [ ],
      "stopSequence" : 1
    }
  }, {
    "id" : 924193,
    "metadata" : {
      "name" : "mID530100"
    },
    "depot" : 0,
    "location" : {
      "latitude" : 55650561,
      "longitude" : 37577157,
      "metadata" : { }
    },
    "pickupDuration" : 0,
    "serviceDuration" : 1200000,
    "unloadDuration" : 0,
    "durationPerVisit" : 0,
    "priority" : 2,
    "jobType" : "DROP",
    "constraints" : {
      "demand" : {
        "values" : [ 90.0, 0.0, 0.0, 0.0 ]
      },
      "pickupTimeWindows" : [ {
        "startTime" : 1417741200000,
        "endTime" : 1417791600000
      } ],
      "timeWindowConstraints" : {
        "serviceTimeWindows" : [ {
          "startTime" : 1417723200000,
          "endTime" : 1417755600000
        } ],
        "timeWindowPolicy" : "COMPLETE_ORDER_WITHIN_TIME_WINDOW"
      },
      "attributes" : [ "AoC433" ],
      "incompatibleAttributes" : [ ],
      "stopSequence" : 1
    }
  }, {
    "id" : 924194,
    "metadata" : {
      "name" : "mID530092"
    },
    "depot" : 0,
    "location" : {
      "latitude" : 55650942,
      "longitude" : 37588656,
      "metadata" : { }
    },
    "pickupDuration" : 0,
    "serviceDuration" : 1200000,
    "unloadDuration" : 0,
    "durationPerVisit" : 0,
    "priority" : 2,
    "jobType" : "DROP",
    "constraints" : {
      "demand" : {
        "values" : [ 152.0, 0.0, 0.0, 0.0 ]
      },
      "pickupTimeWindows" : [ {
        "startTime" : 1417741200000,
        "endTime" : 1417791600000
      } ],
      "timeWindowConstraints" : {
        "serviceTimeWindows" : [ {
          "startTime" : 1417748400000,
          "endTime" : 1417752000000
        } ],
        "timeWindowPolicy" : "COMPLETE_ORDER_WITHIN_TIME_WINDOW"
      },
      "attributes" : [ "AoC433" ],
      "incompatibleAttributes" : [ ],
      "stopSequence" : 1
    }
  }, {
    "id" : 924195,
    "metadata" : {
      "name" : "mID530093"
    },
    "depot" : 0,
    "location" : {
      "latitude" : 55652710,
      "longitude" : 37597711,
      "metadata" : { }
    },
    "pickupDuration" : 0,
    "serviceDuration" : 1200000,
    "unloadDuration" : 0,
    "durationPerVisit" : 0,
    "priority" : 2,
    "jobType" : "DROP",
    "constraints" : {
      "demand" : {
        "values" : [ 240.0, 0.0, 0.0, 0.0 ]
      },
      "pickupTimeWindows" : [ {
        "startTime" : 1417741200000,
        "endTime" : 1417791600000
      } ],
      "timeWindowConstraints" : {
        "serviceTimeWindows" : [ {
          "startTime" : 1417744800000,
          "endTime" : 1417752000000
        } ],
        "timeWindowPolicy" : "COMPLETE_ORDER_WITHIN_TIME_WINDOW"
      },
      "attributes" : [ "AoC433" ],
      "incompatibleAttributes" : [ ],
      "stopSequence" : 1
    }
  }, {
    "id" : 924196,
    "metadata" : {
      "name" : "mID530088"
    },
    "depot" : 0,
    "location" : {
      "latitude" : 55611073,
      "longitude" : 37590623,
      "metadata" : { }
    },
    "pickupDuration" : 0,
    "serviceDuration" : 1200000,
    "unloadDuration" : 0,
    "durationPerVisit" : 0,
    "priority" : 2,
    "jobType" : "DROP",
    "constraints" : {
      "demand" : {
        "values" : [ 30.0, 0.0, 0.0, 0.0 ]
      },
      "pickupTimeWindows" : [ {
        "startTime" : 1417741200000,
        "endTime" : 1417791600000
      } ],
      "timeWindowConstraints" : {
        "serviceTimeWindows" : [ {
          "startTime" : 1417752120000,
          "endTime" : 1417759200000
        } ],
        "timeWindowPolicy" : "COMPLETE_ORDER_WITHIN_TIME_WINDOW"
      },
      "attributes" : [ "AoC433" ],
      "incompatibleAttributes" : [ ],
      "stopSequence" : 1
    }
  }, {
    "id" : 924197,
    "metadata" : {
      "name" : "mID530087"
    },
    "depot" : 0,
    "location" : {
      "latitude" : 55577337,
      "longitude" : 37571004,
      "metadata" : { }
    },
    "pickupDuration" : 0,
    "serviceDuration" : 1200000,
    "unloadDuration" : 0,
    "durationPerVisit" : 0,
    "priority" : 2,
    "jobType" : "DROP",
    "constraints" : {
      "demand" : {
        "values" : [ 60.0, 0.0, 0.0, 0.0 ]
      },
      "pickupTimeWindows" : [ {
        "startTime" : 1417741200000,
        "endTime" : 1417791600000
      } ],
      "timeWindowConstraints" : {
        "serviceTimeWindows" : [ {
          "startTime" : 1417753800000,
          "endTime" : 1417759200000
        } ],
        "timeWindowPolicy" : "COMPLETE_ORDER_WITHIN_TIME_WINDOW"
      },
      "attributes" : [ "AoC433" ],
      "incompatibleAttributes" : [ ],
      "stopSequence" : 1
    }
  }, {
    "id" : 924198,
    "metadata" : {
      "name" : "mID530075"
    },
    "depot" : 0,
    "location" : {
      "latitude" : 55654239,
      "longitude" : 37645959,
      "metadata" : { }
    },
    "pickupDuration" : 0,
    "serviceDuration" : 1200000,
    "unloadDuration" : 0,
    "durationPerVisit" : 0,
    "priority" : 2,
    "jobType" : "DROP",
    "constraints" : {
      "demand" : {
        "values" : [ 30.0, 0.0, 0.0, 0.0 ]
      },
      "pickupTimeWindows" : [ {
        "startTime" : 1417741200000,
        "endTime" : 1417791600000
      } ],
      "timeWindowConstraints" : {
        "serviceTimeWindows" : [ {
          "startTime" : 1417723200000,
          "endTime" : 1417809540000
        } ],
        "timeWindowPolicy" : "COMPLETE_ORDER_WITHIN_TIME_WINDOW"
      },
      "attributes" : [ "AoC433" ],
      "incompatibleAttributes" : [ ],
      "stopSequence" : 1
    }
  }, {
    "id" : 924199,
    "metadata" : {
      "name" : "mID530076"
    },
    "depot" : 0,
    "location" : {
      "latitude" : 55682706,
      "longitude" : 37661320,
      "metadata" : { }
    },
    "pickupDuration" : 0,
    "serviceDuration" : 1200000,
    "unloadDuration" : 0,
    "durationPerVisit" : 0,
    "priority" : 2,
    "jobType" : "DROP",
    "constraints" : {
      "demand" : {
        "values" : [ 10.0, 0.0, 0.0, 0.0 ]
      },
      "pickupTimeWindows" : [ {
        "startTime" : 1417741200000,
        "endTime" : 1417791600000
      } ],
      "timeWindowConstraints" : {
        "serviceTimeWindows" : [ {
          "startTime" : 1417755600000,
          "endTime" : 1417762800000
        } ],
        "timeWindowPolicy" : "COMPLETE_ORDER_WITHIN_TIME_WINDOW"
      },
      "attributes" : [ "AoC433" ],
      "incompatibleAttributes" : [ ],
      "stopSequence" : 1
    }
  }, {
    "id" : 924200,
    "metadata" : {
      "name" : "mID530077"
    },
    "depot" : 0,
    "location" : {
      "latitude" : 55747424,
      "longitude" : 37707080,
      "metadata" : { }
    },
    "pickupDuration" : 0,
    "serviceDuration" : 1200000,
    "unloadDuration" : 0,
    "durationPerVisit" : 0,
    "priority" : 2,
    "jobType" : "DROP",
    "constraints" : {
      "demand" : {
        "values" : [ 44.0, 0.0, 0.0, 0.0 ]
      },
      "pickupTimeWindows" : [ {
        "startTime" : 1417741200000,
        "endTime" : 1417791600000
      } ],
      "timeWindowConstraints" : {
        "serviceTimeWindows" : [ {
          "startTime" : 1417753800000,
          "endTime" : 1417802280000
        } ],
        "timeWindowPolicy" : "COMPLETE_ORDER_WITHIN_TIME_WINDOW"
      },
      "attributes" : [ "AoC433" ],
      "incompatibleAttributes" : [ ],
      "stopSequence" : 1
    }
  }, {
    "id" : 924201,
    "metadata" : {
      "name" : "mID530119"
    },
    "depot" : 0,
    "location" : {
      "latitude" : 55822979,
      "longitude" : 37526726,
      "metadata" : { }
    },
    "pickupDuration" : 0,
    "serviceDuration" : 1200000,
    "unloadDuration" : 0,
    "durationPerVisit" : 0,
    "priority" : 2,
    "jobType" : "DROP",
    "constraints" : {
      "demand" : {
        "values" : [ 35.0, 0.0, 0.0, 0.0 ]
      },
      "pickupTimeWindows" : [ {
        "startTime" : 1417741200000,
        "endTime" : 1417791600000
      } ],
      "timeWindowConstraints" : {
        "serviceTimeWindows" : [ {
          "startTime" : 1417762800000,
          "endTime" : 1417784280000
        } ],
        "timeWindowPolicy" : "COMPLETE_ORDER_WITHIN_TIME_WINDOW"
      },
      "attributes" : [ "AoC433" ],
      "incompatibleAttributes" : [ ],
      "stopSequence" : 1
    }
  }, {
    "id" : 924202,
    "metadata" : {
      "name" : "mID530095"
    },
    "depot" : 0,
    "location" : {
      "latitude" : 55685340,
      "longitude" : 37579160,
      "metadata" : { }
    },
    "pickupDuration" : 0,
    "serviceDuration" : 900000,
    "unloadDuration" : 0,
    "durationPerVisit" : 0,
    "priority" : 2,
    "jobType" : "DROP",
    "constraints" : {
      "demand" : {
        "values" : [ 60.0, 0.0, 0.0, 0.0 ]
      },
      "pickupTimeWindows" : [ {
        "startTime" : 1417741200000,
        "endTime" : 1417791600000
      } ],
      "timeWindowConstraints" : {
        "serviceTimeWindows" : [ {
          "startTime" : 1417752000000,
          "endTime" : 1417784280000
        } ],
        "timeWindowPolicy" : "COMPLETE_ORDER_WITHIN_TIME_WINDOW"
      },
      "attributes" : [ "AoC433" ],
      "incompatibleAttributes" : [ ],
      "stopSequence" : 1
    }
  } ],
  "schedules" : [ {
    "timeWindow" : {
      "startTime" : 1417741200000,
      "endTime" : 1417777200000
    },
    "runs" : [ ],
    "breaks" : [ ],
    "constraints" : { },
    "resource" : {
      "metadata" : {
        "name" : "1011"
      },
      "id" : 8800,
      "depot" : 0,
      "hourCost" : 240.0,
      "kmCost" : 10.0,
      "routingProfile" : {
        "vehicleType" : "Default",
        "drivingTimeCorrectionFactor" : 2.2,
        "maxSpeed" : 80.0
      },
      "constraints" : {
        "runDistanceLimit" : "Infinity",
        "runWorkingTimeLimit" : 9223372036854775807,
        "scheduleWorkingTimeLimit" : 43200000,
        "scheduleDrivingTimeLimit" : 43200000,
        "addonCollectionDropDuration" : 300000,
        "addonPickupDuration" : 2400000,
        "capacity" : {
          "values" : [ 1000.0, 1.0, 0.0, 0.0 ]
        },
        "attributes" : [ "{{{Territory(SchedulingZone)_ATTRIBUTE_PREFIX}}}_141", "Заморозка", "AoC433" ],
        "homeLocations" : {
          "startLocation" : {
            "latitude" : 55626076,
            "longitude" : 37621801,
            "metadata" : { }
          },
          "endLocation" : {
            "latitude" : 55626076,
            "longitude" : 37621801,
            "metadata" : { }
          }
        },
        "fixedStartTime" : -1
      }
    }
  }, {
    "timeWindow" : {
      "startTime" : 1417741200000,
      "endTime" : 1417777200000
    },
    "runs" : [ ],
    "breaks" : [ ],
    "constraints" : { },
    "resource" : {
      "metadata" : {
        "name" : "1004"
      },
      "id" : 8786,
      "depot" : 0,
      "hourCost" : 240.0,
      "kmCost" : 10.0,
      "routingProfile" : {
        "vehicleType" : "Default",
        "drivingTimeCorrectionFactor" : 2.2,
        "maxSpeed" : 80.0
      },
      "constraints" : {
        "runDistanceLimit" : "Infinity",
        "runWorkingTimeLimit" : 9223372036854775807,
        "scheduleWorkingTimeLimit" : 43200000,
        "scheduleDrivingTimeLimit" : 43200000,
        "addonCollectionDropDuration" : 300000,
        "addonPickupDuration" : 2400000,
        "capacity" : {
          "values" : [ 1000.0, 1.0, 0.0, 0.0 ]
        },
        "attributes" : [ "{{{Territory(SchedulingZone)_ATTRIBUTE_PREFIX}}}_141", "AoC433" ],
        "homeLocations" : {
          "startLocation" : {
            "latitude" : 55626076,
            "longitude" : 37621801,
            "metadata" : { }
          },
          "endLocation" : {
            "latitude" : 55626076,
            "longitude" : 37621801,
            "metadata" : { }
          }
        },
        "fixedStartTime" : -1
      }
    }
  }, {
    "timeWindow" : {
      "startTime" : 1417741200000,
      "endTime" : 1417777200000
    },
    "runs" : [ ],
    "breaks" : [ ],
    "constraints" : { },
    "resource" : {
      "metadata" : {
        "name" : "1012"
      },
      "id" : 8802,
      "depot" : 0,
      "hourCost" : 240.0,
      "kmCost" : 10.0,
      "routingProfile" : {
        "vehicleType" : "Default",
        "drivingTimeCorrectionFactor" : 2.2,
        "maxSpeed" : 80.0
      },
      "constraints" : {
        "runDistanceLimit" : "Infinity",
        "runWorkingTimeLimit" : 9223372036854775807,
        "scheduleWorkingTimeLimit" : 43200000,
        "scheduleDrivingTimeLimit" : 43200000,
        "addonCollectionDropDuration" : 300000,
        "addonPickupDuration" : 2400000,
        "capacity" : {
          "values" : [ 1000.0, 1.0, 0.0, 0.0 ]
        },
        "attributes" : [ "{{{Territory(SchedulingZone)_ATTRIBUTE_PREFIX}}}_141", "Заморозка", "AoC433" ],
        "homeLocations" : {
          "startLocation" : {
            "latitude" : 55626076,
            "longitude" : 37621801,
            "metadata" : { }
          },
          "endLocation" : {
            "latitude" : 55626076,
            "longitude" : 37621801,
            "metadata" : { }
          }
        },
        "fixedStartTime" : -1
      }
    }
  }, {
    "timeWindow" : {
      "startTime" : 1417741200000,
      "endTime" : 1417777200000
    },
    "runs" : [ ],
    "breaks" : [ ],
    "constraints" : { },
    "resource" : {
      "metadata" : {
        "name" : "1003"
      },
      "id" : 8784,
      "depot" : 0,
      "hourCost" : 240.0,
      "kmCost" : 10.0,
      "routingProfile" : {
        "vehicleType" : "Default",
        "drivingTimeCorrectionFactor" : 2.2,
        "maxSpeed" : 80.0
      },
      "constraints" : {
        "runDistanceLimit" : "Infinity",
        "runWorkingTimeLimit" : 9223372036854775807,
        "scheduleWorkingTimeLimit" : 43200000,
        "scheduleDrivingTimeLimit" : 43200000,
        "addonCollectionDropDuration" : 300000,
        "addonPickupDuration" : 2400000,
        "capacity" : {
          "values" : [ 1000.0, 1.0, 0.0, 0.0 ]
        },
        "attributes" : [ "{{{Territory(SchedulingZone)_ATTRIBUTE_PREFIX}}}_141", "AoC433" ],
        "homeLocations" : {
          "startLocation" : {
            "latitude" : 55626076,
            "longitude" : 37621801,
            "metadata" : { }
          },
          "endLocation" : {
            "latitude" : 55626076,
            "longitude" : 37621801,
            "metadata" : { }
          }
        },
        "fixedStartTime" : -1
      }
    }
  }, {
    "timeWindow" : {
      "startTime" : 1417741200000,
      "endTime" : 1417777200000
    },
    "runs" : [ ],
    "breaks" : [ ],
    "constraints" : { },
    "resource" : {
      "metadata" : {
        "name" : "1006"
      },
      "id" : 8790,
      "depot" : 0,
      "hourCost" : 240.0,
      "kmCost" : 10.0,
      "routingProfile" : {
        "vehicleType" : "Default",
        "drivingTimeCorrectionFactor" : 2.2,
        "maxSpeed" : 80.0
      },
      "constraints" : {
        "runDistanceLimit" : "Infinity",
        "runWorkingTimeLimit" : 9223372036854775807,
        "scheduleWorkingTimeLimit" : 43200000,
        "scheduleDrivingTimeLimit" : 43200000,
        "addonCollectionDropDuration" : 300000,
        "addonPickupDuration" : 2400000,
        "capacity" : {
          "values" : [ 1000.0, 1.0, 0.0, 0.0 ]
        },
        "attributes" : [ "{{{Territory(SchedulingZone)_ATTRIBUTE_PREFIX}}}_141", "AoC433" ],
        "homeLocations" : {
          "startLocation" : {
            "latitude" : 55626076,
            "longitude" : 37621801,
            "metadata" : { }
          },
          "endLocation" : {
            "latitude" : 55626076,
            "longitude" : 37621801,
            "metadata" : { }
          }
        },
        "fixedStartTime" : -1
      }
    }
  }, {
    "timeWindow" : {
      "startTime" : 1417741200000,
      "endTime" : 1417777200000
    },
    "runs" : [ ],
    "breaks" : [ ],
    "constraints" : { },
    "resource" : {
      "metadata" : {
        "name" : "1005"
      },
      "id" : 8788,
      "depot" : 0,
      "hourCost" : 240.0,
      "kmCost" : 10.0,
      "routingProfile" : {
        "vehicleType" : "Default",
        "drivingTimeCorrectionFactor" : 2.2,
        "maxSpeed" : 80.0
      },
      "constraints" : {
        "runDistanceLimit" : "Infinity",
        "runWorkingTimeLimit" : 9223372036854775807,
        "scheduleWorkingTimeLimit" : 43200000,
        "scheduleDrivingTimeLimit" : 43200000,
        "addonCollectionDropDuration" : 300000,
        "addonPickupDuration" : 2400000,
        "capacity" : {
          "values" : [ 1000.0, 1.0, 0.0, 0.0 ]
        },
        "attributes" : [ "{{{Territory(SchedulingZone)_ATTRIBUTE_PREFIX}}}_141", "AoC433" ],
        "homeLocations" : {
          "startLocation" : {
            "latitude" : 55626076,
            "longitude" : 37621801,
            "metadata" : { }
          },
          "endLocation" : {
            "latitude" : 55626076,
            "longitude" : 37621801,
            "metadata" : { }
          }
        },
        "fixedStartTime" : -1
      }
    }
  }, {
    "timeWindow" : {
      "startTime" : 1417741200000,
      "endTime" : 1417777200000
    },
    "runs" : [ ],
    "breaks" : [ ],
    "constraints" : { },
    "resource" : {
      "metadata" : {
        "name" : "1008"
      },
      "id" : 8794,
      "depot" : 0,
      "hourCost" : 240.0,
      "kmCost" : 10.0,
      "routingProfile" : {
        "vehicleType" : "Default",
        "drivingTimeCorrectionFactor" : 2.2,
        "maxSpeed" : 80.0
      },
      "constraints" : {
        "runDistanceLimit" : "Infinity",
        "runWorkingTimeLimit" : 9223372036854775807,
        "scheduleWorkingTimeLimit" : 43200000,
        "scheduleDrivingTimeLimit" : 43200000,
        "addonCollectionDropDuration" : 300000,
        "addonPickupDuration" : 2400000,
        "capacity" : {
          "values" : [ 1000.0, 1.0, 0.0, 0.0 ]
        },
        "attributes" : [ "{{{Territory(SchedulingZone)_ATTRIBUTE_PREFIX}}}_141", "AoC433" ],
        "homeLocations" : {
          "startLocation" : {
            "latitude" : 55626076,
            "longitude" : 37621801,
            "metadata" : { }
          },
          "endLocation" : {
            "latitude" : 55626076,
            "longitude" : 37621801,
            "metadata" : { }
          }
        },
        "fixedStartTime" : -1
      }
    }
  }, {
    "timeWindow" : {
      "startTime" : 1417741200000,
      "endTime" : 1417777200000
    },
    "runs" : [ ],
    "breaks" : [ ],
    "constraints" : { },
    "resource" : {
      "metadata" : {
        "name" : "1007"
      },
      "id" : 8792,
      "depot" : 0,
      "hourCost" : 240.0,
      "kmCost" : 10.0,
      "routingProfile" : {
        "vehicleType" : "Default",
        "drivingTimeCorrectionFactor" : 2.2,
        "maxSpeed" : 80.0
      },
      "constraints" : {
        "runDistanceLimit" : "Infinity",
        "runWorkingTimeLimit" : 9223372036854775807,
        "scheduleWorkingTimeLimit" : 43200000,
        "scheduleDrivingTimeLimit" : 43200000,
        "addonCollectionDropDuration" : 300000,
        "addonPickupDuration" : 2400000,
        "capacity" : {
          "values" : [ 1000.0, 1.0, 0.0, 0.0 ]
        },
        "attributes" : [ "{{{Territory(SchedulingZone)_ATTRIBUTE_PREFIX}}}_141", "AoC433" ],
        "homeLocations" : {
          "startLocation" : {
            "latitude" : 55626076,
            "longitude" : 37621801,
            "metadata" : { }
          },
          "endLocation" : {
            "latitude" : 55626076,
            "longitude" : 37621801,
            "metadata" : { }
          }
        },
        "fixedStartTime" : -1
      }
    }
  } ],
  "depots" : [ {
    "id" : 0,
    "location" : {
      "latitude" : 55626076,
      "longitude" : 37621801,
      "metadata" : { }
    },
    "constraints" : {
      "allowCollectionsWhileDrivingHome" : false,
      "allowDeliveriesWhileDrivingFromHome" : false,
      "availabilityWindows" : [ {
        "startTime" : 0,
        "endTime" : 57657355200332
      } ]
    }
  } ],
  "constraints" : {
    "allowMultipleRunsPerSchedule" : true,
    "consolidateSameSiteJobs" : "NONE"
  }
}