{
  "jobs" : [ {
    "id" : 151397,
    "metadata" : {
      "name" : "mID151397"
    },
    "depot" : 0,
    "location" : {
      "latitude" : 51570678,
      "longitude" : -295097,
      "metadata" : { }
    },
    "pickupDuration" : 0,
    "serviceDuration" : 360000,
    "unloadDuration" : 0,
    "durationPerVisit" : 0,
    "priority" : 2,
    "jobType" : "DROP",
    "constraints" : {
      "demand" : {
        "values" : [ 0.0, 0.0, 0.0, 0.0 ]
      },
      "pickupTimeWindows" : [ {
        "startTime" : 1372896060000,
        "endTime" : 1372982340000
      } ],
      "timeWindowConstraints" : {
        "serviceTimeWindows" : [ {
          "startTime" : 1372899600000,
          "endTime" : 1372924800000
        } ],
        "timeWindowPolicy" : "COMPLETE_ORDER_WITHIN_TIME_WINDOW"
      },
      "attributes" : [ "AoC137" ],
      "incompatibleAttributes" : [ ],
      "stopSequence" : 1
    }
  }, {
    "id" : 151398,
    "metadata" : {
      "name" : "mID151398"
    },
    "depot" : 0,
    "location" : {
      "latitude" : 51504743,
      "longitude" : -508063,
      "metadata" : { }
    },
    "pickupDuration" : 0,
    "serviceDuration" : 360000,
    "unloadDuration" : 0,
    "durationPerVisit" : 0,
    "priority" : 2,
    "jobType" : "DROP",
    "constraints" : {
      "demand" : {
        "values" : [ 0.0, 0.0, 0.0, 0.0 ]
      },
      "pickupTimeWindows" : [ {
        "startTime" : 1372896060000,
        "endTime" : 1372982340000
      } ],
      "timeWindowConstraints" : {
        "serviceTimeWindows" : [ {
          "startTime" : 1372899600000,
          "endTime" : 1372924800000
        } ],
        "timeWindowPolicy" : "COMPLETE_ORDER_WITHIN_TIME_WINDOW"
      },
      "attributes" : [ "AoC137" ],
      "incompatibleAttributes" : [ ],
      "stopSequence" : 1
    }
  }, {
    "id" : 151399,
    "metadata" : {
      "name" : "mID151399"
    },
    "depot" : 0,
    "location" : {
      "latitude" : 51525448,
      "longitude" : -315858,
      "metadata" : { }
    },
    "pickupDuration" : 0,
    "serviceDuration" : 360000,
    "unloadDuration" : 0,
    "durationPerVisit" : 0,
    "priority" : 2,
    "jobType" : "DROP",
    "constraints" : {
      "demand" : {
        "values" : [ 0.0, 0.0, 0.0, 0.0 ]
      },
      "pickupTimeWindows" : [ {
        "startTime" : 1372896060000,
        "endTime" : 1372982340000
      } ],
      "timeWindowConstraints" : {
        "serviceTimeWindows" : [ {
          "startTime" : 1372899600000,
          "endTime" : 1372924800000
        } ],
        "timeWindowPolicy" : "COMPLETE_ORDER_WITHIN_TIME_WINDOW"
      },
      "attributes" : [ "AoC137" ],
      "incompatibleAttributes" : [ ],
      "stopSequence" : 1
    }
  }, {
    "id" : 151400,
    "metadata" : {
      "name" : "mID151400"
    },
    "depot" : 0,
    "location" : {
      "latitude" : 51588680,
      "longitude" : -682683,
      "metadata" : { }
    },
    "pickupDuration" : 0,
    "serviceDuration" : 360000,
    "unloadDuration" : 0,
    "durationPerVisit" : 0,
    "priority" : 2,
    "jobType" : "DROP",
    "constraints" : {
      "demand" : {
        "values" : [ 0.0, 0.0, 0.0, 0.0 ]
      },
      "pickupTimeWindows" : [ {
        "startTime" : 1372896060000,
        "endTime" : 1372982340000
      } ],
      "timeWindowConstraints" : {
        "serviceTimeWindows" : [ {
          "startTime" : 1372899600000,
          "endTime" : 1372924800000
        } ],
        "timeWindowPolicy" : "COMPLETE_ORDER_WITHIN_TIME_WINDOW"
      },
      "attributes" : [ "AoC137" ],
      "incompatibleAttributes" : [ ],
      "stopSequence" : 1
    }
  }, {
    "id" : 151401,
    "metadata" : {
      "name" : "mID151401"
    },
    "depot" : 0,
    "location" : {
      "latitude" : 51372173,
      "longitude" : -459821,
      "metadata" : { }
    },
    "pickupDuration" : 0,
    "serviceDuration" : 360000,
    "unloadDuration" : 0,
    "durationPerVisit" : 0,
    "priority" : 2,
    "jobType" : "DROP",
    "constraints" : {
      "demand" : {
        "values" : [ 0.0, 0.0, 0.0, 0.0 ]
      },
      "pickupTimeWindows" : [ {
        "startTime" : 1372896060000,
        "endTime" : 1372982340000
      } ],
      "timeWindowConstraints" : {
        "serviceTimeWindows" : [ {
          "startTime" : 1372899600000,
          "endTime" : 1372924800000
        } ],
        "timeWindowPolicy" : "COMPLETE_ORDER_WITHIN_TIME_WINDOW"
      },
      "attributes" : [ "AoC137" ],
      "incompatibleAttributes" : [ ],
      "stopSequence" : 1
    }
  }, {
    "id" : 151402,
    "metadata" : {
      "name" : "mID151402"
    },
    "depot" : 0,
    "location" : {
      "latitude" : 51502341,
      "longitude" : -316047,
      "metadata" : { }
    },
    "pickupDuration" : 0,
    "serviceDuration" : 360000,
    "unloadDuration" : 0,
    "durationPerVisit" : 0,
    "priority" : 2,
    "jobType" : "DROP",
    "constraints" : {
      "demand" : {
        "values" : [ 0.0, 0.0, 0.0, 0.0 ]
      },
      "pickupTimeWindows" : [ {
        "startTime" : 1372896060000,
        "endTime" : 1372982340000
      } ],
      "timeWindowConstraints" : {
        "serviceTimeWindows" : [ {
          "startTime" : 1372899600000,
          "endTime" : 1372924800000
        } ],
        "timeWindowPolicy" : "COMPLETE_ORDER_WITHIN_TIME_WINDOW"
      },
      "attributes" : [ "AoC137" ],
      "incompatibleAttributes" : [ ],
      "stopSequence" : 1
    }
  }, {
    "id" : 151403,
    "metadata" : {
      "name" : "mID151403"
    },
    "depot" : 0,
    "location" : {
      "latitude" : 51395496,
      "longitude" : -953316,
      "metadata" : { }
    },
    "pickupDuration" : 0,
    "serviceDuration" : 360000,
    "unloadDuration" : 0,
    "durationPerVisit" : 0,
    "priority" : 2,
    "jobType" : "DROP",
    "constraints" : {
      "demand" : {
        "values" : [ 0.0, 0.0, 0.0, 0.0 ]
      },
      "pickupTimeWindows" : [ {
        "startTime" : 1372896060000,
        "endTime" : 1372982340000
      } ],
      "timeWindowConstraints" : {
        "serviceTimeWindows" : [ {
          "startTime" : 1372899600000,
          "endTime" : 1372924800000
        } ],
        "timeWindowPolicy" : "COMPLETE_ORDER_WITHIN_TIME_WINDOW"
      },
      "attributes" : [ "AoC137" ],
      "incompatibleAttributes" : [ ],
      "stopSequence" : 1
    }
  }, {
    "id" : 151404,
    "metadata" : {
      "name" : "mID151404"
    },
    "depot" : 0,
    "location" : {
      "latitude" : 51303208,
      "longitude" : -328713,
      "metadata" : { }
    },
    "pickupDuration" : 0,
    "serviceDuration" : 360000,
    "unloadDuration" : 0,
    "durationPerVisit" : 0,
    "priority" : 2,
    "jobType" : "DROP",
    "constraints" : {
      "demand" : {
        "values" : [ 0.0, 0.0, 0.0, 0.0 ]
      },
      "pickupTimeWindows" : [ {
        "startTime" : 1372896060000,
        "endTime" : 1372982340000
      } ],
      "timeWindowConstraints" : {
        "serviceTimeWindows" : [ {
          "startTime" : 1372899600000,
          "endTime" : 1372924800000
        } ],
        "timeWindowPolicy" : "COMPLETE_ORDER_WITHIN_TIME_WINDOW"
      },
      "attributes" : [ "AoC137" ],
      "incompatibleAttributes" : [ ],
      "stopSequence" : 1
    }
  }, {
    "id" : 151405,
    "metadata" : {
      "name" : "mID151405"
    },
    "depot" : 0,
    "location" : {
      "latitude" : 51457339,
      "longitude" : -304016,
      "metadata" : { }
    },
    "pickupDuration" : 0,
    "serviceDuration" : 360000,
    "unloadDuration" : 0,
    "durationPerVisit" : 0,
    "priority" : 2,
    "jobType" : "DROP",
    "constraints" : {
      "demand" : {
        "values" : [ 0.0, 0.0, 0.0, 0.0 ]
      },
      "pickupTimeWindows" : [ {
        "startTime" : 1372896060000,
        "endTime" : 1372982340000
      } ],
      "timeWindowConstraints" : {
        "serviceTimeWindows" : [ {
          "startTime" : 1372899600000,
          "endTime" : 1372924800000
        } ],
        "timeWindowPolicy" : "COMPLETE_ORDER_WITHIN_TIME_WINDOW"
      },
      "attributes" : [ "AoC137" ],
      "incompatibleAttributes" : [ ],
      "stopSequence" : 1
    }
  }, {
    "id" : 151406,
    "metadata" : {
      "name" : "mID151406"
    },
    "depot" : 0,
    "location" : {
      "latitude" : 51601809,
      "longitude" : -634739,
      "metadata" : { }
    },
    "pickupDuration" : 0,
    "serviceDuration" : 360000,
    "unloadDuration" : 0,
    "durationPerVisit" : 0,
    "priority" : 2,
    "jobType" : "DROP",
    "constraints" : {
      "demand" : {
        "values" : [ 0.0, 0.0, 0.0, 0.0 ]
      },
      "pickupTimeWindows" : [ {
        "startTime" : 1372896060000,
        "endTime" : 1372982340000
      } ],
      "timeWindowConstraints" : {
        "serviceTimeWindows" : [ {
          "startTime" : 1372899600000,
          "endTime" : 1372924800000
        } ],
        "timeWindowPolicy" : "COMPLETE_ORDER_WITHIN_TIME_WINDOW"
      },
      "attributes" : [ "AoC137" ],
      "incompatibleAttributes" : [ ],
      "stopSequence" : 1
    }
  }, {
    "id" : 151407,
    "metadata" : {
      "name" : "mID151407"
    },
    "depot" : 0,
    "location" : {
      "latitude" : 51521827,
      "longitude" : -779386,
      "metadata" : { }
    },
    "pickupDuration" : 0,
    "serviceDuration" : 360000,
    "unloadDuration" : 0,
    "durationPerVisit" : 0,
    "priority" : 2,
    "jobType" : "DROP",
    "constraints" : {
      "demand" : {
        "values" : [ 0.0, 0.0, 0.0, 0.0 ]
      },
      "pickupTimeWindows" : [ {
        "startTime" : 1372896060000,
        "endTime" : 1372982340000
      } ],
      "timeWindowConstraints" : {
        "serviceTimeWindows" : [ {
          "startTime" : 1372899600000,
          "endTime" : 1372924800000
        } ],
        "timeWindowPolicy" : "COMPLETE_ORDER_WITHIN_TIME_WINDOW"
      },
      "attributes" : [ "AoC137" ],
      "incompatibleAttributes" : [ ],
      "stopSequence" : 1
    }
  }, {
    "id" : 151408,
    "metadata" : {
      "name" : "mID151408"
    },
    "depot" : 0,
    "location" : {
      "latitude" : 51542182,
      "longitude" : -144767,
      "metadata" : { }
    },
    "pickupDuration" : 0,
    "serviceDuration" : 360000,
    "unloadDuration" : 0,
    "durationPerVisit" : 0,
    "priority" : 2,
    "jobType" : "DROP",
    "constraints" : {
      "demand" : {
        "values" : [ 0.0, 0.0, 0.0, 0.0 ]
      },
      "pickupTimeWindows" : [ {
        "startTime" : 1372896060000,
        "endTime" : 1372982340000
      } ],
      "timeWindowConstraints" : {
        "serviceTimeWindows" : [ {
          "startTime" : 1372899600000,
          "endTime" : 1372924800000
        } ],
        "timeWindowPolicy" : "COMPLETE_ORDER_WITHIN_TIME_WINDOW"
      },
      "attributes" : [ "AoC137" ],
      "incompatibleAttributes" : [ ],
      "stopSequence" : 1
    }
  }, {
    "id" : 151409,
    "metadata" : {
      "name" : "mID151409"
    },
    "depot" : 0,
    "location" : {
      "latitude" : 51688435,
      "longitude" : -1201620,
      "metadata" : { }
    },
    "pickupDuration" : 0,
    "serviceDuration" : 360000,
    "unloadDuration" : 0,
    "durationPerVisit" : 0,
    "priority" : 2,
    "jobType" : "DROP",
    "constraints" : {
      "demand" : {
        "values" : [ 0.0, 0.0, 0.0, 0.0 ]
      },
      "pickupTimeWindows" : [ {
        "startTime" : 1372896060000,
        "endTime" : 1372982340000
      } ],
      "timeWindowConstraints" : {
        "serviceTimeWindows" : [ {
          "startTime" : 1372899600000,
          "endTime" : 1372924800000
        } ],
        "timeWindowPolicy" : "COMPLETE_ORDER_WITHIN_TIME_WINDOW"
      },
      "attributes" : [ "AoC137" ],
      "incompatibleAttributes" : [ ],
      "stopSequence" : 1
    }
  }, {
    "id" : 151410,
    "metadata" : {
      "name" : "mID151410"
    },
    "depot" : 0,
    "location" : {
      "latitude" : 51477656,
      "longitude" : -282007,
      "metadata" : { }
    },
    "pickupDuration" : 0,
    "serviceDuration" : 360000,
    "unloadDuration" : 0,
    "durationPerVisit" : 0,
    "priority" : 2,
    "jobType" : "DROP",
    "constraints" : {
      "demand" : {
        "values" : [ 0.0, 0.0, 0.0, 0.0 ]
      },
      "pickupTimeWindows" : [ {
        "startTime" : 1372896060000,
        "endTime" : 1372982340000
      } ],
      "timeWindowConstraints" : {
        "serviceTimeWindows" : [ {
          "startTime" : 1372899600000,
          "endTime" : 1372924800000
        } ],
        "timeWindowPolicy" : "COMPLETE_ORDER_WITHIN_TIME_WINDOW"
      },
      "attributes" : [ "AoC137" ],
      "incompatibleAttributes" : [ ],
      "stopSequence" : 1
    }
  }, {
    "id" : 151411,
    "metadata" : {
      "name" : "mID151411"
    },
    "depot" : 0,
    "location" : {
      "latitude" : 51467066,
      "longitude" : -964521,
      "metadata" : { }
    },
    "pickupDuration" : 0,
    "serviceDuration" : 360000,
    "unloadDuration" : 0,
    "durationPerVisit" : 0,
    "priority" : 2,
    "jobType" : "DROP",
    "constraints" : {
      "demand" : {
        "values" : [ 0.0, 0.0, 0.0, 0.0 ]
      },
      "pickupTimeWindows" : [ {
        "startTime" : 1372896060000,
        "endTime" : 1372982340000
      } ],
      "timeWindowConstraints" : {
        "serviceTimeWindows" : [ {
          "startTime" : 1372899600000,
          "endTime" : 1372924800000
        } ],
        "timeWindowPolicy" : "COMPLETE_ORDER_WITHIN_TIME_WINDOW"
      },
      "attributes" : [ "AoC137" ],
      "incompatibleAttributes" : [ ],
      "stopSequence" : 1
    }
  }, {
    "id" : 151412,
    "metadata" : {
      "name" : "mID151412"
    },
    "depot" : 0,
    "location" : {
      "latitude" : 51468649,
      "longitude" : -254874,
      "metadata" : { }
    },
    "pickupDuration" : 0,
    "serviceDuration" : 360000,
    "unloadDuration" : 0,
    "durationPerVisit" : 0,
    "priority" : 2,
    "jobType" : "DROP",
    "constraints" : {
      "demand" : {
        "values" : [ 0.0, 0.0, 0.0, 0.0 ]
      },
      "pickupTimeWindows" : [ {
        "startTime" : 1372896060000,
        "endTime" : 1372982340000
      } ],
      "timeWindowConstraints" : {
        "serviceTimeWindows" : [ {
          "startTime" : 1372899600000,
          "endTime" : 1372924800000
        } ],
        "timeWindowPolicy" : "COMPLETE_ORDER_WITHIN_TIME_WINDOW"
      },
      "attributes" : [ "AoC137" ],
      "incompatibleAttributes" : [ ],
      "stopSequence" : 1
    }
  }, {
    "id" : 151413,
    "metadata" : {
      "name" : "mID151413"
    },
    "depot" : 0,
    "location" : {
      "latitude" : 51541214,
      "longitude" : -901293,
      "metadata" : { }
    },
    "pickupDuration" : 0,
    "serviceDuration" : 360000,
    "unloadDuration" : 0,
    "durationPerVisit" : 0,
    "priority" : 2,
    "jobType" : "DROP",
    "constraints" : {
      "demand" : {
        "values" : [ 0.0, 0.0, 0.0, 0.0 ]
      },
      "pickupTimeWindows" : [ {
        "startTime" : 1372896060000,
        "endTime" : 1372982340000
      } ],
      "timeWindowConstraints" : {
        "serviceTimeWindows" : [ {
          "startTime" : 1372899600000,
          "endTime" : 1372924800000
        } ],
        "timeWindowPolicy" : "COMPLETE_ORDER_WITHIN_TIME_WINDOW"
      },
      "attributes" : [ "AoC137" ],
      "incompatibleAttributes" : [ ],
      "stopSequence" : 1
    }
  }, {
    "id" : 151414,
    "metadata" : {
      "name" : "mID151414"
    },
    "depot" : 0,
    "location" : {
      "latitude" : 51657831,
      "longitude" : -709595,
      "metadata" : { }
    },
    "pickupDuration" : 0,
    "serviceDuration" : 360000,
    "unloadDuration" : 0,
    "durationPerVisit" : 0,
    "priority" : 2,
    "jobType" : "DROP",
    "constraints" : {
      "demand" : {
        "values" : [ 0.0, 0.0, 0.0, 0.0 ]
      },
      "pickupTimeWindows" : [ {
        "startTime" : 1372896060000,
        "endTime" : 1372982340000
      } ],
      "timeWindowConstraints" : {
        "serviceTimeWindows" : [ {
          "startTime" : 1372899600000,
          "endTime" : 1372924800000
        } ],
        "timeWindowPolicy" : "COMPLETE_ORDER_WITHIN_TIME_WINDOW"
      },
      "attributes" : [ "AoC137" ],
      "incompatibleAttributes" : [ ],
      "stopSequence" : 1
    }
  }, {
    "id" : 151415,
    "metadata" : {
      "name" : "mID151415"
    },
    "depot" : 0,
    "location" : {
      "latitude" : 51571381,
      "longitude" : -775808,
      "metadata" : { }
    },
    "pickupDuration" : 0,
    "serviceDuration" : 360000,
    "unloadDuration" : 0,
    "durationPerVisit" : 0,
    "priority" : 2,
    "jobType" : "DROP",
    "constraints" : {
      "demand" : {
        "values" : [ 0.0, 0.0, 0.0, 0.0 ]
      },
      "pickupTimeWindows" : [ {
        "startTime" : 1372896060000,
        "endTime" : 1372982340000
      } ],
      "timeWindowConstraints" : {
        "serviceTimeWindows" : [ {
          "startTime" : 1372899600000,
          "endTime" : 1372924800000
        } ],
        "timeWindowPolicy" : "COMPLETE_ORDER_WITHIN_TIME_WINDOW"
      },
      "attributes" : [ "AoC137" ],
      "incompatibleAttributes" : [ ],
      "stopSequence" : 1
    }
  }, {
    "id" : 151416,
    "metadata" : {
      "name" : "mID151416"
    },
    "depot" : 0,
    "location" : {
      "latitude" : 51816509,
      "longitude" : -839046,
      "metadata" : { }
    },
    "pickupDuration" : 0,
    "serviceDuration" : 360000,
    "unloadDuration" : 0,
    "durationPerVisit" : 0,
    "priority" : 2,
    "jobType" : "DROP",
    "constraints" : {
      "demand" : {
        "values" : [ 0.0, 0.0, 0.0, 0.0 ]
      },
      "pickupTimeWindows" : [ {
        "startTime" : 1372896060000,
        "endTime" : 1372982340000
      } ],
      "timeWindowConstraints" : {
        "serviceTimeWindows" : [ {
          "startTime" : 1372899600000,
          "endTime" : 1372924800000
        } ],
        "timeWindowPolicy" : "COMPLETE_ORDER_WITHIN_TIME_WINDOW"
      },
      "attributes" : [ "AoC137" ],
      "incompatibleAttributes" : [ ],
      "stopSequence" : 1
    }
  }, {
    "id" : 151417,
    "metadata" : {
      "name" : "mID151417"
    },
    "depot" : 0,
    "location" : {
      "latitude" : 51515284,
      "longitude" : -304991,
      "metadata" : { }
    },
    "pickupDuration" : 0,
    "serviceDuration" : 360000,
    "unloadDuration" : 0,
    "durationPerVisit" : 0,
    "priority" : 2,
    "jobType" : "DROP",
    "constraints" : {
      "demand" : {
        "values" : [ 0.0, 0.0, 0.0, 0.0 ]
      },
      "pickupTimeWindows" : [ {
        "startTime" : 1372896060000,
        "endTime" : 1372982340000
      } ],
      "timeWindowConstraints" : {
        "serviceTimeWindows" : [ {
          "startTime" : 1372899600000,
          "endTime" : 1372924800000
        } ],
        "timeWindowPolicy" : "COMPLETE_ORDER_WITHIN_TIME_WINDOW"
      },
      "attributes" : [ "AoC137" ],
      "incompatibleAttributes" : [ ],
      "stopSequence" : 1
    }
  }, {
    "id" : 151418,
    "metadata" : {
      "name" : "mID151418"
    },
    "depot" : 0,
    "location" : {
      "latitude" : 51444526,
      "longitude" : -205642,
      "metadata" : { }
    },
    "pickupDuration" : 0,
    "serviceDuration" : 360000,
    "unloadDuration" : 0,
    "durationPerVisit" : 0,
    "priority" : 2,
    "jobType" : "DROP",
    "constraints" : {
      "demand" : {
        "values" : [ 0.0, 0.0, 0.0, 0.0 ]
      },
      "pickupTimeWindows" : [ {
        "startTime" : 1372896060000,
        "endTime" : 1372982340000
      } ],
      "timeWindowConstraints" : {
        "serviceTimeWindows" : [ {
          "startTime" : 1372899600000,
          "endTime" : 1372924800000
        } ],
        "timeWindowPolicy" : "COMPLETE_ORDER_WITHIN_TIME_WINDOW"
      },
      "attributes" : [ "AoC137" ],
      "incompatibleAttributes" : [ ],
      "stopSequence" : 1
    }
  }, {
    "id" : 151419,
    "metadata" : {
      "name" : "mID151419"
    },
    "depot" : 0,
    "location" : {
      "latitude" : 51599215,
      "longitude" : -1125364,
      "metadata" : { }
    },
    "pickupDuration" : 0,
    "serviceDuration" : 360000,
    "unloadDuration" : 0,
    "durationPerVisit" : 0,
    "priority" : 2,
    "jobType" : "DROP",
    "constraints" : {
      "demand" : {
        "values" : [ 0.0, 0.0, 0.0, 0.0 ]
      },
      "pickupTimeWindows" : [ {
        "startTime" : 1372896060000,
        "endTime" : 1372982340000
      } ],
      "timeWindowConstraints" : {
        "serviceTimeWindows" : [ {
          "startTime" : 1372899600000,
          "endTime" : 1372924800000
        } ],
        "timeWindowPolicy" : "COMPLETE_ORDER_WITHIN_TIME_WINDOW"
      },
      "attributes" : [ "AoC137" ],
      "incompatibleAttributes" : [ ],
      "stopSequence" : 1
    }
  }, {
    "id" : 151420,
    "metadata" : {
      "name" : "mID151420"
    },
    "depot" : 0,
    "location" : {
      "latitude" : 51521292,
      "longitude" : -1139858,
      "metadata" : { }
    },
    "pickupDuration" : 0,
    "serviceDuration" : 360000,
    "unloadDuration" : 0,
    "durationPerVisit" : 0,
    "priority" : 2,
    "jobType" : "DROP",
    "constraints" : {
      "demand" : {
        "values" : [ 0.0, 0.0, 0.0, 0.0 ]
      },
      "pickupTimeWindows" : [ {
        "startTime" : 1372896060000,
        "endTime" : 1372982340000
      } ],
      "timeWindowConstraints" : {
        "serviceTimeWindows" : [ {
          "startTime" : 1372899600000,
          "endTime" : 1372924800000
        } ],
        "timeWindowPolicy" : "COMPLETE_ORDER_WITHIN_TIME_WINDOW"
      },
      "attributes" : [ "AoC137" ],
      "incompatibleAttributes" : [ ],
      "stopSequence" : 1
    }
  }, {
    "id" : 151421,
    "metadata" : {
      "name" : "mID151421"
    },
    "depot" : 0,
    "location" : {
      "latitude" : 51329455,
      "longitude" : -410568,
      "metadata" : { }
    },
    "pickupDuration" : 0,
    "serviceDuration" : 360000,
    "unloadDuration" : 0,
    "durationPerVisit" : 0,
    "priority" : 2,
    "jobType" : "DROP",
    "constraints" : {
      "demand" : {
        "values" : [ 0.0, 0.0, 0.0, 0.0 ]
      },
      "pickupTimeWindows" : [ {
        "startTime" : 1372896060000,
        "endTime" : 1372982340000
      } ],
      "timeWindowConstraints" : {
        "serviceTimeWindows" : [ {
          "startTime" : 1372899600000,
          "endTime" : 1372924800000
        } ],
        "timeWindowPolicy" : "COMPLETE_ORDER_WITHIN_TIME_WINDOW"
      },
      "attributes" : [ "AoC137" ],
      "incompatibleAttributes" : [ ],
      "stopSequence" : 1
    }
  }, {
    "id" : 151422,
    "metadata" : {
      "name" : "mID151422"
    },
    "depot" : 0,
    "location" : {
      "latitude" : 51751558,
      "longitude" : -1297959,
      "metadata" : { }
    },
    "pickupDuration" : 0,
    "serviceDuration" : 360000,
    "unloadDuration" : 0,
    "durationPerVisit" : 0,
    "priority" : 2,
    "jobType" : "DROP",
    "constraints" : {
      "demand" : {
        "values" : [ 0.0, 0.0, 0.0, 0.0 ]
      },
      "pickupTimeWindows" : [ {
        "startTime" : 1372896060000,
        "endTime" : 1372982340000
      } ],
      "timeWindowConstraints" : {
        "serviceTimeWindows" : [ {
          "startTime" : 1372899600000,
          "endTime" : 1372924800000
        } ],
        "timeWindowPolicy" : "COMPLETE_ORDER_WITHIN_TIME_WINDOW"
      },
      "attributes" : [ "AoC137" ],
      "incompatibleAttributes" : [ ],
      "stopSequence" : 1
    }
  }, {
    "id" : 151423,
    "metadata" : {
      "name" : "mID151423"
    },
    "depot" : 0,
    "location" : {
      "latitude" : 51424567,
      "longitude" : -216609,
      "metadata" : { }
    },
    "pickupDuration" : 0,
    "serviceDuration" : 360000,
    "unloadDuration" : 0,
    "durationPerVisit" : 0,
    "priority" : 2,
    "jobType" : "DROP",
    "constraints" : {
      "demand" : {
        "values" : [ 0.0, 0.0, 0.0, 0.0 ]
      },
      "pickupTimeWindows" : [ {
        "startTime" : 1372896060000,
        "endTime" : 1372982340000
      } ],
      "timeWindowConstraints" : {
        "serviceTimeWindows" : [ {
          "startTime" : 1372899600000,
          "endTime" : 1372924800000
        } ],
        "timeWindowPolicy" : "COMPLETE_ORDER_WITHIN_TIME_WINDOW"
      },
      "attributes" : [ "AoC137" ],
      "incompatibleAttributes" : [ ],
      "stopSequence" : 1
    }
  }, {
    "id" : 151424,
    "metadata" : {
      "name" : "mID151424"
    },
    "depot" : 0,
    "location" : {
      "latitude" : 51786908,
      "longitude" : -1484809,
      "metadata" : { }
    },
    "pickupDuration" : 0,
    "serviceDuration" : 360000,
    "unloadDuration" : 0,
    "durationPerVisit" : 0,
    "priority" : 2,
    "jobType" : "DROP",
    "constraints" : {
      "demand" : {
        "values" : [ 0.0, 0.0, 0.0, 0.0 ]
      },
      "pickupTimeWindows" : [ {
        "startTime" : 1372896060000,
        "endTime" : 1372982340000
      } ],
      "timeWindowConstraints" : {
        "serviceTimeWindows" : [ {
          "startTime" : 1372899600000,
          "endTime" : 1372924800000
        } ],
        "timeWindowPolicy" : "COMPLETE_ORDER_WITHIN_TIME_WINDOW"
      },
      "attributes" : [ "AoC137" ],
      "incompatibleAttributes" : [ ],
      "stopSequence" : 1
    }
  }, {
    "id" : 151425,
    "metadata" : {
      "name" : "mID151425"
    },
    "depot" : 0,
    "location" : {
      "latitude" : 51706099,
      "longitude" : -416925,
      "metadata" : { }
    },
    "pickupDuration" : 0,
    "serviceDuration" : 360000,
    "unloadDuration" : 0,
    "durationPerVisit" : 0,
    "priority" : 2,
    "jobType" : "DROP",
    "constraints" : {
      "demand" : {
        "values" : [ 0.0, 0.0, 0.0, 0.0 ]
      },
      "pickupTimeWindows" : [ {
        "startTime" : 1372896060000,
        "endTime" : 1372982340000
      } ],
      "timeWindowConstraints" : {
        "serviceTimeWindows" : [ {
          "startTime" : 1372899600000,
          "endTime" : 1372924800000
        } ],
        "timeWindowPolicy" : "COMPLETE_ORDER_WITHIN_TIME_WINDOW"
      },
      "attributes" : [ "AoC137" ],
      "incompatibleAttributes" : [ ],
      "stopSequence" : 1
    }
  }, {
    "id" : 151426,
    "metadata" : {
      "name" : "mID151426"
    },
    "depot" : 0,
    "location" : {
      "latitude" : 51110552,
      "longitude" : -747982,
      "metadata" : { }
    },
    "pickupDuration" : 0,
    "serviceDuration" : 360000,
    "unloadDuration" : 0,
    "durationPerVisit" : 0,
    "priority" : 2,
    "jobType" : "DROP",
    "constraints" : {
      "demand" : {
        "values" : [ 0.0, 0.0, 0.0, 0.0 ]
      },
      "pickupTimeWindows" : [ {
        "startTime" : 1372896060000,
        "endTime" : 1372982340000
      } ],
      "timeWindowConstraints" : {
        "serviceTimeWindows" : [ {
          "startTime" : 1372899600000,
          "endTime" : 1372924800000
        } ],
        "timeWindowPolicy" : "COMPLETE_ORDER_WITHIN_TIME_WINDOW"
      },
      "attributes" : [ "AoC137" ],
      "incompatibleAttributes" : [ ],
      "stopSequence" : 1
    }
  }, {
    "id" : 151427,
    "metadata" : {
      "name" : "mID151427"
    },
    "depot" : 0,
    "location" : {
      "latitude" : 51530753,
      "longitude" : -373852,
      "metadata" : { }
    },
    "pickupDuration" : 0,
    "serviceDuration" : 360000,
    "unloadDuration" : 0,
    "durationPerVisit" : 0,
    "priority" : 2,
    "jobType" : "DROP",
    "constraints" : {
      "demand" : {
        "values" : [ 0.0, 0.0, 0.0, 0.0 ]
      },
      "pickupTimeWindows" : [ {
        "startTime" : 1372896060000,
        "endTime" : 1372982340000
      } ],
      "timeWindowConstraints" : {
        "serviceTimeWindows" : [ {
          "startTime" : 1372899600000,
          "endTime" : 1372924800000
        } ],
        "timeWindowPolicy" : "COMPLETE_ORDER_WITHIN_TIME_WINDOW"
      },
      "attributes" : [ "AoC137" ],
      "incompatibleAttributes" : [ ],
      "stopSequence" : 1
    }
  }, {
    "id" : 151428,
    "metadata" : {
      "name" : "mID151428"
    },
    "depot" : 0,
    "location" : {
      "latitude" : 51561807,
      "longitude" : -1134593,
      "metadata" : { }
    },
    "pickupDuration" : 0,
    "serviceDuration" : 360000,
    "unloadDuration" : 0,
    "durationPerVisit" : 0,
    "priority" : 2,
    "jobType" : "DROP",
    "constraints" : {
      "demand" : {
        "values" : [ 0.0, 0.0, 0.0, 0.0 ]
      },
      "pickupTimeWindows" : [ {
        "startTime" : 1372896060000,
        "endTime" : 1372982340000
      } ],
      "timeWindowConstraints" : {
        "serviceTimeWindows" : [ {
          "startTime" : 1372899600000,
          "endTime" : 1372924800000
        } ],
        "timeWindowPolicy" : "COMPLETE_ORDER_WITHIN_TIME_WINDOW"
      },
      "attributes" : [ "AoC137" ],
      "incompatibleAttributes" : [ ],
      "stopSequence" : 1
    }
  }, {
    "id" : 151429,
    "metadata" : {
      "name" : "mID151429"
    },
    "depot" : 0,
    "location" : {
      "latitude" : 51588453,
      "longitude" : -1425681,
      "metadata" : { }
    },
    "pickupDuration" : 0,
    "serviceDuration" : 360000,
    "unloadDuration" : 0,
    "durationPerVisit" : 0,
    "priority" : 2,
    "jobType" : "DROP",
    "constraints" : {
      "demand" : {
        "values" : [ 0.0, 0.0, 0.0, 0.0 ]
      },
      "pickupTimeWindows" : [ {
        "startTime" : 1372896060000,
        "endTime" : 1372982340000
      } ],
      "timeWindowConstraints" : {
        "serviceTimeWindows" : [ {
          "startTime" : 1372899600000,
          "endTime" : 1372924800000
        } ],
        "timeWindowPolicy" : "COMPLETE_ORDER_WITHIN_TIME_WINDOW"
      },
      "attributes" : [ "AoC137" ],
      "incompatibleAttributes" : [ ],
      "stopSequence" : 1
    }
  }, {
    "id" : 151430,
    "metadata" : {
      "name" : "mID151430"
    },
    "depot" : 0,
    "location" : {
      "latitude" : 51410896,
      "longitude" : -674010,
      "metadata" : { }
    },
    "pickupDuration" : 0,
    "serviceDuration" : 360000,
    "unloadDuration" : 0,
    "durationPerVisit" : 0,
    "priority" : 2,
    "jobType" : "DROP",
    "constraints" : {
      "demand" : {
        "values" : [ 0.0, 0.0, 0.0, 0.0 ]
      },
      "pickupTimeWindows" : [ {
        "startTime" : 1372896060000,
        "endTime" : 1372982340000
      } ],
      "timeWindowConstraints" : {
        "serviceTimeWindows" : [ {
          "startTime" : 1372899600000,
          "endTime" : 1372924800000
        } ],
        "timeWindowPolicy" : "COMPLETE_ORDER_WITHIN_TIME_WINDOW"
      },
      "attributes" : [ "AoC137" ],
      "incompatibleAttributes" : [ ],
      "stopSequence" : 1
    }
  }, {
    "id" : 151431,
    "metadata" : {
      "name" : "mID151431"
    },
    "depot" : 0,
    "location" : {
      "latitude" : 51505542,
      "longitude" : -150161,
      "metadata" : { }
    },
    "pickupDuration" : 0,
    "serviceDuration" : 360000,
    "unloadDuration" : 0,
    "durationPerVisit" : 0,
    "priority" : 2,
    "jobType" : "DROP",
    "constraints" : {
      "demand" : {
        "values" : [ 0.0, 0.0, 0.0, 0.0 ]
      },
      "pickupTimeWindows" : [ {
        "startTime" : 1372896060000,
        "endTime" : 1372982340000
      } ],
      "timeWindowConstraints" : {
        "serviceTimeWindows" : [ {
          "startTime" : 1372899600000,
          "endTime" : 1372924800000
        } ],
        "timeWindowPolicy" : "COMPLETE_ORDER_WITHIN_TIME_WINDOW"
      },
      "attributes" : [ "AoC137" ],
      "incompatibleAttributes" : [ ],
      "stopSequence" : 1
    }
  }, {
    "id" : 151432,
    "metadata" : {
      "name" : "mID151432"
    },
    "depot" : 0,
    "location" : {
      "latitude" : 51537632,
      "longitude" : -905893,
      "metadata" : { }
    },
    "pickupDuration" : 0,
    "serviceDuration" : 360000,
    "unloadDuration" : 0,
    "durationPerVisit" : 0,
    "priority" : 2,
    "jobType" : "DROP",
    "constraints" : {
      "demand" : {
        "values" : [ 0.0, 0.0, 0.0, 0.0 ]
      },
      "pickupTimeWindows" : [ {
        "startTime" : 1372896060000,
        "endTime" : 1372982340000
      } ],
      "timeWindowConstraints" : {
        "serviceTimeWindows" : [ {
          "startTime" : 1372899600000,
          "endTime" : 1372924800000
        } ],
        "timeWindowPolicy" : "COMPLETE_ORDER_WITHIN_TIME_WINDOW"
      },
      "attributes" : [ "AoC137" ],
      "incompatibleAttributes" : [ ],
      "stopSequence" : 1
    }
  }, {
    "id" : 151433,
    "metadata" : {
      "name" : "mID151433"
    },
    "depot" : 0,
    "location" : {
      "latitude" : 51480867,
      "longitude" : -612043,
      "metadata" : { }
    },
    "pickupDuration" : 0,
    "serviceDuration" : 360000,
    "unloadDuration" : 0,
    "durationPerVisit" : 0,
    "priority" : 2,
    "jobType" : "DROP",
    "constraints" : {
      "demand" : {
        "values" : [ 0.0, 0.0, 0.0, 0.0 ]
      },
      "pickupTimeWindows" : [ {
        "startTime" : 1372896060000,
        "endTime" : 1372982340000
      } ],
      "timeWindowConstraints" : {
        "serviceTimeWindows" : [ {
          "startTime" : 1372899600000,
          "endTime" : 1372924800000
        } ],
        "timeWindowPolicy" : "COMPLETE_ORDER_WITHIN_TIME_WINDOW"
      },
      "attributes" : [ "AoC137" ],
      "incompatibleAttributes" : [ ],
      "stopSequence" : 1
    }
  }, {
    "id" : 151434,
    "metadata" : {
      "name" : "mID151434"
    },
    "depot" : 0,
    "location" : {
      "latitude" : 51421154,
      "longitude" : -735629,
      "metadata" : { }
    },
    "pickupDuration" : 0,
    "serviceDuration" : 360000,
    "unloadDuration" : 0,
    "durationPerVisit" : 0,
    "priority" : 2,
    "jobType" : "DROP",
    "constraints" : {
      "demand" : {
        "values" : [ 0.0, 0.0, 0.0, 0.0 ]
      },
      "pickupTimeWindows" : [ {
        "startTime" : 1372896060000,
        "endTime" : 1372982340000
      } ],
      "timeWindowConstraints" : {
        "serviceTimeWindows" : [ {
          "startTime" : 1372899600000,
          "endTime" : 1372924800000
        } ],
        "timeWindowPolicy" : "COMPLETE_ORDER_WITHIN_TIME_WINDOW"
      },
      "attributes" : [ "AoC137" ],
      "incompatibleAttributes" : [ ],
      "stopSequence" : 1
    }
  }, {
    "id" : 151435,
    "metadata" : {
      "name" : "mID151435"
    },
    "depot" : 0,
    "location" : {
      "latitude" : 51764351,
      "longitude" : -1261070,
      "metadata" : { }
    },
    "pickupDuration" : 0,
    "serviceDuration" : 360000,
    "unloadDuration" : 0,
    "durationPerVisit" : 0,
    "priority" : 2,
    "jobType" : "DROP",
    "constraints" : {
      "demand" : {
        "values" : [ 0.0, 0.0, 0.0, 0.0 ]
      },
      "pickupTimeWindows" : [ {
        "startTime" : 1372896060000,
        "endTime" : 1372982340000
      } ],
      "timeWindowConstraints" : {
        "serviceTimeWindows" : [ {
          "startTime" : 1372899600000,
          "endTime" : 1372924800000
        } ],
        "timeWindowPolicy" : "COMPLETE_ORDER_WITHIN_TIME_WINDOW"
      },
      "attributes" : [ "AoC137" ],
      "incompatibleAttributes" : [ ],
      "stopSequence" : 1
    }
  }, {
    "id" : 151436,
    "metadata" : {
      "name" : "mID151436"
    },
    "depot" : 0,
    "location" : {
      "latitude" : 51478312,
      "longitude" : -1075147,
      "metadata" : { }
    },
    "pickupDuration" : 0,
    "serviceDuration" : 360000,
    "unloadDuration" : 0,
    "durationPerVisit" : 0,
    "priority" : 2,
    "jobType" : "DROP",
    "constraints" : {
      "demand" : {
        "values" : [ 0.0, 0.0, 0.0, 0.0 ]
      },
      "pickupTimeWindows" : [ {
        "startTime" : 1372896060000,
        "endTime" : 1372982340000
      } ],
      "timeWindowConstraints" : {
        "serviceTimeWindows" : [ {
          "startTime" : 1372899600000,
          "endTime" : 1372924800000
        } ],
        "timeWindowPolicy" : "COMPLETE_ORDER_WITHIN_TIME_WINDOW"
      },
      "attributes" : [ "AoC137" ],
      "incompatibleAttributes" : [ ],
      "stopSequence" : 1
    }
  }, {
    "id" : 151474,
    "metadata" : {
      "name" : "mID151474"
    },
    "depot" : 0,
    "location" : {
      "latitude" : 51515897,
      "longitude" : -174311,
      "metadata" : { }
    },
    "pickupDuration" : 0,
    "serviceDuration" : 360000,
    "unloadDuration" : 0,
    "durationPerVisit" : 0,
    "priority" : 2,
    "jobType" : "DROP",
    "constraints" : {
      "demand" : {
        "values" : [ 0.0, 0.0, 0.0, 0.0 ]
      },
      "pickupTimeWindows" : [ {
        "startTime" : 1372896060000,
        "endTime" : 1372982340000
      } ],
      "timeWindowConstraints" : {
        "serviceTimeWindows" : [ {
          "startTime" : 1372899600000,
          "endTime" : 1372924800000
        } ],
        "timeWindowPolicy" : "COMPLETE_ORDER_WITHIN_TIME_WINDOW"
      },
      "attributes" : [ "AoC137" ],
      "incompatibleAttributes" : [ ],
      "stopSequence" : 1
    }
  } ],
  "schedules" : [ {
    "timeWindow" : {
      "startTime" : 1372896060000,
      "endTime" : 1372917600000
    },
    "runs" : [ ],
    "breaks" : [ ],
    "constraints" : { },
    "resource" : {
      "metadata" : {
        "name" : "OV61XBS"
      },
      "id" : 1836,
      "depot" : 0,
      "hourCost" : 12.5,
      "kmCost" : 0.24860162,
      "routingProfile" : {
        "vehicleType" : "Default",
        "drivingTimeCorrectionFactor" : 1.1,
        "maxSpeed" : 64.36
      },
      "constraints" : {
        "runDistanceLimit" : "Infinity",
        "runWorkingTimeLimit" : 9223372036854775807,
        "scheduleWorkingTimeLimit" : 9223372036854775807,
        "scheduleDrivingTimeLimit" : 21600000,
        "addonCollectionDropDuration" : 0,
        "addonPickupDuration" : 2700000,
        "capacity" : {
          "values" : [ 28.0, 0.0, 0.0, 0.0 ]
        },
        "attributes" : [ "cargo=0.0=0.0=0.0=0.0", "AoC137", "Neil" ],
        "homeLocations" : {
          "startLocation" : {
            "latitude" : 51466180,
            "longitude" : -500106,
            "metadata" : { }
          },
          "endLocation" : {
            "latitude" : 51466180,
            "longitude" : -500106,
            "metadata" : { }
          }
        },
        "fixedStartTime" : -1
      }
    }
  }, {
    "timeWindow" : {
      "startTime" : 1372896060000,
      "endTime" : 1372917600000
    },
    "runs" : [ ],
    "breaks" : [ ],
    "constraints" : { },
    "resource" : {
      "metadata" : {
        "name" : "FV10HDD"
      },
      "id" : 1832,
      "depot" : 0,
      "hourCost" : 12.5,
      "kmCost" : 0.24860162,
      "routingProfile" : {
        "vehicleType" : "Default",
        "drivingTimeCorrectionFactor" : 1.1,
        "maxSpeed" : 64.36
      },
      "constraints" : {
        "runDistanceLimit" : "Infinity",
        "runWorkingTimeLimit" : 9223372036854775807,
        "scheduleWorkingTimeLimit" : 9223372036854775807,
        "scheduleDrivingTimeLimit" : 21600000,
        "addonCollectionDropDuration" : 0,
        "addonPickupDuration" : 2700000,
        "capacity" : {
          "values" : [ 14.0, 0.0, 0.0, 0.0 ]
        },
        "attributes" : [ "cargo=0.0=0.0=0.0=0.0", "AoC137", "Ivars" ],
        "homeLocations" : {
          "startLocation" : {
            "latitude" : 51466180,
            "longitude" : -500106,
            "metadata" : { }
          },
          "endLocation" : {
            "latitude" : 51466180,
            "longitude" : -500106,
            "metadata" : { }
          }
        },
        "fixedStartTime" : -1
      }
    }
  }, {
    "timeWindow" : {
      "startTime" : 1372896060000,
      "endTime" : 1372917600000
    },
    "runs" : [ ],
    "breaks" : [ ],
    "constraints" : { },
    "resource" : {
      "metadata" : {
        "name" : "OU07 MDK"
      },
      "id" : 1834,
      "depot" : 0,
      "hourCost" : 12.5,
      "kmCost" : 0.24860162,
      "routingProfile" : {
        "vehicleType" : "Default",
        "drivingTimeCorrectionFactor" : 1.1,
        "maxSpeed" : 64.36
      },
      "constraints" : {
        "runDistanceLimit" : "Infinity",
        "runWorkingTimeLimit" : 9223372036854775807,
        "scheduleWorkingTimeLimit" : 9223372036854775807,
        "scheduleDrivingTimeLimit" : 21600000,
        "addonCollectionDropDuration" : 0,
        "addonPickupDuration" : 2700000,
        "capacity" : {
          "values" : [ 28.0, 0.0, 0.0, 0.0 ]
        },
        "attributes" : [ "cargo=0.0=0.0=0.0=0.0", "AoC137", "Adi" ],
        "homeLocations" : {
          "startLocation" : {
            "latitude" : 51466180,
            "longitude" : -500106,
            "metadata" : { }
          },
          "endLocation" : {
            "latitude" : 51466180,
            "longitude" : -500106,
            "metadata" : { }
          }
        },
        "fixedStartTime" : -1
      }
    }
  }, {
    "timeWindow" : {
      "startTime" : 1372896060000,
      "endTime" : 1372917600000
    },
    "runs" : [ ],
    "breaks" : [ ],
    "constraints" : { },
    "resource" : {
      "metadata" : {
        "name" : "BJ61UPX"
      },
      "id" : 1828,
      "depot" : 0,
      "hourCost" : 12.5,
      "kmCost" : 0.24860162,
      "routingProfile" : {
        "vehicleType" : "Default",
        "drivingTimeCorrectionFactor" : 1.1,
        "maxSpeed" : 64.36
      },
      "constraints" : {
        "runDistanceLimit" : "Infinity",
        "runWorkingTimeLimit" : 9223372036854775807,
        "scheduleWorkingTimeLimit" : 9223372036854775807,
        "scheduleDrivingTimeLimit" : 21600000,
        "addonCollectionDropDuration" : 0,
        "addonPickupDuration" : 2700000,
        "capacity" : {
          "values" : [ 28.0, 0.0, 0.0, 0.0 ]
        },
        "attributes" : [ "cargo=0.0=0.0=0.0=0.0", "Zoran", "AoC137" ],
        "homeLocations" : {
          "startLocation" : {
            "latitude" : 51466180,
            "longitude" : -500106,
            "metadata" : { }
          },
          "endLocation" : {
            "latitude" : 51466180,
            "longitude" : -500106,
            "metadata" : { }
          }
        },
        "fixedStartTime" : -1
      }
    }
  }, {
    "timeWindow" : {
      "startTime" : 1372896060000,
      "endTime" : 1372917600000
    },
    "runs" : [ ],
    "breaks" : [ ],
    "constraints" : { },
    "resource" : {
      "metadata" : {
        "name" : "BJ61UPY"
      },
      "id" : 1830,
      "depot" : 0,
      "hourCost" : 12.5,
      "kmCost" : 0.24860162,
      "routingProfile" : {
        "vehicleType" : "Default",
        "drivingTimeCorrectionFactor" : 1.1,
        "maxSpeed" : 64.36
      },
      "constraints" : {
        "runDistanceLimit" : "Infinity",
        "runWorkingTimeLimit" : 9223372036854775807,
        "scheduleWorkingTimeLimit" : 9223372036854775807,
        "scheduleDrivingTimeLimit" : 21600000,
        "addonCollectionDropDuration" : 0,
        "addonPickupDuration" : 2700000,
        "capacity" : {
          "values" : [ 28.0, 0.0, 0.0, 0.0 ]
        },
        "attributes" : [ "cargo=0.0=0.0=0.0=0.0", "AoC137", "Ed" ],
        "homeLocations" : {
          "startLocation" : {
            "latitude" : 51466180,
            "longitude" : -500106,
            "metadata" : { }
          },
          "endLocation" : {
            "latitude" : 51466180,
            "longitude" : -500106,
            "metadata" : { }
          }
        },
        "fixedStartTime" : -1
      }
    }
  }, {
    "timeWindow" : {
      "startTime" : 1372896060000,
      "endTime" : 1372917600000
    },
    "runs" : [ ],
    "breaks" : [ ],
    "constraints" : { },
    "resource" : {
      "metadata" : {
        "name" : "WJ620FV"
      },
      "id" : 1840,
      "depot" : 0,
      "hourCost" : 12.5,
      "kmCost" : 0.24860162,
      "routingProfile" : {
        "vehicleType" : "Default",
        "drivingTimeCorrectionFactor" : 1.1,
        "maxSpeed" : 64.36
      },
      "constraints" : {
        "runDistanceLimit" : "Infinity",
        "runWorkingTimeLimit" : 9223372036854775807,
        "scheduleWorkingTimeLimit" : 9223372036854775807,
        "scheduleDrivingTimeLimit" : 21600000,
        "addonCollectionDropDuration" : 0,
        "addonPickupDuration" : 2700000,
        "capacity" : {
          "values" : [ 28.0, 0.0, 0.0, 0.0 ]
        },
        "attributes" : [ "cargo=0.0=0.0=0.0=0.0", "AoC137", "Dirk" ],
        "homeLocations" : {
          "startLocation" : {
            "latitude" : 51466180,
            "longitude" : -500106,
            "metadata" : { }
          },
          "endLocation" : {
            "latitude" : 51466180,
            "longitude" : -500106,
            "metadata" : { }
          }
        },
        "fixedStartTime" : -1
      }
    }
  }, {
    "timeWindow" : {
      "startTime" : 1372896060000,
      "endTime" : 1372917600000
    },
    "runs" : [ ],
    "breaks" : [ ],
    "constraints" : { },
    "resource" : {
      "metadata" : {
        "name" : "WL60DKE"
      },
      "id" : 1842,
      "depot" : 0,
      "hourCost" : 12.5,
      "kmCost" : 0.24860162,
      "routingProfile" : {
        "vehicleType" : "Default",
        "drivingTimeCorrectionFactor" : 1.1,
        "maxSpeed" : 64.36
      },
      "constraints" : {
        "runDistanceLimit" : "Infinity",
        "runWorkingTimeLimit" : 9223372036854775807,
        "scheduleWorkingTimeLimit" : 9223372036854775807,
        "scheduleDrivingTimeLimit" : 21600000,
        "addonCollectionDropDuration" : 0,
        "addonPickupDuration" : 2700000,
        "capacity" : {
          "values" : [ 14.0, 0.0, 0.0, 0.0 ]
        },
        "attributes" : [ "cargo=0.0=0.0=0.0=0.0", "AoC137", "Baker" ],
        "homeLocations" : {
          "startLocation" : {
            "latitude" : 51466180,
            "longitude" : -500106,
            "metadata" : { }
          },
          "endLocation" : {
            "latitude" : 51466180,
            "longitude" : -500106,
            "metadata" : { }
          }
        },
        "fixedStartTime" : -1
      }
    }
  } ],
  "depots" : [ {
    "id" : 0,
    "location" : {
      "latitude" : 51466180,
      "longitude" : -500106,
      "metadata" : { }
    },
    "constraints" : {
      "allowCollectionsWhileDrivingHome" : false,
      "allowDeliveriesWhileDrivingFromHome" : false,
      "availabilityWindows" : [ {
        "startTime" : 0,
        "endTime" : 57657355200332
      } ]
    }
  } ],
  "constraints" : {
    "allowMultipleRunsPerSchedule" : true,
    "consolidateSameSiteJobs" : "NONE"
  }
}