{
  "jobs" : [ {
    "id" : 164307,
    "metadata" : {
      "name" : "mID164307"
    },
    "depot" : 0,
    "location" : {
      "latitude" : 51514661,
      "longitude" : -319283,
      "metadata" : { }
    },
    "pickupDuration" : 0,
    "serviceDuration" : 360000,
    "unloadDuration" : 0,
    "durationPerVisit" : 0,
    "priority" : 2,
    "jobType" : "DROP",
    "constraints" : {
      "demand" : {
        "values" : [ 0.0, 1.0, 0.0, 0.0 ]
      },
      "pickupTimeWindows" : [ {
        "startTime" : 1373068860000,
        "endTime" : 1373155140000
      } ],
      "timeWindowConstraints" : {
        "serviceTimeWindows" : [ {
          "startTime" : 1373072400000,
          "endTime" : 1373097600000
        } ],
        "timeWindowPolicy" : "COMPLETE_ORDER_WITHIN_TIME_WINDOW"
      },
      "attributes" : [ "AoC108" ],
      "incompatibleAttributes" : [ ],
      "stopSequence" : 1
    }
  }, {
    "id" : 164308,
    "metadata" : {
      "name" : "mID164308"
    },
    "depot" : 0,
    "location" : {
      "latitude" : 51364970,
      "longitude" : -399455,
      "metadata" : { }
    },
    "pickupDuration" : 0,
    "serviceDuration" : 360000,
    "unloadDuration" : 0,
    "durationPerVisit" : 0,
    "priority" : 2,
    "jobType" : "DROP",
    "constraints" : {
      "demand" : {
        "values" : [ 0.0, 1.0, 0.0, 0.0 ]
      },
      "pickupTimeWindows" : [ {
        "startTime" : 1373068860000,
        "endTime" : 1373155140000
      } ],
      "timeWindowConstraints" : {
        "serviceTimeWindows" : [ {
          "startTime" : 1373072400000,
          "endTime" : 1373097600000
        } ],
        "timeWindowPolicy" : "COMPLETE_ORDER_WITHIN_TIME_WINDOW"
      },
      "attributes" : [ "AoC108" ],
      "incompatibleAttributes" : [ ],
      "stopSequence" : 1
    }
  }, {
    "id" : 164309,
    "metadata" : {
      "name" : "mID164309"
    },
    "depot" : 0,
    "location" : {
      "latitude" : 51610702,
      "longitude" : -647876,
      "metadata" : { }
    },
    "pickupDuration" : 0,
    "serviceDuration" : 360000,
    "unloadDuration" : 0,
    "durationPerVisit" : 0,
    "priority" : 2,
    "jobType" : "DROP",
    "constraints" : {
      "demand" : {
        "values" : [ 0.0, 1.0, 0.0, 0.0 ]
      },
      "pickupTimeWindows" : [ {
        "startTime" : 1373068860000,
        "endTime" : 1373155140000
      } ],
      "timeWindowConstraints" : {
        "serviceTimeWindows" : [ {
          "startTime" : 1373072400000,
          "endTime" : 1373097600000
        } ],
        "timeWindowPolicy" : "COMPLETE_ORDER_WITHIN_TIME_WINDOW"
      },
      "attributes" : [ "AoC108" ],
      "incompatibleAttributes" : [ ],
      "stopSequence" : 1
    }
  }, {
    "id" : 164310,
    "metadata" : {
      "name" : "mID164310"
    },
    "depot" : 0,
    "location" : {
      "latitude" : 51815274,
      "longitude" : -1454239,
      "metadata" : { }
    },
    "pickupDuration" : 0,
    "serviceDuration" : 360000,
    "unloadDuration" : 0,
    "durationPerVisit" : 0,
    "priority" : 2,
    "jobType" : "DROP",
    "constraints" : {
      "demand" : {
        "values" : [ 0.0, 1.0, 0.0, 0.0 ]
      },
      "pickupTimeWindows" : [ {
        "startTime" : 1373068860000,
        "endTime" : 1373155140000
      } ],
      "timeWindowConstraints" : {
        "serviceTimeWindows" : [ {
          "startTime" : 1373072400000,
          "endTime" : 1373097600000
        } ],
        "timeWindowPolicy" : "COMPLETE_ORDER_WITHIN_TIME_WINDOW"
      },
      "attributes" : [ "AoC108" ],
      "incompatibleAttributes" : [ ],
      "stopSequence" : 1
    }
  }, {
    "id" : 164311,
    "metadata" : {
      "name" : "mID164311"
    },
    "depot" : 0,
    "location" : {
      "latitude" : 51525448,
      "longitude" : -315858,
      "metadata" : { }
    },
    "pickupDuration" : 0,
    "serviceDuration" : 360000,
    "unloadDuration" : 0,
    "durationPerVisit" : 0,
    "priority" : 2,
    "jobType" : "DROP",
    "constraints" : {
      "demand" : {
        "values" : [ 0.0, 1.0, 0.0, 0.0 ]
      },
      "pickupTimeWindows" : [ {
        "startTime" : 1373068860000,
        "endTime" : 1373155140000
      } ],
      "timeWindowConstraints" : {
        "serviceTimeWindows" : [ {
          "startTime" : 1373072400000,
          "endTime" : 1373097600000
        } ],
        "timeWindowPolicy" : "COMPLETE_ORDER_WITHIN_TIME_WINDOW"
      },
      "attributes" : [ "AoC108" ],
      "incompatibleAttributes" : [ ],
      "stopSequence" : 1
    }
  }, {
    "id" : 164312,
    "metadata" : {
      "name" : "mID164312"
    },
    "depot" : 0,
    "location" : {
      "latitude" : 51529119,
      "longitude" : -755346,
      "metadata" : { }
    },
    "pickupDuration" : 0,
    "serviceDuration" : 360000,
    "unloadDuration" : 0,
    "durationPerVisit" : 0,
    "priority" : 2,
    "jobType" : "DROP",
    "constraints" : {
      "demand" : {
        "values" : [ 0.0, 1.0, 0.0, 0.0 ]
      },
      "pickupTimeWindows" : [ {
        "startTime" : 1373068860000,
        "endTime" : 1373155140000
      } ],
      "timeWindowConstraints" : {
        "serviceTimeWindows" : [ {
          "startTime" : 1373072400000,
          "endTime" : 1373097600000
        } ],
        "timeWindowPolicy" : "COMPLETE_ORDER_WITHIN_TIME_WINDOW"
      },
      "attributes" : [ "AoC108" ],
      "incompatibleAttributes" : [ ],
      "stopSequence" : 1
    }
  }, {
    "id" : 164313,
    "metadata" : {
      "name" : "mID164313"
    },
    "depot" : 0,
    "location" : {
      "latitude" : 51372173,
      "longitude" : -459821,
      "metadata" : { }
    },
    "pickupDuration" : 0,
    "serviceDuration" : 360000,
    "unloadDuration" : 0,
    "durationPerVisit" : 0,
    "priority" : 2,
    "jobType" : "DROP",
    "constraints" : {
      "demand" : {
        "values" : [ 0.0, 2.0, 0.0, 0.0 ]
      },
      "pickupTimeWindows" : [ {
        "startTime" : 1373068860000,
        "endTime" : 1373155140000
      } ],
      "timeWindowConstraints" : {
        "serviceTimeWindows" : [ {
          "startTime" : 1373072400000,
          "endTime" : 1373097600000
        } ],
        "timeWindowPolicy" : "COMPLETE_ORDER_WITHIN_TIME_WINDOW"
      },
      "attributes" : [ "AoC108" ],
      "incompatibleAttributes" : [ ],
      "stopSequence" : 1
    }
  }, {
    "id" : 164314,
    "metadata" : {
      "name" : "mID164314"
    },
    "depot" : 0,
    "location" : {
      "latitude" : 51502341,
      "longitude" : -316047,
      "metadata" : { }
    },
    "pickupDuration" : 0,
    "serviceDuration" : 360000,
    "unloadDuration" : 0,
    "durationPerVisit" : 0,
    "priority" : 2,
    "jobType" : "DROP",
    "constraints" : {
      "demand" : {
        "values" : [ 0.0, 1.0, 0.0, 0.0 ]
      },
      "pickupTimeWindows" : [ {
        "startTime" : 1373068860000,
        "endTime" : 1373155140000
      } ],
      "timeWindowConstraints" : {
        "serviceTimeWindows" : [ {
          "startTime" : 1373072400000,
          "endTime" : 1373097600000
        } ],
        "timeWindowPolicy" : "COMPLETE_ORDER_WITHIN_TIME_WINDOW"
      },
      "attributes" : [ "AoC108" ],
      "incompatibleAttributes" : [ ],
      "stopSequence" : 1
    }
  }, {
    "id" : 164315,
    "metadata" : {
      "name" : "mID164315"
    },
    "depot" : 0,
    "location" : {
      "latitude" : 51360456,
      "longitude" : -345202,
      "metadata" : { }
    },
    "pickupDuration" : 0,
    "serviceDuration" : 360000,
    "unloadDuration" : 0,
    "durationPerVisit" : 0,
    "priority" : 2,
    "jobType" : "DROP",
    "constraints" : {
      "demand" : {
        "values" : [ 0.0, 1.0, 0.0, 0.0 ]
      },
      "pickupTimeWindows" : [ {
        "startTime" : 1373068860000,
        "endTime" : 1373155140000
      } ],
      "timeWindowConstraints" : {
        "serviceTimeWindows" : [ {
          "startTime" : 1373072400000,
          "endTime" : 1373097600000
        } ],
        "timeWindowPolicy" : "COMPLETE_ORDER_WITHIN_TIME_WINDOW"
      },
      "attributes" : [ "AoC108" ],
      "incompatibleAttributes" : [ ],
      "stopSequence" : 1
    }
  }, {
    "id" : 164316,
    "metadata" : {
      "name" : "mID164316"
    },
    "depot" : 0,
    "location" : {
      "latitude" : 51507839,
      "longitude" : -132217,
      "metadata" : { }
    },
    "pickupDuration" : 0,
    "serviceDuration" : 360000,
    "unloadDuration" : 0,
    "durationPerVisit" : 0,
    "priority" : 2,
    "jobType" : "DROP",
    "constraints" : {
      "demand" : {
        "values" : [ 0.0, 3.0, 0.0, 0.0 ]
      },
      "pickupTimeWindows" : [ {
        "startTime" : 1373068860000,
        "endTime" : 1373155140000
      } ],
      "timeWindowConstraints" : {
        "serviceTimeWindows" : [ {
          "startTime" : 1373072400000,
          "endTime" : 1373097600000
        } ],
        "timeWindowPolicy" : "COMPLETE_ORDER_WITHIN_TIME_WINDOW"
      },
      "attributes" : [ "AoC108" ],
      "incompatibleAttributes" : [ ],
      "stopSequence" : 1
    }
  }, {
    "id" : 164317,
    "metadata" : {
      "name" : "mID164317"
    },
    "depot" : 0,
    "location" : {
      "latitude" : 51303267,
      "longitude" : -328724,
      "metadata" : { }
    },
    "pickupDuration" : 0,
    "serviceDuration" : 360000,
    "unloadDuration" : 0,
    "durationPerVisit" : 0,
    "priority" : 2,
    "jobType" : "DROP",
    "constraints" : {
      "demand" : {
        "values" : [ 0.0, 1.0, 0.0, 0.0 ]
      },
      "pickupTimeWindows" : [ {
        "startTime" : 1373068860000,
        "endTime" : 1373155140000
      } ],
      "timeWindowConstraints" : {
        "serviceTimeWindows" : [ {
          "startTime" : 1373072400000,
          "endTime" : 1373097600000
        } ],
        "timeWindowPolicy" : "COMPLETE_ORDER_WITHIN_TIME_WINDOW"
      },
      "attributes" : [ "AoC108" ],
      "incompatibleAttributes" : [ ],
      "stopSequence" : 1
    }
  }, {
    "id" : 164318,
    "metadata" : {
      "name" : "mID164318"
    },
    "depot" : 0,
    "location" : {
      "latitude" : 51601809,
      "longitude" : -634739,
      "metadata" : { }
    },
    "pickupDuration" : 0,
    "serviceDuration" : 360000,
    "unloadDuration" : 0,
    "durationPerVisit" : 0,
    "priority" : 2,
    "jobType" : "DROP",
    "constraints" : {
      "demand" : {
        "values" : [ 0.0, 2.0, 0.0, 0.0 ]
      },
      "pickupTimeWindows" : [ {
        "startTime" : 1373068860000,
        "endTime" : 1373155140000
      } ],
      "timeWindowConstraints" : {
        "serviceTimeWindows" : [ {
          "startTime" : 1373072400000,
          "endTime" : 1373097600000
        } ],
        "timeWindowPolicy" : "COMPLETE_ORDER_WITHIN_TIME_WINDOW"
      },
      "attributes" : [ "AoC108" ],
      "incompatibleAttributes" : [ ],
      "stopSequence" : 1
    }
  }, {
    "id" : 164319,
    "metadata" : {
      "name" : "mID164319"
    },
    "depot" : 0,
    "location" : {
      "latitude" : 51521827,
      "longitude" : -779386,
      "metadata" : { }
    },
    "pickupDuration" : 0,
    "serviceDuration" : 360000,
    "unloadDuration" : 0,
    "durationPerVisit" : 0,
    "priority" : 2,
    "jobType" : "DROP",
    "constraints" : {
      "demand" : {
        "values" : [ 0.0, 2.0, 0.0, 0.0 ]
      },
      "pickupTimeWindows" : [ {
        "startTime" : 1373068860000,
        "endTime" : 1373155140000
      } ],
      "timeWindowConstraints" : {
        "serviceTimeWindows" : [ {
          "startTime" : 1373072400000,
          "endTime" : 1373097600000
        } ],
        "timeWindowPolicy" : "COMPLETE_ORDER_WITHIN_TIME_WINDOW"
      },
      "attributes" : [ "AoC108" ],
      "incompatibleAttributes" : [ ],
      "stopSequence" : 1
    }
  }, {
    "id" : 164320,
    "metadata" : {
      "name" : "mID164320"
    },
    "depot" : 0,
    "location" : {
      "latitude" : 51688435,
      "longitude" : -1201620,
      "metadata" : { }
    },
    "pickupDuration" : 0,
    "serviceDuration" : 360000,
    "unloadDuration" : 0,
    "durationPerVisit" : 0,
    "priority" : 2,
    "jobType" : "DROP",
    "constraints" : {
      "demand" : {
        "values" : [ 0.0, 1.0, 0.0, 0.0 ]
      },
      "pickupTimeWindows" : [ {
        "startTime" : 1373068860000,
        "endTime" : 1373155140000
      } ],
      "timeWindowConstraints" : {
        "serviceTimeWindows" : [ {
          "startTime" : 1373072400000,
          "endTime" : 1373097600000
        } ],
        "timeWindowPolicy" : "COMPLETE_ORDER_WITHIN_TIME_WINDOW"
      },
      "attributes" : [ "AoC108" ],
      "incompatibleAttributes" : [ ],
      "stopSequence" : 1
    }
  }, {
    "id" : 164321,
    "metadata" : {
      "name" : "mID164321"
    },
    "depot" : 0,
    "location" : {
      "latitude" : 51237151,
      "longitude" : -575054,
      "metadata" : { }
    },
    "pickupDuration" : 0,
    "serviceDuration" : 360000,
    "unloadDuration" : 0,
    "durationPerVisit" : 0,
    "priority" : 2,
    "jobType" : "DROP",
    "constraints" : {
      "demand" : {
        "values" : [ 0.0, 1.0, 0.0, 0.0 ]
      },
      "pickupTimeWindows" : [ {
        "startTime" : 1373068860000,
        "endTime" : 1373155140000
      } ],
      "timeWindowConstraints" : {
        "serviceTimeWindows" : [ {
          "startTime" : 1373072400000,
          "endTime" : 1373097600000
        } ],
        "timeWindowPolicy" : "COMPLETE_ORDER_WITHIN_TIME_WINDOW"
      },
      "attributes" : [ "AoC108" ],
      "incompatibleAttributes" : [ ],
      "stopSequence" : 1
    }
  }, {
    "id" : 164322,
    "metadata" : {
      "name" : "mID164322"
    },
    "depot" : 0,
    "location" : {
      "latitude" : 51464869,
      "longitude" : -261324,
      "metadata" : { }
    },
    "pickupDuration" : 0,
    "serviceDuration" : 360000,
    "unloadDuration" : 0,
    "durationPerVisit" : 0,
    "priority" : 2,
    "jobType" : "DROP",
    "constraints" : {
      "demand" : {
        "values" : [ 0.0, 1.0, 0.0, 0.0 ]
      },
      "pickupTimeWindows" : [ {
        "startTime" : 1373068860000,
        "endTime" : 1373155140000
      } ],
      "timeWindowConstraints" : {
        "serviceTimeWindows" : [ {
          "startTime" : 1373072400000,
          "endTime" : 1373097600000
        } ],
        "timeWindowPolicy" : "COMPLETE_ORDER_WITHIN_TIME_WINDOW"
      },
      "attributes" : [ "AoC108" ],
      "incompatibleAttributes" : [ ],
      "stopSequence" : 1
    }
  }, {
    "id" : 164323,
    "metadata" : {
      "name" : "mID164323"
    },
    "depot" : 0,
    "location" : {
      "latitude" : 51557142,
      "longitude" : -721518,
      "metadata" : { }
    },
    "pickupDuration" : 0,
    "serviceDuration" : 360000,
    "unloadDuration" : 0,
    "durationPerVisit" : 0,
    "priority" : 2,
    "jobType" : "DROP",
    "constraints" : {
      "demand" : {
        "values" : [ 0.0, 1.0, 0.0, 0.0 ]
      },
      "pickupTimeWindows" : [ {
        "startTime" : 1373068860000,
        "endTime" : 1373155140000
      } ],
      "timeWindowConstraints" : {
        "serviceTimeWindows" : [ {
          "startTime" : 1373072400000,
          "endTime" : 1373097600000
        } ],
        "timeWindowPolicy" : "COMPLETE_ORDER_WITHIN_TIME_WINDOW"
      },
      "attributes" : [ "AoC108" ],
      "incompatibleAttributes" : [ ],
      "stopSequence" : 1
    }
  }, {
    "id" : 164324,
    "metadata" : {
      "name" : "mID164324"
    },
    "depot" : 0,
    "location" : {
      "latitude" : 51468705,
      "longitude" : -254886,
      "metadata" : { }
    },
    "pickupDuration" : 0,
    "serviceDuration" : 360000,
    "unloadDuration" : 0,
    "durationPerVisit" : 0,
    "priority" : 2,
    "jobType" : "DROP",
    "constraints" : {
      "demand" : {
        "values" : [ 0.0, 2.0, 0.0, 0.0 ]
      },
      "pickupTimeWindows" : [ {
        "startTime" : 1373068860000,
        "endTime" : 1373155140000
      } ],
      "timeWindowConstraints" : {
        "serviceTimeWindows" : [ {
          "startTime" : 1373072400000,
          "endTime" : 1373097600000
        } ],
        "timeWindowPolicy" : "COMPLETE_ORDER_WITHIN_TIME_WINDOW"
      },
      "attributes" : [ "AoC108" ],
      "incompatibleAttributes" : [ ],
      "stopSequence" : 1
    }
  }, {
    "id" : 164325,
    "metadata" : {
      "name" : "mID164325"
    },
    "depot" : 0,
    "location" : {
      "latitude" : 51657831,
      "longitude" : -709595,
      "metadata" : { }
    },
    "pickupDuration" : 0,
    "serviceDuration" : 360000,
    "unloadDuration" : 0,
    "durationPerVisit" : 0,
    "priority" : 2,
    "jobType" : "DROP",
    "constraints" : {
      "demand" : {
        "values" : [ 0.0, 3.0, 0.0, 0.0 ]
      },
      "pickupTimeWindows" : [ {
        "startTime" : 1373068860000,
        "endTime" : 1373155140000
      } ],
      "timeWindowConstraints" : {
        "serviceTimeWindows" : [ {
          "startTime" : 1373072400000,
          "endTime" : 1373097600000
        } ],
        "timeWindowPolicy" : "COMPLETE_ORDER_WITHIN_TIME_WINDOW"
      },
      "attributes" : [ "AoC108" ],
      "incompatibleAttributes" : [ ],
      "stopSequence" : 1
    }
  }, {
    "id" : 164326,
    "metadata" : {
      "name" : "mID164326"
    },
    "depot" : 0,
    "location" : {
      "latitude" : 51571381,
      "longitude" : -775808,
      "metadata" : { }
    },
    "pickupDuration" : 0,
    "serviceDuration" : 360000,
    "unloadDuration" : 0,
    "durationPerVisit" : 0,
    "priority" : 2,
    "jobType" : "DROP",
    "constraints" : {
      "demand" : {
        "values" : [ 0.0, 3.0, 0.0, 0.0 ]
      },
      "pickupTimeWindows" : [ {
        "startTime" : 1373068860000,
        "endTime" : 1373155140000
      } ],
      "timeWindowConstraints" : {
        "serviceTimeWindows" : [ {
          "startTime" : 1373072400000,
          "endTime" : 1373097600000
        } ],
        "timeWindowPolicy" : "COMPLETE_ORDER_WITHIN_TIME_WINDOW"
      },
      "attributes" : [ "AoC108" ],
      "incompatibleAttributes" : [ ],
      "stopSequence" : 1
    }
  }, {
    "id" : 164327,
    "metadata" : {
      "name" : "mID164327"
    },
    "depot" : 0,
    "location" : {
      "latitude" : 51515284,
      "longitude" : -304991,
      "metadata" : { }
    },
    "pickupDuration" : 0,
    "serviceDuration" : 360000,
    "unloadDuration" : 0,
    "durationPerVisit" : 0,
    "priority" : 2,
    "jobType" : "DROP",
    "constraints" : {
      "demand" : {
        "values" : [ 0.0, 2.0, 0.0, 0.0 ]
      },
      "pickupTimeWindows" : [ {
        "startTime" : 1373068860000,
        "endTime" : 1373155140000
      } ],
      "timeWindowConstraints" : {
        "serviceTimeWindows" : [ {
          "startTime" : 1373072400000,
          "endTime" : 1373097600000
        } ],
        "timeWindowPolicy" : "COMPLETE_ORDER_WITHIN_TIME_WINDOW"
      },
      "attributes" : [ "AoC108" ],
      "incompatibleAttributes" : [ ],
      "stopSequence" : 1
    }
  }, {
    "id" : 164328,
    "metadata" : {
      "name" : "mID164328"
    },
    "depot" : 0,
    "location" : {
      "latitude" : 51444581,
      "longitude" : -205657,
      "metadata" : { }
    },
    "pickupDuration" : 0,
    "serviceDuration" : 360000,
    "unloadDuration" : 0,
    "durationPerVisit" : 0,
    "priority" : 2,
    "jobType" : "DROP",
    "constraints" : {
      "demand" : {
        "values" : [ 0.0, 1.0, 0.0, 0.0 ]
      },
      "pickupTimeWindows" : [ {
        "startTime" : 1373068860000,
        "endTime" : 1373155140000
      } ],
      "timeWindowConstraints" : {
        "serviceTimeWindows" : [ {
          "startTime" : 1373072400000,
          "endTime" : 1373097600000
        } ],
        "timeWindowPolicy" : "COMPLETE_ORDER_WITHIN_TIME_WINDOW"
      },
      "attributes" : [ "AoC108" ],
      "incompatibleAttributes" : [ ],
      "stopSequence" : 1
    }
  }, {
    "id" : 164329,
    "metadata" : {
      "name" : "mID164329"
    },
    "depot" : 0,
    "location" : {
      "latitude" : 51521292,
      "longitude" : -1139858,
      "metadata" : { }
    },
    "pickupDuration" : 0,
    "serviceDuration" : 360000,
    "unloadDuration" : 0,
    "durationPerVisit" : 0,
    "priority" : 2,
    "jobType" : "DROP",
    "constraints" : {
      "demand" : {
        "values" : [ 0.0, 1.0, 0.0, 0.0 ]
      },
      "pickupTimeWindows" : [ {
        "startTime" : 1373068860000,
        "endTime" : 1373155140000
      } ],
      "timeWindowConstraints" : {
        "serviceTimeWindows" : [ {
          "startTime" : 1373072400000,
          "endTime" : 1373097600000
        } ],
        "timeWindowPolicy" : "COMPLETE_ORDER_WITHIN_TIME_WINDOW"
      },
      "attributes" : [ "AoC108" ],
      "incompatibleAttributes" : [ ],
      "stopSequence" : 1
    }
  }, {
    "id" : 164330,
    "metadata" : {
      "name" : "mID164330"
    },
    "depot" : 0,
    "location" : {
      "latitude" : 51329455,
      "longitude" : -410568,
      "metadata" : { }
    },
    "pickupDuration" : 0,
    "serviceDuration" : 360000,
    "unloadDuration" : 0,
    "durationPerVisit" : 0,
    "priority" : 2,
    "jobType" : "DROP",
    "constraints" : {
      "demand" : {
        "values" : [ 0.0, 1.0, 0.0, 0.0 ]
      },
      "pickupTimeWindows" : [ {
        "startTime" : 1373068860000,
        "endTime" : 1373155140000
      } ],
      "timeWindowConstraints" : {
        "serviceTimeWindows" : [ {
          "startTime" : 1373072400000,
          "endTime" : 1373097600000
        } ],
        "timeWindowPolicy" : "COMPLETE_ORDER_WITHIN_TIME_WINDOW"
      },
      "attributes" : [ "AoC108" ],
      "incompatibleAttributes" : [ ],
      "stopSequence" : 1
    }
  }, {
    "id" : 164331,
    "metadata" : {
      "name" : "mID164331"
    },
    "depot" : 0,
    "location" : {
      "latitude" : 51751605,
      "longitude" : -1297954,
      "metadata" : { }
    },
    "pickupDuration" : 0,
    "serviceDuration" : 360000,
    "unloadDuration" : 0,
    "durationPerVisit" : 0,
    "priority" : 2,
    "jobType" : "DROP",
    "constraints" : {
      "demand" : {
        "values" : [ 0.0, 2.0, 0.0, 0.0 ]
      },
      "pickupTimeWindows" : [ {
        "startTime" : 1373068860000,
        "endTime" : 1373155140000
      } ],
      "timeWindowConstraints" : {
        "serviceTimeWindows" : [ {
          "startTime" : 1373072400000,
          "endTime" : 1373097600000
        } ],
        "timeWindowPolicy" : "COMPLETE_ORDER_WITHIN_TIME_WINDOW"
      },
      "attributes" : [ "AoC108" ],
      "incompatibleAttributes" : [ ],
      "stopSequence" : 1
    }
  }, {
    "id" : 164332,
    "metadata" : {
      "name" : "mID164332"
    },
    "depot" : 0,
    "location" : {
      "latitude" : 51723614,
      "longitude" : -831466,
      "metadata" : { }
    },
    "pickupDuration" : 0,
    "serviceDuration" : 360000,
    "unloadDuration" : 0,
    "durationPerVisit" : 0,
    "priority" : 2,
    "jobType" : "DROP",
    "constraints" : {
      "demand" : {
        "values" : [ 0.0, 1.0, 0.0, 0.0 ]
      },
      "pickupTimeWindows" : [ {
        "startTime" : 1373068860000,
        "endTime" : 1373155140000
      } ],
      "timeWindowConstraints" : {
        "serviceTimeWindows" : [ {
          "startTime" : 1373072400000,
          "endTime" : 1373097600000
        } ],
        "timeWindowPolicy" : "COMPLETE_ORDER_WITHIN_TIME_WINDOW"
      },
      "attributes" : [ "AoC108" ],
      "incompatibleAttributes" : [ ],
      "stopSequence" : 1
    }
  }, {
    "id" : 164333,
    "metadata" : {
      "name" : "mID164333"
    },
    "depot" : 0,
    "location" : {
      "latitude" : 51424623,
      "longitude" : -216623,
      "metadata" : { }
    },
    "pickupDuration" : 0,
    "serviceDuration" : 360000,
    "unloadDuration" : 0,
    "durationPerVisit" : 0,
    "priority" : 2,
    "jobType" : "DROP",
    "constraints" : {
      "demand" : {
        "values" : [ 0.0, 1.0, 0.0, 0.0 ]
      },
      "pickupTimeWindows" : [ {
        "startTime" : 1373068860000,
        "endTime" : 1373155140000
      } ],
      "timeWindowConstraints" : {
        "serviceTimeWindows" : [ {
          "startTime" : 1373072400000,
          "endTime" : 1373097600000
        } ],
        "timeWindowPolicy" : "COMPLETE_ORDER_WITHIN_TIME_WINDOW"
      },
      "attributes" : [ "AoC108" ],
      "incompatibleAttributes" : [ ],
      "stopSequence" : 1
    }
  }, {
    "id" : 164334,
    "metadata" : {
      "name" : "mID164334"
    },
    "depot" : 0,
    "location" : {
      "latitude" : 51786954,
      "longitude" : -1484801,
      "metadata" : { }
    },
    "pickupDuration" : 0,
    "serviceDuration" : 360000,
    "unloadDuration" : 0,
    "durationPerVisit" : 0,
    "priority" : 2,
    "jobType" : "DROP",
    "constraints" : {
      "demand" : {
        "values" : [ 0.0, 1.0, 0.0, 0.0 ]
      },
      "pickupTimeWindows" : [ {
        "startTime" : 1373068860000,
        "endTime" : 1373155140000
      } ],
      "timeWindowConstraints" : {
        "serviceTimeWindows" : [ {
          "startTime" : 1373072400000,
          "endTime" : 1373097600000
        } ],
        "timeWindowPolicy" : "COMPLETE_ORDER_WITHIN_TIME_WINDOW"
      },
      "attributes" : [ "AoC108" ],
      "incompatibleAttributes" : [ ],
      "stopSequence" : 1
    }
  }, {
    "id" : 164335,
    "metadata" : {
      "name" : "mID164335"
    },
    "depot" : 0,
    "location" : {
      "latitude" : 51706099,
      "longitude" : -416925,
      "metadata" : { }
    },
    "pickupDuration" : 0,
    "serviceDuration" : 360000,
    "unloadDuration" : 0,
    "durationPerVisit" : 0,
    "priority" : 2,
    "jobType" : "DROP",
    "constraints" : {
      "demand" : {
        "values" : [ 0.0, 1.0, 0.0, 0.0 ]
      },
      "pickupTimeWindows" : [ {
        "startTime" : 1373068860000,
        "endTime" : 1373155140000
      } ],
      "timeWindowConstraints" : {
        "serviceTimeWindows" : [ {
          "startTime" : 1373072400000,
          "endTime" : 1373097600000
        } ],
        "timeWindowPolicy" : "COMPLETE_ORDER_WITHIN_TIME_WINDOW"
      },
      "attributes" : [ "AoC108" ],
      "incompatibleAttributes" : [ ],
      "stopSequence" : 1
    }
  }, {
    "id" : 164336,
    "metadata" : {
      "name" : "mID164336"
    },
    "depot" : 0,
    "location" : {
      "latitude" : 51393717,
      "longitude" : -304573,
      "metadata" : { }
    },
    "pickupDuration" : 0,
    "serviceDuration" : 360000,
    "unloadDuration" : 0,
    "durationPerVisit" : 0,
    "priority" : 2,
    "jobType" : "DROP",
    "constraints" : {
      "demand" : {
        "values" : [ 0.0, 1.0, 0.0, 0.0 ]
      },
      "pickupTimeWindows" : [ {
        "startTime" : 1373068860000,
        "endTime" : 1373155140000
      } ],
      "timeWindowConstraints" : {
        "serviceTimeWindows" : [ {
          "startTime" : 1373072400000,
          "endTime" : 1373097600000
        } ],
        "timeWindowPolicy" : "COMPLETE_ORDER_WITHIN_TIME_WINDOW"
      },
      "attributes" : [ "AoC108" ],
      "incompatibleAttributes" : [ ],
      "stopSequence" : 1
    }
  }, {
    "id" : 164337,
    "metadata" : {
      "name" : "mID164337"
    },
    "depot" : 0,
    "location" : {
      "latitude" : 51372094,
      "longitude" : -457927,
      "metadata" : { }
    },
    "pickupDuration" : 0,
    "serviceDuration" : 360000,
    "unloadDuration" : 0,
    "durationPerVisit" : 0,
    "priority" : 2,
    "jobType" : "DROP",
    "constraints" : {
      "demand" : {
        "values" : [ 0.0, 1.0, 0.0, 0.0 ]
      },
      "pickupTimeWindows" : [ {
        "startTime" : 1373068860000,
        "endTime" : 1373155140000
      } ],
      "timeWindowConstraints" : {
        "serviceTimeWindows" : [ {
          "startTime" : 1373072400000,
          "endTime" : 1373097600000
        } ],
        "timeWindowPolicy" : "COMPLETE_ORDER_WITHIN_TIME_WINDOW"
      },
      "attributes" : [ "AoC108" ],
      "incompatibleAttributes" : [ ],
      "stopSequence" : 1
    }
  }, {
    "id" : 164338,
    "metadata" : {
      "name" : "mID164338"
    },
    "depot" : 0,
    "location" : {
      "latitude" : 51530753,
      "longitude" : -373852,
      "metadata" : { }
    },
    "pickupDuration" : 0,
    "serviceDuration" : 360000,
    "unloadDuration" : 0,
    "durationPerVisit" : 0,
    "priority" : 2,
    "jobType" : "DROP",
    "constraints" : {
      "demand" : {
        "values" : [ 0.0, 1.0, 0.0, 0.0 ]
      },
      "pickupTimeWindows" : [ {
        "startTime" : 1373068860000,
        "endTime" : 1373155140000
      } ],
      "timeWindowConstraints" : {
        "serviceTimeWindows" : [ {
          "startTime" : 1373072400000,
          "endTime" : 1373097600000
        } ],
        "timeWindowPolicy" : "COMPLETE_ORDER_WITHIN_TIME_WINDOW"
      },
      "attributes" : [ "AoC108" ],
      "incompatibleAttributes" : [ ],
      "stopSequence" : 1
    }
  }, {
    "id" : 164339,
    "metadata" : {
      "name" : "mID164339"
    },
    "depot" : 0,
    "location" : {
      "latitude" : 51450675,
      "longitude" : -357644,
      "metadata" : { }
    },
    "pickupDuration" : 0,
    "serviceDuration" : 360000,
    "unloadDuration" : 0,
    "durationPerVisit" : 0,
    "priority" : 2,
    "jobType" : "DROP",
    "constraints" : {
      "demand" : {
        "values" : [ 0.0, 1.0, 0.0, 0.0 ]
      },
      "pickupTimeWindows" : [ {
        "startTime" : 1373068860000,
        "endTime" : 1373155140000
      } ],
      "timeWindowConstraints" : {
        "serviceTimeWindows" : [ {
          "startTime" : 1373072400000,
          "endTime" : 1373097600000
        } ],
        "timeWindowPolicy" : "COMPLETE_ORDER_WITHIN_TIME_WINDOW"
      },
      "attributes" : [ "AoC108" ],
      "incompatibleAttributes" : [ ],
      "stopSequence" : 1
    }
  }, {
    "id" : 164340,
    "metadata" : {
      "name" : "mID164340"
    },
    "depot" : 0,
    "location" : {
      "latitude" : 51588453,
      "longitude" : -1425681,
      "metadata" : { }
    },
    "pickupDuration" : 0,
    "serviceDuration" : 360000,
    "unloadDuration" : 0,
    "durationPerVisit" : 0,
    "priority" : 2,
    "jobType" : "DROP",
    "constraints" : {
      "demand" : {
        "values" : [ 0.0, 1.0, 0.0, 0.0 ]
      },
      "pickupTimeWindows" : [ {
        "startTime" : 1373068860000,
        "endTime" : 1373155140000
      } ],
      "timeWindowConstraints" : {
        "serviceTimeWindows" : [ {
          "startTime" : 1373072400000,
          "endTime" : 1373097600000
        } ],
        "timeWindowPolicy" : "COMPLETE_ORDER_WITHIN_TIME_WINDOW"
      },
      "attributes" : [ "AoC108" ],
      "incompatibleAttributes" : [ ],
      "stopSequence" : 1
    }
  }, {
    "id" : 164341,
    "metadata" : {
      "name" : "mID164341"
    },
    "depot" : 0,
    "location" : {
      "latitude" : 51410896,
      "longitude" : -674010,
      "metadata" : { }
    },
    "pickupDuration" : 0,
    "serviceDuration" : 360000,
    "unloadDuration" : 0,
    "durationPerVisit" : 0,
    "priority" : 2,
    "jobType" : "DROP",
    "constraints" : {
      "demand" : {
        "values" : [ 0.0, 2.0, 0.0, 0.0 ]
      },
      "pickupTimeWindows" : [ {
        "startTime" : 1373068860000,
        "endTime" : 1373155140000
      } ],
      "timeWindowConstraints" : {
        "serviceTimeWindows" : [ {
          "startTime" : 1373072400000,
          "endTime" : 1373097600000
        } ],
        "timeWindowPolicy" : "COMPLETE_ORDER_WITHIN_TIME_WINDOW"
      },
      "attributes" : [ "AoC108" ],
      "incompatibleAttributes" : [ ],
      "stopSequence" : 1
    }
  }, {
    "id" : 164342,
    "metadata" : {
      "name" : "mID164342"
    },
    "depot" : 0,
    "location" : {
      "latitude" : 51444709,
      "longitude" : -166841,
      "metadata" : { }
    },
    "pickupDuration" : 0,
    "serviceDuration" : 360000,
    "unloadDuration" : 0,
    "durationPerVisit" : 0,
    "priority" : 2,
    "jobType" : "DROP",
    "constraints" : {
      "demand" : {
        "values" : [ 0.0, 1.0, 0.0, 0.0 ]
      },
      "pickupTimeWindows" : [ {
        "startTime" : 1373068860000,
        "endTime" : 1373155140000
      } ],
      "timeWindowConstraints" : {
        "serviceTimeWindows" : [ {
          "startTime" : 1373072400000,
          "endTime" : 1373097600000
        } ],
        "timeWindowPolicy" : "COMPLETE_ORDER_WITHIN_TIME_WINDOW"
      },
      "attributes" : [ "AoC108" ],
      "incompatibleAttributes" : [ ],
      "stopSequence" : 1
    }
  }, {
    "id" : 164343,
    "metadata" : {
      "name" : "mID164343"
    },
    "depot" : 0,
    "location" : {
      "latitude" : 51578065,
      "longitude" : -399512,
      "metadata" : { }
    },
    "pickupDuration" : 0,
    "serviceDuration" : 360000,
    "unloadDuration" : 0,
    "durationPerVisit" : 0,
    "priority" : 2,
    "jobType" : "DROP",
    "constraints" : {
      "demand" : {
        "values" : [ 0.0, 1.0, 0.0, 0.0 ]
      },
      "pickupTimeWindows" : [ {
        "startTime" : 1373068860000,
        "endTime" : 1373155140000
      } ],
      "timeWindowConstraints" : {
        "serviceTimeWindows" : [ {
          "startTime" : 1373072400000,
          "endTime" : 1373097600000
        } ],
        "timeWindowPolicy" : "COMPLETE_ORDER_WITHIN_TIME_WINDOW"
      },
      "attributes" : [ "AoC108" ],
      "incompatibleAttributes" : [ ],
      "stopSequence" : 1
    }
  }, {
    "id" : 164344,
    "metadata" : {
      "name" : "mID164344"
    },
    "depot" : 0,
    "location" : {
      "latitude" : 51518772,
      "longitude" : -482914,
      "metadata" : { }
    },
    "pickupDuration" : 0,
    "serviceDuration" : 360000,
    "unloadDuration" : 0,
    "durationPerVisit" : 0,
    "priority" : 2,
    "jobType" : "DROP",
    "constraints" : {
      "demand" : {
        "values" : [ 0.0, 1.0, 0.0, 0.0 ]
      },
      "pickupTimeWindows" : [ {
        "startTime" : 1373068860000,
        "endTime" : 1373155140000
      } ],
      "timeWindowConstraints" : {
        "serviceTimeWindows" : [ {
          "startTime" : 1373072400000,
          "endTime" : 1373097600000
        } ],
        "timeWindowPolicy" : "COMPLETE_ORDER_WITHIN_TIME_WINDOW"
      },
      "attributes" : [ "AoC108" ],
      "incompatibleAttributes" : [ ],
      "stopSequence" : 1
    }
  }, {
    "id" : 164345,
    "metadata" : {
      "name" : "mID164345"
    },
    "depot" : 0,
    "location" : {
      "latitude" : 51439572,
      "longitude" : -389626,
      "metadata" : { }
    },
    "pickupDuration" : 0,
    "serviceDuration" : 360000,
    "unloadDuration" : 0,
    "durationPerVisit" : 0,
    "priority" : 2,
    "jobType" : "DROP",
    "constraints" : {
      "demand" : {
        "values" : [ 0.0, 1.0, 0.0, 0.0 ]
      },
      "pickupTimeWindows" : [ {
        "startTime" : 1373068860000,
        "endTime" : 1373155140000
      } ],
      "timeWindowConstraints" : {
        "serviceTimeWindows" : [ {
          "startTime" : 1373072400000,
          "endTime" : 1373097600000
        } ],
        "timeWindowPolicy" : "COMPLETE_ORDER_WITHIN_TIME_WINDOW"
      },
      "attributes" : [ "AoC108" ],
      "incompatibleAttributes" : [ ],
      "stopSequence" : 1
    }
  }, {
    "id" : 164346,
    "metadata" : {
      "name" : "mID164346"
    },
    "depot" : 0,
    "location" : {
      "latitude" : 51537606,
      "longitude" : -906010,
      "metadata" : { }
    },
    "pickupDuration" : 0,
    "serviceDuration" : 360000,
    "unloadDuration" : 0,
    "durationPerVisit" : 0,
    "priority" : 2,
    "jobType" : "DROP",
    "constraints" : {
      "demand" : {
        "values" : [ 0.0, 1.0, 0.0, 0.0 ]
      },
      "pickupTimeWindows" : [ {
        "startTime" : 1373068860000,
        "endTime" : 1373155140000
      } ],
      "timeWindowConstraints" : {
        "serviceTimeWindows" : [ {
          "startTime" : 1373072400000,
          "endTime" : 1373097600000
        } ],
        "timeWindowPolicy" : "COMPLETE_ORDER_WITHIN_TIME_WINDOW"
      },
      "attributes" : [ "AoC108" ],
      "incompatibleAttributes" : [ ],
      "stopSequence" : 1
    }
  }, {
    "id" : 164347,
    "metadata" : {
      "name" : "mID164347"
    },
    "depot" : 0,
    "location" : {
      "latitude" : 51483685,
      "longitude" : -1087048,
      "metadata" : { }
    },
    "pickupDuration" : 0,
    "serviceDuration" : 360000,
    "unloadDuration" : 0,
    "durationPerVisit" : 0,
    "priority" : 2,
    "jobType" : "DROP",
    "constraints" : {
      "demand" : {
        "values" : [ 0.0, 1.0, 0.0, 0.0 ]
      },
      "pickupTimeWindows" : [ {
        "startTime" : 1373068860000,
        "endTime" : 1373155140000
      } ],
      "timeWindowConstraints" : {
        "serviceTimeWindows" : [ {
          "startTime" : 1373072400000,
          "endTime" : 1373097600000
        } ],
        "timeWindowPolicy" : "COMPLETE_ORDER_WITHIN_TIME_WINDOW"
      },
      "attributes" : [ "AoC108" ],
      "incompatibleAttributes" : [ ],
      "stopSequence" : 1
    }
  }, {
    "id" : 164348,
    "metadata" : {
      "name" : "mID164348"
    },
    "depot" : 0,
    "location" : {
      "latitude" : 51480922,
      "longitude" : -612050,
      "metadata" : { }
    },
    "pickupDuration" : 0,
    "serviceDuration" : 360000,
    "unloadDuration" : 0,
    "durationPerVisit" : 0,
    "priority" : 2,
    "jobType" : "DROP",
    "constraints" : {
      "demand" : {
        "values" : [ 0.0, 2.0, 0.0, 0.0 ]
      },
      "pickupTimeWindows" : [ {
        "startTime" : 1373068860000,
        "endTime" : 1373155140000
      } ],
      "timeWindowConstraints" : {
        "serviceTimeWindows" : [ {
          "startTime" : 1373072400000,
          "endTime" : 1373097600000
        } ],
        "timeWindowPolicy" : "COMPLETE_ORDER_WITHIN_TIME_WINDOW"
      },
      "attributes" : [ "AoC108" ],
      "incompatibleAttributes" : [ ],
      "stopSequence" : 1
    }
  }, {
    "id" : 164349,
    "metadata" : {
      "name" : "mID164349"
    },
    "depot" : 0,
    "location" : {
      "latitude" : 51421154,
      "longitude" : -735629,
      "metadata" : { }
    },
    "pickupDuration" : 0,
    "serviceDuration" : 360000,
    "unloadDuration" : 0,
    "durationPerVisit" : 0,
    "priority" : 2,
    "jobType" : "DROP",
    "constraints" : {
      "demand" : {
        "values" : [ 0.0, 1.0, 0.0, 0.0 ]
      },
      "pickupTimeWindows" : [ {
        "startTime" : 1373068860000,
        "endTime" : 1373155140000
      } ],
      "timeWindowConstraints" : {
        "serviceTimeWindows" : [ {
          "startTime" : 1373072400000,
          "endTime" : 1373097600000
        } ],
        "timeWindowPolicy" : "COMPLETE_ORDER_WITHIN_TIME_WINDOW"
      },
      "attributes" : [ "AoC108" ],
      "incompatibleAttributes" : [ ],
      "stopSequence" : 1
    }
  }, {
    "id" : 164350,
    "metadata" : {
      "name" : "mID164350"
    },
    "depot" : 0,
    "location" : {
      "latitude" : 51478312,
      "longitude" : -1075147,
      "metadata" : { }
    },
    "pickupDuration" : 0,
    "serviceDuration" : 360000,
    "unloadDuration" : 0,
    "durationPerVisit" : 0,
    "priority" : 2,
    "jobType" : "DROP",
    "constraints" : {
      "demand" : {
        "values" : [ 0.0, 1.0, 0.0, 0.0 ]
      },
      "pickupTimeWindows" : [ {
        "startTime" : 1373068860000,
        "endTime" : 1373155140000
      } ],
      "timeWindowConstraints" : {
        "serviceTimeWindows" : [ {
          "startTime" : 1373072400000,
          "endTime" : 1373097600000
        } ],
        "timeWindowPolicy" : "COMPLETE_ORDER_WITHIN_TIME_WINDOW"
      },
      "attributes" : [ "AoC108" ],
      "incompatibleAttributes" : [ ],
      "stopSequence" : 1
    }
  } ],
  "schedules" : [ {
    "timeWindow" : {
      "startTime" : 1373068860000,
      "endTime" : 1373104800000
    },
    "runs" : [ ],
    "breaks" : [ ],
    "constraints" : { },
    "resource" : {
      "metadata" : {
        "name" : "OV61XBS"
      },
      "id" : 1780,
      "depot" : 0,
      "hourCost" : 0.0,
      "kmCost" : 0.62150407,
      "routingProfile" : {
        "vehicleType" : "Default",
        "drivingTimeCorrectionFactor" : 1.1,
        "maxSpeed" : 64.36
      },
      "constraints" : {
        "runDistanceLimit" : "Infinity",
        "runWorkingTimeLimit" : 9223372036854775807,
        "scheduleWorkingTimeLimit" : 9223372036854775807,
        "scheduleDrivingTimeLimit" : 31140000,
        "addonCollectionDropDuration" : 0,
        "addonPickupDuration" : 2700000,
        "capacity" : {
          "values" : [ 28.0, 28.0, 0.0, 0.0 ]
        },
        "attributes" : [ "AoC108", "cargo=0.0=3.0=0.0=0.0", "cargo=0.0=1.0=0.0=0.0", "route5", "cargo=0.0=2.0=0.0=0.0" ],
        "homeLocations" : {
          "startLocation" : {
            "latitude" : 51469788,
            "longitude" : -278906,
            "metadata" : { }
          },
          "endLocation" : {
            "latitude" : 51469788,
            "longitude" : -278906,
            "metadata" : { }
          }
        },
        "fixedStartTime" : -1
      }
    }
  }, {
    "timeWindow" : {
      "startTime" : 1373068860000,
      "endTime" : 1373104800000
    },
    "runs" : [ ],
    "breaks" : [ ],
    "constraints" : { },
    "resource" : {
      "metadata" : {
        "name" : "WJ620FV"
      },
      "id" : 1380,
      "depot" : 0,
      "hourCost" : 0.0,
      "kmCost" : 0.24860162,
      "routingProfile" : {
        "vehicleType" : "Default",
        "drivingTimeCorrectionFactor" : 1.1,
        "maxSpeed" : 64.36
      },
      "constraints" : {
        "runDistanceLimit" : "Infinity",
        "runWorkingTimeLimit" : 9223372036854775807,
        "scheduleWorkingTimeLimit" : 9223372036854775807,
        "scheduleDrivingTimeLimit" : 31140000,
        "addonCollectionDropDuration" : 0,
        "addonPickupDuration" : 2700000,
        "capacity" : {
          "values" : [ 28.0, 28.0, 0.0, 0.0 ]
        },
        "attributes" : [ "route4", "route3", "route2", "AoC108", "route1", "cargo=0.0=3.0=0.0=0.0", "cargo=0.0=1.0=0.0=0.0", "route5", "cargo=0.0=2.0=0.0=0.0" ],
        "homeLocations" : {
          "startLocation" : {
            "latitude" : 51469788,
            "longitude" : -278906,
            "metadata" : { }
          },
          "endLocation" : {
            "latitude" : 51469788,
            "longitude" : -278906,
            "metadata" : { }
          }
        },
        "fixedStartTime" : -1
      }
    }
  }, {
    "timeWindow" : {
      "startTime" : 1373068860000,
      "endTime" : 1373104800000
    },
    "runs" : [ ],
    "breaks" : [ ],
    "constraints" : { },
    "resource" : {
      "metadata" : {
        "name" : "WL60DKE"
      },
      "id" : 1381,
      "depot" : 0,
      "hourCost" : 0.0,
      "kmCost" : 0.24860162,
      "routingProfile" : {
        "vehicleType" : "Default",
        "drivingTimeCorrectionFactor" : 1.1,
        "maxSpeed" : 64.36
      },
      "constraints" : {
        "runDistanceLimit" : "Infinity",
        "runWorkingTimeLimit" : 9223372036854775807,
        "scheduleWorkingTimeLimit" : 9223372036854775807,
        "scheduleDrivingTimeLimit" : 28800000,
        "addonCollectionDropDuration" : 0,
        "addonPickupDuration" : 2700000,
        "capacity" : {
          "values" : [ 14.0, 14.0, 0.0, 0.0 ]
        },
        "attributes" : [ "route4", "route3", "route2", "AoC108", "route1", "cargo=0.0=3.0=0.0=0.0", "cargo=0.0=1.0=0.0=0.0", "route5", "cargo=0.0=2.0=0.0=0.0" ],
        "homeLocations" : {
          "startLocation" : {
            "latitude" : 51469788,
            "longitude" : -278906,
            "metadata" : { }
          },
          "endLocation" : {
            "latitude" : 51469788,
            "longitude" : -278906,
            "metadata" : { }
          }
        },
        "fixedStartTime" : -1
      }
    }
  }, {
    "timeWindow" : {
      "startTime" : 1373068860000,
      "endTime" : 1373076000000
    },
    "runs" : [ ],
    "breaks" : [ ],
    "constraints" : { },
    "resource" : {
      "metadata" : {
        "name" : "Test1"
      },
      "id" : 1859,
      "depot" : 0,
      "hourCost" : 0.0,
      "kmCost" : 0.62150407,
      "routingProfile" : {
        "vehicleType" : "Default",
        "drivingTimeCorrectionFactor" : 1.1,
        "maxSpeed" : 96.54
      },
      "constraints" : {
        "runDistanceLimit" : "Infinity",
        "runWorkingTimeLimit" : 9223372036854775807,
        "scheduleWorkingTimeLimit" : 9223372036854775807,
        "scheduleDrivingTimeLimit" : 31140000,
        "addonCollectionDropDuration" : 0,
        "addonPickupDuration" : 2700000,
        "capacity" : {
          "values" : [ 30.0, 30.0, 0.0, 0.0 ]
        },
        "attributes" : [ "AoC108", "route1", "cargo=0.0=3.0=0.0=0.0", "cargo=0.0=1.0=0.0=0.0", "cargo=0.0=2.0=0.0=0.0" ],
        "homeLocations" : {
          "startLocation" : {
            "latitude" : 51469788,
            "longitude" : -278906,
            "metadata" : { }
          },
          "endLocation" : {
            "latitude" : 51469788,
            "longitude" : -278906,
            "metadata" : { }
          }
        },
        "fixedStartTime" : -1
      }
    }
  }, {
    "timeWindow" : {
      "startTime" : 1373068860000,
      "endTime" : 1373104800000
    },
    "runs" : [ ],
    "breaks" : [ ],
    "constraints" : { },
    "resource" : {
      "metadata" : {
        "name" : "BJ61UPX"
      },
      "id" : 1784,
      "depot" : 0,
      "hourCost" : 0.0,
      "kmCost" : 0.24860162,
      "routingProfile" : {
        "vehicleType" : "Default",
        "drivingTimeCorrectionFactor" : 1.1,
        "maxSpeed" : 64.36
      },
      "constraints" : {
        "runDistanceLimit" : "Infinity",
        "runWorkingTimeLimit" : 9223372036854775807,
        "scheduleWorkingTimeLimit" : 9223372036854775807,
        "scheduleDrivingTimeLimit" : 57600000,
        "addonCollectionDropDuration" : 0,
        "addonPickupDuration" : 2700000,
        "capacity" : {
          "values" : [ 28.0, 28.0, 0.0, 0.0 ]
        },
        "attributes" : [ "route4", "route3", "AoC108", "cargo=0.0=3.0=0.0=0.0", "cargo=0.0=1.0=0.0=0.0", "route5", "cargo=0.0=2.0=0.0=0.0" ],
        "homeLocations" : {
          "startLocation" : {
            "latitude" : 51469788,
            "longitude" : -278906,
            "metadata" : { }
          },
          "endLocation" : {
            "latitude" : 51469788,
            "longitude" : -278906,
            "metadata" : { }
          }
        },
        "fixedStartTime" : -1
      }
    }
  }, {
    "timeWindow" : {
      "startTime" : 1373068860000,
      "endTime" : 1373104800000
    },
    "runs" : [ ],
    "breaks" : [ ],
    "constraints" : { },
    "resource" : {
      "metadata" : {
        "name" : "OU07 MDK"
      },
      "id" : 1378,
      "depot" : 0,
      "hourCost" : 0.0,
      "kmCost" : 0.24860162,
      "routingProfile" : {
        "vehicleType" : "Default",
        "drivingTimeCorrectionFactor" : 1.1,
        "maxSpeed" : 64.36
      },
      "constraints" : {
        "runDistanceLimit" : "Infinity",
        "runWorkingTimeLimit" : 9223372036854775807,
        "scheduleWorkingTimeLimit" : 9223372036854775807,
        "scheduleDrivingTimeLimit" : 31140000,
        "addonCollectionDropDuration" : 0,
        "addonPickupDuration" : 2700000,
        "capacity" : {
          "values" : [ 28.0, 28.0, 0.0, 0.0 ]
        },
        "attributes" : [ "route4", "AoC108", "cargo=0.0=3.0=0.0=0.0", "cargo=0.0=1.0=0.0=0.0", "cargo=0.0=2.0=0.0=0.0" ],
        "homeLocations" : {
          "startLocation" : {
            "latitude" : 51469788,
            "longitude" : -278906,
            "metadata" : { }
          },
          "endLocation" : {
            "latitude" : 51469788,
            "longitude" : -278906,
            "metadata" : { }
          }
        },
        "fixedStartTime" : -1
      }
    }
  }, {
    "timeWindow" : {
      "startTime" : 1373068860000,
      "endTime" : 1373104800000
    },
    "runs" : [ ],
    "breaks" : [ ],
    "constraints" : { },
    "resource" : {
      "metadata" : {
        "name" : "VK59FBL"
      },
      "id" : 1379,
      "depot" : 0,
      "hourCost" : 0.0,
      "kmCost" : 0.24860162,
      "routingProfile" : {
        "vehicleType" : "Default",
        "drivingTimeCorrectionFactor" : 1.1,
        "maxSpeed" : 64.36
      },
      "constraints" : {
        "runDistanceLimit" : "Infinity",
        "runWorkingTimeLimit" : 9223372036854775807,
        "scheduleWorkingTimeLimit" : 9223372036854775807,
        "scheduleDrivingTimeLimit" : 31140000,
        "addonCollectionDropDuration" : 0,
        "addonPickupDuration" : 2700000,
        "capacity" : {
          "values" : [ 10.0, 10.0, 0.0, 0.0 ]
        },
        "attributes" : [ "AoC108", "route1", "cargo=0.0=3.0=0.0=0.0", "cargo=0.0=1.0=0.0=0.0", "cargo=0.0=2.0=0.0=0.0", "route1.route1" ],
        "homeLocations" : {
          "startLocation" : {
            "latitude" : 51469788,
            "longitude" : -278906,
            "metadata" : { }
          },
          "endLocation" : {
            "latitude" : 51469788,
            "longitude" : -278906,
            "metadata" : { }
          }
        },
        "fixedStartTime" : -1
      }
    }
  } ],
  "depots" : [ {
    "id" : 0,
    "location" : {
      "latitude" : 51469788,
      "longitude" : -278906,
      "metadata" : { }
    },
    "constraints" : {
      "allowCollectionsWhileDrivingHome" : false,
      "allowDeliveriesWhileDrivingFromHome" : false,
      "availabilityWindows" : [ {
        "startTime" : 0,
        "endTime" : 57657355200332
      } ]
    }
  } ],
  "constraints" : {
    "allowMultipleRunsPerSchedule" : true,
    "consolidateSameSiteJobs" : "NONE"
  }
}