{
  "jobs" : [ {
    "id" : 162990,
    "metadata" : {
      "name" : "mID162990"
    },
    "depot" : 0,
    "location" : {
      "latitude" : 53324711,
      "longitude" : -2538149,
      "metadata" : { }
    },
    "pickupDuration" : 132000,
    "serviceDuration" : 564000,
    "unloadDuration" : 0,
    "durationPerVisit" : 0,
    "priority" : 2,
    "jobType" : "DROP",
    "constraints" : {
      "demand" : {
        "values" : [ 132.0, 0.0, 0.0, 0.0 ]
      },
      "pickupTimeWindows" : [ {
        "startTime" : 1373342400000,
        "endTime" : 1373356740000
      } ],
      "timeWindowConstraints" : {
        "serviceTimeWindows" : [ {
          "startTime" : 1373353140000,
          "endTime" : 1373385600000
        } ],
        "timeWindowPolicy" : "COMPLETE_ORDER_WITHIN_TIME_WINDOW"
      },
      "attributes" : [ "AoC99" ],
      "incompatibleAttributes" : [ ],
      "stopSequence" : 1
    }
  }, {
    "id" : 162994,
    "metadata" : {
      "name" : "mID162994"
    },
    "depot" : 0,
    "location" : {
      "latitude" : 53262067,
      "longitude" : -2509807,
      "metadata" : { }
    },
    "pickupDuration" : 42000,
    "serviceDuration" : 384000,
    "unloadDuration" : 0,
    "durationPerVisit" : 0,
    "priority" : 2,
    "jobType" : "DROP",
    "constraints" : {
      "demand" : {
        "values" : [ 42.24, 0.0, 0.0, 0.0 ]
      },
      "pickupTimeWindows" : [ {
        "startTime" : 1373342400000,
        "endTime" : 1373356740000
      } ],
      "timeWindowConstraints" : {
        "serviceTimeWindows" : [ {
          "startTime" : 1373353140000,
          "endTime" : 1373385600000
        } ],
        "timeWindowPolicy" : "COMPLETE_ORDER_WITHIN_TIME_WINDOW"
      },
      "attributes" : [ "AoC99" ],
      "incompatibleAttributes" : [ ],
      "stopSequence" : 1
    }
  }, {
    "id" : 162995,
    "metadata" : {
      "name" : "mID162995"
    },
    "depot" : 0,
    "location" : {
      "latitude" : 53486564,
      "longitude" : -1545919,
      "metadata" : { }
    },
    "pickupDuration" : 61920,
    "serviceDuration" : 423960,
    "unloadDuration" : 0,
    "durationPerVisit" : 0,
    "priority" : 2,
    "jobType" : "DROP",
    "constraints" : {
      "demand" : {
        "values" : [ 62.4, 0.0, 0.0, 0.0 ]
      },
      "pickupTimeWindows" : [ {
        "startTime" : 1373342400000,
        "endTime" : 1373356740000
      } ],
      "timeWindowConstraints" : {
        "serviceTimeWindows" : [ {
          "startTime" : 1373353140000,
          "endTime" : 1373385600000
        } ],
        "timeWindowPolicy" : "COMPLETE_ORDER_WITHIN_TIME_WINDOW"
      },
      "attributes" : [ "AoC99" ],
      "incompatibleAttributes" : [ ],
      "stopSequence" : 1
    }
  }, {
    "id" : 162999,
    "metadata" : {
      "name" : "mID162999"
    },
    "depot" : 0,
    "location" : {
      "latitude" : 53754365,
      "longitude" : -1738214,
      "metadata" : { }
    },
    "pickupDuration" : 256980,
    "serviceDuration" : 813960,
    "unloadDuration" : 0,
    "durationPerVisit" : 0,
    "priority" : 2,
    "jobType" : "DROP",
    "constraints" : {
      "demand" : {
        "values" : [ 257.2, 0.0, 0.0, 0.0 ]
      },
      "pickupTimeWindows" : [ {
        "startTime" : 1373342400000,
        "endTime" : 1373356740000
      } ],
      "timeWindowConstraints" : {
        "serviceTimeWindows" : [ {
          "startTime" : 1373367540000,
          "endTime" : 1373378400000
        } ],
        "timeWindowPolicy" : "COMPLETE_ORDER_WITHIN_TIME_WINDOW"
      },
      "attributes" : [ "AoC99" ],
      "incompatibleAttributes" : [ ],
      "stopSequence" : 1
    }
  }, {
    "id" : 163000,
    "metadata" : {
      "name" : "mID163000"
    },
    "depot" : 0,
    "location" : {
      "latitude" : 53065307,
      "longitude" : -1898179,
      "metadata" : { }
    },
    "pickupDuration" : 54000,
    "serviceDuration" : 408000,
    "unloadDuration" : 0,
    "durationPerVisit" : 0,
    "priority" : 2,
    "jobType" : "DROP",
    "constraints" : {
      "demand" : {
        "values" : [ 54.48, 0.0, 0.0, 0.0 ]
      },
      "pickupTimeWindows" : [ {
        "startTime" : 1373342400000,
        "endTime" : 1373356740000
      } ],
      "timeWindowConstraints" : {
        "serviceTimeWindows" : [ {
          "startTime" : 1373353140000,
          "endTime" : 1373385600000
        } ],
        "timeWindowPolicy" : "COMPLETE_ORDER_WITHIN_TIME_WINDOW"
      },
      "attributes" : [ "AoC99" ],
      "incompatibleAttributes" : [ ],
      "stopSequence" : 1
    }
  }, {
    "id" : 163022,
    "metadata" : {
      "name" : "mID163022"
    },
    "depot" : 0,
    "location" : {
      "latitude" : 53431757,
      "longitude" : -1487683,
      "metadata" : { }
    },
    "pickupDuration" : 85980,
    "serviceDuration" : 474000,
    "unloadDuration" : 0,
    "durationPerVisit" : 0,
    "priority" : 2,
    "jobType" : "DROP",
    "constraints" : {
      "demand" : {
        "values" : [ 86.56, 0.0, 0.0, 0.0 ]
      },
      "pickupTimeWindows" : [ {
        "startTime" : 1373342400000,
        "endTime" : 1373356740000
      } ],
      "timeWindowConstraints" : {
        "serviceTimeWindows" : [ {
          "startTime" : 1373353140000,
          "endTime" : 1373385600000
        } ],
        "timeWindowPolicy" : "COMPLETE_ORDER_WITHIN_TIME_WINDOW"
      },
      "attributes" : [ "AoC99" ],
      "incompatibleAttributes" : [ ],
      "stopSequence" : 1
    }
  }, {
    "id" : 163023,
    "metadata" : {
      "name" : "mID163023"
    },
    "depot" : 0,
    "location" : {
      "latitude" : 53049478,
      "longitude" : -2120431,
      "metadata" : { }
    },
    "pickupDuration" : 48000,
    "serviceDuration" : 396000,
    "unloadDuration" : 0,
    "durationPerVisit" : 0,
    "priority" : 2,
    "jobType" : "DROP",
    "constraints" : {
      "demand" : {
        "values" : [ 48.0, 0.0, 0.0, 0.0 ]
      },
      "pickupTimeWindows" : [ {
        "startTime" : 1373342400000,
        "endTime" : 1373356740000
      } ],
      "timeWindowConstraints" : {
        "serviceTimeWindows" : [ {
          "startTime" : 1373353140000,
          "endTime" : 1373385600000
        } ],
        "timeWindowPolicy" : "COMPLETE_ORDER_WITHIN_TIME_WINDOW"
      },
      "attributes" : [ "AoC99" ],
      "incompatibleAttributes" : [ ],
      "stopSequence" : 1
    }
  }, {
    "id" : 163025,
    "metadata" : {
      "name" : "mID163025"
    },
    "depot" : 0,
    "location" : {
      "latitude" : 53495493,
      "longitude" : -1568616,
      "metadata" : { }
    },
    "pickupDuration" : 18960,
    "serviceDuration" : 337980,
    "unloadDuration" : 0,
    "durationPerVisit" : 0,
    "priority" : 2,
    "jobType" : "DROP",
    "constraints" : {
      "demand" : {
        "values" : [ 19.2, 0.0, 0.0, 0.0 ]
      },
      "pickupTimeWindows" : [ {
        "startTime" : 1373342400000,
        "endTime" : 1373356740000
      } ],
      "timeWindowConstraints" : {
        "serviceTimeWindows" : [ {
          "startTime" : 1373353140000,
          "endTime" : 1373385600000
        } ],
        "timeWindowPolicy" : "COMPLETE_ORDER_WITHIN_TIME_WINDOW"
      },
      "attributes" : [ "AoC99" ],
      "incompatibleAttributes" : [ ],
      "stopSequence" : 1
    }
  }, {
    "id" : 163029,
    "metadata" : {
      "name" : "mID163029"
    },
    "depot" : 0,
    "location" : {
      "latitude" : 53589515,
      "longitude" : -1796324,
      "metadata" : { }
    },
    "pickupDuration" : 27000,
    "serviceDuration" : 354000,
    "unloadDuration" : 0,
    "durationPerVisit" : 0,
    "priority" : 2,
    "jobType" : "DROP",
    "constraints" : {
      "demand" : {
        "values" : [ 27.2, 0.0, 0.0, 0.0 ]
      },
      "pickupTimeWindows" : [ {
        "startTime" : 1373342400000,
        "endTime" : 1373356740000
      } ],
      "timeWindowConstraints" : {
        "serviceTimeWindows" : [ {
          "startTime" : 1373353140000,
          "endTime" : 1373385600000
        } ],
        "timeWindowPolicy" : "COMPLETE_ORDER_WITHIN_TIME_WINDOW"
      },
      "attributes" : [ "AoC99" ],
      "incompatibleAttributes" : [ ],
      "stopSequence" : 1
    }
  }, {
    "id" : 163033,
    "metadata" : {
      "name" : "mID163033"
    },
    "depot" : 0,
    "location" : {
      "latitude" : 53766026,
      "longitude" : -1708103,
      "metadata" : { }
    },
    "pickupDuration" : 54000,
    "serviceDuration" : 408000,
    "unloadDuration" : 0,
    "durationPerVisit" : 0,
    "priority" : 2,
    "jobType" : "DROP",
    "constraints" : {
      "demand" : {
        "values" : [ 54.32, 0.0, 0.0, 0.0 ]
      },
      "pickupTimeWindows" : [ {
        "startTime" : 1373342400000,
        "endTime" : 1373356740000
      } ],
      "timeWindowConstraints" : {
        "serviceTimeWindows" : [ {
          "startTime" : 1373353140000,
          "endTime" : 1373385600000
        } ],
        "timeWindowPolicy" : "COMPLETE_ORDER_WITHIN_TIME_WINDOW"
      },
      "attributes" : [ "AoC99" ],
      "incompatibleAttributes" : [ ],
      "stopSequence" : 1
    }
  }, {
    "id" : 163041,
    "metadata" : {
      "name" : "mID163041"
    },
    "depot" : 0,
    "location" : {
      "latitude" : 53733821,
      "longitude" : -1881382,
      "metadata" : { }
    },
    "pickupDuration" : 72000,
    "serviceDuration" : 444000,
    "unloadDuration" : 0,
    "durationPerVisit" : 0,
    "priority" : 2,
    "jobType" : "DROP",
    "constraints" : {
      "demand" : {
        "values" : [ 72.24, 0.0, 0.0, 0.0 ]
      },
      "pickupTimeWindows" : [ {
        "startTime" : 1373342400000,
        "endTime" : 1373356740000
      } ],
      "timeWindowConstraints" : {
        "serviceTimeWindows" : [ {
          "startTime" : 1373353140000,
          "endTime" : 1373385600000
        } ],
        "timeWindowPolicy" : "COMPLETE_ORDER_WITHIN_TIME_WINDOW"
      },
      "attributes" : [ "AoC99" ],
      "incompatibleAttributes" : [ ],
      "stopSequence" : 1
    }
  }, {
    "id" : 163043,
    "metadata" : {
      "name" : "mID163043"
    },
    "depot" : 0,
    "location" : {
      "latitude" : 53109259,
      "longitude" : -2458895,
      "metadata" : { }
    },
    "pickupDuration" : 37980,
    "serviceDuration" : 378000,
    "unloadDuration" : 0,
    "durationPerVisit" : 0,
    "priority" : 2,
    "jobType" : "DROP",
    "constraints" : {
      "demand" : {
        "values" : [ 38.8, 0.0, 0.0, 0.0 ]
      },
      "pickupTimeWindows" : [ {
        "startTime" : 1373342400000,
        "endTime" : 1373356740000
      } ],
      "timeWindowConstraints" : {
        "serviceTimeWindows" : [ {
          "startTime" : 1373353140000,
          "endTime" : 1373387400000
        } ],
        "timeWindowPolicy" : "COMPLETE_ORDER_WITHIN_TIME_WINDOW"
      },
      "attributes" : [ "AoC99" ],
      "incompatibleAttributes" : [ ],
      "stopSequence" : 1
    }
  }, {
    "id" : 163046,
    "metadata" : {
      "name" : "mID163046"
    },
    "depot" : 0,
    "location" : {
      "latitude" : 53726489,
      "longitude" : -1356413,
      "metadata" : { }
    },
    "pickupDuration" : 132000,
    "serviceDuration" : 565980,
    "unloadDuration" : 0,
    "durationPerVisit" : 0,
    "priority" : 2,
    "jobType" : "DROP",
    "constraints" : {
      "demand" : {
        "values" : [ 132.8, 0.0, 0.0, 0.0 ]
      },
      "pickupTimeWindows" : [ {
        "startTime" : 1373342400000,
        "endTime" : 1373356740000
      } ],
      "timeWindowConstraints" : {
        "serviceTimeWindows" : [ {
          "startTime" : 1373353140000,
          "endTime" : 1373385600000
        } ],
        "timeWindowPolicy" : "COMPLETE_ORDER_WITHIN_TIME_WINDOW"
      },
      "attributes" : [ "AoC99" ],
      "incompatibleAttributes" : [ ],
      "stopSequence" : 1
    }
  }, {
    "id" : 163053,
    "metadata" : {
      "name" : "mID163053"
    },
    "depot" : 0,
    "location" : {
      "latitude" : 53432771,
      "longitude" : -1358677,
      "metadata" : { }
    },
    "pickupDuration" : 122940,
    "serviceDuration" : 547980,
    "unloadDuration" : 0,
    "durationPerVisit" : 0,
    "priority" : 2,
    "jobType" : "DROP",
    "constraints" : {
      "demand" : {
        "values" : [ 123.92, 0.0, 0.0, 0.0 ]
      },
      "pickupTimeWindows" : [ {
        "startTime" : 1373342400000,
        "endTime" : 1373356740000
      } ],
      "timeWindowConstraints" : {
        "serviceTimeWindows" : [ {
          "startTime" : 1373353140000,
          "endTime" : 1373385600000
        } ],
        "timeWindowPolicy" : "COMPLETE_ORDER_WITHIN_TIME_WINDOW"
      },
      "attributes" : [ "AoC99" ],
      "incompatibleAttributes" : [ ],
      "stopSequence" : 1
    }
  }, {
    "id" : 163058,
    "metadata" : {
      "name" : "mID163058"
    },
    "depot" : 0,
    "location" : {
      "latitude" : 53874264,
      "longitude" : -1906019,
      "metadata" : { }
    },
    "pickupDuration" : 204000,
    "serviceDuration" : 708000,
    "unloadDuration" : 0,
    "durationPerVisit" : 0,
    "priority" : 2,
    "jobType" : "DROP",
    "constraints" : {
      "demand" : {
        "values" : [ 204.04, 0.0, 0.0, 0.0 ]
      },
      "pickupTimeWindows" : [ {
        "startTime" : 1373342400000,
        "endTime" : 1373356740000
      } ],
      "timeWindowConstraints" : {
        "serviceTimeWindows" : [ {
          "startTime" : 1373353140000,
          "endTime" : 1373385600000
        } ],
        "timeWindowPolicy" : "COMPLETE_ORDER_WITHIN_TIME_WINDOW"
      },
      "attributes" : [ "AoC99" ],
      "incompatibleAttributes" : [ ],
      "stopSequence" : 1
    }
  }, {
    "id" : 163076,
    "metadata" : {
      "name" : "mID163076"
    },
    "depot" : 0,
    "location" : {
      "latitude" : 53913195,
      "longitude" : -1937901,
      "metadata" : { }
    },
    "pickupDuration" : 82980,
    "serviceDuration" : 465960,
    "unloadDuration" : 0,
    "durationPerVisit" : 0,
    "priority" : 2,
    "jobType" : "DROP",
    "constraints" : {
      "demand" : {
        "values" : [ 83.2, 0.0, 0.0, 0.0 ]
      },
      "pickupTimeWindows" : [ {
        "startTime" : 1373342400000,
        "endTime" : 1373356740000
      } ],
      "timeWindowConstraints" : {
        "serviceTimeWindows" : [ {
          "startTime" : 1373360340000,
          "endTime" : 1373385600000
        } ],
        "timeWindowPolicy" : "COMPLETE_ORDER_WITHIN_TIME_WINDOW"
      },
      "attributes" : [ "AoC99" ],
      "incompatibleAttributes" : [ ],
      "stopSequence" : 1
    }
  }, {
    "id" : 163082,
    "metadata" : {
      "name" : "mID163082"
    },
    "depot" : 0,
    "location" : {
      "latitude" : 53169283,
      "longitude" : -2217807,
      "metadata" : { }
    },
    "pickupDuration" : 103980,
    "serviceDuration" : 507900,
    "unloadDuration" : 0,
    "durationPerVisit" : 0,
    "priority" : 2,
    "jobType" : "DROP",
    "constraints" : {
      "demand" : {
        "values" : [ 104.16, 0.0, 0.0, 0.0 ]
      },
      "pickupTimeWindows" : [ {
        "startTime" : 1373342400000,
        "endTime" : 1373356740000
      } ],
      "timeWindowConstraints" : {
        "serviceTimeWindows" : [ {
          "startTime" : 1373353140000,
          "endTime" : 1373385600000
        } ],
        "timeWindowPolicy" : "COMPLETE_ORDER_WITHIN_TIME_WINDOW"
      },
      "attributes" : [ "AoC99" ],
      "incompatibleAttributes" : [ ],
      "stopSequence" : 1
    }
  }, {
    "id" : 163087,
    "metadata" : {
      "name" : "mID163087"
    },
    "depot" : 0,
    "location" : {
      "latitude" : 53394815,
      "longitude" : -1430605,
      "metadata" : { }
    },
    "pickupDuration" : 190980,
    "serviceDuration" : 681960,
    "unloadDuration" : 0,
    "durationPerVisit" : 0,
    "priority" : 2,
    "jobType" : "DROP",
    "constraints" : {
      "demand" : {
        "values" : [ 191.2, 0.0, 0.0, 0.0 ]
      },
      "pickupTimeWindows" : [ {
        "startTime" : 1373342400000,
        "endTime" : 1373356740000
      } ],
      "timeWindowConstraints" : {
        "serviceTimeWindows" : [ {
          "startTime" : 1373353140000,
          "endTime" : 1373385600000
        } ],
        "timeWindowPolicy" : "COMPLETE_ORDER_WITHIN_TIME_WINDOW"
      },
      "attributes" : [ "AoC99" ],
      "incompatibleAttributes" : [ ],
      "stopSequence" : 1
    }
  }, {
    "id" : 163089,
    "metadata" : {
      "name" : "mID163089"
    },
    "depot" : 0,
    "location" : {
      "latitude" : 53007456,
      "longitude" : -2163608,
      "metadata" : { }
    },
    "pickupDuration" : 189960,
    "serviceDuration" : 679980,
    "unloadDuration" : 0,
    "durationPerVisit" : 0,
    "priority" : 2,
    "jobType" : "DROP",
    "constraints" : {
      "demand" : {
        "values" : [ 190.4, 0.0, 0.0, 0.0 ]
      },
      "pickupTimeWindows" : [ {
        "startTime" : 1373342400000,
        "endTime" : 1373356740000
      } ],
      "timeWindowConstraints" : {
        "serviceTimeWindows" : [ {
          "startTime" : 1373353140000,
          "endTime" : 1373385600000
        } ],
        "timeWindowPolicy" : "COMPLETE_ORDER_WITHIN_TIME_WINDOW"
      },
      "attributes" : [ "AoC99" ],
      "incompatibleAttributes" : [ ],
      "stopSequence" : 1
    }
  }, {
    "id" : 163096,
    "metadata" : {
      "name" : "mID163096"
    },
    "depot" : 0,
    "location" : {
      "latitude" : 53677009,
      "longitude" : -1517139,
      "metadata" : { }
    },
    "pickupDuration" : 46980,
    "serviceDuration" : 393960,
    "unloadDuration" : 0,
    "durationPerVisit" : 0,
    "priority" : 2,
    "jobType" : "DROP",
    "constraints" : {
      "demand" : {
        "values" : [ 47.0, 0.0, 0.0, 0.0 ]
      },
      "pickupTimeWindows" : [ {
        "startTime" : 1373342400000,
        "endTime" : 1373356740000
      } ],
      "timeWindowConstraints" : {
        "serviceTimeWindows" : [ {
          "startTime" : 1373353140000,
          "endTime" : 1373385600000
        } ],
        "timeWindowPolicy" : "COMPLETE_ORDER_WITHIN_TIME_WINDOW"
      },
      "attributes" : [ "AoC99" ],
      "incompatibleAttributes" : [ ],
      "stopSequence" : 1
    }
  }, {
    "id" : 163097,
    "metadata" : {
      "name" : "mID163097"
    },
    "depot" : 0,
    "location" : {
      "latitude" : 53637391,
      "longitude" : -1788002,
      "metadata" : { }
    },
    "pickupDuration" : 85980,
    "serviceDuration" : 474000,
    "unloadDuration" : 0,
    "durationPerVisit" : 0,
    "priority" : 2,
    "jobType" : "DROP",
    "constraints" : {
      "demand" : {
        "values" : [ 86.8, 0.0, 0.0, 0.0 ]
      },
      "pickupTimeWindows" : [ {
        "startTime" : 1373342400000,
        "endTime" : 1373356740000
      } ],
      "timeWindowConstraints" : {
        "serviceTimeWindows" : [ {
          "startTime" : 1373354940000,
          "endTime" : 1373387400000
        } ],
        "timeWindowPolicy" : "COMPLETE_ORDER_WITHIN_TIME_WINDOW"
      },
      "attributes" : [ "AoC99" ],
      "incompatibleAttributes" : [ ],
      "stopSequence" : 1
    }
  }, {
    "id" : 163099,
    "metadata" : {
      "name" : "mID163099"
    },
    "depot" : 0,
    "location" : {
      "latitude" : 53796335,
      "longitude" : -2251664,
      "metadata" : { }
    },
    "pickupDuration" : 69960,
    "serviceDuration" : 439980,
    "unloadDuration" : 0,
    "durationPerVisit" : 0,
    "priority" : 2,
    "jobType" : "DROP",
    "constraints" : {
      "demand" : {
        "values" : [ 70.44, 0.0, 0.0, 0.0 ]
      },
      "pickupTimeWindows" : [ {
        "startTime" : 1373342400000,
        "endTime" : 1373356740000
      } ],
      "timeWindowConstraints" : {
        "serviceTimeWindows" : [ {
          "startTime" : 1373360340000,
          "endTime" : 1373382000000
        } ],
        "timeWindowPolicy" : "COMPLETE_ORDER_WITHIN_TIME_WINDOW"
      },
      "attributes" : [ "AoC99" ],
      "incompatibleAttributes" : [ ],
      "stopSequence" : 1
    }
  }, {
    "id" : 163101,
    "metadata" : {
      "name" : "mID163101"
    },
    "depot" : 0,
    "location" : {
      "latitude" : 53609605,
      "longitude" : -1350121,
      "metadata" : { }
    },
    "pickupDuration" : 122940,
    "serviceDuration" : 547980,
    "unloadDuration" : 0,
    "durationPerVisit" : 0,
    "priority" : 2,
    "jobType" : "DROP",
    "constraints" : {
      "demand" : {
        "values" : [ 123.6, 0.0, 0.0, 0.0 ]
      },
      "pickupTimeWindows" : [ {
        "startTime" : 1373342400000,
        "endTime" : 1373356740000
      } ],
      "timeWindowConstraints" : {
        "serviceTimeWindows" : [ {
          "startTime" : 1373356740000,
          "endTime" : 1373385600000
        } ],
        "timeWindowPolicy" : "COMPLETE_ORDER_WITHIN_TIME_WINDOW"
      },
      "attributes" : [ "AoC99" ],
      "incompatibleAttributes" : [ ],
      "stopSequence" : 1
    }
  }, {
    "id" : 163102,
    "metadata" : {
      "name" : "mID163102"
    },
    "depot" : 0,
    "location" : {
      "latitude" : 53740608,
      "longitude" : -1770685,
      "metadata" : { }
    },
    "pickupDuration" : 66960,
    "serviceDuration" : 433980,
    "unloadDuration" : 0,
    "durationPerVisit" : 0,
    "priority" : 2,
    "jobType" : "DROP",
    "constraints" : {
      "demand" : {
        "values" : [ 67.2, 0.0, 0.0, 0.0 ]
      },
      "pickupTimeWindows" : [ {
        "startTime" : 1373342400000,
        "endTime" : 1373356740000
      } ],
      "timeWindowConstraints" : {
        "serviceTimeWindows" : [ {
          "startTime" : 1373371140000,
          "endTime" : 1373385600000
        } ],
        "timeWindowPolicy" : "COMPLETE_ORDER_WITHIN_TIME_WINDOW"
      },
      "attributes" : [ "AoC99" ],
      "incompatibleAttributes" : [ ],
      "stopSequence" : 1
    }
  }, {
    "id" : 163104,
    "metadata" : {
      "name" : "mID163104"
    },
    "depot" : 0,
    "location" : {
      "latitude" : 52986442,
      "longitude" : -1989514,
      "metadata" : { }
    },
    "pickupDuration" : 66960,
    "serviceDuration" : 433980,
    "unloadDuration" : 0,
    "durationPerVisit" : 0,
    "priority" : 2,
    "jobType" : "DROP",
    "constraints" : {
      "demand" : {
        "values" : [ 67.2, 0.0, 0.0, 0.0 ]
      },
      "pickupTimeWindows" : [ {
        "startTime" : 1373342400000,
        "endTime" : 1373356740000
      } ],
      "timeWindowConstraints" : {
        "serviceTimeWindows" : [ {
          "startTime" : 1373356740000,
          "endTime" : 1373368500000
        } ],
        "timeWindowPolicy" : "COMPLETE_ORDER_WITHIN_TIME_WINDOW"
      },
      "attributes" : [ "AoC99" ],
      "incompatibleAttributes" : [ ],
      "stopSequence" : 1
    }
  }, {
    "id" : 163108,
    "metadata" : {
      "name" : "mID163108"
    },
    "depot" : 0,
    "location" : {
      "latitude" : 53741582,
      "longitude" : -2014526,
      "metadata" : { }
    },
    "pickupDuration" : 48000,
    "serviceDuration" : 396000,
    "unloadDuration" : 0,
    "durationPerVisit" : 0,
    "priority" : 2,
    "jobType" : "DROP",
    "constraints" : {
      "demand" : {
        "values" : [ 48.48, 0.0, 0.0, 0.0 ]
      },
      "pickupTimeWindows" : [ {
        "startTime" : 1373342400000,
        "endTime" : 1373356740000
      } ],
      "timeWindowConstraints" : {
        "serviceTimeWindows" : [ {
          "startTime" : 1373360340000,
          "endTime" : 1373367600000
        } ],
        "timeWindowPolicy" : "COMPLETE_ORDER_WITHIN_TIME_WINDOW"
      },
      "attributes" : [ "AoC99" ],
      "incompatibleAttributes" : [ ],
      "stopSequence" : 1
    }
  }, {
    "id" : 163110,
    "metadata" : {
      "name" : "mID163110"
    },
    "depot" : 0,
    "location" : {
      "latitude" : 53704091,
      "longitude" : -1258577,
      "metadata" : { }
    },
    "pickupDuration" : 132000,
    "serviceDuration" : 564000,
    "unloadDuration" : 0,
    "durationPerVisit" : 0,
    "priority" : 2,
    "jobType" : "DROP",
    "constraints" : {
      "demand" : {
        "values" : [ 132.0, 0.0, 0.0, 0.0 ]
      },
      "pickupTimeWindows" : [ {
        "startTime" : 1373342400000,
        "endTime" : 1373356740000
      } ],
      "timeWindowConstraints" : {
        "serviceTimeWindows" : [ {
          "startTime" : 1373353140000,
          "endTime" : 1373389200000
        } ],
        "timeWindowPolicy" : "COMPLETE_ORDER_WITHIN_TIME_WINDOW"
      },
      "attributes" : [ "AoC99" ],
      "incompatibleAttributes" : [ ],
      "stopSequence" : 1
    }
  }, {
    "id" : 163131,
    "metadata" : {
      "name" : "mID163131"
    },
    "depot" : 0,
    "location" : {
      "latitude" : 53386476,
      "longitude" : -1507833,
      "metadata" : { }
    },
    "pickupDuration" : 33960,
    "serviceDuration" : 367980,
    "unloadDuration" : 0,
    "durationPerVisit" : 0,
    "priority" : 2,
    "jobType" : "DROP",
    "constraints" : {
      "demand" : {
        "values" : [ 34.32, 0.0, 0.0, 0.0 ]
      },
      "pickupTimeWindows" : [ {
        "startTime" : 1373342400000,
        "endTime" : 1373356740000
      } ],
      "timeWindowConstraints" : {
        "serviceTimeWindows" : [ {
          "startTime" : 1373360340000,
          "endTime" : 1373385600000
        } ],
        "timeWindowPolicy" : "COMPLETE_ORDER_WITHIN_TIME_WINDOW"
      },
      "attributes" : [ "AoC99" ],
      "incompatibleAttributes" : [ ],
      "stopSequence" : 1
    }
  }, {
    "id" : 163138,
    "metadata" : {
      "name" : "mID163138"
    },
    "depot" : 0,
    "location" : {
      "latitude" : 53096124,
      "longitude" : -2435324,
      "metadata" : { }
    },
    "pickupDuration" : 66960,
    "serviceDuration" : 433980,
    "unloadDuration" : 0,
    "durationPerVisit" : 0,
    "priority" : 2,
    "jobType" : "DROP",
    "constraints" : {
      "demand" : {
        "values" : [ 67.0, 0.0, 0.0, 0.0 ]
      },
      "pickupTimeWindows" : [ {
        "startTime" : 1373342400000,
        "endTime" : 1373356740000
      } ],
      "timeWindowConstraints" : {
        "serviceTimeWindows" : [ {
          "startTime" : 1373349540000,
          "endTime" : 1373385600000
        } ],
        "timeWindowPolicy" : "COMPLETE_ORDER_WITHIN_TIME_WINDOW"
      },
      "attributes" : [ "AoC99" ],
      "incompatibleAttributes" : [ ],
      "stopSequence" : 1
    }
  }, {
    "id" : 163142,
    "metadata" : {
      "name" : "mID163142"
    },
    "depot" : 0,
    "location" : {
      "latitude" : 53798305,
      "longitude" : -1753015,
      "metadata" : { }
    },
    "pickupDuration" : 72000,
    "serviceDuration" : 445980,
    "unloadDuration" : 0,
    "durationPerVisit" : 0,
    "priority" : 2,
    "jobType" : "DROP",
    "constraints" : {
      "demand" : {
        "values" : [ 72.6, 0.0, 0.0, 0.0 ]
      },
      "pickupTimeWindows" : [ {
        "startTime" : 1373342400000,
        "endTime" : 1373356740000
      } ],
      "timeWindowConstraints" : {
        "serviceTimeWindows" : [ {
          "startTime" : 1373349540000,
          "endTime" : 1373385600000
        } ],
        "timeWindowPolicy" : "COMPLETE_ORDER_WITHIN_TIME_WINDOW"
      },
      "attributes" : [ "AoC99" ],
      "incompatibleAttributes" : [ ],
      "stopSequence" : 1
    }
  }, {
    "id" : 163144,
    "metadata" : {
      "name" : "mID163144"
    },
    "depot" : 0,
    "location" : {
      "latitude" : 53678754,
      "longitude" : -1506476,
      "metadata" : { }
    },
    "pickupDuration" : 87960,
    "serviceDuration" : 477960,
    "unloadDuration" : 0,
    "durationPerVisit" : 0,
    "priority" : 2,
    "jobType" : "DROP",
    "constraints" : {
      "demand" : {
        "values" : [ 88.6, 0.0, 0.0, 0.0 ]
      },
      "pickupTimeWindows" : [ {
        "startTime" : 1373342400000,
        "endTime" : 1373356740000
      } ],
      "timeWindowConstraints" : {
        "serviceTimeWindows" : [ {
          "startTime" : 1373349540000,
          "endTime" : 1373385600000
        } ],
        "timeWindowPolicy" : "COMPLETE_ORDER_WITHIN_TIME_WINDOW"
      },
      "attributes" : [ "AoC99" ],
      "incompatibleAttributes" : [ ],
      "stopSequence" : 1
    }
  }, {
    "id" : 163145,
    "metadata" : {
      "name" : "mID163145"
    },
    "depot" : 0,
    "location" : {
      "latitude" : 53031797,
      "longitude" : -2189125,
      "metadata" : { }
    },
    "pickupDuration" : 136980,
    "serviceDuration" : 573960,
    "unloadDuration" : 0,
    "durationPerVisit" : 0,
    "priority" : 2,
    "jobType" : "DROP",
    "constraints" : {
      "demand" : {
        "values" : [ 137.4, 0.0, 0.0, 0.0 ]
      },
      "pickupTimeWindows" : [ {
        "startTime" : 1373342400000,
        "endTime" : 1373356740000
      } ],
      "timeWindowConstraints" : {
        "serviceTimeWindows" : [ {
          "startTime" : 1373349540000,
          "endTime" : 1373385600000
        } ],
        "timeWindowPolicy" : "COMPLETE_ORDER_WITHIN_TIME_WINDOW"
      },
      "attributes" : [ "AoC99" ],
      "incompatibleAttributes" : [ ],
      "stopSequence" : 1
    }
  }, {
    "id" : 163148,
    "metadata" : {
      "name" : "mID163148"
    },
    "depot" : 0,
    "location" : {
      "latitude" : 53233790,
      "longitude" : -1429672,
      "metadata" : { }
    },
    "pickupDuration" : 138000,
    "serviceDuration" : 576000,
    "unloadDuration" : 0,
    "durationPerVisit" : 0,
    "priority" : 2,
    "jobType" : "DROP",
    "constraints" : {
      "demand" : {
        "values" : [ 138.2, 0.0, 0.0, 0.0 ]
      },
      "pickupTimeWindows" : [ {
        "startTime" : 1373342400000,
        "endTime" : 1373356740000
      } ],
      "timeWindowConstraints" : {
        "serviceTimeWindows" : [ {
          "startTime" : 1373349540000,
          "endTime" : 1373385600000
        } ],
        "timeWindowPolicy" : "COMPLETE_ORDER_WITHIN_TIME_WINDOW"
      },
      "attributes" : [ "AoC99" ],
      "incompatibleAttributes" : [ ],
      "stopSequence" : 1
    }
  }, {
    "id" : 163149,
    "metadata" : {
      "name" : "mID163149"
    },
    "depot" : 0,
    "location" : {
      "latitude" : 53345152,
      "longitude" : -1356523,
      "metadata" : { }
    },
    "pickupDuration" : 139980,
    "serviceDuration" : 579960,
    "unloadDuration" : 0,
    "durationPerVisit" : 0,
    "priority" : 2,
    "jobType" : "DROP",
    "constraints" : {
      "demand" : {
        "values" : [ 140.0, 0.0, 0.0, 0.0 ]
      },
      "pickupTimeWindows" : [ {
        "startTime" : 1373342400000,
        "endTime" : 1373356740000
      } ],
      "timeWindowConstraints" : {
        "serviceTimeWindows" : [ {
          "startTime" : 1373349540000,
          "endTime" : 1373385600000
        } ],
        "timeWindowPolicy" : "COMPLETE_ORDER_WITHIN_TIME_WINDOW"
      },
      "attributes" : [ "AoC99" ],
      "incompatibleAttributes" : [ ],
      "stopSequence" : 1
    }
  }, {
    "id" : 163151,
    "metadata" : {
      "name" : "mID163151"
    },
    "depot" : 0,
    "location" : {
      "latitude" : 53444037,
      "longitude" : -1346237,
      "metadata" : { }
    },
    "pickupDuration" : 72960,
    "serviceDuration" : 445980,
    "unloadDuration" : 0,
    "durationPerVisit" : 0,
    "priority" : 2,
    "jobType" : "DROP",
    "constraints" : {
      "demand" : {
        "values" : [ 73.2, 0.0, 0.0, 0.0 ]
      },
      "pickupTimeWindows" : [ {
        "startTime" : 1373342400000,
        "endTime" : 1373356740000
      } ],
      "timeWindowConstraints" : {
        "serviceTimeWindows" : [ {
          "startTime" : 1373349540000,
          "endTime" : 1373385600000
        } ],
        "timeWindowPolicy" : "COMPLETE_ORDER_WITHIN_TIME_WINDOW"
      },
      "attributes" : [ "AoC99" ],
      "incompatibleAttributes" : [ ],
      "stopSequence" : 1
    }
  }, {
    "id" : 163153,
    "metadata" : {
      "name" : "mID163153"
    },
    "depot" : 0,
    "location" : {
      "latitude" : 53850094,
      "longitude" : -2198175,
      "metadata" : { }
    },
    "pickupDuration" : 127980,
    "serviceDuration" : 555960,
    "unloadDuration" : 0,
    "durationPerVisit" : 0,
    "priority" : 2,
    "jobType" : "DROP",
    "constraints" : {
      "demand" : {
        "values" : [ 128.32, 0.0, 0.0, 0.0 ]
      },
      "pickupTimeWindows" : [ {
        "startTime" : 1373342400000,
        "endTime" : 1373356740000
      } ],
      "timeWindowConstraints" : {
        "serviceTimeWindows" : [ {
          "startTime" : 1373356740000,
          "endTime" : 1373367600000
        } ],
        "timeWindowPolicy" : "COMPLETE_ORDER_WITHIN_TIME_WINDOW"
      },
      "attributes" : [ "AoC99" ],
      "incompatibleAttributes" : [ ],
      "stopSequence" : 1
    }
  }, {
    "id" : 163154,
    "metadata" : {
      "name" : "mID163154"
    },
    "depot" : 0,
    "location" : {
      "latitude" : 53784045,
      "longitude" : -1793274,
      "metadata" : { }
    },
    "pickupDuration" : 37980,
    "serviceDuration" : 375960,
    "unloadDuration" : 0,
    "durationPerVisit" : 0,
    "priority" : 2,
    "jobType" : "DROP",
    "constraints" : {
      "demand" : {
        "values" : [ 38.4, 0.0, 0.0, 0.0 ]
      },
      "pickupTimeWindows" : [ {
        "startTime" : 1373342400000,
        "endTime" : 1373356740000
      } ],
      "timeWindowConstraints" : {
        "serviceTimeWindows" : [ {
          "startTime" : 1373353140000,
          "endTime" : 1373385600000
        } ],
        "timeWindowPolicy" : "COMPLETE_ORDER_WITHIN_TIME_WINDOW"
      },
      "attributes" : [ "AoC99" ],
      "incompatibleAttributes" : [ ],
      "stopSequence" : 1
    }
  }, {
    "id" : 163160,
    "metadata" : {
      "name" : "mID163160"
    },
    "depot" : 0,
    "location" : {
      "latitude" : 52995536,
      "longitude" : -2208484,
      "metadata" : { }
    },
    "pickupDuration" : 78960,
    "serviceDuration" : 457980,
    "unloadDuration" : 0,
    "durationPerVisit" : 0,
    "priority" : 2,
    "jobType" : "DROP",
    "constraints" : {
      "demand" : {
        "values" : [ 79.0, 0.0, 0.0, 0.0 ]
      },
      "pickupTimeWindows" : [ {
        "startTime" : 1373342400000,
        "endTime" : 1373356740000
      } ],
      "timeWindowConstraints" : {
        "serviceTimeWindows" : [ {
          "startTime" : 1373349540000,
          "endTime" : 1373385600000
        } ],
        "timeWindowPolicy" : "COMPLETE_ORDER_WITHIN_TIME_WINDOW"
      },
      "attributes" : [ "AoC99" ],
      "incompatibleAttributes" : [ ],
      "stopSequence" : 1
    }
  }, {
    "id" : 163167,
    "metadata" : {
      "name" : "mID163167"
    },
    "depot" : 0,
    "location" : {
      "latitude" : 53237824,
      "longitude" : -2132527,
      "metadata" : { }
    },
    "pickupDuration" : 114000,
    "serviceDuration" : 528000,
    "unloadDuration" : 0,
    "durationPerVisit" : 0,
    "priority" : 2,
    "jobType" : "DROP",
    "constraints" : {
      "demand" : {
        "values" : [ 114.4, 0.0, 0.0, 0.0 ]
      },
      "pickupTimeWindows" : [ {
        "startTime" : 1373342400000,
        "endTime" : 1373356740000
      } ],
      "timeWindowConstraints" : {
        "serviceTimeWindows" : [ {
          "startTime" : 1373349540000,
          "endTime" : 1373385600000
        } ],
        "timeWindowPolicy" : "COMPLETE_ORDER_WITHIN_TIME_WINDOW"
      },
      "attributes" : [ "AoC99" ],
      "incompatibleAttributes" : [ ],
      "stopSequence" : 1
    }
  }, {
    "id" : 163173,
    "metadata" : {
      "name" : "mID163173"
    },
    "depot" : 0,
    "location" : {
      "latitude" : 53689057,
      "longitude" : -1623714,
      "metadata" : { }
    },
    "pickupDuration" : 49980,
    "serviceDuration" : 402000,
    "unloadDuration" : 0,
    "durationPerVisit" : 0,
    "priority" : 2,
    "jobType" : "DROP",
    "constraints" : {
      "demand" : {
        "values" : [ 50.8, 0.0, 0.0, 0.0 ]
      },
      "pickupTimeWindows" : [ {
        "startTime" : 1373342400000,
        "endTime" : 1373356740000
      } ],
      "timeWindowConstraints" : {
        "serviceTimeWindows" : [ {
          "startTime" : 1373349540000,
          "endTime" : 1373385600000
        } ],
        "timeWindowPolicy" : "COMPLETE_ORDER_WITHIN_TIME_WINDOW"
      },
      "attributes" : [ "AoC99" ],
      "incompatibleAttributes" : [ ],
      "stopSequence" : 1
    }
  }, {
    "id" : 163177,
    "metadata" : {
      "name" : "mID163177"
    },
    "depot" : 0,
    "location" : {
      "latitude" : 53557487,
      "longitude" : -1470194,
      "metadata" : { }
    },
    "pickupDuration" : 48000,
    "serviceDuration" : 397980,
    "unloadDuration" : 0,
    "durationPerVisit" : 0,
    "priority" : 2,
    "jobType" : "DROP",
    "constraints" : {
      "demand" : {
        "values" : [ 48.8, 0.0, 0.0, 0.0 ]
      },
      "pickupTimeWindows" : [ {
        "startTime" : 1373342400000,
        "endTime" : 1373356740000
      } ],
      "timeWindowConstraints" : {
        "serviceTimeWindows" : [ {
          "startTime" : 1373349540000,
          "endTime" : 1373385600000
        } ],
        "timeWindowPolicy" : "COMPLETE_ORDER_WITHIN_TIME_WINDOW"
      },
      "attributes" : [ "AoC99" ],
      "incompatibleAttributes" : [ ],
      "stopSequence" : 1
    }
  }, {
    "id" : 163182,
    "metadata" : {
      "name" : "mID163182"
    },
    "depot" : 0,
    "location" : {
      "latitude" : 53652717,
      "longitude" : -1778817,
      "metadata" : { }
    },
    "pickupDuration" : 84960,
    "serviceDuration" : 469980,
    "unloadDuration" : 0,
    "durationPerVisit" : 0,
    "priority" : 2,
    "jobType" : "DROP",
    "constraints" : {
      "demand" : {
        "values" : [ 85.4, 0.0, 0.0, 0.0 ]
      },
      "pickupTimeWindows" : [ {
        "startTime" : 1373342400000,
        "endTime" : 1373356740000
      } ],
      "timeWindowConstraints" : {
        "serviceTimeWindows" : [ {
          "startTime" : 1373349540000,
          "endTime" : 1373385600000
        } ],
        "timeWindowPolicy" : "COMPLETE_ORDER_WITHIN_TIME_WINDOW"
      },
      "attributes" : [ "AoC99" ],
      "incompatibleAttributes" : [ ],
      "stopSequence" : 1
    }
  }, {
    "id" : 163184,
    "metadata" : {
      "name" : "mID163184"
    },
    "depot" : 0,
    "location" : {
      "latitude" : 53355848,
      "longitude" : -1479669,
      "metadata" : { }
    },
    "pickupDuration" : 49980,
    "serviceDuration" : 402000,
    "unloadDuration" : 0,
    "durationPerVisit" : 0,
    "priority" : 2,
    "jobType" : "DROP",
    "constraints" : {
      "demand" : {
        "values" : [ 50.8, 0.0, 0.0, 0.0 ]
      },
      "pickupTimeWindows" : [ {
        "startTime" : 1373342400000,
        "endTime" : 1373356740000
      } ],
      "timeWindowConstraints" : {
        "serviceTimeWindows" : [ {
          "startTime" : 1373349540000,
          "endTime" : 1373385600000
        } ],
        "timeWindowPolicy" : "COMPLETE_ORDER_WITHIN_TIME_WINDOW"
      },
      "attributes" : [ "AoC99" ],
      "incompatibleAttributes" : [ ],
      "stopSequence" : 1
    }
  }, {
    "id" : 163188,
    "metadata" : {
      "name" : "mID163188"
    },
    "depot" : 0,
    "location" : {
      "latitude" : 53261163,
      "longitude" : -2506439,
      "metadata" : { }
    },
    "pickupDuration" : 105960,
    "serviceDuration" : 513960,
    "unloadDuration" : 0,
    "durationPerVisit" : 0,
    "priority" : 2,
    "jobType" : "DROP",
    "constraints" : {
      "demand" : {
        "values" : [ 106.6, 0.0, 0.0, 0.0 ]
      },
      "pickupTimeWindows" : [ {
        "startTime" : 1373342400000,
        "endTime" : 1373356740000
      } ],
      "timeWindowConstraints" : {
        "serviceTimeWindows" : [ {
          "startTime" : 1373349540000,
          "endTime" : 1373385600000
        } ],
        "timeWindowPolicy" : "COMPLETE_ORDER_WITHIN_TIME_WINDOW"
      },
      "attributes" : [ "AoC99" ],
      "incompatibleAttributes" : [ ],
      "stopSequence" : 1
    }
  }, {
    "id" : 163195,
    "metadata" : {
      "name" : "mID163195"
    },
    "depot" : 0,
    "location" : {
      "latitude" : 53789353,
      "longitude" : -2246584,
      "metadata" : { }
    },
    "pickupDuration" : 51960,
    "serviceDuration" : 405960,
    "unloadDuration" : 0,
    "durationPerVisit" : 0,
    "priority" : 2,
    "jobType" : "DROP",
    "constraints" : {
      "demand" : {
        "values" : [ 52.8, 0.0, 0.0, 0.0 ]
      },
      "pickupTimeWindows" : [ {
        "startTime" : 1373342400000,
        "endTime" : 1373356740000
      } ],
      "timeWindowConstraints" : {
        "serviceTimeWindows" : [ {
          "startTime" : 1373349540000,
          "endTime" : 1373385600000
        } ],
        "timeWindowPolicy" : "COMPLETE_ORDER_WITHIN_TIME_WINDOW"
      },
      "attributes" : [ "AoC99" ],
      "incompatibleAttributes" : [ ],
      "stopSequence" : 1
    }
  }, {
    "id" : 163198,
    "metadata" : {
      "name" : "mID163198"
    },
    "depot" : 0,
    "location" : {
      "latitude" : 53697261,
      "longitude" : -1319297,
      "metadata" : { }
    },
    "pickupDuration" : 70980,
    "serviceDuration" : 441960,
    "unloadDuration" : 0,
    "durationPerVisit" : 0,
    "priority" : 2,
    "jobType" : "DROP",
    "constraints" : {
      "demand" : {
        "values" : [ 71.2, 0.0, 0.0, 0.0 ]
      },
      "pickupTimeWindows" : [ {
        "startTime" : 1373342400000,
        "endTime" : 1373356740000
      } ],
      "timeWindowConstraints" : {
        "serviceTimeWindows" : [ {
          "startTime" : 1373349540000,
          "endTime" : 1373385600000
        } ],
        "timeWindowPolicy" : "COMPLETE_ORDER_WITHIN_TIME_WINDOW"
      },
      "attributes" : [ "AoC99" ],
      "incompatibleAttributes" : [ ],
      "stopSequence" : 1
    }
  }, {
    "id" : 163204,
    "metadata" : {
      "name" : "mID163204"
    },
    "depot" : 0,
    "location" : {
      "latitude" : 53418953,
      "longitude" : -1497481,
      "metadata" : { }
    },
    "pickupDuration" : 154980,
    "serviceDuration" : 609960,
    "unloadDuration" : 0,
    "durationPerVisit" : 0,
    "priority" : 2,
    "jobType" : "DROP",
    "constraints" : {
      "demand" : {
        "values" : [ 155.0, 0.0, 0.0, 0.0 ]
      },
      "pickupTimeWindows" : [ {
        "startTime" : 1373342400000,
        "endTime" : 1373356740000
      } ],
      "timeWindowConstraints" : {
        "serviceTimeWindows" : [ {
          "startTime" : 1373349540000,
          "endTime" : 1373385600000
        } ],
        "timeWindowPolicy" : "COMPLETE_ORDER_WITHIN_TIME_WINDOW"
      },
      "attributes" : [ "AoC99" ],
      "incompatibleAttributes" : [ ],
      "stopSequence" : 1
    }
  }, {
    "id" : 163206,
    "metadata" : {
      "name" : "mID163206"
    },
    "depot" : 0,
    "location" : {
      "latitude" : 53539921,
      "longitude" : -1432387,
      "metadata" : { }
    },
    "pickupDuration" : 93960,
    "serviceDuration" : 489960,
    "unloadDuration" : 0,
    "durationPerVisit" : 0,
    "priority" : 2,
    "jobType" : "DROP",
    "constraints" : {
      "demand" : {
        "values" : [ 94.6, 0.0, 0.0, 0.0 ]
      },
      "pickupTimeWindows" : [ {
        "startTime" : 1373342400000,
        "endTime" : 1373356740000
      } ],
      "timeWindowConstraints" : {
        "serviceTimeWindows" : [ {
          "startTime" : 1373349540000,
          "endTime" : 1373385600000
        } ],
        "timeWindowPolicy" : "COMPLETE_ORDER_WITHIN_TIME_WINDOW"
      },
      "attributes" : [ "AoC99" ],
      "incompatibleAttributes" : [ ],
      "stopSequence" : 1
    }
  }, {
    "id" : 163208,
    "metadata" : {
      "name" : "mID163208"
    },
    "depot" : 0,
    "location" : {
      "latitude" : 53744059,
      "longitude" : -1644830,
      "metadata" : { }
    },
    "pickupDuration" : 49980,
    "serviceDuration" : 399960,
    "unloadDuration" : 0,
    "durationPerVisit" : 0,
    "priority" : 2,
    "jobType" : "DROP",
    "constraints" : {
      "demand" : {
        "values" : [ 50.4, 0.0, 0.0, 0.0 ]
      },
      "pickupTimeWindows" : [ {
        "startTime" : 1373342400000,
        "endTime" : 1373356740000
      } ],
      "timeWindowConstraints" : {
        "serviceTimeWindows" : [ {
          "startTime" : 1373349540000,
          "endTime" : 1373385600000
        } ],
        "timeWindowPolicy" : "COMPLETE_ORDER_WITHIN_TIME_WINDOW"
      },
      "attributes" : [ "AoC99" ],
      "incompatibleAttributes" : [ ],
      "stopSequence" : 1
    }
  }, {
    "id" : 163209,
    "metadata" : {
      "name" : "mID163209"
    },
    "depot" : 0,
    "location" : {
      "latitude" : 52989867,
      "longitude" : -2138946,
      "metadata" : { }
    },
    "pickupDuration" : 51960,
    "serviceDuration" : 403980,
    "unloadDuration" : 0,
    "durationPerVisit" : 0,
    "priority" : 2,
    "jobType" : "DROP",
    "constraints" : {
      "demand" : {
        "values" : [ 52.4, 0.0, 0.0, 0.0 ]
      },
      "pickupTimeWindows" : [ {
        "startTime" : 1373342400000,
        "endTime" : 1373356740000
      } ],
      "timeWindowConstraints" : {
        "serviceTimeWindows" : [ {
          "startTime" : 1373349540000,
          "endTime" : 1373385600000
        } ],
        "timeWindowPolicy" : "COMPLETE_ORDER_WITHIN_TIME_WINDOW"
      },
      "attributes" : [ "AoC99" ],
      "incompatibleAttributes" : [ ],
      "stopSequence" : 1
    }
  }, {
    "id" : 163210,
    "metadata" : {
      "name" : "mID163210"
    },
    "depot" : 0,
    "location" : {
      "latitude" : 53169973,
      "longitude" : -1410458,
      "metadata" : { }
    },
    "pickupDuration" : 76980,
    "serviceDuration" : 456000,
    "unloadDuration" : 0,
    "durationPerVisit" : 0,
    "priority" : 2,
    "jobType" : "DROP",
    "constraints" : {
      "demand" : {
        "values" : [ 77.6, 0.0, 0.0, 0.0 ]
      },
      "pickupTimeWindows" : [ {
        "startTime" : 1373342400000,
        "endTime" : 1373356740000
      } ],
      "timeWindowConstraints" : {
        "serviceTimeWindows" : [ {
          "startTime" : 1373349540000,
          "endTime" : 1373385600000
        } ],
        "timeWindowPolicy" : "COMPLETE_ORDER_WITHIN_TIME_WINDOW"
      },
      "attributes" : [ "AoC99" ],
      "incompatibleAttributes" : [ ],
      "stopSequence" : 1
    }
  }, {
    "id" : 163215,
    "metadata" : {
      "name" : "mID163215"
    },
    "depot" : 0,
    "location" : {
      "latitude" : 53579607,
      "longitude" : -1478027,
      "metadata" : { }
    },
    "pickupDuration" : 45000,
    "serviceDuration" : 391980,
    "unloadDuration" : 0,
    "durationPerVisit" : 0,
    "priority" : 2,
    "jobType" : "DROP",
    "constraints" : {
      "demand" : {
        "values" : [ 45.6, 0.0, 0.0, 0.0 ]
      },
      "pickupTimeWindows" : [ {
        "startTime" : 1373342400000,
        "endTime" : 1373356740000
      } ],
      "timeWindowConstraints" : {
        "serviceTimeWindows" : [ {
          "startTime" : 1373356740000,
          "endTime" : 1373385600000
        } ],
        "timeWindowPolicy" : "COMPLETE_ORDER_WITHIN_TIME_WINDOW"
      },
      "attributes" : [ "AoC99" ],
      "incompatibleAttributes" : [ ],
      "stopSequence" : 1
    }
  }, {
    "id" : 163227,
    "metadata" : {
      "name" : "mID163227"
    },
    "depot" : 0,
    "location" : {
      "latitude" : 53722905,
      "longitude" : -1363803,
      "metadata" : { }
    },
    "pickupDuration" : 49980,
    "serviceDuration" : 402000,
    "unloadDuration" : 0,
    "durationPerVisit" : 0,
    "priority" : 2,
    "jobType" : "DROP",
    "constraints" : {
      "demand" : {
        "values" : [ 50.96, 0.0, 0.0, 0.0 ]
      },
      "pickupTimeWindows" : [ {
        "startTime" : 1373342400000,
        "endTime" : 1373356740000
      } ],
      "timeWindowConstraints" : {
        "serviceTimeWindows" : [ {
          "startTime" : 1373353140000,
          "endTime" : 1373385600000
        } ],
        "timeWindowPolicy" : "COMPLETE_ORDER_WITHIN_TIME_WINDOW"
      },
      "attributes" : [ "AoC99" ],
      "incompatibleAttributes" : [ ],
      "stopSequence" : 1
    }
  }, {
    "id" : 163233,
    "metadata" : {
      "name" : "mID163233"
    },
    "depot" : 0,
    "location" : {
      "latitude" : 53824993,
      "longitude" : -1887566,
      "metadata" : { }
    },
    "pickupDuration" : 33000,
    "serviceDuration" : 367980,
    "unloadDuration" : 0,
    "durationPerVisit" : 0,
    "priority" : 2,
    "jobType" : "DROP",
    "constraints" : {
      "demand" : {
        "values" : [ 33.6, 0.0, 0.0, 0.0 ]
      },
      "pickupTimeWindows" : [ {
        "startTime" : 1373342400000,
        "endTime" : 1373356740000
      } ],
      "timeWindowConstraints" : {
        "serviceTimeWindows" : [ {
          "startTime" : 1373353140000,
          "endTime" : 1373385600000
        } ],
        "timeWindowPolicy" : "COMPLETE_ORDER_WITHIN_TIME_WINDOW"
      },
      "attributes" : [ "AoC99" ],
      "incompatibleAttributes" : [ ],
      "stopSequence" : 1
    }
  } ],
  "schedules" : [ {
    "timeWindow" : {
      "startTime" : 1373342400000,
      "endTime" : 1373389200000
    },
    "staticBreakTemplate" : {
      "timeWindow" : {
        "startTime" : 1373358600000,
        "endTime" : 1373364900000
      },
      "duration" : 2700000
    },
    "runs" : [ ],
    "breaks" : [ ],
    "constraints" : { },
    "resource" : {
      "metadata" : {
        "name" : "T800AMP"
      },
      "id" : 1176,
      "depot" : 0,
      "hourCost" : 10.0,
      "kmCost" : 0.2921069,
      "routingProfile" : {
        "vehicleType" : "Default",
        "drivingTimeCorrectionFactor" : 1.3,
        "maxSpeed" : 90.104
      },
      "constraints" : {
        "runDistanceLimit" : "Infinity",
        "runWorkingTimeLimit" : 9223372036854775807,
        "scheduleWorkingTimeLimit" : 9223372036854775807,
        "scheduleDrivingTimeLimit" : 36000000,
        "addonCollectionDropDuration" : 0,
        "addonPickupDuration" : 1200000,
        "capacity" : {
          "values" : [ 2000.0, 0.0, 0.0, 0.0 ]
        },
        "attributes" : [ "cargo=52.400=0.0=0.0=0.0", "cargo=132.80=0.0=0.0=0.0", "cargo=72.239=0.0=0.0=0.0", "cargo=83.199=0.0=0.0=0.0", "cargo=138.19=0.0=0.0=0.0", "cargo=50.959=0.0=0.0=0.0", "cargo=132.0=0.0=0.0=0.0", "cargo=38.400=0.0=0.0=0.0", "cargo=204.03=0.0=0.0=0.0", "cargo=79.0=0.0=0.0=0.0", "cargo=52.799=0.0=0.0=0.0", "cargo=77.599=0.0=0.0=0.0", "cargo=54.319=0.0=0.0=0.0", "cargo=34.319=0.0=0.0=0.0", "cargo=86.559=0.0=0.0=0.0", "cargo=54.479=0.0=0.0=0.0", "cargo=67.0=0.0=0.0=0.0", "cargo=33.599=0.0=0.0=0.0", "cargo=42.240=0.0=0.0=0.0", "cargo=128.32=0.0=0.0=0.0", "cargo=70.440=0.0=0.0=0.0", "cargo=45.599=0.0=0.0=0.0", "cargo=114.40=0.0=0.0=0.0", "cargo=38.799=0.0=0.0=0.0", "cargo=47.0=0.0=0.0=0.0", "cargo=104.16=0.0=0.0=0.0", "cargo=50.799=0.0=0.0=0.0", "cargo=72.599=0.0=0.0=0.0", "cargo=123.91=0.0=0.0=0.0", "cargo=71.199=0.0=0.0=0.0", "cargo=27.200=0.0=0.0=0.0", "AoC99", "cargo=85.400=0.0=0.0=0.0", "cargo=106.59=0.0=0.0=0.0", "cargo=48.479=0.0=0.0=0.0", "cargo=123.59=0.0=0.0=0.0", "cargo=19.200=0.0=0.0=0.0", "cargo=191.19=0.0=0.0=0.0", "cargo=86.800=0.0=0.0=0.0", "cargo=48.0=0.0=0.0=0.0", "cargo=155.0=0.0=0.0=0.0", "cargo=48.799=0.0=0.0=0.0", "cargo=137.39=0.0=0.0=0.0", "cargo=50.400=0.0=0.0=0.0", "cargo=62.400=0.0=0.0=0.0", "cargo=88.599=0.0=0.0=0.0", "cargo=140.0=0.0=0.0=0.0", "cargo=257.20=0.0=0.0=0.0", "cargo=73.199=0.0=0.0=0.0", "cargo=94.599=0.0=0.0=0.0", "cargo=67.199=0.0=0.0=0.0", "cargo=190.39=0.0=0.0=0.0" ],
        "homeLocations" : {
          "startLocation" : {
            "latitude" : 53783808,
            "longitude" : -1572433,
            "metadata" : { }
          },
          "endLocation" : {
            "latitude" : 53783808,
            "longitude" : -1572433,
            "metadata" : { }
          }
        },
        "fixedStartTime" : -1
      }
    }
  }, {
    "timeWindow" : {
      "startTime" : 1373342400000,
      "endTime" : 1373385600000
    },
    "staticBreakTemplate" : {
      "timeWindow" : {
        "startTime" : 1373358600000,
        "endTime" : 1373364900000
      },
      "duration" : 2700000
    },
    "runs" : [ ],
    "breaks" : [ ],
    "constraints" : { },
    "resource" : {
      "metadata" : {
        "name" : "T90AMP"
      },
      "id" : 1179,
      "depot" : 0,
      "hourCost" : 10.0,
      "kmCost" : 0.2299565,
      "routingProfile" : {
        "vehicleType" : "Default",
        "drivingTimeCorrectionFactor" : 1.3,
        "maxSpeed" : 112.63
      },
      "constraints" : {
        "runDistanceLimit" : "Infinity",
        "runWorkingTimeLimit" : 9223372036854775807,
        "scheduleWorkingTimeLimit" : 9223372036854775807,
        "scheduleDrivingTimeLimit" : 36000000,
        "addonCollectionDropDuration" : 0,
        "addonPickupDuration" : 1200000,
        "capacity" : {
          "values" : [ 1098.0, 0.0, 0.0, 0.0 ]
        },
        "attributes" : [ "cargo=52.400=0.0=0.0=0.0", "cargo=132.80=0.0=0.0=0.0", "cargo=72.239=0.0=0.0=0.0", "cargo=83.199=0.0=0.0=0.0", "cargo=138.19=0.0=0.0=0.0", "cargo=50.959=0.0=0.0=0.0", "cargo=132.0=0.0=0.0=0.0", "cargo=38.400=0.0=0.0=0.0", "cargo=204.03=0.0=0.0=0.0", "cargo=79.0=0.0=0.0=0.0", "cargo=52.799=0.0=0.0=0.0", "cargo=77.599=0.0=0.0=0.0", "cargo=54.319=0.0=0.0=0.0", "cargo=34.319=0.0=0.0=0.0", "cargo=86.559=0.0=0.0=0.0", "cargo=54.479=0.0=0.0=0.0", "cargo=67.0=0.0=0.0=0.0", "cargo=33.599=0.0=0.0=0.0", "cargo=42.240=0.0=0.0=0.0", "cargo=128.32=0.0=0.0=0.0", "cargo=70.440=0.0=0.0=0.0", "cargo=45.599=0.0=0.0=0.0", "cargo=114.40=0.0=0.0=0.0", "cargo=38.799=0.0=0.0=0.0", "cargo=47.0=0.0=0.0=0.0", "cargo=104.16=0.0=0.0=0.0", "cargo=50.799=0.0=0.0=0.0", "cargo=72.599=0.0=0.0=0.0", "cargo=123.91=0.0=0.0=0.0", "cargo=71.199=0.0=0.0=0.0", "cargo=27.200=0.0=0.0=0.0", "AoC99", "cargo=85.400=0.0=0.0=0.0", "cargo=106.59=0.0=0.0=0.0", "cargo=48.479=0.0=0.0=0.0", "cargo=123.59=0.0=0.0=0.0", "cargo=19.200=0.0=0.0=0.0", "cargo=191.19=0.0=0.0=0.0", "cargo=86.800=0.0=0.0=0.0", "cargo=48.0=0.0=0.0=0.0", "cargo=155.0=0.0=0.0=0.0", "cargo=48.799=0.0=0.0=0.0", "cargo=137.39=0.0=0.0=0.0", "cargo=50.400=0.0=0.0=0.0", "cargo=62.400=0.0=0.0=0.0", "cargo=88.599=0.0=0.0=0.0", "cargo=140.0=0.0=0.0=0.0", "cargo=257.20=0.0=0.0=0.0", "cargo=73.199=0.0=0.0=0.0", "cargo=94.599=0.0=0.0=0.0", "cargo=67.199=0.0=0.0=0.0", "cargo=190.39=0.0=0.0=0.0" ],
        "homeLocations" : {
          "startLocation" : {
            "latitude" : 53783808,
            "longitude" : -1572433,
            "metadata" : { }
          },
          "endLocation" : {
            "latitude" : 53783808,
            "longitude" : -1572433,
            "metadata" : { }
          }
        },
        "fixedStartTime" : -1
      }
    }
  }, {
    "timeWindow" : {
      "startTime" : 1373342400000,
      "endTime" : 1373389200000
    },
    "staticBreakTemplate" : {
      "timeWindow" : {
        "startTime" : 1373358600000,
        "endTime" : 1373364900000
      },
      "duration" : 2700000
    },
    "runs" : [ ],
    "breaks" : [ ],
    "constraints" : { },
    "resource" : {
      "metadata" : {
        "name" : "T333AMP"
      },
      "id" : 1167,
      "depot" : 0,
      "hourCost" : 10.0,
      "kmCost" : 0.2921069,
      "routingProfile" : {
        "vehicleType" : "Default",
        "drivingTimeCorrectionFactor" : 1.3,
        "maxSpeed" : 90.104
      },
      "constraints" : {
        "runDistanceLimit" : "Infinity",
        "runWorkingTimeLimit" : 9223372036854775807,
        "scheduleWorkingTimeLimit" : 9223372036854775807,
        "scheduleDrivingTimeLimit" : 36000000,
        "addonCollectionDropDuration" : 0,
        "addonPickupDuration" : 1200000,
        "capacity" : {
          "values" : [ 1600.0, 0.0, 0.0, 0.0 ]
        },
        "attributes" : [ "cargo=52.400=0.0=0.0=0.0", "cargo=132.80=0.0=0.0=0.0", "cargo=72.239=0.0=0.0=0.0", "cargo=83.199=0.0=0.0=0.0", "cargo=138.19=0.0=0.0=0.0", "cargo=50.959=0.0=0.0=0.0", "cargo=132.0=0.0=0.0=0.0", "cargo=38.400=0.0=0.0=0.0", "cargo=204.03=0.0=0.0=0.0", "cargo=79.0=0.0=0.0=0.0", "cargo=52.799=0.0=0.0=0.0", "cargo=77.599=0.0=0.0=0.0", "cargo=54.319=0.0=0.0=0.0", "cargo=34.319=0.0=0.0=0.0", "cargo=86.559=0.0=0.0=0.0", "cargo=54.479=0.0=0.0=0.0", "cargo=67.0=0.0=0.0=0.0", "cargo=33.599=0.0=0.0=0.0", "cargo=42.240=0.0=0.0=0.0", "cargo=128.32=0.0=0.0=0.0", "cargo=70.440=0.0=0.0=0.0", "cargo=45.599=0.0=0.0=0.0", "cargo=114.40=0.0=0.0=0.0", "cargo=38.799=0.0=0.0=0.0", "cargo=47.0=0.0=0.0=0.0", "cargo=104.16=0.0=0.0=0.0", "cargo=50.799=0.0=0.0=0.0", "cargo=72.599=0.0=0.0=0.0", "cargo=123.91=0.0=0.0=0.0", "cargo=71.199=0.0=0.0=0.0", "cargo=27.200=0.0=0.0=0.0", "AoC99", "cargo=85.400=0.0=0.0=0.0", "cargo=106.59=0.0=0.0=0.0", "cargo=48.479=0.0=0.0=0.0", "cargo=123.59=0.0=0.0=0.0", "cargo=19.200=0.0=0.0=0.0", "cargo=191.19=0.0=0.0=0.0", "cargo=86.800=0.0=0.0=0.0", "cargo=48.0=0.0=0.0=0.0", "cargo=155.0=0.0=0.0=0.0", "cargo=48.799=0.0=0.0=0.0", "cargo=137.39=0.0=0.0=0.0", "cargo=50.400=0.0=0.0=0.0", "cargo=62.400=0.0=0.0=0.0", "cargo=88.599=0.0=0.0=0.0", "cargo=140.0=0.0=0.0=0.0", "cargo=257.20=0.0=0.0=0.0", "cargo=73.199=0.0=0.0=0.0", "cargo=94.599=0.0=0.0=0.0", "cargo=67.199=0.0=0.0=0.0", "cargo=190.39=0.0=0.0=0.0" ],
        "homeLocations" : {
          "startLocation" : {
            "latitude" : 53783808,
            "longitude" : -1572433,
            "metadata" : { }
          },
          "endLocation" : {
            "latitude" : 53783808,
            "longitude" : -1572433,
            "metadata" : { }
          }
        },
        "fixedStartTime" : -1
      }
    }
  }, {
    "timeWindow" : {
      "startTime" : 1373342400000,
      "endTime" : 1373378400000
    },
    "staticBreakTemplate" : {
      "timeWindow" : {
        "startTime" : 1373358600000,
        "endTime" : 1373364900000
      },
      "duration" : 2700000
    },
    "runs" : [ ],
    "breaks" : [ ],
    "constraints" : { },
    "resource" : {
      "metadata" : {
        "name" : "T300AMP"
      },
      "id" : 1166,
      "depot" : 0,
      "hourCost" : 10.0,
      "kmCost" : 0.2921069,
      "routingProfile" : {
        "vehicleType" : "Default",
        "drivingTimeCorrectionFactor" : 1.3,
        "maxSpeed" : 90.104
      },
      "constraints" : {
        "runDistanceLimit" : "Infinity",
        "runWorkingTimeLimit" : 9223372036854775807,
        "scheduleWorkingTimeLimit" : 9223372036854775807,
        "scheduleDrivingTimeLimit" : 36000000,
        "addonCollectionDropDuration" : 0,
        "addonPickupDuration" : 1200000,
        "capacity" : {
          "values" : [ 1600.0, 0.0, 0.0, 0.0 ]
        },
        "attributes" : [ "cargo=52.400=0.0=0.0=0.0", "cargo=132.80=0.0=0.0=0.0", "cargo=72.239=0.0=0.0=0.0", "cargo=83.199=0.0=0.0=0.0", "cargo=138.19=0.0=0.0=0.0", "cargo=50.959=0.0=0.0=0.0", "cargo=132.0=0.0=0.0=0.0", "cargo=38.400=0.0=0.0=0.0", "cargo=204.03=0.0=0.0=0.0", "cargo=79.0=0.0=0.0=0.0", "cargo=52.799=0.0=0.0=0.0", "cargo=77.599=0.0=0.0=0.0", "cargo=54.319=0.0=0.0=0.0", "cargo=34.319=0.0=0.0=0.0", "cargo=86.559=0.0=0.0=0.0", "cargo=54.479=0.0=0.0=0.0", "cargo=67.0=0.0=0.0=0.0", "cargo=33.599=0.0=0.0=0.0", "cargo=42.240=0.0=0.0=0.0", "cargo=128.32=0.0=0.0=0.0", "cargo=70.440=0.0=0.0=0.0", "cargo=45.599=0.0=0.0=0.0", "cargo=114.40=0.0=0.0=0.0", "cargo=38.799=0.0=0.0=0.0", "cargo=47.0=0.0=0.0=0.0", "cargo=104.16=0.0=0.0=0.0", "cargo=50.799=0.0=0.0=0.0", "cargo=72.599=0.0=0.0=0.0", "cargo=123.91=0.0=0.0=0.0", "cargo=71.199=0.0=0.0=0.0", "cargo=27.200=0.0=0.0=0.0", "AoC99", "cargo=85.400=0.0=0.0=0.0", "cargo=106.59=0.0=0.0=0.0", "cargo=48.479=0.0=0.0=0.0", "cargo=123.59=0.0=0.0=0.0", "cargo=19.200=0.0=0.0=0.0", "cargo=191.19=0.0=0.0=0.0", "cargo=86.800=0.0=0.0=0.0", "cargo=48.0=0.0=0.0=0.0", "cargo=155.0=0.0=0.0=0.0", "cargo=48.799=0.0=0.0=0.0", "cargo=137.39=0.0=0.0=0.0", "cargo=50.400=0.0=0.0=0.0", "cargo=62.400=0.0=0.0=0.0", "cargo=88.599=0.0=0.0=0.0", "cargo=140.0=0.0=0.0=0.0", "cargo=257.20=0.0=0.0=0.0", "cargo=73.199=0.0=0.0=0.0", "cargo=94.599=0.0=0.0=0.0", "cargo=67.199=0.0=0.0=0.0", "cargo=190.39=0.0=0.0=0.0" ],
        "homeLocations" : {
          "startLocation" : {
            "latitude" : 53783808,
            "longitude" : -1572433,
            "metadata" : { }
          },
          "endLocation" : {
            "latitude" : 53783808,
            "longitude" : -1572433,
            "metadata" : { }
          }
        },
        "fixedStartTime" : -1
      }
    }
  } ],
  "depots" : [ {
    "id" : 0,
    "location" : {
      "latitude" : 53783808,
      "longitude" : -1572433,
      "metadata" : { }
    },
    "constraints" : {
      "allowCollectionsWhileDrivingHome" : false,
      "allowDeliveriesWhileDrivingFromHome" : false,
      "availabilityWindows" : [ {
        "startTime" : 0,
        "endTime" : 57657355200332
      } ]
    }
  } ],
  "constraints" : {
    "allowMultipleRunsPerSchedule" : true,
    "consolidateSameSiteJobs" : "NONE"
  }
}