{
  "jobs" : [ {
    "id" : 163748,
    "metadata" : {
      "name" : "mID163748"
    },
    "depot" : 0,
    "location" : {
      "latitude" : 52614736,
      "longitude" : -3085639,
      "metadata" : { }
    },
    "pickupDuration" : 45960,
    "serviceDuration" : 393960,
    "unloadDuration" : 0,
    "durationPerVisit" : 0,
    "priority" : 2,
    "jobType" : "DROP",
    "constraints" : {
      "demand" : {
        "values" : [ 46.96, 0.0, 0.0, 0.0 ]
      },
      "pickupTimeWindows" : [ {
        "startTime" : 1373857200000,
        "endTime" : 1373860740000
      } ],
      "timeWindowConstraints" : {
        "serviceTimeWindows" : [ {
          "startTime" : 1373871540000,
          "endTime" : 1373904000000
        } ],
        "timeWindowPolicy" : "COMPLETE_ORDER_WITHIN_TIME_WINDOW"
      },
      "attributes" : [ "AoC99" ],
      "incompatibleAttributes" : [ ],
      "stopSequence" : 1
    }
  }, {
    "id" : 163750,
    "metadata" : {
      "name" : "mID163750"
    },
    "depot" : 0,
    "location" : {
      "latitude" : 53277163,
      "longitude" : -3902727,
      "metadata" : { }
    },
    "pickupDuration" : 37980,
    "serviceDuration" : 375960,
    "unloadDuration" : 0,
    "durationPerVisit" : 0,
    "priority" : 2,
    "jobType" : "DROP",
    "constraints" : {
      "demand" : {
        "values" : [ 38.4, 0.0, 0.0, 0.0 ]
      },
      "pickupTimeWindows" : [ {
        "startTime" : 1373857200000,
        "endTime" : 1373860740000
      } ],
      "timeWindowConstraints" : {
        "serviceTimeWindows" : [ {
          "startTime" : 1373871540000,
          "endTime" : 1373904000000
        } ],
        "timeWindowPolicy" : "COMPLETE_ORDER_WITHIN_TIME_WINDOW"
      },
      "attributes" : [ "AoC99" ],
      "incompatibleAttributes" : [ ],
      "stopSequence" : 1
    }
  }, {
    "id" : 163753,
    "metadata" : {
      "name" : "mID163753"
    },
    "depot" : 0,
    "location" : {
      "latitude" : 52920673,
      "longitude" : -2923741,
      "metadata" : { }
    },
    "pickupDuration" : 12960,
    "serviceDuration" : 327960,
    "unloadDuration" : 0,
    "durationPerVisit" : 0,
    "priority" : 2,
    "jobType" : "DROP",
    "constraints" : {
      "demand" : {
        "values" : [ 13.6, 0.0, 0.0, 0.0 ]
      },
      "pickupTimeWindows" : [ {
        "startTime" : 1373857200000,
        "endTime" : 1373860740000
      } ],
      "timeWindowConstraints" : {
        "serviceTimeWindows" : [ {
          "startTime" : 1373871540000,
          "endTime" : 1373904000000
        } ],
        "timeWindowPolicy" : "COMPLETE_ORDER_WITHIN_TIME_WINDOW"
      },
      "attributes" : [ "AoC99" ],
      "incompatibleAttributes" : [ ],
      "stopSequence" : 1
    }
  }, {
    "id" : 163762,
    "metadata" : {
      "name" : "mID163762"
    },
    "depot" : 0,
    "location" : {
      "latitude" : 53307606,
      "longitude" : -3258159,
      "metadata" : { }
    },
    "pickupDuration" : 57000,
    "serviceDuration" : 415980,
    "unloadDuration" : 0,
    "durationPerVisit" : 0,
    "priority" : 2,
    "jobType" : "DROP",
    "constraints" : {
      "demand" : {
        "values" : [ 57.6, 0.0, 0.0, 0.0 ]
      },
      "pickupTimeWindows" : [ {
        "startTime" : 1373857200000,
        "endTime" : 1373860740000
      } ],
      "timeWindowConstraints" : {
        "serviceTimeWindows" : [ {
          "startTime" : 1373871540000,
          "endTime" : 1373904000000
        } ],
        "timeWindowPolicy" : "COMPLETE_ORDER_WITHIN_TIME_WINDOW"
      },
      "attributes" : [ "AoC99" ],
      "incompatibleAttributes" : [ ],
      "stopSequence" : 1
    }
  }, {
    "id" : 163765,
    "metadata" : {
      "name" : "mID163765"
    },
    "depot" : 0,
    "location" : {
      "latitude" : 53473889,
      "longitude" : -2741714,
      "metadata" : { }
    },
    "pickupDuration" : 99960,
    "serviceDuration" : 499980,
    "unloadDuration" : 0,
    "durationPerVisit" : 0,
    "priority" : 2,
    "jobType" : "DROP",
    "constraints" : {
      "demand" : {
        "values" : [ 100.0, 0.0, 0.0, 0.0 ]
      },
      "pickupTimeWindows" : [ {
        "startTime" : 1373857200000,
        "endTime" : 1373860740000
      } ],
      "timeWindowConstraints" : {
        "serviceTimeWindows" : [ {
          "startTime" : 1373871540000,
          "endTime" : 1373904000000
        } ],
        "timeWindowPolicy" : "COMPLETE_ORDER_WITHIN_TIME_WINDOW"
      },
      "attributes" : [ "AoC99" ],
      "incompatibleAttributes" : [ ],
      "stopSequence" : 1
    }
  }, {
    "id" : 163772,
    "metadata" : {
      "name" : "mID163772"
    },
    "depot" : 0,
    "location" : {
      "latitude" : 53420422,
      "longitude" : -3043771,
      "metadata" : { }
    },
    "pickupDuration" : 58980,
    "serviceDuration" : 417960,
    "unloadDuration" : 0,
    "durationPerVisit" : 0,
    "priority" : 2,
    "jobType" : "DROP",
    "constraints" : {
      "demand" : {
        "values" : [ 59.2, 0.0, 0.0, 0.0 ]
      },
      "pickupTimeWindows" : [ {
        "startTime" : 1373857200000,
        "endTime" : 1373860740000
      } ],
      "timeWindowConstraints" : {
        "serviceTimeWindows" : [ {
          "startTime" : 1373876940000,
          "endTime" : 1373904000000
        } ],
        "timeWindowPolicy" : "COMPLETE_ORDER_WITHIN_TIME_WINDOW"
      },
      "attributes" : [ "AoC99" ],
      "incompatibleAttributes" : [ ],
      "stopSequence" : 1
    }
  }, {
    "id" : 163814,
    "metadata" : {
      "name" : "mID163814"
    },
    "depot" : 0,
    "location" : {
      "latitude" : 53294833,
      "longitude" : -2729231,
      "metadata" : { }
    },
    "pickupDuration" : 51000,
    "serviceDuration" : 402000,
    "unloadDuration" : 0,
    "durationPerVisit" : 0,
    "priority" : 2,
    "jobType" : "DROP",
    "constraints" : {
      "demand" : {
        "values" : [ 51.0, 0.0, 0.0, 0.0 ]
      },
      "pickupTimeWindows" : [ {
        "startTime" : 1373857200000,
        "endTime" : 1373860740000
      } ],
      "timeWindowConstraints" : {
        "serviceTimeWindows" : [ {
          "startTime" : 1373871540000,
          "endTime" : 1373904000000
        } ],
        "timeWindowPolicy" : "COMPLETE_ORDER_WITHIN_TIME_WINDOW"
      },
      "attributes" : [ "AoC99" ],
      "incompatibleAttributes" : [ ],
      "stopSequence" : 1
    }
  }, {
    "id" : 163815,
    "metadata" : {
      "name" : "mID163815"
    },
    "depot" : 0,
    "location" : {
      "latitude" : 53420938,
      "longitude" : -2927732,
      "metadata" : { }
    },
    "pickupDuration" : 72000,
    "serviceDuration" : 445980,
    "unloadDuration" : 0,
    "durationPerVisit" : 0,
    "priority" : 2,
    "jobType" : "DROP",
    "constraints" : {
      "demand" : {
        "values" : [ 72.64, 0.0, 0.0, 0.0 ]
      },
      "pickupTimeWindows" : [ {
        "startTime" : 1373857200000,
        "endTime" : 1373860740000
      } ],
      "timeWindowConstraints" : {
        "serviceTimeWindows" : [ {
          "startTime" : 1373875140000,
          "endTime" : 1373905800000
        } ],
        "timeWindowPolicy" : "COMPLETE_ORDER_WITHIN_TIME_WINDOW"
      },
      "attributes" : [ "AoC99" ],
      "incompatibleAttributes" : [ ],
      "stopSequence" : 1
    }
  }, {
    "id" : 163829,
    "metadata" : {
      "name" : "mID163829"
    },
    "depot" : 0,
    "location" : {
      "latitude" : 53386332,
      "longitude" : -2585536,
      "metadata" : { }
    },
    "pickupDuration" : 73980,
    "serviceDuration" : 447960,
    "unloadDuration" : 0,
    "durationPerVisit" : 0,
    "priority" : 2,
    "jobType" : "DROP",
    "constraints" : {
      "demand" : {
        "values" : [ 74.2, 0.0, 0.0, 0.0 ]
      },
      "pickupTimeWindows" : [ {
        "startTime" : 1373857200000,
        "endTime" : 1373860740000
      } ],
      "timeWindowConstraints" : {
        "serviceTimeWindows" : [ {
          "startTime" : 1373867940000,
          "endTime" : 1373904000000
        } ],
        "timeWindowPolicy" : "COMPLETE_ORDER_WITHIN_TIME_WINDOW"
      },
      "attributes" : [ "AoC99" ],
      "incompatibleAttributes" : [ ],
      "stopSequence" : 1
    }
  }, {
    "id" : 163830,
    "metadata" : {
      "name" : "mID163830"
    },
    "depot" : 0,
    "location" : {
      "latitude" : 53545159,
      "longitude" : -2654069,
      "metadata" : { }
    },
    "pickupDuration" : 153000,
    "serviceDuration" : 606000,
    "unloadDuration" : 0,
    "durationPerVisit" : 0,
    "priority" : 2,
    "jobType" : "DROP",
    "constraints" : {
      "demand" : {
        "values" : [ 153.0, 0.0, 0.0, 0.0 ]
      },
      "pickupTimeWindows" : [ {
        "startTime" : 1373857200000,
        "endTime" : 1373860740000
      } ],
      "timeWindowConstraints" : {
        "serviceTimeWindows" : [ {
          "startTime" : 1373867940000,
          "endTime" : 1373904000000
        } ],
        "timeWindowPolicy" : "COMPLETE_ORDER_WITHIN_TIME_WINDOW"
      },
      "attributes" : [ "AoC99" ],
      "incompatibleAttributes" : [ ],
      "stopSequence" : 1
    }
  }, {
    "id" : 163833,
    "metadata" : {
      "name" : "mID163833"
    },
    "depot" : 0,
    "location" : {
      "latitude" : 53558184,
      "longitude" : -2138537,
      "metadata" : { }
    },
    "pickupDuration" : 112980,
    "serviceDuration" : 528000,
    "unloadDuration" : 0,
    "durationPerVisit" : 0,
    "priority" : 2,
    "jobType" : "DROP",
    "constraints" : {
      "demand" : {
        "values" : [ 113.6, 0.0, 0.0, 0.0 ]
      },
      "pickupTimeWindows" : [ {
        "startTime" : 1373857200000,
        "endTime" : 1373860740000
      } ],
      "timeWindowConstraints" : {
        "serviceTimeWindows" : [ {
          "startTime" : 1373867940000,
          "endTime" : 1373904000000
        } ],
        "timeWindowPolicy" : "COMPLETE_ORDER_WITHIN_TIME_WINDOW"
      },
      "attributes" : [ "AoC99" ],
      "incompatibleAttributes" : [ ],
      "stopSequence" : 1
    }
  }, {
    "id" : 163836,
    "metadata" : {
      "name" : "mID163836"
    },
    "depot" : 0,
    "location" : {
      "latitude" : 53197585,
      "longitude" : -2916990,
      "metadata" : { }
    },
    "pickupDuration" : 60960,
    "serviceDuration" : 421980,
    "unloadDuration" : 0,
    "durationPerVisit" : 0,
    "priority" : 2,
    "jobType" : "DROP",
    "constraints" : {
      "demand" : {
        "values" : [ 61.0, 0.0, 0.0, 0.0 ]
      },
      "pickupTimeWindows" : [ {
        "startTime" : 1373857200000,
        "endTime" : 1373860740000
      } ],
      "timeWindowConstraints" : {
        "serviceTimeWindows" : [ {
          "startTime" : 1373867940000,
          "endTime" : 1373904000000
        } ],
        "timeWindowPolicy" : "COMPLETE_ORDER_WITHIN_TIME_WINDOW"
      },
      "attributes" : [ "AoC99" ],
      "incompatibleAttributes" : [ ],
      "stopSequence" : 1
    }
  }, {
    "id" : 163846,
    "metadata" : {
      "name" : "mID163846"
    },
    "depot" : 0,
    "location" : {
      "latitude" : 53446147,
      "longitude" : -2741863,
      "metadata" : { }
    },
    "pickupDuration" : 129960,
    "serviceDuration" : 561960,
    "unloadDuration" : 0,
    "durationPerVisit" : 0,
    "priority" : 2,
    "jobType" : "DROP",
    "constraints" : {
      "demand" : {
        "values" : [ 130.8, 0.0, 0.0, 0.0 ]
      },
      "pickupTimeWindows" : [ {
        "startTime" : 1373857200000,
        "endTime" : 1373860740000
      } ],
      "timeWindowConstraints" : {
        "serviceTimeWindows" : [ {
          "startTime" : 1373867940000,
          "endTime" : 1373904000000
        } ],
        "timeWindowPolicy" : "COMPLETE_ORDER_WITHIN_TIME_WINDOW"
      },
      "attributes" : [ "AoC99" ],
      "incompatibleAttributes" : [ ],
      "stopSequence" : 1
    }
  }, {
    "id" : 163849,
    "metadata" : {
      "name" : "mID163849"
    },
    "depot" : 0,
    "location" : {
      "latitude" : 53185334,
      "longitude" : -2856327,
      "metadata" : { }
    },
    "pickupDuration" : 106980,
    "serviceDuration" : 513960,
    "unloadDuration" : 0,
    "durationPerVisit" : 0,
    "priority" : 2,
    "jobType" : "DROP",
    "constraints" : {
      "demand" : {
        "values" : [ 107.2, 0.0, 0.0, 0.0 ]
      },
      "pickupTimeWindows" : [ {
        "startTime" : 1373857200000,
        "endTime" : 1373860740000
      } ],
      "timeWindowConstraints" : {
        "serviceTimeWindows" : [ {
          "startTime" : 1373867940000,
          "endTime" : 1373904000000
        } ],
        "timeWindowPolicy" : "COMPLETE_ORDER_WITHIN_TIME_WINDOW"
      },
      "attributes" : [ "AoC99" ],
      "incompatibleAttributes" : [ ],
      "stopSequence" : 1
    }
  }, {
    "id" : 163854,
    "metadata" : {
      "name" : "mID163854"
    },
    "depot" : 0,
    "location" : {
      "latitude" : 53057008,
      "longitude" : -3004915,
      "metadata" : { }
    },
    "pickupDuration" : 99000,
    "serviceDuration" : 499980,
    "unloadDuration" : 0,
    "durationPerVisit" : 0,
    "priority" : 2,
    "jobType" : "DROP",
    "constraints" : {
      "demand" : {
        "values" : [ 99.6, 0.0, 0.0, 0.0 ]
      },
      "pickupTimeWindows" : [ {
        "startTime" : 1373857200000,
        "endTime" : 1373860740000
      } ],
      "timeWindowConstraints" : {
        "serviceTimeWindows" : [ {
          "startTime" : 1373867940000,
          "endTime" : 1373904000000
        } ],
        "timeWindowPolicy" : "COMPLETE_ORDER_WITHIN_TIME_WINDOW"
      },
      "attributes" : [ "AoC99" ],
      "incompatibleAttributes" : [ ],
      "stopSequence" : 1
    }
  }, {
    "id" : 163855,
    "metadata" : {
      "name" : "mID163855"
    },
    "depot" : 0,
    "location" : {
      "latitude" : 53409610,
      "longitude" : -2180822,
      "metadata" : { }
    },
    "pickupDuration" : 243000,
    "serviceDuration" : 787980,
    "unloadDuration" : 0,
    "durationPerVisit" : 0,
    "priority" : 2,
    "jobType" : "DROP",
    "constraints" : {
      "demand" : {
        "values" : [ 243.6, 0.0, 0.0, 0.0 ]
      },
      "pickupTimeWindows" : [ {
        "startTime" : 1373857200000,
        "endTime" : 1373860740000
      } ],
      "timeWindowConstraints" : {
        "serviceTimeWindows" : [ {
          "startTime" : 1373867940000,
          "endTime" : 1373904000000
        } ],
        "timeWindowPolicy" : "COMPLETE_ORDER_WITHIN_TIME_WINDOW"
      },
      "attributes" : [ "AoC99" ],
      "incompatibleAttributes" : [ ],
      "stopSequence" : 1
    }
  }, {
    "id" : 163860,
    "metadata" : {
      "name" : "mID163860"
    },
    "depot" : 0,
    "location" : {
      "latitude" : 53481155,
      "longitude" : -2949525,
      "metadata" : { }
    },
    "pickupDuration" : 156000,
    "serviceDuration" : 612000,
    "unloadDuration" : 0,
    "durationPerVisit" : 0,
    "priority" : 2,
    "jobType" : "DROP",
    "constraints" : {
      "demand" : {
        "values" : [ 156.2, 0.0, 0.0, 0.0 ]
      },
      "pickupTimeWindows" : [ {
        "startTime" : 1373857200000,
        "endTime" : 1373860740000
      } ],
      "timeWindowConstraints" : {
        "serviceTimeWindows" : [ {
          "startTime" : 1373867940000,
          "endTime" : 1373904000000
        } ],
        "timeWindowPolicy" : "COMPLETE_ORDER_WITHIN_TIME_WINDOW"
      },
      "attributes" : [ "AoC99" ],
      "incompatibleAttributes" : [ ],
      "stopSequence" : 1
    }
  }, {
    "id" : 163872,
    "metadata" : {
      "name" : "mID163872"
    },
    "depot" : 0,
    "location" : {
      "latitude" : 53336281,
      "longitude" : -2971504,
      "metadata" : { }
    },
    "pickupDuration" : 139980,
    "serviceDuration" : 579960,
    "unloadDuration" : 0,
    "durationPerVisit" : 0,
    "priority" : 2,
    "jobType" : "DROP",
    "constraints" : {
      "demand" : {
        "values" : [ 140.2, 0.0, 0.0, 0.0 ]
      },
      "pickupTimeWindows" : [ {
        "startTime" : 1373857200000,
        "endTime" : 1373860740000
      } ],
      "timeWindowConstraints" : {
        "serviceTimeWindows" : [ {
          "startTime" : 1373867940000,
          "endTime" : 1373904000000
        } ],
        "timeWindowPolicy" : "COMPLETE_ORDER_WITHIN_TIME_WINDOW"
      },
      "attributes" : [ "AoC99" ],
      "incompatibleAttributes" : [ ],
      "stopSequence" : 1
    }
  }, {
    "id" : 163878,
    "metadata" : {
      "name" : "mID163878"
    },
    "depot" : 0,
    "location" : {
      "latitude" : 53350695,
      "longitude" : -2879319,
      "metadata" : { }
    },
    "pickupDuration" : 102960,
    "serviceDuration" : 505980,
    "unloadDuration" : 0,
    "durationPerVisit" : 0,
    "priority" : 2,
    "jobType" : "DROP",
    "constraints" : {
      "demand" : {
        "values" : [ 103.4, 0.0, 0.0, 0.0 ]
      },
      "pickupTimeWindows" : [ {
        "startTime" : 1373857200000,
        "endTime" : 1373860740000
      } ],
      "timeWindowConstraints" : {
        "serviceTimeWindows" : [ {
          "startTime" : 1373867940000,
          "endTime" : 1373904000000
        } ],
        "timeWindowPolicy" : "COMPLETE_ORDER_WITHIN_TIME_WINDOW"
      },
      "attributes" : [ "AoC99" ],
      "incompatibleAttributes" : [ ],
      "stopSequence" : 1
    }
  }, {
    "id" : 163896,
    "metadata" : {
      "name" : "mID163896"
    },
    "depot" : 0,
    "location" : {
      "latitude" : 53206658,
      "longitude" : -3025767,
      "metadata" : { }
    },
    "pickupDuration" : 96000,
    "serviceDuration" : 493980,
    "unloadDuration" : 0,
    "durationPerVisit" : 0,
    "priority" : 2,
    "jobType" : "DROP",
    "constraints" : {
      "demand" : {
        "values" : [ 96.8, 0.0, 0.0, 0.0 ]
      },
      "pickupTimeWindows" : [ {
        "startTime" : 1373857200000,
        "endTime" : 1373860740000
      } ],
      "timeWindowConstraints" : {
        "serviceTimeWindows" : [ {
          "startTime" : 1373867940000,
          "endTime" : 1373904000000
        } ],
        "timeWindowPolicy" : "COMPLETE_ORDER_WITHIN_TIME_WINDOW"
      },
      "attributes" : [ "AoC99" ],
      "incompatibleAttributes" : [ ],
      "stopSequence" : 1
    }
  }, {
    "id" : 163897,
    "metadata" : {
      "name" : "mID163897"
    },
    "depot" : 0,
    "location" : {
      "latitude" : 53426799,
      "longitude" : -2801065,
      "metadata" : { }
    },
    "pickupDuration" : 75960,
    "serviceDuration" : 451980,
    "unloadDuration" : 0,
    "durationPerVisit" : 0,
    "priority" : 2,
    "jobType" : "DROP",
    "constraints" : {
      "demand" : {
        "values" : [ 76.0, 0.0, 0.0, 0.0 ]
      },
      "pickupTimeWindows" : [ {
        "startTime" : 1373857200000,
        "endTime" : 1373860740000
      } ],
      "timeWindowConstraints" : {
        "serviceTimeWindows" : [ {
          "startTime" : 1373867940000,
          "endTime" : 1373904000000
        } ],
        "timeWindowPolicy" : "COMPLETE_ORDER_WITHIN_TIME_WINDOW"
      },
      "attributes" : [ "AoC99" ],
      "incompatibleAttributes" : [ ],
      "stopSequence" : 1
    }
  }, {
    "id" : 163898,
    "metadata" : {
      "name" : "mID163898"
    },
    "depot" : 0,
    "location" : {
      "latitude" : 53051056,
      "longitude" : -2980235,
      "metadata" : { }
    },
    "pickupDuration" : 51000,
    "serviceDuration" : 402000,
    "unloadDuration" : 0,
    "durationPerVisit" : 0,
    "priority" : 2,
    "jobType" : "DROP",
    "constraints" : {
      "demand" : {
        "values" : [ 51.4, 0.0, 0.0, 0.0 ]
      },
      "pickupTimeWindows" : [ {
        "startTime" : 1373857200000,
        "endTime" : 1373860740000
      } ],
      "timeWindowConstraints" : {
        "serviceTimeWindows" : [ {
          "startTime" : 1373867940000,
          "endTime" : 1373904000000
        } ],
        "timeWindowPolicy" : "COMPLETE_ORDER_WITHIN_TIME_WINDOW"
      },
      "attributes" : [ "AoC99" ],
      "incompatibleAttributes" : [ ],
      "stopSequence" : 1
    }
  }, {
    "id" : 163899,
    "metadata" : {
      "name" : "mID163899"
    },
    "depot" : 0,
    "location" : {
      "latitude" : 53478686,
      "longitude" : -2124747,
      "metadata" : { }
    },
    "pickupDuration" : 78960,
    "serviceDuration" : 459960,
    "unloadDuration" : 0,
    "durationPerVisit" : 0,
    "priority" : 2,
    "jobType" : "DROP",
    "constraints" : {
      "demand" : {
        "values" : [ 79.6, 0.0, 0.0, 0.0 ]
      },
      "pickupTimeWindows" : [ {
        "startTime" : 1373857200000,
        "endTime" : 1373860740000
      } ],
      "timeWindowConstraints" : {
        "serviceTimeWindows" : [ {
          "startTime" : 1373871540000,
          "endTime" : 1373904000000
        } ],
        "timeWindowPolicy" : "COMPLETE_ORDER_WITHIN_TIME_WINDOW"
      },
      "attributes" : [ "AoC99" ],
      "incompatibleAttributes" : [ ],
      "stopSequence" : 1
    }
  }, {
    "id" : 163901,
    "metadata" : {
      "name" : "mID163901"
    },
    "depot" : 0,
    "location" : {
      "latitude" : 53390065,
      "longitude" : -2916852,
      "metadata" : { }
    },
    "pickupDuration" : 51000,
    "serviceDuration" : 403980,
    "unloadDuration" : 0,
    "durationPerVisit" : 0,
    "priority" : 2,
    "jobType" : "DROP",
    "constraints" : {
      "demand" : {
        "values" : [ 51.6, 0.0, 0.0, 0.0 ]
      },
      "pickupTimeWindows" : [ {
        "startTime" : 1373857200000,
        "endTime" : 1373860740000
      } ],
      "timeWindowConstraints" : {
        "serviceTimeWindows" : [ {
          "startTime" : 1373871540000,
          "endTime" : 1373904000000
        } ],
        "timeWindowPolicy" : "COMPLETE_ORDER_WITHIN_TIME_WINDOW"
      },
      "attributes" : [ "AoC99" ],
      "incompatibleAttributes" : [ ],
      "stopSequence" : 1
    }
  }, {
    "id" : 163902,
    "metadata" : {
      "name" : "mID163902"
    },
    "depot" : 0,
    "location" : {
      "latitude" : 53304211,
      "longitude" : -3469275,
      "metadata" : { }
    },
    "pickupDuration" : 70980,
    "serviceDuration" : 441960,
    "unloadDuration" : 0,
    "durationPerVisit" : 0,
    "priority" : 2,
    "jobType" : "DROP",
    "constraints" : {
      "demand" : {
        "values" : [ 71.0, 0.0, 0.0, 0.0 ]
      },
      "pickupTimeWindows" : [ {
        "startTime" : 1373857200000,
        "endTime" : 1373860740000
      } ],
      "timeWindowConstraints" : {
        "serviceTimeWindows" : [ {
          "startTime" : 1373871540000,
          "endTime" : 1373904000000
        } ],
        "timeWindowPolicy" : "COMPLETE_ORDER_WITHIN_TIME_WINDOW"
      },
      "attributes" : [ "AoC99" ],
      "incompatibleAttributes" : [ ],
      "stopSequence" : 1
    }
  }, {
    "id" : 163905,
    "metadata" : {
      "name" : "mID163905"
    },
    "depot" : 0,
    "location" : {
      "latitude" : 53510837,
      "longitude" : -2298976,
      "metadata" : { }
    },
    "pickupDuration" : 447000,
    "serviceDuration" : 1194000,
    "unloadDuration" : 0,
    "durationPerVisit" : 0,
    "priority" : 2,
    "jobType" : "DROP",
    "constraints" : {
      "demand" : {
        "values" : [ 447.0, 0.0, 0.0, 0.0 ]
      },
      "pickupTimeWindows" : [ {
        "startTime" : 1373857200000,
        "endTime" : 1373860740000
      } ],
      "timeWindowConstraints" : {
        "serviceTimeWindows" : [ {
          "startTime" : 1373871540000,
          "endTime" : 1373904000000
        } ],
        "timeWindowPolicy" : "COMPLETE_ORDER_WITHIN_TIME_WINDOW"
      },
      "attributes" : [ "AoC99" ],
      "incompatibleAttributes" : [ ],
      "stopSequence" : 1
    }
  }, {
    "id" : 163917,
    "metadata" : {
      "name" : "mID163917"
    },
    "depot" : 0,
    "location" : {
      "latitude" : 53402813,
      "longitude" : -3113224,
      "metadata" : { }
    },
    "pickupDuration" : 159000,
    "serviceDuration" : 619980,
    "unloadDuration" : 0,
    "durationPerVisit" : 0,
    "priority" : 2,
    "jobType" : "DROP",
    "constraints" : {
      "demand" : {
        "values" : [ 159.8, 0.0, 0.0, 0.0 ]
      },
      "pickupTimeWindows" : [ {
        "startTime" : 1373857200000,
        "endTime" : 1373860740000
      } ],
      "timeWindowConstraints" : {
        "serviceTimeWindows" : [ {
          "startTime" : 1373871540000,
          "endTime" : 1373904000000
        } ],
        "timeWindowPolicy" : "COMPLETE_ORDER_WITHIN_TIME_WINDOW"
      },
      "attributes" : [ "AoC99" ],
      "incompatibleAttributes" : [ ],
      "stopSequence" : 1
    }
  }, {
    "id" : 163918,
    "metadata" : {
      "name" : "mID163918"
    },
    "depot" : 0,
    "location" : {
      "latitude" : 53276682,
      "longitude" : -2898120,
      "metadata" : { }
    },
    "pickupDuration" : 48000,
    "serviceDuration" : 396000,
    "unloadDuration" : 0,
    "durationPerVisit" : 0,
    "priority" : 2,
    "jobType" : "DROP",
    "constraints" : {
      "demand" : {
        "values" : [ 48.0, 0.0, 0.0, 0.0 ]
      },
      "pickupTimeWindows" : [ {
        "startTime" : 1373857200000,
        "endTime" : 1373860740000
      } ],
      "timeWindowConstraints" : {
        "serviceTimeWindows" : [ {
          "startTime" : 1373875140000,
          "endTime" : 1373886000000
        } ],
        "timeWindowPolicy" : "COMPLETE_ORDER_WITHIN_TIME_WINDOW"
      },
      "attributes" : [ "AoC99" ],
      "incompatibleAttributes" : [ ],
      "stopSequence" : 1
    }
  }, {
    "id" : 163921,
    "metadata" : {
      "name" : "mID163921"
    },
    "depot" : 0,
    "location" : {
      "latitude" : 53376373,
      "longitude" : -2683452,
      "metadata" : { }
    },
    "pickupDuration" : 90000,
    "serviceDuration" : 480000,
    "unloadDuration" : 0,
    "durationPerVisit" : 0,
    "priority" : 2,
    "jobType" : "DROP",
    "constraints" : {
      "demand" : {
        "values" : [ 90.2, 0.0, 0.0, 0.0 ]
      },
      "pickupTimeWindows" : [ {
        "startTime" : 1373857200000,
        "endTime" : 1373860740000
      } ],
      "timeWindowConstraints" : {
        "serviceTimeWindows" : [ {
          "startTime" : 1373875200000,
          "endTime" : 1373904000000
        } ],
        "timeWindowPolicy" : "COMPLETE_ORDER_WITHIN_TIME_WINDOW"
      },
      "attributes" : [ "AoC99" ],
      "incompatibleAttributes" : [ ],
      "stopSequence" : 1
    }
  }, {
    "id" : 163922,
    "metadata" : {
      "name" : "mID163922"
    },
    "depot" : 0,
    "location" : {
      "latitude" : 53375423,
      "longitude" : -2733163,
      "metadata" : { }
    },
    "pickupDuration" : 39000,
    "serviceDuration" : 379980,
    "unloadDuration" : 0,
    "durationPerVisit" : 0,
    "priority" : 2,
    "jobType" : "DROP",
    "constraints" : {
      "demand" : {
        "values" : [ 39.6, 0.0, 0.0, 0.0 ]
      },
      "pickupTimeWindows" : [ {
        "startTime" : 1373857200000,
        "endTime" : 1373860740000
      } ],
      "timeWindowConstraints" : {
        "serviceTimeWindows" : [ {
          "startTime" : 1373871540000,
          "endTime" : 1373904000000
        } ],
        "timeWindowPolicy" : "COMPLETE_ORDER_WITHIN_TIME_WINDOW"
      },
      "attributes" : [ "AoC99" ],
      "incompatibleAttributes" : [ ],
      "stopSequence" : 1
    }
  }, {
    "id" : 163924,
    "metadata" : {
      "name" : "mID163924"
    },
    "depot" : 0,
    "location" : {
      "latitude" : 53250758,
      "longitude" : -3138995,
      "metadata" : { }
    },
    "pickupDuration" : 90960,
    "serviceDuration" : 481920,
    "unloadDuration" : 0,
    "durationPerVisit" : 0,
    "priority" : 2,
    "jobType" : "DROP",
    "constraints" : {
      "demand" : {
        "values" : [ 91.2, 0.0, 0.0, 0.0 ]
      },
      "pickupTimeWindows" : [ {
        "startTime" : 1373857200000,
        "endTime" : 1373860740000
      } ],
      "timeWindowConstraints" : {
        "serviceTimeWindows" : [ {
          "startTime" : 1373871540000,
          "endTime" : 1373900400000
        } ],
        "timeWindowPolicy" : "COMPLETE_ORDER_WITHIN_TIME_WINDOW"
      },
      "attributes" : [ "AoC99" ],
      "incompatibleAttributes" : [ ],
      "stopSequence" : 1
    }
  }, {
    "id" : 163928,
    "metadata" : {
      "name" : "mID163928"
    },
    "depot" : 0,
    "location" : {
      "latitude" : 53284873,
      "longitude" : -3568895,
      "metadata" : { }
    },
    "pickupDuration" : 262980,
    "serviceDuration" : 828000,
    "unloadDuration" : 0,
    "durationPerVisit" : 0,
    "priority" : 2,
    "jobType" : "DROP",
    "constraints" : {
      "demand" : {
        "values" : [ 263.8, 0.0, 0.0, 0.0 ]
      },
      "pickupTimeWindows" : [ {
        "startTime" : 1373857200000,
        "endTime" : 1373860740000
      } ],
      "timeWindowConstraints" : {
        "serviceTimeWindows" : [ {
          "startTime" : 1373873340000,
          "endTime" : 1373911200000
        } ],
        "timeWindowPolicy" : "COMPLETE_ORDER_WITHIN_TIME_WINDOW"
      },
      "attributes" : [ "AoC99" ],
      "incompatibleAttributes" : [ ],
      "stopSequence" : 1
    }
  }, {
    "id" : 163929,
    "metadata" : {
      "name" : "mID163929"
    },
    "depot" : 0,
    "location" : {
      "latitude" : 52920826,
      "longitude" : -3045207,
      "metadata" : { }
    },
    "pickupDuration" : 175980,
    "serviceDuration" : 651960,
    "unloadDuration" : 0,
    "durationPerVisit" : 0,
    "priority" : 2,
    "jobType" : "DROP",
    "constraints" : {
      "demand" : {
        "values" : [ 176.08, 0.0, 0.0, 0.0 ]
      },
      "pickupTimeWindows" : [ {
        "startTime" : 1373857200000,
        "endTime" : 1373860740000
      } ],
      "timeWindowConstraints" : {
        "serviceTimeWindows" : [ {
          "startTime" : 1373873340000,
          "endTime" : 1373911200000
        } ],
        "timeWindowPolicy" : "COMPLETE_ORDER_WITHIN_TIME_WINDOW"
      },
      "attributes" : [ "AoC99" ],
      "incompatibleAttributes" : [ ],
      "stopSequence" : 1
    }
  }, {
    "id" : 163930,
    "metadata" : {
      "name" : "mID163930"
    },
    "depot" : 0,
    "location" : {
      "latitude" : 53251093,
      "longitude" : -4305447,
      "metadata" : { }
    },
    "pickupDuration" : 90960,
    "serviceDuration" : 483960,
    "unloadDuration" : 0,
    "durationPerVisit" : 0,
    "priority" : 2,
    "jobType" : "DROP",
    "constraints" : {
      "demand" : {
        "values" : [ 91.72, 0.0, 0.0, 0.0 ]
      },
      "pickupTimeWindows" : [ {
        "startTime" : 1373857200000,
        "endTime" : 1373860740000
      } ],
      "timeWindowConstraints" : {
        "serviceTimeWindows" : [ {
          "startTime" : 1373873340000,
          "endTime" : 1373911200000
        } ],
        "timeWindowPolicy" : "COMPLETE_ORDER_WITHIN_TIME_WINDOW"
      },
      "attributes" : [ "AoC99" ],
      "incompatibleAttributes" : [ ],
      "stopSequence" : 1
    }
  }, {
    "id" : 163931,
    "metadata" : {
      "name" : "mID163931"
    },
    "depot" : 0,
    "location" : {
      "latitude" : 53159722,
      "longitude" : -3134235,
      "metadata" : { }
    },
    "pickupDuration" : 105960,
    "serviceDuration" : 511920,
    "unloadDuration" : 0,
    "durationPerVisit" : 0,
    "priority" : 2,
    "jobType" : "DROP",
    "constraints" : {
      "demand" : {
        "values" : [ 106.4, 0.0, 0.0, 0.0 ]
      },
      "pickupTimeWindows" : [ {
        "startTime" : 1373857200000,
        "endTime" : 1373860740000
      } ],
      "timeWindowConstraints" : {
        "serviceTimeWindows" : [ {
          "startTime" : 1373871540000,
          "endTime" : 1373904000000
        } ],
        "timeWindowPolicy" : "COMPLETE_ORDER_WITHIN_TIME_WINDOW"
      },
      "attributes" : [ "AoC99" ],
      "incompatibleAttributes" : [ ],
      "stopSequence" : 1
    }
  }, {
    "id" : 163934,
    "metadata" : {
      "name" : "mID163934"
    },
    "depot" : 0,
    "location" : {
      "latitude" : 53373710,
      "longitude" : -3146977,
      "metadata" : { }
    },
    "pickupDuration" : 351000,
    "serviceDuration" : 1003980,
    "unloadDuration" : 0,
    "durationPerVisit" : 0,
    "priority" : 2,
    "jobType" : "DROP",
    "constraints" : {
      "demand" : {
        "values" : [ 351.68, 0.0, 0.0, 0.0 ]
      },
      "pickupTimeWindows" : [ {
        "startTime" : 1373857200000,
        "endTime" : 1373860740000
      } ],
      "timeWindowConstraints" : {
        "serviceTimeWindows" : [ {
          "startTime" : 1373875140000,
          "endTime" : 1373907600000
        } ],
        "timeWindowPolicy" : "COMPLETE_ORDER_WITHIN_TIME_WINDOW"
      },
      "attributes" : [ "AoC99" ],
      "incompatibleAttributes" : [ ],
      "stopSequence" : 1
    }
  }, {
    "id" : 163945,
    "metadata" : {
      "name" : "mID163945"
    },
    "depot" : 0,
    "location" : {
      "latitude" : 53243230,
      "longitude" : -4469392,
      "metadata" : { }
    },
    "pickupDuration" : 64980,
    "serviceDuration" : 429960,
    "unloadDuration" : 0,
    "durationPerVisit" : 0,
    "priority" : 2,
    "jobType" : "DROP",
    "constraints" : {
      "demand" : {
        "values" : [ 65.2, 0.0, 0.0, 0.0 ]
      },
      "pickupTimeWindows" : [ {
        "startTime" : 1373857200000,
        "endTime" : 1373860740000
      } ],
      "timeWindowConstraints" : {
        "serviceTimeWindows" : [ {
          "startTime" : 1373871540000,
          "endTime" : 1373904000000
        } ],
        "timeWindowPolicy" : "COMPLETE_ORDER_WITHIN_TIME_WINDOW"
      },
      "attributes" : [ "AoC99" ],
      "incompatibleAttributes" : [ ],
      "stopSequence" : 1
    }
  }, {
    "id" : 163947,
    "metadata" : {
      "name" : "mID163947"
    },
    "depot" : 0,
    "location" : {
      "latitude" : 52986314,
      "longitude" : -3040322,
      "metadata" : { }
    },
    "pickupDuration" : 24960,
    "serviceDuration" : 351960,
    "unloadDuration" : 0,
    "durationPerVisit" : 0,
    "priority" : 2,
    "jobType" : "DROP",
    "constraints" : {
      "demand" : {
        "values" : [ 25.6, 0.0, 0.0, 0.0 ]
      },
      "pickupTimeWindows" : [ {
        "startTime" : 1373857200000,
        "endTime" : 1373860740000
      } ],
      "timeWindowConstraints" : {
        "serviceTimeWindows" : [ {
          "startTime" : 1373871540000,
          "endTime" : 1373904000000
        } ],
        "timeWindowPolicy" : "COMPLETE_ORDER_WITHIN_TIME_WINDOW"
      },
      "attributes" : [ "AoC99" ],
      "incompatibleAttributes" : [ ],
      "stopSequence" : 1
    }
  }, {
    "id" : 163950,
    "metadata" : {
      "name" : "mID163950"
    },
    "depot" : 0,
    "location" : {
      "latitude" : 53280333,
      "longitude" : -3282466,
      "metadata" : { }
    },
    "pickupDuration" : 111000,
    "serviceDuration" : 523980,
    "unloadDuration" : 0,
    "durationPerVisit" : 0,
    "priority" : 2,
    "jobType" : "DROP",
    "constraints" : {
      "demand" : {
        "values" : [ 111.56, 0.0, 0.0, 0.0 ]
      },
      "pickupTimeWindows" : [ {
        "startTime" : 1373857200000,
        "endTime" : 1373860740000
      } ],
      "timeWindowConstraints" : {
        "serviceTimeWindows" : [ {
          "startTime" : 1373871540000,
          "endTime" : 1373904000000
        } ],
        "timeWindowPolicy" : "COMPLETE_ORDER_WITHIN_TIME_WINDOW"
      },
      "attributes" : [ "AoC99" ],
      "incompatibleAttributes" : [ ],
      "stopSequence" : 1
    }
  } ],
  "schedules" : [ {
    "timeWindow" : {
      "startTime" : 1373857200000,
      "endTime" : 1373907600000
    },
    "staticBreakTemplate" : {
      "timeWindow" : {
        "startTime" : 1373877000000,
        "endTime" : 1373883300000
      },
      "duration" : 2700000
    },
    "runs" : [ ],
    "breaks" : [ ],
    "constraints" : { },
    "resource" : {
      "metadata" : {
        "name" : "T800AMP"
      },
      "id" : 1176,
      "depot" : 0,
      "hourCost" : 10.0,
      "kmCost" : 0.2921069,
      "routingProfile" : {
        "vehicleType" : "Default",
        "drivingTimeCorrectionFactor" : 1.3,
        "maxSpeed" : 90.104
      },
      "constraints" : {
        "runDistanceLimit" : "Infinity",
        "runWorkingTimeLimit" : 9223372036854775807,
        "scheduleWorkingTimeLimit" : 9223372036854775807,
        "scheduleDrivingTimeLimit" : 36000000,
        "addonCollectionDropDuration" : 0,
        "addonPickupDuration" : 1200000,
        "capacity" : {
          "values" : [ 2000.0, 0.0, 0.0, 0.0 ]
        },
        "attributes" : [ "cargo=46.959=0.0=0.0=0.0", "cargo=76.0=0.0=0.0=0.0", "cargo=103.40=0.0=0.0=0.0", "cargo=176.08=0.0=0.0=0.0", "cargo=113.59=0.0=0.0=0.0", "cargo=71.0=0.0=0.0=0.0", "cargo=13.600=0.0=0.0=0.0", "cargo=90.199=0.0=0.0=0.0", "AoC99", "cargo=91.720=0.0=0.0=0.0", "cargo=38.400=0.0=0.0=0.0", "cargo=351.67=0.0=0.0=0.0", "cargo=51.400=0.0=0.0=0.0", "cargo=99.599=0.0=0.0=0.0", "cargo=159.80=0.0=0.0=0.0", "cargo=96.800=0.0=0.0=0.0", "cargo=100.0=0.0=0.0=0.0", "cargo=65.199=0.0=0.0=0.0", "cargo=79.599=0.0=0.0=0.0", "cargo=107.19=0.0=0.0=0.0", "cargo=59.200=0.0=0.0=0.0", "cargo=48.0=0.0=0.0=0.0", "cargo=39.599=0.0=0.0=0.0", "cargo=130.80=0.0=0.0=0.0", "cargo=25.600=0.0=0.0=0.0", "cargo=51.0=0.0=0.0=0.0", "cargo=74.199=0.0=0.0=0.0", "cargo=447.0=0.0=0.0=0.0", "cargo=91.199=0.0=0.0=0.0", "cargo=140.19=0.0=0.0=0.0", "cargo=243.60=0.0=0.0=0.0", "cargo=153.0=0.0=0.0=0.0", "cargo=263.79=0.0=0.0=0.0", "cargo=61.0=0.0=0.0=0.0", "cargo=111.55=0.0=0.0=0.0", "cargo=72.639=0.0=0.0=0.0", "cargo=51.599=0.0=0.0=0.0", "cargo=106.40=0.0=0.0=0.0", "cargo=57.599=0.0=0.0=0.0", "cargo=156.19=0.0=0.0=0.0" ],
        "homeLocations" : {
          "startLocation" : {
            "latitude" : 53783808,
            "longitude" : -1572433,
            "metadata" : { }
          },
          "endLocation" : {
            "latitude" : 53783808,
            "longitude" : -1572433,
            "metadata" : { }
          }
        },
        "fixedStartTime" : -1
      }
    }
  }, {
    "timeWindow" : {
      "startTime" : 1373857200000,
      "endTime" : 1373907600000
    },
    "staticBreakTemplate" : {
      "timeWindow" : {
        "startTime" : 1373877000000,
        "endTime" : 1373883300000
      },
      "duration" : 2700000
    },
    "runs" : [ ],
    "breaks" : [ ],
    "constraints" : { },
    "resource" : {
      "metadata" : {
        "name" : "T90AMP"
      },
      "id" : 1179,
      "depot" : 0,
      "hourCost" : 10.0,
      "kmCost" : 0.2299565,
      "routingProfile" : {
        "vehicleType" : "Default",
        "drivingTimeCorrectionFactor" : 1.3,
        "maxSpeed" : 112.63
      },
      "constraints" : {
        "runDistanceLimit" : "Infinity",
        "runWorkingTimeLimit" : 9223372036854775807,
        "scheduleWorkingTimeLimit" : 9223372036854775807,
        "scheduleDrivingTimeLimit" : 36000000,
        "addonCollectionDropDuration" : 0,
        "addonPickupDuration" : 1200000,
        "capacity" : {
          "values" : [ 1098.0, 0.0, 0.0, 0.0 ]
        },
        "attributes" : [ "cargo=46.959=0.0=0.0=0.0", "cargo=76.0=0.0=0.0=0.0", "cargo=103.40=0.0=0.0=0.0", "cargo=176.08=0.0=0.0=0.0", "cargo=113.59=0.0=0.0=0.0", "cargo=71.0=0.0=0.0=0.0", "cargo=13.600=0.0=0.0=0.0", "cargo=90.199=0.0=0.0=0.0", "AoC99", "cargo=91.720=0.0=0.0=0.0", "cargo=38.400=0.0=0.0=0.0", "cargo=351.67=0.0=0.0=0.0", "cargo=51.400=0.0=0.0=0.0", "cargo=99.599=0.0=0.0=0.0", "cargo=159.80=0.0=0.0=0.0", "cargo=96.800=0.0=0.0=0.0", "cargo=100.0=0.0=0.0=0.0", "cargo=65.199=0.0=0.0=0.0", "cargo=79.599=0.0=0.0=0.0", "cargo=107.19=0.0=0.0=0.0", "cargo=59.200=0.0=0.0=0.0", "cargo=48.0=0.0=0.0=0.0", "cargo=39.599=0.0=0.0=0.0", "cargo=130.80=0.0=0.0=0.0", "cargo=25.600=0.0=0.0=0.0", "cargo=51.0=0.0=0.0=0.0", "cargo=74.199=0.0=0.0=0.0", "cargo=447.0=0.0=0.0=0.0", "cargo=91.199=0.0=0.0=0.0", "cargo=140.19=0.0=0.0=0.0", "cargo=243.60=0.0=0.0=0.0", "cargo=153.0=0.0=0.0=0.0", "cargo=263.79=0.0=0.0=0.0", "cargo=61.0=0.0=0.0=0.0", "cargo=111.55=0.0=0.0=0.0", "cargo=72.639=0.0=0.0=0.0", "cargo=51.599=0.0=0.0=0.0", "cargo=106.40=0.0=0.0=0.0", "cargo=57.599=0.0=0.0=0.0", "cargo=156.19=0.0=0.0=0.0" ],
        "homeLocations" : {
          "startLocation" : {
            "latitude" : 53783808,
            "longitude" : -1572433,
            "metadata" : { }
          },
          "endLocation" : {
            "latitude" : 53783808,
            "longitude" : -1572433,
            "metadata" : { }
          }
        },
        "fixedStartTime" : -1
      }
    }
  }, {
    "timeWindow" : {
      "startTime" : 1373857200000,
      "endTime" : 1373909400000
    },
    "staticBreakTemplate" : {
      "timeWindow" : {
        "startTime" : 1373877000000,
        "endTime" : 1373883300000
      },
      "duration" : 2700000
    },
    "runs" : [ ],
    "breaks" : [ ],
    "constraints" : { },
    "resource" : {
      "metadata" : {
        "name" : "T333AMP"
      },
      "id" : 1167,
      "depot" : 0,
      "hourCost" : 10.0,
      "kmCost" : 0.2921069,
      "routingProfile" : {
        "vehicleType" : "Default",
        "drivingTimeCorrectionFactor" : 1.3,
        "maxSpeed" : 90.104
      },
      "constraints" : {
        "runDistanceLimit" : "Infinity",
        "runWorkingTimeLimit" : 9223372036854775807,
        "scheduleWorkingTimeLimit" : 9223372036854775807,
        "scheduleDrivingTimeLimit" : 36000000,
        "addonCollectionDropDuration" : 0,
        "addonPickupDuration" : 1200000,
        "capacity" : {
          "values" : [ 1600.0, 0.0, 0.0, 0.0 ]
        },
        "attributes" : [ "cargo=46.959=0.0=0.0=0.0", "cargo=76.0=0.0=0.0=0.0", "cargo=103.40=0.0=0.0=0.0", "cargo=176.08=0.0=0.0=0.0", "cargo=113.59=0.0=0.0=0.0", "cargo=71.0=0.0=0.0=0.0", "cargo=13.600=0.0=0.0=0.0", "cargo=90.199=0.0=0.0=0.0", "AoC99", "cargo=91.720=0.0=0.0=0.0", "cargo=38.400=0.0=0.0=0.0", "cargo=351.67=0.0=0.0=0.0", "cargo=51.400=0.0=0.0=0.0", "cargo=99.599=0.0=0.0=0.0", "cargo=159.80=0.0=0.0=0.0", "cargo=96.800=0.0=0.0=0.0", "cargo=100.0=0.0=0.0=0.0", "cargo=65.199=0.0=0.0=0.0", "cargo=79.599=0.0=0.0=0.0", "cargo=107.19=0.0=0.0=0.0", "cargo=59.200=0.0=0.0=0.0", "cargo=48.0=0.0=0.0=0.0", "cargo=39.599=0.0=0.0=0.0", "cargo=130.80=0.0=0.0=0.0", "cargo=25.600=0.0=0.0=0.0", "cargo=51.0=0.0=0.0=0.0", "cargo=74.199=0.0=0.0=0.0", "cargo=447.0=0.0=0.0=0.0", "cargo=91.199=0.0=0.0=0.0", "cargo=140.19=0.0=0.0=0.0", "cargo=243.60=0.0=0.0=0.0", "cargo=153.0=0.0=0.0=0.0", "cargo=263.79=0.0=0.0=0.0", "cargo=61.0=0.0=0.0=0.0", "cargo=111.55=0.0=0.0=0.0", "cargo=72.639=0.0=0.0=0.0", "cargo=51.599=0.0=0.0=0.0", "cargo=106.40=0.0=0.0=0.0", "cargo=57.599=0.0=0.0=0.0", "cargo=156.19=0.0=0.0=0.0" ],
        "homeLocations" : {
          "startLocation" : {
            "latitude" : 53783808,
            "longitude" : -1572433,
            "metadata" : { }
          },
          "endLocation" : {
            "latitude" : 53783808,
            "longitude" : -1572433,
            "metadata" : { }
          }
        },
        "fixedStartTime" : -1
      }
    }
  }, {
    "timeWindow" : {
      "startTime" : 1373857200000,
      "endTime" : 1373907600000
    },
    "staticBreakTemplate" : {
      "timeWindow" : {
        "startTime" : 1373877000000,
        "endTime" : 1373883300000
      },
      "duration" : 2700000
    },
    "runs" : [ ],
    "breaks" : [ ],
    "constraints" : { },
    "resource" : {
      "metadata" : {
        "name" : "T300AMP"
      },
      "id" : 1166,
      "depot" : 0,
      "hourCost" : 10.0,
      "kmCost" : 0.2921069,
      "routingProfile" : {
        "vehicleType" : "Default",
        "drivingTimeCorrectionFactor" : 1.3,
        "maxSpeed" : 90.104
      },
      "constraints" : {
        "runDistanceLimit" : "Infinity",
        "runWorkingTimeLimit" : 9223372036854775807,
        "scheduleWorkingTimeLimit" : 9223372036854775807,
        "scheduleDrivingTimeLimit" : 36000000,
        "addonCollectionDropDuration" : 0,
        "addonPickupDuration" : 1200000,
        "capacity" : {
          "values" : [ 1600.0, 0.0, 0.0, 0.0 ]
        },
        "attributes" : [ "cargo=46.959=0.0=0.0=0.0", "cargo=76.0=0.0=0.0=0.0", "cargo=103.40=0.0=0.0=0.0", "cargo=176.08=0.0=0.0=0.0", "cargo=113.59=0.0=0.0=0.0", "cargo=71.0=0.0=0.0=0.0", "cargo=13.600=0.0=0.0=0.0", "cargo=90.199=0.0=0.0=0.0", "AoC99", "cargo=91.720=0.0=0.0=0.0", "cargo=38.400=0.0=0.0=0.0", "cargo=351.67=0.0=0.0=0.0", "cargo=51.400=0.0=0.0=0.0", "cargo=99.599=0.0=0.0=0.0", "cargo=159.80=0.0=0.0=0.0", "cargo=96.800=0.0=0.0=0.0", "cargo=100.0=0.0=0.0=0.0", "cargo=65.199=0.0=0.0=0.0", "cargo=79.599=0.0=0.0=0.0", "cargo=107.19=0.0=0.0=0.0", "cargo=59.200=0.0=0.0=0.0", "cargo=48.0=0.0=0.0=0.0", "cargo=39.599=0.0=0.0=0.0", "cargo=130.80=0.0=0.0=0.0", "cargo=25.600=0.0=0.0=0.0", "cargo=51.0=0.0=0.0=0.0", "cargo=74.199=0.0=0.0=0.0", "cargo=447.0=0.0=0.0=0.0", "cargo=91.199=0.0=0.0=0.0", "cargo=140.19=0.0=0.0=0.0", "cargo=243.60=0.0=0.0=0.0", "cargo=153.0=0.0=0.0=0.0", "cargo=263.79=0.0=0.0=0.0", "cargo=61.0=0.0=0.0=0.0", "cargo=111.55=0.0=0.0=0.0", "cargo=72.639=0.0=0.0=0.0", "cargo=51.599=0.0=0.0=0.0", "cargo=106.40=0.0=0.0=0.0", "cargo=57.599=0.0=0.0=0.0", "cargo=156.19=0.0=0.0=0.0" ],
        "homeLocations" : {
          "startLocation" : {
            "latitude" : 53783808,
            "longitude" : -1572433,
            "metadata" : { }
          },
          "endLocation" : {
            "latitude" : 53783808,
            "longitude" : -1572433,
            "metadata" : { }
          }
        },
        "fixedStartTime" : -1
      }
    }
  } ],
  "depots" : [ {
    "id" : 0,
    "location" : {
      "latitude" : 53783808,
      "longitude" : -1572433,
      "metadata" : { }
    },
    "constraints" : {
      "allowCollectionsWhileDrivingHome" : false,
      "allowDeliveriesWhileDrivingFromHome" : false,
      "availabilityWindows" : [ {
        "startTime" : 0,
        "endTime" : 57657355200332
      } ]
    }
  } ],
  "constraints" : {
    "allowMultipleRunsPerSchedule" : true,
    "consolidateSameSiteJobs" : "NONE"
  }
}