{
  "jobs" : [ {
    "id" : 153579,
    "metadata" : {
      "name" : "mID153579"
    },
    "depot" : 0,
    "location" : {
      "latitude" : 51026723,
      "longitude" : -3131971,
      "metadata" : { }
    },
    "pickupDuration" : 0,
    "serviceDuration" : 1920000,
    "unloadDuration" : 0,
    "durationPerVisit" : 0,
    "priority" : 2,
    "jobType" : "DROP",
    "constraints" : {
      "demand" : {
        "values" : [ 1.0, 0.0, 0.0, 0.0 ]
      },
      "pickupTimeWindows" : [ {
        "startTime" : 1373072460000,
        "endTime" : 1373155140000
      } ],
      "timeWindowConstraints" : {
        "serviceTimeWindows" : [ {
          "startTime" : 1373083200000,
          "endTime" : 1373126400000
        } ],
        "timeWindowPolicy" : "COMPLETE_ORDER_WITHIN_TIME_WINDOW"
      },
      "attributes" : [ "AoC136" ],
      "incompatibleAttributes" : [ ],
      "stopSequence" : 1
    }
  }, {
    "id" : 153580,
    "metadata" : {
      "name" : "mID153580"
    },
    "depot" : 0,
    "location" : {
      "latitude" : 52459994,
      "longitude" : -1828406,
      "metadata" : { }
    },
    "pickupDuration" : 0,
    "serviceDuration" : 2280000,
    "unloadDuration" : 0,
    "durationPerVisit" : 0,
    "priority" : 2,
    "jobType" : "DROP",
    "constraints" : {
      "demand" : {
        "values" : [ 4.0, 0.0, 0.0, 0.0 ]
      },
      "pickupTimeWindows" : [ {
        "startTime" : 1373072460000,
        "endTime" : 1373155140000
      } ],
      "timeWindowConstraints" : {
        "serviceTimeWindows" : [ {
          "startTime" : 1373083200000,
          "endTime" : 1373126400000
        } ],
        "timeWindowPolicy" : "COMPLETE_ORDER_WITHIN_TIME_WINDOW"
      },
      "attributes" : [ "AoC136" ],
      "incompatibleAttributes" : [ ],
      "stopSequence" : 1
    }
  }, {
    "id" : 153581,
    "metadata" : {
      "name" : "mID153581"
    },
    "depot" : 0,
    "location" : {
      "latitude" : 52459994,
      "longitude" : -1828406,
      "metadata" : { }
    },
    "pickupDuration" : 0,
    "serviceDuration" : 120000,
    "unloadDuration" : 0,
    "durationPerVisit" : 0,
    "priority" : 2,
    "jobType" : "DROP",
    "constraints" : {
      "demand" : {
        "values" : [ 1.0, 0.0, 0.0, 0.0 ]
      },
      "pickupTimeWindows" : [ {
        "startTime" : 1373072460000,
        "endTime" : 1373155140000
      } ],
      "timeWindowConstraints" : {
        "serviceTimeWindows" : [ {
          "startTime" : 1373083200000,
          "endTime" : 1373126400000
        } ],
        "timeWindowPolicy" : "COMPLETE_ORDER_WITHIN_TIME_WINDOW"
      },
      "attributes" : [ "AoC136" ],
      "incompatibleAttributes" : [ ],
      "stopSequence" : 1
    }
  }, {
    "id" : 153582,
    "metadata" : {
      "name" : "mID153582"
    },
    "depot" : 0,
    "location" : {
      "latitude" : 53494734,
      "longitude" : -2285615,
      "metadata" : { }
    },
    "pickupDuration" : 0,
    "serviceDuration" : 2040000,
    "unloadDuration" : 0,
    "durationPerVisit" : 0,
    "priority" : 2,
    "jobType" : "DROP",
    "constraints" : {
      "demand" : {
        "values" : [ 2.0, 0.0, 0.0, 0.0 ]
      },
      "pickupTimeWindows" : [ {
        "startTime" : 1373072460000,
        "endTime" : 1373155140000
      } ],
      "timeWindowConstraints" : {
        "serviceTimeWindows" : [ {
          "startTime" : 1373083200000,
          "endTime" : 1373126400000
        } ],
        "timeWindowPolicy" : "COMPLETE_ORDER_WITHIN_TIME_WINDOW"
      },
      "attributes" : [ "AoC136" ],
      "incompatibleAttributes" : [ ],
      "stopSequence" : 1
    }
  }, {
    "id" : 153583,
    "metadata" : {
      "name" : "mID153583"
    },
    "depot" : 0,
    "location" : {
      "latitude" : 50628439,
      "longitude" : -4381358,
      "metadata" : { }
    },
    "pickupDuration" : 0,
    "serviceDuration" : 2640000,
    "unloadDuration" : 0,
    "durationPerVisit" : 0,
    "priority" : 2,
    "jobType" : "DROP",
    "constraints" : {
      "demand" : {
        "values" : [ 7.0, 0.0, 0.0, 0.0 ]
      },
      "pickupTimeWindows" : [ {
        "startTime" : 1373072460000,
        "endTime" : 1373155140000
      } ],
      "timeWindowConstraints" : {
        "serviceTimeWindows" : [ {
          "startTime" : 1373083200000,
          "endTime" : 1373126400000
        } ],
        "timeWindowPolicy" : "COMPLETE_ORDER_WITHIN_TIME_WINDOW"
      },
      "attributes" : [ "AoC136" ],
      "incompatibleAttributes" : [ ],
      "stopSequence" : 1
    }
  }, {
    "id" : 153584,
    "metadata" : {
      "name" : "mID153584"
    },
    "depot" : 0,
    "location" : {
      "latitude" : 50628439,
      "longitude" : -4381358,
      "metadata" : { }
    },
    "pickupDuration" : 0,
    "serviceDuration" : 240000,
    "unloadDuration" : 0,
    "durationPerVisit" : 0,
    "priority" : 2,
    "jobType" : "DROP",
    "constraints" : {
      "demand" : {
        "values" : [ 2.0, 0.0, 0.0, 0.0 ]
      },
      "pickupTimeWindows" : [ {
        "startTime" : 1373072460000,
        "endTime" : 1373155140000
      } ],
      "timeWindowConstraints" : {
        "serviceTimeWindows" : [ {
          "startTime" : 1373083200000,
          "endTime" : 1373126400000
        } ],
        "timeWindowPolicy" : "COMPLETE_ORDER_WITHIN_TIME_WINDOW"
      },
      "attributes" : [ "AoC136" ],
      "incompatibleAttributes" : [ ],
      "stopSequence" : 1
    }
  }, {
    "id" : 153585,
    "metadata" : {
      "name" : "mID153585"
    },
    "depot" : 0,
    "location" : {
      "latitude" : 50628439,
      "longitude" : -4381358,
      "metadata" : { }
    },
    "pickupDuration" : 0,
    "serviceDuration" : 120000,
    "unloadDuration" : 0,
    "durationPerVisit" : 0,
    "priority" : 2,
    "jobType" : "DROP",
    "constraints" : {
      "demand" : {
        "values" : [ 1.0, 0.0, 0.0, 0.0 ]
      },
      "pickupTimeWindows" : [ {
        "startTime" : 1373072460000,
        "endTime" : 1373155140000
      } ],
      "timeWindowConstraints" : {
        "serviceTimeWindows" : [ {
          "startTime" : 1373083200000,
          "endTime" : 1373126400000
        } ],
        "timeWindowPolicy" : "COMPLETE_ORDER_WITHIN_TIME_WINDOW"
      },
      "attributes" : [ "AoC136" ],
      "incompatibleAttributes" : [ ],
      "stopSequence" : 1
    }
  }, {
    "id" : 153586,
    "metadata" : {
      "name" : "mID153586"
    },
    "depot" : 0,
    "location" : {
      "latitude" : 50627569,
      "longitude" : -4379051,
      "metadata" : { }
    },
    "pickupDuration" : 0,
    "serviceDuration" : 2160000,
    "unloadDuration" : 0,
    "durationPerVisit" : 0,
    "priority" : 2,
    "jobType" : "DROP",
    "constraints" : {
      "demand" : {
        "values" : [ 3.0, 0.0, 0.0, 0.0 ]
      },
      "pickupTimeWindows" : [ {
        "startTime" : 1373072460000,
        "endTime" : 1373155140000
      } ],
      "timeWindowConstraints" : {
        "serviceTimeWindows" : [ {
          "startTime" : 1373083200000,
          "endTime" : 1373126400000
        } ],
        "timeWindowPolicy" : "COMPLETE_ORDER_WITHIN_TIME_WINDOW"
      },
      "attributes" : [ "AoC136" ],
      "incompatibleAttributes" : [ ],
      "stopSequence" : 1
    }
  }, {
    "id" : 153587,
    "metadata" : {
      "name" : "mID153587"
    },
    "depot" : 0,
    "location" : {
      "latitude" : 50627569,
      "longitude" : -4379051,
      "metadata" : { }
    },
    "pickupDuration" : 0,
    "serviceDuration" : 240000,
    "unloadDuration" : 0,
    "durationPerVisit" : 0,
    "priority" : 2,
    "jobType" : "DROP",
    "constraints" : {
      "demand" : {
        "values" : [ 2.0, 0.0, 0.0, 0.0 ]
      },
      "pickupTimeWindows" : [ {
        "startTime" : 1373072460000,
        "endTime" : 1373155140000
      } ],
      "timeWindowConstraints" : {
        "serviceTimeWindows" : [ {
          "startTime" : 1373083200000,
          "endTime" : 1373126400000
        } ],
        "timeWindowPolicy" : "COMPLETE_ORDER_WITHIN_TIME_WINDOW"
      },
      "attributes" : [ "AoC136" ],
      "incompatibleAttributes" : [ ],
      "stopSequence" : 1
    }
  }, {
    "id" : 153588,
    "metadata" : {
      "name" : "mID153588"
    },
    "depot" : 0,
    "location" : {
      "latitude" : 50627569,
      "longitude" : -4379051,
      "metadata" : { }
    },
    "pickupDuration" : 0,
    "serviceDuration" : 120000,
    "unloadDuration" : 0,
    "durationPerVisit" : 0,
    "priority" : 2,
    "jobType" : "DROP",
    "constraints" : {
      "demand" : {
        "values" : [ 1.0, 0.0, 0.0, 0.0 ]
      },
      "pickupTimeWindows" : [ {
        "startTime" : 1373072460000,
        "endTime" : 1373155140000
      } ],
      "timeWindowConstraints" : {
        "serviceTimeWindows" : [ {
          "startTime" : 1373083200000,
          "endTime" : 1373126400000
        } ],
        "timeWindowPolicy" : "COMPLETE_ORDER_WITHIN_TIME_WINDOW"
      },
      "attributes" : [ "AoC136" ],
      "incompatibleAttributes" : [ ],
      "stopSequence" : 1
    }
  }, {
    "id" : 153589,
    "metadata" : {
      "name" : "mID153589"
    },
    "depot" : 0,
    "location" : {
      "latitude" : 52579244,
      "longitude" : -1125307,
      "metadata" : { }
    },
    "pickupDuration" : 0,
    "serviceDuration" : 2400000,
    "unloadDuration" : 0,
    "durationPerVisit" : 0,
    "priority" : 2,
    "jobType" : "DROP",
    "constraints" : {
      "demand" : {
        "values" : [ 5.0, 0.0, 0.0, 0.0 ]
      },
      "pickupTimeWindows" : [ {
        "startTime" : 1373072460000,
        "endTime" : 1373155140000
      } ],
      "timeWindowConstraints" : {
        "serviceTimeWindows" : [ {
          "startTime" : 1373083200000,
          "endTime" : 1373126400000
        } ],
        "timeWindowPolicy" : "COMPLETE_ORDER_WITHIN_TIME_WINDOW"
      },
      "attributes" : [ "AoC136" ],
      "incompatibleAttributes" : [ ],
      "stopSequence" : 1
    }
  }, {
    "id" : 153590,
    "metadata" : {
      "name" : "mID153590"
    },
    "depot" : 0,
    "location" : {
      "latitude" : 52579244,
      "longitude" : -1125307,
      "metadata" : { }
    },
    "pickupDuration" : 0,
    "serviceDuration" : 360000,
    "unloadDuration" : 0,
    "durationPerVisit" : 0,
    "priority" : 2,
    "jobType" : "DROP",
    "constraints" : {
      "demand" : {
        "values" : [ 3.0, 0.0, 0.0, 0.0 ]
      },
      "pickupTimeWindows" : [ {
        "startTime" : 1373072460000,
        "endTime" : 1373155140000
      } ],
      "timeWindowConstraints" : {
        "serviceTimeWindows" : [ {
          "startTime" : 1373083200000,
          "endTime" : 1373126400000
        } ],
        "timeWindowPolicy" : "COMPLETE_ORDER_WITHIN_TIME_WINDOW"
      },
      "attributes" : [ "AoC136" ],
      "incompatibleAttributes" : [ ],
      "stopSequence" : 1
    }
  }, {
    "id" : 153591,
    "metadata" : {
      "name" : "mID153591"
    },
    "depot" : 0,
    "location" : {
      "latitude" : 52804942,
      "longitude" : -1641464,
      "metadata" : { }
    },
    "pickupDuration" : 0,
    "serviceDuration" : 1920000,
    "unloadDuration" : 0,
    "durationPerVisit" : 0,
    "priority" : 2,
    "jobType" : "DROP",
    "constraints" : {
      "demand" : {
        "values" : [ 1.0, 0.0, 0.0, 0.0 ]
      },
      "pickupTimeWindows" : [ {
        "startTime" : 1373072460000,
        "endTime" : 1373155140000
      } ],
      "timeWindowConstraints" : {
        "serviceTimeWindows" : [ {
          "startTime" : 1373083200000,
          "endTime" : 1373126400000
        } ],
        "timeWindowPolicy" : "COMPLETE_ORDER_WITHIN_TIME_WINDOW"
      },
      "attributes" : [ "AoC136" ],
      "incompatibleAttributes" : [ ],
      "stopSequence" : 1
    }
  }, {
    "id" : 153592,
    "metadata" : {
      "name" : "mID153592"
    },
    "depot" : 0,
    "location" : {
      "latitude" : 52672728,
      "longitude" : -1157117,
      "metadata" : { }
    },
    "pickupDuration" : 0,
    "serviceDuration" : 2040000,
    "unloadDuration" : 0,
    "durationPerVisit" : 0,
    "priority" : 2,
    "jobType" : "DROP",
    "constraints" : {
      "demand" : {
        "values" : [ 2.0, 0.0, 0.0, 0.0 ]
      },
      "pickupTimeWindows" : [ {
        "startTime" : 1373072460000,
        "endTime" : 1373155140000
      } ],
      "timeWindowConstraints" : {
        "serviceTimeWindows" : [ {
          "startTime" : 1373083200000,
          "endTime" : 1373126400000
        } ],
        "timeWindowPolicy" : "COMPLETE_ORDER_WITHIN_TIME_WINDOW"
      },
      "attributes" : [ "AoC136" ],
      "incompatibleAttributes" : [ ],
      "stopSequence" : 1
    }
  }, {
    "id" : 153593,
    "metadata" : {
      "name" : "mID153593"
    },
    "depot" : 0,
    "location" : {
      "latitude" : 51508570,
      "longitude" : -355247,
      "metadata" : { }
    },
    "pickupDuration" : 0,
    "serviceDuration" : 1920000,
    "unloadDuration" : 0,
    "durationPerVisit" : 0,
    "priority" : 2,
    "jobType" : "DROP",
    "constraints" : {
      "demand" : {
        "values" : [ 1.0, 0.0, 0.0, 0.0 ]
      },
      "pickupTimeWindows" : [ {
        "startTime" : 1373072460000,
        "endTime" : 1373155140000
      } ],
      "timeWindowConstraints" : {
        "serviceTimeWindows" : [ {
          "startTime" : 1373083200000,
          "endTime" : 1373126400000
        } ],
        "timeWindowPolicy" : "COMPLETE_ORDER_WITHIN_TIME_WINDOW"
      },
      "attributes" : [ "AoC136" ],
      "incompatibleAttributes" : [ ],
      "stopSequence" : 1
    }
  }, {
    "id" : 153594,
    "metadata" : {
      "name" : "mID153594"
    },
    "depot" : 0,
    "location" : {
      "latitude" : 51508570,
      "longitude" : -355247,
      "metadata" : { }
    },
    "pickupDuration" : 0,
    "serviceDuration" : 120000,
    "unloadDuration" : 0,
    "durationPerVisit" : 0,
    "priority" : 2,
    "jobType" : "DROP",
    "constraints" : {
      "demand" : {
        "values" : [ 1.0, 0.0, 0.0, 0.0 ]
      },
      "pickupTimeWindows" : [ {
        "startTime" : 1373072460000,
        "endTime" : 1373155140000
      } ],
      "timeWindowConstraints" : {
        "serviceTimeWindows" : [ {
          "startTime" : 1373083200000,
          "endTime" : 1373126400000
        } ],
        "timeWindowPolicy" : "COMPLETE_ORDER_WITHIN_TIME_WINDOW"
      },
      "attributes" : [ "AoC136" ],
      "incompatibleAttributes" : [ ],
      "stopSequence" : 1
    }
  }, {
    "id" : 153595,
    "metadata" : {
      "name" : "mID153595"
    },
    "depot" : 0,
    "location" : {
      "latitude" : 51508570,
      "longitude" : -355247,
      "metadata" : { }
    },
    "pickupDuration" : 0,
    "serviceDuration" : 240000,
    "unloadDuration" : 0,
    "durationPerVisit" : 0,
    "priority" : 2,
    "jobType" : "DROP",
    "constraints" : {
      "demand" : {
        "values" : [ 2.0, 0.0, 0.0, 0.0 ]
      },
      "pickupTimeWindows" : [ {
        "startTime" : 1373072460000,
        "endTime" : 1373155140000
      } ],
      "timeWindowConstraints" : {
        "serviceTimeWindows" : [ {
          "startTime" : 1373083200000,
          "endTime" : 1373126400000
        } ],
        "timeWindowPolicy" : "COMPLETE_ORDER_WITHIN_TIME_WINDOW"
      },
      "attributes" : [ "AoC136" ],
      "incompatibleAttributes" : [ ],
      "stopSequence" : 1
    }
  }, {
    "id" : 153596,
    "metadata" : {
      "name" : "mID153596"
    },
    "depot" : 0,
    "location" : {
      "latitude" : 51508570,
      "longitude" : -355247,
      "metadata" : { }
    },
    "pickupDuration" : 0,
    "serviceDuration" : 240000,
    "unloadDuration" : 0,
    "durationPerVisit" : 0,
    "priority" : 2,
    "jobType" : "DROP",
    "constraints" : {
      "demand" : {
        "values" : [ 2.0, 0.0, 0.0, 0.0 ]
      },
      "pickupTimeWindows" : [ {
        "startTime" : 1373072460000,
        "endTime" : 1373155140000
      } ],
      "timeWindowConstraints" : {
        "serviceTimeWindows" : [ {
          "startTime" : 1373083200000,
          "endTime" : 1373126400000
        } ],
        "timeWindowPolicy" : "COMPLETE_ORDER_WITHIN_TIME_WINDOW"
      },
      "attributes" : [ "AoC136" ],
      "incompatibleAttributes" : [ ],
      "stopSequence" : 1
    }
  }, {
    "id" : 153597,
    "metadata" : {
      "name" : "mID153597"
    },
    "depot" : 0,
    "location" : {
      "latitude" : 51508570,
      "longitude" : -355247,
      "metadata" : { }
    },
    "pickupDuration" : 0,
    "serviceDuration" : 240000,
    "unloadDuration" : 0,
    "durationPerVisit" : 0,
    "priority" : 2,
    "jobType" : "DROP",
    "constraints" : {
      "demand" : {
        "values" : [ 2.0, 0.0, 0.0, 0.0 ]
      },
      "pickupTimeWindows" : [ {
        "startTime" : 1373072460000,
        "endTime" : 1373155140000
      } ],
      "timeWindowConstraints" : {
        "serviceTimeWindows" : [ {
          "startTime" : 1373083200000,
          "endTime" : 1373126400000
        } ],
        "timeWindowPolicy" : "COMPLETE_ORDER_WITHIN_TIME_WINDOW"
      },
      "attributes" : [ "AoC136" ],
      "incompatibleAttributes" : [ ],
      "stopSequence" : 1
    }
  }, {
    "id" : 153598,
    "metadata" : {
      "name" : "mID153598"
    },
    "depot" : 0,
    "location" : {
      "latitude" : 51508570,
      "longitude" : -355247,
      "metadata" : { }
    },
    "pickupDuration" : 0,
    "serviceDuration" : 480000,
    "unloadDuration" : 0,
    "durationPerVisit" : 0,
    "priority" : 2,
    "jobType" : "DROP",
    "constraints" : {
      "demand" : {
        "values" : [ 4.0, 0.0, 0.0, 0.0 ]
      },
      "pickupTimeWindows" : [ {
        "startTime" : 1373072460000,
        "endTime" : 1373155140000
      } ],
      "timeWindowConstraints" : {
        "serviceTimeWindows" : [ {
          "startTime" : 1373083200000,
          "endTime" : 1373126400000
        } ],
        "timeWindowPolicy" : "COMPLETE_ORDER_WITHIN_TIME_WINDOW"
      },
      "attributes" : [ "AoC136" ],
      "incompatibleAttributes" : [ ],
      "stopSequence" : 1
    }
  }, {
    "id" : 153599,
    "metadata" : {
      "name" : "mID153599"
    },
    "depot" : 0,
    "location" : {
      "latitude" : 51508570,
      "longitude" : -355247,
      "metadata" : { }
    },
    "pickupDuration" : 0,
    "serviceDuration" : 120000,
    "unloadDuration" : 0,
    "durationPerVisit" : 0,
    "priority" : 2,
    "jobType" : "DROP",
    "constraints" : {
      "demand" : {
        "values" : [ 1.0, 0.0, 0.0, 0.0 ]
      },
      "pickupTimeWindows" : [ {
        "startTime" : 1373072460000,
        "endTime" : 1373155140000
      } ],
      "timeWindowConstraints" : {
        "serviceTimeWindows" : [ {
          "startTime" : 1373083200000,
          "endTime" : 1373126400000
        } ],
        "timeWindowPolicy" : "COMPLETE_ORDER_WITHIN_TIME_WINDOW"
      },
      "attributes" : [ "AoC136" ],
      "incompatibleAttributes" : [ ],
      "stopSequence" : 1
    }
  }, {
    "id" : 153600,
    "metadata" : {
      "name" : "mID153600"
    },
    "depot" : 0,
    "location" : {
      "latitude" : 51508570,
      "longitude" : -355247,
      "metadata" : { }
    },
    "pickupDuration" : 0,
    "serviceDuration" : 240000,
    "unloadDuration" : 0,
    "durationPerVisit" : 0,
    "priority" : 2,
    "jobType" : "DROP",
    "constraints" : {
      "demand" : {
        "values" : [ 2.0, 0.0, 0.0, 0.0 ]
      },
      "pickupTimeWindows" : [ {
        "startTime" : 1373072460000,
        "endTime" : 1373155140000
      } ],
      "timeWindowConstraints" : {
        "serviceTimeWindows" : [ {
          "startTime" : 1373083200000,
          "endTime" : 1373126400000
        } ],
        "timeWindowPolicy" : "COMPLETE_ORDER_WITHIN_TIME_WINDOW"
      },
      "attributes" : [ "AoC136" ],
      "incompatibleAttributes" : [ ],
      "stopSequence" : 1
    }
  }, {
    "id" : 153601,
    "metadata" : {
      "name" : "mID153601"
    },
    "depot" : 0,
    "location" : {
      "latitude" : 53347203,
      "longitude" : -1356777,
      "metadata" : { }
    },
    "pickupDuration" : 0,
    "serviceDuration" : 1920000,
    "unloadDuration" : 0,
    "durationPerVisit" : 0,
    "priority" : 2,
    "jobType" : "DROP",
    "constraints" : {
      "demand" : {
        "values" : [ 1.0, 0.0, 0.0, 0.0 ]
      },
      "pickupTimeWindows" : [ {
        "startTime" : 1373072460000,
        "endTime" : 1373155140000
      } ],
      "timeWindowConstraints" : {
        "serviceTimeWindows" : [ {
          "startTime" : 1373083200000,
          "endTime" : 1373126400000
        } ],
        "timeWindowPolicy" : "COMPLETE_ORDER_WITHIN_TIME_WINDOW"
      },
      "attributes" : [ "AoC136" ],
      "incompatibleAttributes" : [ ],
      "stopSequence" : 1
    }
  }, {
    "id" : 153602,
    "metadata" : {
      "name" : "mID153602"
    },
    "depot" : 0,
    "location" : {
      "latitude" : 53347203,
      "longitude" : -1356777,
      "metadata" : { }
    },
    "pickupDuration" : 0,
    "serviceDuration" : 120000,
    "unloadDuration" : 0,
    "durationPerVisit" : 0,
    "priority" : 2,
    "jobType" : "DROP",
    "constraints" : {
      "demand" : {
        "values" : [ 1.0, 0.0, 0.0, 0.0 ]
      },
      "pickupTimeWindows" : [ {
        "startTime" : 1373072460000,
        "endTime" : 1373155140000
      } ],
      "timeWindowConstraints" : {
        "serviceTimeWindows" : [ {
          "startTime" : 1373083200000,
          "endTime" : 1373126400000
        } ],
        "timeWindowPolicy" : "COMPLETE_ORDER_WITHIN_TIME_WINDOW"
      },
      "attributes" : [ "AoC136" ],
      "incompatibleAttributes" : [ ],
      "stopSequence" : 1
    }
  }, {
    "id" : 153603,
    "metadata" : {
      "name" : "mID153603"
    },
    "depot" : 0,
    "location" : {
      "latitude" : 53347203,
      "longitude" : -1356777,
      "metadata" : { }
    },
    "pickupDuration" : 0,
    "serviceDuration" : 1920000,
    "unloadDuration" : 0,
    "durationPerVisit" : 0,
    "priority" : 2,
    "jobType" : "DROP",
    "constraints" : {
      "demand" : {
        "values" : [ 16.0, 0.0, 0.0, 0.0 ]
      },
      "pickupTimeWindows" : [ {
        "startTime" : 1373072460000,
        "endTime" : 1373155140000
      } ],
      "timeWindowConstraints" : {
        "serviceTimeWindows" : [ {
          "startTime" : 1373083200000,
          "endTime" : 1373126400000
        } ],
        "timeWindowPolicy" : "COMPLETE_ORDER_WITHIN_TIME_WINDOW"
      },
      "attributes" : [ "AoC136" ],
      "incompatibleAttributes" : [ ],
      "stopSequence" : 1
    }
  }, {
    "id" : 153604,
    "metadata" : {
      "name" : "mID153604"
    },
    "depot" : 0,
    "location" : {
      "latitude" : 53347203,
      "longitude" : -1356777,
      "metadata" : { }
    },
    "pickupDuration" : 0,
    "serviceDuration" : 240000,
    "unloadDuration" : 0,
    "durationPerVisit" : 0,
    "priority" : 2,
    "jobType" : "DROP",
    "constraints" : {
      "demand" : {
        "values" : [ 2.0, 0.0, 0.0, 0.0 ]
      },
      "pickupTimeWindows" : [ {
        "startTime" : 1373072460000,
        "endTime" : 1373155140000
      } ],
      "timeWindowConstraints" : {
        "serviceTimeWindows" : [ {
          "startTime" : 1373083200000,
          "endTime" : 1373126400000
        } ],
        "timeWindowPolicy" : "COMPLETE_ORDER_WITHIN_TIME_WINDOW"
      },
      "attributes" : [ "AoC136" ],
      "incompatibleAttributes" : [ ],
      "stopSequence" : 1
    }
  }, {
    "id" : 153605,
    "metadata" : {
      "name" : "mID153605"
    },
    "depot" : 0,
    "location" : {
      "latitude" : 53347203,
      "longitude" : -1356777,
      "metadata" : { }
    },
    "pickupDuration" : 0,
    "serviceDuration" : 120000,
    "unloadDuration" : 0,
    "durationPerVisit" : 0,
    "priority" : 2,
    "jobType" : "DROP",
    "constraints" : {
      "demand" : {
        "values" : [ 1.0, 0.0, 0.0, 0.0 ]
      },
      "pickupTimeWindows" : [ {
        "startTime" : 1373072460000,
        "endTime" : 1373155140000
      } ],
      "timeWindowConstraints" : {
        "serviceTimeWindows" : [ {
          "startTime" : 1373083200000,
          "endTime" : 1373126400000
        } ],
        "timeWindowPolicy" : "COMPLETE_ORDER_WITHIN_TIME_WINDOW"
      },
      "attributes" : [ "AoC136" ],
      "incompatibleAttributes" : [ ],
      "stopSequence" : 1
    }
  }, {
    "id" : 153606,
    "metadata" : {
      "name" : "mID153606"
    },
    "depot" : 0,
    "location" : {
      "latitude" : 53347203,
      "longitude" : -1356777,
      "metadata" : { }
    },
    "pickupDuration" : 0,
    "serviceDuration" : 120000,
    "unloadDuration" : 0,
    "durationPerVisit" : 0,
    "priority" : 2,
    "jobType" : "DROP",
    "constraints" : {
      "demand" : {
        "values" : [ 1.0, 0.0, 0.0, 0.0 ]
      },
      "pickupTimeWindows" : [ {
        "startTime" : 1373072460000,
        "endTime" : 1373155140000
      } ],
      "timeWindowConstraints" : {
        "serviceTimeWindows" : [ {
          "startTime" : 1373083200000,
          "endTime" : 1373126400000
        } ],
        "timeWindowPolicy" : "COMPLETE_ORDER_WITHIN_TIME_WINDOW"
      },
      "attributes" : [ "AoC136" ],
      "incompatibleAttributes" : [ ],
      "stopSequence" : 1
    }
  }, {
    "id" : 153607,
    "metadata" : {
      "name" : "mID153607"
    },
    "depot" : 0,
    "location" : {
      "latitude" : 50879989,
      "longitude" : -2957820,
      "metadata" : { }
    },
    "pickupDuration" : 0,
    "serviceDuration" : 3840000,
    "unloadDuration" : 0,
    "durationPerVisit" : 0,
    "priority" : 2,
    "jobType" : "DROP",
    "constraints" : {
      "demand" : {
        "values" : [ 17.0, 0.0, 0.0, 0.0 ]
      },
      "pickupTimeWindows" : [ {
        "startTime" : 1373072460000,
        "endTime" : 1373155140000
      } ],
      "timeWindowConstraints" : {
        "serviceTimeWindows" : [ {
          "startTime" : 1373083200000,
          "endTime" : 1373126400000
        } ],
        "timeWindowPolicy" : "COMPLETE_ORDER_WITHIN_TIME_WINDOW"
      },
      "attributes" : [ "AoC136" ],
      "incompatibleAttributes" : [ ],
      "stopSequence" : 1
    }
  }, {
    "id" : 153608,
    "metadata" : {
      "name" : "mID153608"
    },
    "depot" : 0,
    "location" : {
      "latitude" : 50879989,
      "longitude" : -2957820,
      "metadata" : { }
    },
    "pickupDuration" : 0,
    "serviceDuration" : 240000,
    "unloadDuration" : 0,
    "durationPerVisit" : 0,
    "priority" : 2,
    "jobType" : "DROP",
    "constraints" : {
      "demand" : {
        "values" : [ 2.0, 0.0, 0.0, 0.0 ]
      },
      "pickupTimeWindows" : [ {
        "startTime" : 1373072460000,
        "endTime" : 1373155140000
      } ],
      "timeWindowConstraints" : {
        "serviceTimeWindows" : [ {
          "startTime" : 1373083200000,
          "endTime" : 1373126400000
        } ],
        "timeWindowPolicy" : "COMPLETE_ORDER_WITHIN_TIME_WINDOW"
      },
      "attributes" : [ "AoC136" ],
      "incompatibleAttributes" : [ ],
      "stopSequence" : 1
    }
  }, {
    "id" : 153609,
    "metadata" : {
      "name" : "mID153609"
    },
    "depot" : 0,
    "location" : {
      "latitude" : 53304155,
      "longitude" : -1482159,
      "metadata" : { }
    },
    "pickupDuration" : 0,
    "serviceDuration" : 1920000,
    "unloadDuration" : 0,
    "durationPerVisit" : 0,
    "priority" : 2,
    "jobType" : "DROP",
    "constraints" : {
      "demand" : {
        "values" : [ 1.0, 0.0, 0.0, 0.0 ]
      },
      "pickupTimeWindows" : [ {
        "startTime" : 1373072460000,
        "endTime" : 1373155140000
      } ],
      "timeWindowConstraints" : {
        "serviceTimeWindows" : [ {
          "startTime" : 1373083200000,
          "endTime" : 1373126400000
        } ],
        "timeWindowPolicy" : "COMPLETE_ORDER_WITHIN_TIME_WINDOW"
      },
      "attributes" : [ "AoC136" ],
      "incompatibleAttributes" : [ ],
      "stopSequence" : 1
    }
  }, {
    "id" : 153610,
    "metadata" : {
      "name" : "mID153610"
    },
    "depot" : 0,
    "location" : {
      "latitude" : 51588385,
      "longitude" : -3053680,
      "metadata" : { }
    },
    "pickupDuration" : 0,
    "serviceDuration" : 1920000,
    "unloadDuration" : 0,
    "durationPerVisit" : 0,
    "priority" : 2,
    "jobType" : "DROP",
    "constraints" : {
      "demand" : {
        "values" : [ 1.0, 0.0, 0.0, 0.0 ]
      },
      "pickupTimeWindows" : [ {
        "startTime" : 1373072460000,
        "endTime" : 1373155140000
      } ],
      "timeWindowConstraints" : {
        "serviceTimeWindows" : [ {
          "startTime" : 1373083200000,
          "endTime" : 1373126400000
        } ],
        "timeWindowPolicy" : "COMPLETE_ORDER_WITHIN_TIME_WINDOW"
      },
      "attributes" : [ "AoC136" ],
      "incompatibleAttributes" : [ ],
      "stopSequence" : 1
    }
  }, {
    "id" : 153611,
    "metadata" : {
      "name" : "mID153611"
    },
    "depot" : 0,
    "location" : {
      "latitude" : 52936227,
      "longitude" : -1163925,
      "metadata" : { }
    },
    "pickupDuration" : 0,
    "serviceDuration" : 2760000,
    "unloadDuration" : 0,
    "durationPerVisit" : 0,
    "priority" : 2,
    "jobType" : "DROP",
    "constraints" : {
      "demand" : {
        "values" : [ 8.0, 0.0, 0.0, 0.0 ]
      },
      "pickupTimeWindows" : [ {
        "startTime" : 1373072460000,
        "endTime" : 1373155140000
      } ],
      "timeWindowConstraints" : {
        "serviceTimeWindows" : [ {
          "startTime" : 1373083200000,
          "endTime" : 1373126400000
        } ],
        "timeWindowPolicy" : "COMPLETE_ORDER_WITHIN_TIME_WINDOW"
      },
      "attributes" : [ "AoC136" ],
      "incompatibleAttributes" : [ ],
      "stopSequence" : 1
    }
  }, {
    "id" : 153612,
    "metadata" : {
      "name" : "mID153612"
    },
    "depot" : 0,
    "location" : {
      "latitude" : 52629691,
      "longitude" : -1211608,
      "metadata" : { }
    },
    "pickupDuration" : 0,
    "serviceDuration" : 1920000,
    "unloadDuration" : 0,
    "durationPerVisit" : 0,
    "priority" : 2,
    "jobType" : "DROP",
    "constraints" : {
      "demand" : {
        "values" : [ 1.0, 0.0, 0.0, 0.0 ]
      },
      "pickupTimeWindows" : [ {
        "startTime" : 1373072460000,
        "endTime" : 1373155140000
      } ],
      "timeWindowConstraints" : {
        "serviceTimeWindows" : [ {
          "startTime" : 1373083200000,
          "endTime" : 1373126400000
        } ],
        "timeWindowPolicy" : "COMPLETE_ORDER_WITHIN_TIME_WINDOW"
      },
      "attributes" : [ "AoC136" ],
      "incompatibleAttributes" : [ ],
      "stopSequence" : 1
    }
  }, {
    "id" : 153613,
    "metadata" : {
      "name" : "mID153613"
    },
    "depot" : 0,
    "location" : {
      "latitude" : 52629691,
      "longitude" : -1211608,
      "metadata" : { }
    },
    "pickupDuration" : 0,
    "serviceDuration" : 120000,
    "unloadDuration" : 0,
    "durationPerVisit" : 0,
    "priority" : 2,
    "jobType" : "DROP",
    "constraints" : {
      "demand" : {
        "values" : [ 1.0, 0.0, 0.0, 0.0 ]
      },
      "pickupTimeWindows" : [ {
        "startTime" : 1373072460000,
        "endTime" : 1373155140000
      } ],
      "timeWindowConstraints" : {
        "serviceTimeWindows" : [ {
          "startTime" : 1373083200000,
          "endTime" : 1373126400000
        } ],
        "timeWindowPolicy" : "COMPLETE_ORDER_WITHIN_TIME_WINDOW"
      },
      "attributes" : [ "AoC136" ],
      "incompatibleAttributes" : [ ],
      "stopSequence" : 1
    }
  }, {
    "id" : 153614,
    "metadata" : {
      "name" : "mID153614"
    },
    "depot" : 0,
    "location" : {
      "latitude" : 52629691,
      "longitude" : -1211608,
      "metadata" : { }
    },
    "pickupDuration" : 0,
    "serviceDuration" : 120000,
    "unloadDuration" : 0,
    "durationPerVisit" : 0,
    "priority" : 2,
    "jobType" : "DROP",
    "constraints" : {
      "demand" : {
        "values" : [ 1.0, 0.0, 0.0, 0.0 ]
      },
      "pickupTimeWindows" : [ {
        "startTime" : 1373072460000,
        "endTime" : 1373155140000
      } ],
      "timeWindowConstraints" : {
        "serviceTimeWindows" : [ {
          "startTime" : 1373083200000,
          "endTime" : 1373126400000
        } ],
        "timeWindowPolicy" : "COMPLETE_ORDER_WITHIN_TIME_WINDOW"
      },
      "attributes" : [ "AoC136" ],
      "incompatibleAttributes" : [ ],
      "stopSequence" : 1
    }
  }, {
    "id" : 153615,
    "metadata" : {
      "name" : "mID153615"
    },
    "depot" : 0,
    "location" : {
      "latitude" : 52629691,
      "longitude" : -1211608,
      "metadata" : { }
    },
    "pickupDuration" : 0,
    "serviceDuration" : 120000,
    "unloadDuration" : 0,
    "durationPerVisit" : 0,
    "priority" : 2,
    "jobType" : "DROP",
    "constraints" : {
      "demand" : {
        "values" : [ 1.0, 0.0, 0.0, 0.0 ]
      },
      "pickupTimeWindows" : [ {
        "startTime" : 1373072460000,
        "endTime" : 1373155140000
      } ],
      "timeWindowConstraints" : {
        "serviceTimeWindows" : [ {
          "startTime" : 1373083200000,
          "endTime" : 1373126400000
        } ],
        "timeWindowPolicy" : "COMPLETE_ORDER_WITHIN_TIME_WINDOW"
      },
      "attributes" : [ "AoC136" ],
      "incompatibleAttributes" : [ ],
      "stopSequence" : 1
    }
  }, {
    "id" : 153616,
    "metadata" : {
      "name" : "mID153616"
    },
    "depot" : 0,
    "location" : {
      "latitude" : 52629691,
      "longitude" : -1211608,
      "metadata" : { }
    },
    "pickupDuration" : 0,
    "serviceDuration" : 120000,
    "unloadDuration" : 0,
    "durationPerVisit" : 0,
    "priority" : 2,
    "jobType" : "DROP",
    "constraints" : {
      "demand" : {
        "values" : [ 1.0, 0.0, 0.0, 0.0 ]
      },
      "pickupTimeWindows" : [ {
        "startTime" : 1373072460000,
        "endTime" : 1373155140000
      } ],
      "timeWindowConstraints" : {
        "serviceTimeWindows" : [ {
          "startTime" : 1373083200000,
          "endTime" : 1373126400000
        } ],
        "timeWindowPolicy" : "COMPLETE_ORDER_WITHIN_TIME_WINDOW"
      },
      "attributes" : [ "AoC136" ],
      "incompatibleAttributes" : [ ],
      "stopSequence" : 1
    }
  }, {
    "id" : 153617,
    "metadata" : {
      "name" : "mID153617"
    },
    "depot" : 0,
    "location" : {
      "latitude" : 52828150,
      "longitude" : -607355,
      "metadata" : { }
    },
    "pickupDuration" : 0,
    "serviceDuration" : 5640000,
    "unloadDuration" : 0,
    "durationPerVisit" : 0,
    "priority" : 2,
    "jobType" : "DROP",
    "constraints" : {
      "demand" : {
        "values" : [ 32.0, 0.0, 0.0, 0.0 ]
      },
      "pickupTimeWindows" : [ {
        "startTime" : 1373072460000,
        "endTime" : 1373155140000
      } ],
      "timeWindowConstraints" : {
        "serviceTimeWindows" : [ {
          "startTime" : 1373083200000,
          "endTime" : 1373126400000
        } ],
        "timeWindowPolicy" : "COMPLETE_ORDER_WITHIN_TIME_WINDOW"
      },
      "attributes" : [ "AoC136" ],
      "incompatibleAttributes" : [ ],
      "stopSequence" : 1
    }
  }, {
    "id" : 153618,
    "metadata" : {
      "name" : "mID153618"
    },
    "depot" : 0,
    "location" : {
      "latitude" : 50898406,
      "longitude" : -3347629,
      "metadata" : { }
    },
    "pickupDuration" : 0,
    "serviceDuration" : 2520000,
    "unloadDuration" : 0,
    "durationPerVisit" : 0,
    "priority" : 2,
    "jobType" : "DROP",
    "constraints" : {
      "demand" : {
        "values" : [ 6.0, 0.0, 0.0, 0.0 ]
      },
      "pickupTimeWindows" : [ {
        "startTime" : 1373072460000,
        "endTime" : 1373155140000
      } ],
      "timeWindowConstraints" : {
        "serviceTimeWindows" : [ {
          "startTime" : 1373083200000,
          "endTime" : 1373126400000
        } ],
        "timeWindowPolicy" : "COMPLETE_ORDER_WITHIN_TIME_WINDOW"
      },
      "attributes" : [ "AoC136" ],
      "incompatibleAttributes" : [ ],
      "stopSequence" : 1
    }
  }, {
    "id" : 153619,
    "metadata" : {
      "name" : "mID153619"
    },
    "depot" : 0,
    "location" : {
      "latitude" : 51149394,
      "longitude" : -2506374,
      "metadata" : { }
    },
    "pickupDuration" : 0,
    "serviceDuration" : 2040000,
    "unloadDuration" : 0,
    "durationPerVisit" : 0,
    "priority" : 2,
    "jobType" : "DROP",
    "constraints" : {
      "demand" : {
        "values" : [ 2.0, 0.0, 0.0, 0.0 ]
      },
      "pickupTimeWindows" : [ {
        "startTime" : 1373072460000,
        "endTime" : 1373155140000
      } ],
      "timeWindowConstraints" : {
        "serviceTimeWindows" : [ {
          "startTime" : 1373083200000,
          "endTime" : 1373126400000
        } ],
        "timeWindowPolicy" : "COMPLETE_ORDER_WITHIN_TIME_WINDOW"
      },
      "attributes" : [ "AoC136" ],
      "incompatibleAttributes" : [ ],
      "stopSequence" : 1
    }
  }, {
    "id" : 153620,
    "metadata" : {
      "name" : "mID153620"
    },
    "depot" : 0,
    "location" : {
      "latitude" : 51254927,
      "longitude" : -2306857,
      "metadata" : { }
    },
    "pickupDuration" : 0,
    "serviceDuration" : 1920000,
    "unloadDuration" : 0,
    "durationPerVisit" : 0,
    "priority" : 2,
    "jobType" : "DROP",
    "constraints" : {
      "demand" : {
        "values" : [ 1.0, 0.0, 0.0, 0.0 ]
      },
      "pickupTimeWindows" : [ {
        "startTime" : 1373072460000,
        "endTime" : 1373155140000
      } ],
      "timeWindowConstraints" : {
        "serviceTimeWindows" : [ {
          "startTime" : 1373083200000,
          "endTime" : 1373126400000
        } ],
        "timeWindowPolicy" : "COMPLETE_ORDER_WITHIN_TIME_WINDOW"
      },
      "attributes" : [ "AoC136" ],
      "incompatibleAttributes" : [ ],
      "stopSequence" : 1
    }
  }, {
    "id" : 153621,
    "metadata" : {
      "name" : "mID153621"
    },
    "depot" : 0,
    "location" : {
      "latitude" : 53399631,
      "longitude" : -1258316,
      "metadata" : { }
    },
    "pickupDuration" : 0,
    "serviceDuration" : 1920000,
    "unloadDuration" : 0,
    "durationPerVisit" : 0,
    "priority" : 2,
    "jobType" : "DROP",
    "constraints" : {
      "demand" : {
        "values" : [ 1.0, 0.0, 0.0, 0.0 ]
      },
      "pickupTimeWindows" : [ {
        "startTime" : 1373072460000,
        "endTime" : 1373155140000
      } ],
      "timeWindowConstraints" : {
        "serviceTimeWindows" : [ {
          "startTime" : 1373083200000,
          "endTime" : 1373126400000
        } ],
        "timeWindowPolicy" : "COMPLETE_ORDER_WITHIN_TIME_WINDOW"
      },
      "attributes" : [ "AoC136" ],
      "incompatibleAttributes" : [ ],
      "stopSequence" : 1
    }
  }, {
    "id" : 153622,
    "metadata" : {
      "name" : "mID153622"
    },
    "depot" : 0,
    "location" : {
      "latitude" : 53399631,
      "longitude" : -1258316,
      "metadata" : { }
    },
    "pickupDuration" : 0,
    "serviceDuration" : 120000,
    "unloadDuration" : 0,
    "durationPerVisit" : 0,
    "priority" : 2,
    "jobType" : "DROP",
    "constraints" : {
      "demand" : {
        "values" : [ 1.0, 0.0, 0.0, 0.0 ]
      },
      "pickupTimeWindows" : [ {
        "startTime" : 1373072460000,
        "endTime" : 1373155140000
      } ],
      "timeWindowConstraints" : {
        "serviceTimeWindows" : [ {
          "startTime" : 1373083200000,
          "endTime" : 1373126400000
        } ],
        "timeWindowPolicy" : "COMPLETE_ORDER_WITHIN_TIME_WINDOW"
      },
      "attributes" : [ "AoC136" ],
      "incompatibleAttributes" : [ ],
      "stopSequence" : 1
    }
  }, {
    "id" : 153623,
    "metadata" : {
      "name" : "mID153623"
    },
    "depot" : 0,
    "location" : {
      "latitude" : 53399631,
      "longitude" : -1258316,
      "metadata" : { }
    },
    "pickupDuration" : 0,
    "serviceDuration" : 2040000,
    "unloadDuration" : 0,
    "durationPerVisit" : 0,
    "priority" : 2,
    "jobType" : "DROP",
    "constraints" : {
      "demand" : {
        "values" : [ 17.0, 0.0, 0.0, 0.0 ]
      },
      "pickupTimeWindows" : [ {
        "startTime" : 1373072460000,
        "endTime" : 1373155140000
      } ],
      "timeWindowConstraints" : {
        "serviceTimeWindows" : [ {
          "startTime" : 1373083200000,
          "endTime" : 1373126400000
        } ],
        "timeWindowPolicy" : "COMPLETE_ORDER_WITHIN_TIME_WINDOW"
      },
      "attributes" : [ "AoC136" ],
      "incompatibleAttributes" : [ ],
      "stopSequence" : 1
    }
  }, {
    "id" : 153624,
    "metadata" : {
      "name" : "mID153624"
    },
    "depot" : 0,
    "location" : {
      "latitude" : 53399631,
      "longitude" : -1258316,
      "metadata" : { }
    },
    "pickupDuration" : 0,
    "serviceDuration" : 960000,
    "unloadDuration" : 0,
    "durationPerVisit" : 0,
    "priority" : 2,
    "jobType" : "DROP",
    "constraints" : {
      "demand" : {
        "values" : [ 8.0, 0.0, 0.0, 0.0 ]
      },
      "pickupTimeWindows" : [ {
        "startTime" : 1373072460000,
        "endTime" : 1373155140000
      } ],
      "timeWindowConstraints" : {
        "serviceTimeWindows" : [ {
          "startTime" : 1373083200000,
          "endTime" : 1373126400000
        } ],
        "timeWindowPolicy" : "COMPLETE_ORDER_WITHIN_TIME_WINDOW"
      },
      "attributes" : [ "AoC136" ],
      "incompatibleAttributes" : [ ],
      "stopSequence" : 1
    }
  }, {
    "id" : 153625,
    "metadata" : {
      "name" : "mID153625"
    },
    "depot" : 0,
    "location" : {
      "latitude" : 51288098,
      "longitude" : -2795778,
      "metadata" : { }
    },
    "pickupDuration" : 0,
    "serviceDuration" : 1920000,
    "unloadDuration" : 0,
    "durationPerVisit" : 0,
    "priority" : 2,
    "jobType" : "DROP",
    "constraints" : {
      "demand" : {
        "values" : [ 1.0, 0.0, 0.0, 0.0 ]
      },
      "pickupTimeWindows" : [ {
        "startTime" : 1373072460000,
        "endTime" : 1373155140000
      } ],
      "timeWindowConstraints" : {
        "serviceTimeWindows" : [ {
          "startTime" : 1373083200000,
          "endTime" : 1373126400000
        } ],
        "timeWindowPolicy" : "COMPLETE_ORDER_WITHIN_TIME_WINDOW"
      },
      "attributes" : [ "AoC136" ],
      "incompatibleAttributes" : [ ],
      "stopSequence" : 1
    }
  }, {
    "id" : 153626,
    "metadata" : {
      "name" : "mID153626"
    },
    "depot" : 0,
    "location" : {
      "latitude" : 51288098,
      "longitude" : -2795778,
      "metadata" : { }
    },
    "pickupDuration" : 0,
    "serviceDuration" : 120000,
    "unloadDuration" : 0,
    "durationPerVisit" : 0,
    "priority" : 2,
    "jobType" : "DROP",
    "constraints" : {
      "demand" : {
        "values" : [ 1.0, 0.0, 0.0, 0.0 ]
      },
      "pickupTimeWindows" : [ {
        "startTime" : 1373072460000,
        "endTime" : 1373155140000
      } ],
      "timeWindowConstraints" : {
        "serviceTimeWindows" : [ {
          "startTime" : 1373083200000,
          "endTime" : 1373126400000
        } ],
        "timeWindowPolicy" : "COMPLETE_ORDER_WITHIN_TIME_WINDOW"
      },
      "attributes" : [ "AoC136" ],
      "incompatibleAttributes" : [ ],
      "stopSequence" : 1
    }
  }, {
    "id" : 153627,
    "metadata" : {
      "name" : "mID153627"
    },
    "depot" : 0,
    "location" : {
      "latitude" : 51288098,
      "longitude" : -2795778,
      "metadata" : { }
    },
    "pickupDuration" : 0,
    "serviceDuration" : 240000,
    "unloadDuration" : 0,
    "durationPerVisit" : 0,
    "priority" : 2,
    "jobType" : "DROP",
    "constraints" : {
      "demand" : {
        "values" : [ 2.0, 0.0, 0.0, 0.0 ]
      },
      "pickupTimeWindows" : [ {
        "startTime" : 1373072460000,
        "endTime" : 1373155140000
      } ],
      "timeWindowConstraints" : {
        "serviceTimeWindows" : [ {
          "startTime" : 1373083200000,
          "endTime" : 1373126400000
        } ],
        "timeWindowPolicy" : "COMPLETE_ORDER_WITHIN_TIME_WINDOW"
      },
      "attributes" : [ "AoC136" ],
      "incompatibleAttributes" : [ ],
      "stopSequence" : 1
    }
  }, {
    "id" : 153628,
    "metadata" : {
      "name" : "mID153628"
    },
    "depot" : 0,
    "location" : {
      "latitude" : 51288098,
      "longitude" : -2795778,
      "metadata" : { }
    },
    "pickupDuration" : 0,
    "serviceDuration" : 1920000,
    "unloadDuration" : 0,
    "durationPerVisit" : 0,
    "priority" : 2,
    "jobType" : "DROP",
    "constraints" : {
      "demand" : {
        "values" : [ 16.0, 0.0, 0.0, 0.0 ]
      },
      "pickupTimeWindows" : [ {
        "startTime" : 1373072460000,
        "endTime" : 1373155140000
      } ],
      "timeWindowConstraints" : {
        "serviceTimeWindows" : [ {
          "startTime" : 1373083200000,
          "endTime" : 1373126400000
        } ],
        "timeWindowPolicy" : "COMPLETE_ORDER_WITHIN_TIME_WINDOW"
      },
      "attributes" : [ "AoC136" ],
      "incompatibleAttributes" : [ ],
      "stopSequence" : 1
    }
  }, {
    "id" : 153629,
    "metadata" : {
      "name" : "mID153629"
    },
    "depot" : 0,
    "location" : {
      "latitude" : 51288098,
      "longitude" : -2795778,
      "metadata" : { }
    },
    "pickupDuration" : 0,
    "serviceDuration" : 240000,
    "unloadDuration" : 0,
    "durationPerVisit" : 0,
    "priority" : 2,
    "jobType" : "DROP",
    "constraints" : {
      "demand" : {
        "values" : [ 2.0, 0.0, 0.0, 0.0 ]
      },
      "pickupTimeWindows" : [ {
        "startTime" : 1373072460000,
        "endTime" : 1373155140000
      } ],
      "timeWindowConstraints" : {
        "serviceTimeWindows" : [ {
          "startTime" : 1373083200000,
          "endTime" : 1373126400000
        } ],
        "timeWindowPolicy" : "COMPLETE_ORDER_WITHIN_TIME_WINDOW"
      },
      "attributes" : [ "AoC136" ],
      "incompatibleAttributes" : [ ],
      "stopSequence" : 1
    }
  }, {
    "id" : 153630,
    "metadata" : {
      "name" : "mID153630"
    },
    "depot" : 0,
    "location" : {
      "latitude" : 51288098,
      "longitude" : -2795778,
      "metadata" : { }
    },
    "pickupDuration" : 0,
    "serviceDuration" : 120000,
    "unloadDuration" : 0,
    "durationPerVisit" : 0,
    "priority" : 2,
    "jobType" : "DROP",
    "constraints" : {
      "demand" : {
        "values" : [ 1.0, 0.0, 0.0, 0.0 ]
      },
      "pickupTimeWindows" : [ {
        "startTime" : 1373072460000,
        "endTime" : 1373155140000
      } ],
      "timeWindowConstraints" : {
        "serviceTimeWindows" : [ {
          "startTime" : 1373083200000,
          "endTime" : 1373126400000
        } ],
        "timeWindowPolicy" : "COMPLETE_ORDER_WITHIN_TIME_WINDOW"
      },
      "attributes" : [ "AoC136" ],
      "incompatibleAttributes" : [ ],
      "stopSequence" : 1
    }
  }, {
    "id" : 153631,
    "metadata" : {
      "name" : "mID153631"
    },
    "depot" : 0,
    "location" : {
      "latitude" : 52352065,
      "longitude" : -1179322,
      "metadata" : { }
    },
    "pickupDuration" : 0,
    "serviceDuration" : 3840000,
    "unloadDuration" : 0,
    "durationPerVisit" : 0,
    "priority" : 2,
    "jobType" : "DROP",
    "constraints" : {
      "demand" : {
        "values" : [ 17.0, 0.0, 0.0, 0.0 ]
      },
      "pickupTimeWindows" : [ {
        "startTime" : 1373072460000,
        "endTime" : 1373155140000
      } ],
      "timeWindowConstraints" : {
        "serviceTimeWindows" : [ {
          "startTime" : 1373083200000,
          "endTime" : 1373126400000
        } ],
        "timeWindowPolicy" : "COMPLETE_ORDER_WITHIN_TIME_WINDOW"
      },
      "attributes" : [ "AoC136" ],
      "incompatibleAttributes" : [ ],
      "stopSequence" : 1
    }
  }, {
    "id" : 153632,
    "metadata" : {
      "name" : "mID153632"
    },
    "depot" : 0,
    "location" : {
      "latitude" : 51639856,
      "longitude" : -3023861,
      "metadata" : { }
    },
    "pickupDuration" : 0,
    "serviceDuration" : 2880000,
    "unloadDuration" : 0,
    "durationPerVisit" : 0,
    "priority" : 2,
    "jobType" : "DROP",
    "constraints" : {
      "demand" : {
        "values" : [ 9.0, 0.0, 0.0, 0.0 ]
      },
      "pickupTimeWindows" : [ {
        "startTime" : 1373072460000,
        "endTime" : 1373155140000
      } ],
      "timeWindowConstraints" : {
        "serviceTimeWindows" : [ {
          "startTime" : 1373104800000,
          "endTime" : 1373108400000
        } ],
        "timeWindowPolicy" : "COMPLETE_ORDER_WITHIN_TIME_WINDOW"
      },
      "attributes" : [ "AoC136" ],
      "incompatibleAttributes" : [ ],
      "stopSequence" : 1
    }
  } ],
  "schedules" : [ {
    "timeWindow" : {
      "startTime" : 1373083200000,
      "endTime" : 1373155140000
    },
    "staticBreakTemplate" : {
      "timeWindow" : {
        "startTime" : 1373095800000,
        "endTime" : 1373105700000
      },
      "duration" : 2700000
    },
    "runs" : [ ],
    "breaks" : [ ],
    "constraints" : { },
    "resource" : {
      "metadata" : {
        "name" : "ParcelRite"
      },
      "id" : 1820,
      "depot" : 0,
      "hourCost" : 12.0,
      "kmCost" : 0.31075203,
      "routingProfile" : {
        "vehicleType" : "Default",
        "drivingTimeCorrectionFactor" : 1.0,
        "maxSpeed" : 64.36
      },
      "constraints" : {
        "runDistanceLimit" : "Infinity",
        "runWorkingTimeLimit" : 9223372036854775807,
        "scheduleWorkingTimeLimit" : 9223372036854775807,
        "scheduleDrivingTimeLimit" : 32400000,
        "addonCollectionDropDuration" : 0,
        "addonPickupDuration" : 0,
        "capacity" : {
          "values" : [ 1.0, 0.0, 0.0, 0.0 ]
        },
        "attributes" : [ "Van.Regular", "Van", "AoC136", "cargo=1.0=0.0=0.0=0.0" ],
        "homeLocations" : {
          "startLocation" : {
            "latitude" : 52697623,
            "longitude" : -1337156,
            "metadata" : { }
          },
          "endLocation" : {
            "latitude" : 52697623,
            "longitude" : -1337156,
            "metadata" : { }
          }
        },
        "fixedStartTime" : -1
      }
    }
  }, {
    "timeWindow" : {
      "startTime" : 1373083200000,
      "endTime" : 1373155140000
    },
    "staticBreakTemplate" : {
      "timeWindow" : {
        "startTime" : 1373095800000,
        "endTime" : 1373105700000
      },
      "duration" : 2700000
    },
    "runs" : [ ],
    "breaks" : [ ],
    "constraints" : { },
    "resource" : {
      "metadata" : {
        "name" : "FN62AFZ"
      },
      "id" : 1849,
      "depot" : 0,
      "hourCost" : 12.0,
      "kmCost" : 0.31075203,
      "routingProfile" : {
        "vehicleType" : "Default",
        "drivingTimeCorrectionFactor" : 1.0,
        "maxSpeed" : 64.36
      },
      "constraints" : {
        "runDistanceLimit" : "Infinity",
        "runWorkingTimeLimit" : 9223372036854775807,
        "scheduleWorkingTimeLimit" : 9223372036854775807,
        "scheduleDrivingTimeLimit" : 32400000,
        "addonCollectionDropDuration" : 0,
        "addonPickupDuration" : 0,
        "capacity" : {
          "values" : [ 3.0, 0.0, 0.0, 0.0 ]
        },
        "attributes" : [ "Van.Regular", "Van", "cargo=3.0=0.0=0.0=0.0", "AoC136", "cargo=2.0=0.0=0.0=0.0", "cargo=1.0=0.0=0.0=0.0" ],
        "homeLocations" : {
          "startLocation" : {
            "latitude" : 52697623,
            "longitude" : -1337156,
            "metadata" : { }
          },
          "endLocation" : {
            "latitude" : 52697623,
            "longitude" : -1337156,
            "metadata" : { }
          }
        },
        "fixedStartTime" : -1
      }
    }
  }, {
    "timeWindow" : {
      "startTime" : 1373083200000,
      "endTime" : 1373155140000
    },
    "staticBreakTemplate" : {
      "timeWindow" : {
        "startTime" : 1373095800000,
        "endTime" : 1373105700000
      },
      "duration" : 2700000
    },
    "runs" : [ ],
    "breaks" : [ ],
    "constraints" : { },
    "resource" : {
      "metadata" : {
        "name" : "Hire_7.5Tonne"
      },
      "id" : 1818,
      "depot" : 0,
      "hourCost" : 12.0,
      "kmCost" : 0.40397763,
      "routingProfile" : {
        "vehicleType" : "Default",
        "drivingTimeCorrectionFactor" : 1.0,
        "maxSpeed" : 64.36
      },
      "constraints" : {
        "runDistanceLimit" : "Infinity",
        "runWorkingTimeLimit" : 9223372036854775807,
        "scheduleWorkingTimeLimit" : 9223372036854775807,
        "scheduleDrivingTimeLimit" : 32400000,
        "addonCollectionDropDuration" : 0,
        "addonPickupDuration" : 0,
        "capacity" : {
          "values" : [ 8.0, 0.0, 0.0, 0.0 ]
        },
        "attributes" : [ "cargo=6.0=0.0=0.0=0.0", "Van.Regular", "Van", "cargo=4.0=0.0=0.0=0.0", "cargo=7.0=0.0=0.0=0.0", "cargo=3.0=0.0=0.0=0.0", "cargo=8.0=0.0=0.0=0.0", "AoC136", "cargo=2.0=0.0=0.0=0.0", "cargo=5.0=0.0=0.0=0.0", "cargo=1.0=0.0=0.0=0.0" ],
        "homeLocations" : {
          "startLocation" : {
            "latitude" : 52697623,
            "longitude" : -1337156,
            "metadata" : { }
          },
          "endLocation" : {
            "latitude" : 52697623,
            "longitude" : -1337156,
            "metadata" : { }
          }
        },
        "fixedStartTime" : -1
      }
    }
  }, {
    "timeWindow" : {
      "startTime" : 1373083200000,
      "endTime" : 1373155140000
    },
    "staticBreakTemplate" : {
      "timeWindow" : {
        "startTime" : 1373095800000,
        "endTime" : 1373105700000
      },
      "duration" : 2700000
    },
    "runs" : [ ],
    "breaks" : [ ],
    "constraints" : { },
    "resource" : {
      "metadata" : {
        "name" : "FM62ANV"
      },
      "id" : 1851,
      "depot" : 0,
      "hourCost" : 12.0,
      "kmCost" : 0.31075203,
      "routingProfile" : {
        "vehicleType" : "Default",
        "drivingTimeCorrectionFactor" : 1.0,
        "maxSpeed" : 64.36
      },
      "constraints" : {
        "runDistanceLimit" : "Infinity",
        "runWorkingTimeLimit" : 9223372036854775807,
        "scheduleWorkingTimeLimit" : 9223372036854775807,
        "scheduleDrivingTimeLimit" : 32400000,
        "addonCollectionDropDuration" : 0,
        "addonPickupDuration" : 0,
        "capacity" : {
          "values" : [ 3.0, 0.0, 0.0, 0.0 ]
        },
        "attributes" : [ "Van.Regular", "Van", "cargo=3.0=0.0=0.0=0.0", "AoC136", "cargo=2.0=0.0=0.0=0.0", "cargo=1.0=0.0=0.0=0.0" ],
        "homeLocations" : {
          "startLocation" : {
            "latitude" : 52697623,
            "longitude" : -1337156,
            "metadata" : { }
          },
          "endLocation" : {
            "latitude" : 52697623,
            "longitude" : -1337156,
            "metadata" : { }
          }
        },
        "fixedStartTime" : -1
      }
    }
  }, {
    "timeWindow" : {
      "startTime" : 1373083200000,
      "endTime" : 1373155140000
    },
    "staticBreakTemplate" : {
      "timeWindow" : {
        "startTime" : 1373095800000,
        "endTime" : 1373105700000
      },
      "duration" : 2700000
    },
    "runs" : [ ],
    "breaks" : [ ],
    "constraints" : { },
    "resource" : {
      "metadata" : {
        "name" : "Hire_18_Tonne"
      },
      "id" : 1816,
      "depot" : 0,
      "hourCost" : 12.0,
      "kmCost" : 0.40397763,
      "routingProfile" : {
        "vehicleType" : "Default",
        "drivingTimeCorrectionFactor" : 1.0,
        "maxSpeed" : 64.36
      },
      "constraints" : {
        "runDistanceLimit" : "Infinity",
        "runWorkingTimeLimit" : 9223372036854775807,
        "scheduleWorkingTimeLimit" : 9223372036854775807,
        "scheduleDrivingTimeLimit" : 32400000,
        "addonCollectionDropDuration" : 0,
        "addonPickupDuration" : 0,
        "capacity" : {
          "values" : [ 14.0, 0.0, 0.0, 0.0 ]
        },
        "attributes" : [ "cargo=9.0=0.0=0.0=0.0", "cargo=6.0=0.0=0.0=0.0", "Van.Regular", "Van", "cargo=4.0=0.0=0.0=0.0", "cargo=7.0=0.0=0.0=0.0", "cargo=3.0=0.0=0.0=0.0", "cargo=8.0=0.0=0.0=0.0", "AoC136", "cargo=2.0=0.0=0.0=0.0", "cargo=5.0=0.0=0.0=0.0", "cargo=1.0=0.0=0.0=0.0" ],
        "homeLocations" : {
          "startLocation" : {
            "latitude" : 52697623,
            "longitude" : -1337156,
            "metadata" : { }
          },
          "endLocation" : {
            "latitude" : 52697623,
            "longitude" : -1337156,
            "metadata" : { }
          }
        },
        "fixedStartTime" : -1
      }
    }
  }, {
    "timeWindow" : {
      "startTime" : 1373083200000,
      "endTime" : 1373155140000
    },
    "staticBreakTemplate" : {
      "timeWindow" : {
        "startTime" : 1373095800000,
        "endTime" : 1373105700000
      },
      "duration" : 2700000
    },
    "runs" : [ ],
    "breaks" : [ ],
    "constraints" : { },
    "resource" : {
      "metadata" : {
        "name" : "HireUnit+Step"
      },
      "id" : 1814,
      "depot" : 0,
      "hourCost" : 12.0,
      "kmCost" : 0.49720323,
      "routingProfile" : {
        "vehicleType" : "Default",
        "drivingTimeCorrectionFactor" : 1.0,
        "maxSpeed" : 64.36
      },
      "constraints" : {
        "runDistanceLimit" : "Infinity",
        "runWorkingTimeLimit" : 9223372036854775807,
        "scheduleWorkingTimeLimit" : 9223372036854775807,
        "scheduleDrivingTimeLimit" : 32400000,
        "addonCollectionDropDuration" : 0,
        "addonPickupDuration" : 0,
        "capacity" : {
          "values" : [ 46.0, 0.0, 0.0, 0.0 ]
        },
        "attributes" : [ "cargo=6.0=0.0=0.0=0.0", "Van", "cargo=7.0=0.0=0.0=0.0", "cargo=32.0=0.0=0.0=0.0", "cargo=5.0=0.0=0.0=0.0", "cargo=9.0=0.0=0.0=0.0", "Van.Regular", "cargo=16.0=0.0=0.0=0.0", "cargo=4.0=0.0=0.0=0.0", "cargo=3.0=0.0=0.0=0.0", "cargo=8.0=0.0=0.0=0.0", "cargo=17.0=0.0=0.0=0.0", "AoC136", "cargo=2.0=0.0=0.0=0.0", "cargo=1.0=0.0=0.0=0.0" ],
        "homeLocations" : {
          "startLocation" : {
            "latitude" : 52697623,
            "longitude" : -1337156,
            "metadata" : { }
          },
          "endLocation" : {
            "latitude" : 52697623,
            "longitude" : -1337156,
            "metadata" : { }
          }
        },
        "fixedStartTime" : -1
      }
    }
  }, {
    "timeWindow" : {
      "startTime" : 1373083200000,
      "endTime" : 1373155140000
    },
    "staticBreakTemplate" : {
      "timeWindow" : {
        "startTime" : 1373095800000,
        "endTime" : 1373105700000
      },
      "duration" : 2700000
    },
    "runs" : [ ],
    "breaks" : [ ],
    "constraints" : { },
    "resource" : {
      "metadata" : {
        "name" : "FN09AFF DD"
      },
      "id" : 1812,
      "depot" : 0,
      "hourCost" : 12.0,
      "kmCost" : 0.49720323,
      "routingProfile" : {
        "vehicleType" : "Default",
        "drivingTimeCorrectionFactor" : 1.0,
        "maxSpeed" : 64.36
      },
      "constraints" : {
        "runDistanceLimit" : "Infinity",
        "runWorkingTimeLimit" : 9223372036854775807,
        "scheduleWorkingTimeLimit" : 9223372036854775807,
        "scheduleDrivingTimeLimit" : 32400000,
        "addonCollectionDropDuration" : 0,
        "addonPickupDuration" : 0,
        "capacity" : {
          "values" : [ 46.0, 0.0, 0.0, 0.0 ]
        },
        "attributes" : [ "cargo=6.0=0.0=0.0=0.0", "Van", "cargo=7.0=0.0=0.0=0.0", "cargo=32.0=0.0=0.0=0.0", "cargo=5.0=0.0=0.0=0.0", "cargo=9.0=0.0=0.0=0.0", "Van.Regular", "cargo=16.0=0.0=0.0=0.0", "cargo=4.0=0.0=0.0=0.0", "cargo=3.0=0.0=0.0=0.0", "cargo=8.0=0.0=0.0=0.0", "cargo=17.0=0.0=0.0=0.0", "AoC136", "cargo=2.0=0.0=0.0=0.0", "cargo=1.0=0.0=0.0=0.0" ],
        "homeLocations" : {
          "startLocation" : {
            "latitude" : 52697623,
            "longitude" : -1337156,
            "metadata" : { }
          },
          "endLocation" : {
            "latitude" : 52697623,
            "longitude" : -1337156,
            "metadata" : { }
          }
        },
        "fixedStartTime" : -1
      }
    }
  }, {
    "timeWindow" : {
      "startTime" : 1373083200000,
      "endTime" : 1373155140000
    },
    "staticBreakTemplate" : {
      "timeWindow" : {
        "startTime" : 1373095800000,
        "endTime" : 1373105700000
      },
      "duration" : 2700000
    },
    "runs" : [ ],
    "breaks" : [ ],
    "constraints" : { },
    "resource" : {
      "metadata" : {
        "name" : "FJ58HGE"
      },
      "id" : 1810,
      "depot" : 0,
      "hourCost" : 12.0,
      "kmCost" : 0.40397763,
      "routingProfile" : {
        "vehicleType" : "Default",
        "drivingTimeCorrectionFactor" : 1.0,
        "maxSpeed" : 64.36
      },
      "constraints" : {
        "runDistanceLimit" : "Infinity",
        "runWorkingTimeLimit" : 9223372036854775807,
        "scheduleWorkingTimeLimit" : 9223372036854775807,
        "scheduleDrivingTimeLimit" : 32400000,
        "addonCollectionDropDuration" : 0,
        "addonPickupDuration" : 0,
        "capacity" : {
          "values" : [ 8.0, 0.0, 0.0, 0.0 ]
        },
        "attributes" : [ "cargo=6.0=0.0=0.0=0.0", "Van.Regular", "Van", "cargo=4.0=0.0=0.0=0.0", "cargo=7.0=0.0=0.0=0.0", "cargo=3.0=0.0=0.0=0.0", "cargo=8.0=0.0=0.0=0.0", "AoC136", "cargo=2.0=0.0=0.0=0.0", "cargo=5.0=0.0=0.0=0.0", "cargo=1.0=0.0=0.0=0.0" ],
        "homeLocations" : {
          "startLocation" : {
            "latitude" : 52697623,
            "longitude" : -1337156,
            "metadata" : { }
          },
          "endLocation" : {
            "latitude" : 52697623,
            "longitude" : -1337156,
            "metadata" : { }
          }
        },
        "fixedStartTime" : -1
      }
    }
  }, {
    "timeWindow" : {
      "startTime" : 1373086800000,
      "endTime" : 1373155140000
    },
    "staticBreakTemplate" : {
      "timeWindow" : {
        "startTime" : 1373099400000,
        "endTime" : 1373109300000
      },
      "duration" : 2700000
    },
    "runs" : [ ],
    "breaks" : [ ],
    "constraints" : { },
    "resource" : {
      "metadata" : {
        "name" : "FJ11FKK+Step"
      },
      "id" : 1808,
      "depot" : 0,
      "hourCost" : 12.0,
      "kmCost" : 0.49720323,
      "routingProfile" : {
        "vehicleType" : "Default",
        "drivingTimeCorrectionFactor" : 1.0,
        "maxSpeed" : 64.36
      },
      "constraints" : {
        "runDistanceLimit" : "Infinity",
        "runWorkingTimeLimit" : 9223372036854775807,
        "scheduleWorkingTimeLimit" : 9223372036854775807,
        "scheduleDrivingTimeLimit" : 32400000,
        "addonCollectionDropDuration" : 0,
        "addonPickupDuration" : 0,
        "capacity" : {
          "values" : [ 46.0, 0.0, 0.0, 0.0 ]
        },
        "attributes" : [ "cargo=6.0=0.0=0.0=0.0", "Van", "cargo=7.0=0.0=0.0=0.0", "cargo=32.0=0.0=0.0=0.0", "cargo=5.0=0.0=0.0=0.0", "cargo=9.0=0.0=0.0=0.0", "Van.Regular", "cargo=16.0=0.0=0.0=0.0", "cargo=4.0=0.0=0.0=0.0", "cargo=3.0=0.0=0.0=0.0", "cargo=8.0=0.0=0.0=0.0", "cargo=17.0=0.0=0.0=0.0", "AoC136", "cargo=2.0=0.0=0.0=0.0", "cargo=1.0=0.0=0.0=0.0" ],
        "homeLocations" : {
          "startLocation" : {
            "latitude" : 52697623,
            "longitude" : -1337156,
            "metadata" : { }
          },
          "endLocation" : {
            "latitude" : 52697623,
            "longitude" : -1337156,
            "metadata" : { }
          }
        },
        "fixedStartTime" : -1
      }
    }
  }, {
    "timeWindow" : {
      "startTime" : 1373083200000,
      "endTime" : 1373155140000
    },
    "staticBreakTemplate" : {
      "timeWindow" : {
        "startTime" : 1373095800000,
        "endTime" : 1373105700000
      },
      "duration" : 2700000
    },
    "runs" : [ ],
    "breaks" : [ ],
    "constraints" : { },
    "resource" : {
      "metadata" : {
        "name" : "FJ10EFD+Step"
      },
      "id" : 1806,
      "depot" : 0,
      "hourCost" : 12.0,
      "kmCost" : 0.49720323,
      "routingProfile" : {
        "vehicleType" : "Default",
        "drivingTimeCorrectionFactor" : 1.0,
        "maxSpeed" : 64.36
      },
      "constraints" : {
        "runDistanceLimit" : "Infinity",
        "runWorkingTimeLimit" : 9223372036854775807,
        "scheduleWorkingTimeLimit" : 9223372036854775807,
        "scheduleDrivingTimeLimit" : 32400000,
        "addonCollectionDropDuration" : 0,
        "addonPickupDuration" : 0,
        "capacity" : {
          "values" : [ 46.0, 0.0, 0.0, 0.0 ]
        },
        "attributes" : [ "cargo=6.0=0.0=0.0=0.0", "Van", "cargo=7.0=0.0=0.0=0.0", "cargo=32.0=0.0=0.0=0.0", "cargo=5.0=0.0=0.0=0.0", "cargo=9.0=0.0=0.0=0.0", "Van.Regular", "cargo=16.0=0.0=0.0=0.0", "cargo=4.0=0.0=0.0=0.0", "cargo=3.0=0.0=0.0=0.0", "cargo=8.0=0.0=0.0=0.0", "cargo=17.0=0.0=0.0=0.0", "AoC136", "cargo=2.0=0.0=0.0=0.0", "cargo=1.0=0.0=0.0=0.0" ],
        "homeLocations" : {
          "startLocation" : {
            "latitude" : 52697623,
            "longitude" : -1337156,
            "metadata" : { }
          },
          "endLocation" : {
            "latitude" : 52697623,
            "longitude" : -1337156,
            "metadata" : { }
          }
        },
        "fixedStartTime" : -1
      }
    }
  }, {
    "timeWindow" : {
      "startTime" : 1373083200000,
      "endTime" : 1373155140000
    },
    "staticBreakTemplate" : {
      "timeWindow" : {
        "startTime" : 1373095800000,
        "endTime" : 1373105700000
      },
      "duration" : 2700000
    },
    "runs" : [ ],
    "breaks" : [ ],
    "constraints" : { },
    "resource" : {
      "metadata" : {
        "name" : "FJ10EFC+Step"
      },
      "id" : 1804,
      "depot" : 0,
      "hourCost" : 12.0,
      "kmCost" : 0.49720323,
      "routingProfile" : {
        "vehicleType" : "Default",
        "drivingTimeCorrectionFactor" : 1.0,
        "maxSpeed" : 64.36
      },
      "constraints" : {
        "runDistanceLimit" : "Infinity",
        "runWorkingTimeLimit" : 9223372036854775807,
        "scheduleWorkingTimeLimit" : 9223372036854775807,
        "scheduleDrivingTimeLimit" : 32400000,
        "addonCollectionDropDuration" : 0,
        "addonPickupDuration" : 0,
        "capacity" : {
          "values" : [ 46.0, 0.0, 0.0, 0.0 ]
        },
        "attributes" : [ "cargo=6.0=0.0=0.0=0.0", "Van", "cargo=7.0=0.0=0.0=0.0", "cargo=32.0=0.0=0.0=0.0", "cargo=5.0=0.0=0.0=0.0", "cargo=9.0=0.0=0.0=0.0", "Van.Regular", "cargo=16.0=0.0=0.0=0.0", "cargo=4.0=0.0=0.0=0.0", "cargo=3.0=0.0=0.0=0.0", "cargo=8.0=0.0=0.0=0.0", "cargo=17.0=0.0=0.0=0.0", "AoC136", "cargo=2.0=0.0=0.0=0.0", "cargo=1.0=0.0=0.0=0.0" ],
        "homeLocations" : {
          "startLocation" : {
            "latitude" : 52697623,
            "longitude" : -1337156,
            "metadata" : { }
          },
          "endLocation" : {
            "latitude" : 52697623,
            "longitude" : -1337156,
            "metadata" : { }
          }
        },
        "fixedStartTime" : -1
      }
    }
  }, {
    "timeWindow" : {
      "startTime" : 1373083200000,
      "endTime" : 1373155140000
    },
    "staticBreakTemplate" : {
      "timeWindow" : {
        "startTime" : 1373095800000,
        "endTime" : 1373105700000
      },
      "duration" : 2700000
    },
    "runs" : [ ],
    "breaks" : [ ],
    "constraints" : { },
    "resource" : {
      "metadata" : {
        "name" : "FD59XNR"
      },
      "id" : 1802,
      "depot" : 0,
      "hourCost" : 12.0,
      "kmCost" : 0.31075203,
      "routingProfile" : {
        "vehicleType" : "Default",
        "drivingTimeCorrectionFactor" : 1.0,
        "maxSpeed" : 64.36
      },
      "constraints" : {
        "runDistanceLimit" : "Infinity",
        "runWorkingTimeLimit" : 9223372036854775807,
        "scheduleWorkingTimeLimit" : 9223372036854775807,
        "scheduleDrivingTimeLimit" : 32400000,
        "addonCollectionDropDuration" : 0,
        "addonPickupDuration" : 0,
        "capacity" : {
          "values" : [ 3.0, 0.0, 0.0, 0.0 ]
        },
        "attributes" : [ "Van.Regular", "Van", "cargo=3.0=0.0=0.0=0.0", "AoC136", "cargo=2.0=0.0=0.0=0.0", "cargo=1.0=0.0=0.0=0.0" ],
        "homeLocations" : {
          "startLocation" : {
            "latitude" : 52697623,
            "longitude" : -1337156,
            "metadata" : { }
          },
          "endLocation" : {
            "latitude" : 52697623,
            "longitude" : -1337156,
            "metadata" : { }
          }
        },
        "fixedStartTime" : -1
      }
    }
  }, {
    "timeWindow" : {
      "startTime" : 1373097600000,
      "endTime" : 1373155140000
    },
    "staticBreakTemplate" : {
      "timeWindow" : {
        "startTime" : 1373110200000,
        "endTime" : 1373120100000
      },
      "duration" : 2700000
    },
    "runs" : [ ],
    "breaks" : [ ],
    "constraints" : { },
    "resource" : {
      "metadata" : {
        "name" : "FD10KCC"
      },
      "id" : 1800,
      "depot" : 0,
      "hourCost" : 12.0,
      "kmCost" : 0.31075203,
      "routingProfile" : {
        "vehicleType" : "Default",
        "drivingTimeCorrectionFactor" : 1.0,
        "maxSpeed" : 64.36
      },
      "constraints" : {
        "runDistanceLimit" : "Infinity",
        "runWorkingTimeLimit" : 9223372036854775807,
        "scheduleWorkingTimeLimit" : 9223372036854775807,
        "scheduleDrivingTimeLimit" : 32400000,
        "addonCollectionDropDuration" : 0,
        "addonPickupDuration" : 0,
        "capacity" : {
          "values" : [ 3.0, 0.0, 0.0, 0.0 ]
        },
        "attributes" : [ "Van.Regular", "Van", "cargo=3.0=0.0=0.0=0.0", "AoC136", "cargo=2.0=0.0=0.0=0.0", "cargo=1.0=0.0=0.0=0.0" ],
        "homeLocations" : {
          "startLocation" : {
            "latitude" : 52697623,
            "longitude" : -1337156,
            "metadata" : { }
          },
          "endLocation" : {
            "latitude" : 52697623,
            "longitude" : -1337156,
            "metadata" : { }
          }
        },
        "fixedStartTime" : -1
      }
    }
  }, {
    "timeWindow" : {
      "startTime" : 1373083200000,
      "endTime" : 1373155140000
    },
    "staticBreakTemplate" : {
      "timeWindow" : {
        "startTime" : 1373095800000,
        "endTime" : 1373105700000
      },
      "duration" : 2700000
    },
    "runs" : [ ],
    "breaks" : [ ],
    "constraints" : { },
    "resource" : {
      "metadata" : {
        "name" : "BV62DLK+Step"
      },
      "id" : 1798,
      "depot" : 0,
      "hourCost" : 12.0,
      "kmCost" : 0.49720323,
      "routingProfile" : {
        "vehicleType" : "Default",
        "drivingTimeCorrectionFactor" : 1.0,
        "maxSpeed" : 64.36
      },
      "constraints" : {
        "runDistanceLimit" : "Infinity",
        "runWorkingTimeLimit" : 9223372036854775807,
        "scheduleWorkingTimeLimit" : 9223372036854775807,
        "scheduleDrivingTimeLimit" : 32400000,
        "addonCollectionDropDuration" : 0,
        "addonPickupDuration" : 0,
        "capacity" : {
          "values" : [ 46.0, 0.0, 0.0, 0.0 ]
        },
        "attributes" : [ "cargo=6.0=0.0=0.0=0.0", "Van", "cargo=7.0=0.0=0.0=0.0", "cargo=32.0=0.0=0.0=0.0", "cargo=5.0=0.0=0.0=0.0", "cargo=9.0=0.0=0.0=0.0", "Van.Regular", "cargo=16.0=0.0=0.0=0.0", "cargo=4.0=0.0=0.0=0.0", "cargo=3.0=0.0=0.0=0.0", "cargo=8.0=0.0=0.0=0.0", "cargo=17.0=0.0=0.0=0.0", "AoC136", "cargo=2.0=0.0=0.0=0.0", "cargo=1.0=0.0=0.0=0.0" ],
        "homeLocations" : {
          "startLocation" : {
            "latitude" : 52697623,
            "longitude" : -1337156,
            "metadata" : { }
          },
          "endLocation" : {
            "latitude" : 52697623,
            "longitude" : -1337156,
            "metadata" : { }
          }
        },
        "fixedStartTime" : -1
      }
    }
  }, {
    "timeWindow" : {
      "startTime" : 1373083200000,
      "endTime" : 1373155140000
    },
    "staticBreakTemplate" : {
      "timeWindow" : {
        "startTime" : 1373095800000,
        "endTime" : 1373105700000
      },
      "duration" : 2700000
    },
    "runs" : [ ],
    "breaks" : [ ],
    "constraints" : { },
    "resource" : {
      "metadata" : {
        "name" : "BP11ZBR+Step"
      },
      "id" : 1796,
      "depot" : 0,
      "hourCost" : 12.0,
      "kmCost" : 0.49720323,
      "routingProfile" : {
        "vehicleType" : "Default",
        "drivingTimeCorrectionFactor" : 1.0,
        "maxSpeed" : 64.36
      },
      "constraints" : {
        "runDistanceLimit" : "Infinity",
        "runWorkingTimeLimit" : 9223372036854775807,
        "scheduleWorkingTimeLimit" : 9223372036854775807,
        "scheduleDrivingTimeLimit" : 32400000,
        "addonCollectionDropDuration" : 0,
        "addonPickupDuration" : 0,
        "capacity" : {
          "values" : [ 46.0, 0.0, 0.0, 0.0 ]
        },
        "attributes" : [ "cargo=6.0=0.0=0.0=0.0", "Van", "cargo=7.0=0.0=0.0=0.0", "cargo=32.0=0.0=0.0=0.0", "cargo=5.0=0.0=0.0=0.0", "cargo=9.0=0.0=0.0=0.0", "Van.Regular", "cargo=16.0=0.0=0.0=0.0", "cargo=4.0=0.0=0.0=0.0", "cargo=3.0=0.0=0.0=0.0", "cargo=8.0=0.0=0.0=0.0", "cargo=17.0=0.0=0.0=0.0", "AoC136", "cargo=2.0=0.0=0.0=0.0", "cargo=1.0=0.0=0.0=0.0" ],
        "homeLocations" : {
          "startLocation" : {
            "latitude" : 52697623,
            "longitude" : -1337156,
            "metadata" : { }
          },
          "endLocation" : {
            "latitude" : 52697623,
            "longitude" : -1337156,
            "metadata" : { }
          }
        },
        "fixedStartTime" : -1
      }
    }
  }, {
    "timeWindow" : {
      "startTime" : 1373083200000,
      "endTime" : 1373155140000
    },
    "staticBreakTemplate" : {
      "timeWindow" : {
        "startTime" : 1373095800000,
        "endTime" : 1373105700000
      },
      "duration" : 2700000
    },
    "runs" : [ ],
    "breaks" : [ ],
    "constraints" : { },
    "resource" : {
      "metadata" : {
        "name" : "BK62JTX"
      },
      "id" : 1794,
      "depot" : 0,
      "hourCost" : 12.0,
      "kmCost" : 0.40397763,
      "routingProfile" : {
        "vehicleType" : "Default",
        "drivingTimeCorrectionFactor" : 1.0,
        "maxSpeed" : 64.36
      },
      "constraints" : {
        "runDistanceLimit" : "Infinity",
        "runWorkingTimeLimit" : 9223372036854775807,
        "scheduleWorkingTimeLimit" : 9223372036854775807,
        "scheduleDrivingTimeLimit" : 32400000,
        "addonCollectionDropDuration" : 0,
        "addonPickupDuration" : 0,
        "capacity" : {
          "values" : [ 16.0, 0.0, 0.0, 0.0 ]
        },
        "attributes" : [ "cargo=6.0=0.0=0.0=0.0", "Van", "cargo=7.0=0.0=0.0=0.0", "cargo=5.0=0.0=0.0=0.0", "cargo=9.0=0.0=0.0=0.0", "Van.Regular", "cargo=16.0=0.0=0.0=0.0", "cargo=4.0=0.0=0.0=0.0", "cargo=3.0=0.0=0.0=0.0", "cargo=8.0=0.0=0.0=0.0", "AoC136", "cargo=2.0=0.0=0.0=0.0", "cargo=1.0=0.0=0.0=0.0" ],
        "homeLocations" : {
          "startLocation" : {
            "latitude" : 52697623,
            "longitude" : -1337156,
            "metadata" : { }
          },
          "endLocation" : {
            "latitude" : 52697623,
            "longitude" : -1337156,
            "metadata" : { }
          }
        },
        "fixedStartTime" : -1
      }
    }
  }, {
    "timeWindow" : {
      "startTime" : 1373083200000,
      "endTime" : 1373155140000
    },
    "staticBreakTemplate" : {
      "timeWindow" : {
        "startTime" : 1373095800000,
        "endTime" : 1373105700000
      },
      "duration" : 2700000
    },
    "runs" : [ ],
    "breaks" : [ ],
    "constraints" : { },
    "resource" : {
      "metadata" : {
        "name" : "BN62VMF DD"
      },
      "id" : 1824,
      "depot" : 0,
      "hourCost" : 12.0,
      "kmCost" : 0.49720323,
      "routingProfile" : {
        "vehicleType" : "Default",
        "drivingTimeCorrectionFactor" : 1.0,
        "maxSpeed" : 61.142
      },
      "constraints" : {
        "runDistanceLimit" : "Infinity",
        "runWorkingTimeLimit" : 9223372036854775807,
        "scheduleWorkingTimeLimit" : 9223372036854775807,
        "scheduleDrivingTimeLimit" : 28800000,
        "addonCollectionDropDuration" : 0,
        "addonPickupDuration" : 0,
        "capacity" : {
          "values" : [ 44.0, 0.0, 0.0, 0.0 ]
        },
        "attributes" : [ "cargo=6.0=0.0=0.0=0.0", "Van", "cargo=7.0=0.0=0.0=0.0", "cargo=32.0=0.0=0.0=0.0", "cargo=5.0=0.0=0.0=0.0", "cargo=9.0=0.0=0.0=0.0", "Van.Regular", "cargo=16.0=0.0=0.0=0.0", "cargo=4.0=0.0=0.0=0.0", "cargo=3.0=0.0=0.0=0.0", "cargo=8.0=0.0=0.0=0.0", "cargo=17.0=0.0=0.0=0.0", "AoC136", "cargo=2.0=0.0=0.0=0.0", "cargo=1.0=0.0=0.0=0.0" ],
        "homeLocations" : {
          "startLocation" : {
            "latitude" : 52697623,
            "longitude" : -1337156,
            "metadata" : { }
          },
          "endLocation" : {
            "latitude" : 52697623,
            "longitude" : -1337156,
            "metadata" : { }
          }
        },
        "fixedStartTime" : -1
      }
    }
  }, {
    "timeWindow" : {
      "startTime" : 1373083260000,
      "endTime" : 1373169600000
    },
    "staticBreakTemplate" : {
      "timeWindow" : {
        "startTime" : 1373095800000,
        "endTime" : 1373105700000
      },
      "duration" : 2700000
    },
    "runs" : [ ],
    "breaks" : [ ],
    "constraints" : { },
    "resource" : {
      "metadata" : {
        "name" : "BG12FRC+Step"
      },
      "id" : 1792,
      "depot" : 0,
      "hourCost" : 12.0,
      "kmCost" : 0.49720323,
      "routingProfile" : {
        "vehicleType" : "Default",
        "drivingTimeCorrectionFactor" : 1.0,
        "maxSpeed" : 64.36
      },
      "constraints" : {
        "runDistanceLimit" : "Infinity",
        "runWorkingTimeLimit" : 9223372036854775807,
        "scheduleWorkingTimeLimit" : 9223372036854775807,
        "scheduleDrivingTimeLimit" : 32400000,
        "addonCollectionDropDuration" : 0,
        "addonPickupDuration" : 0,
        "capacity" : {
          "values" : [ 46.0, 0.0, 0.0, 0.0 ]
        },
        "attributes" : [ "cargo=6.0=0.0=0.0=0.0", "Van", "cargo=7.0=0.0=0.0=0.0", "cargo=32.0=0.0=0.0=0.0", "cargo=5.0=0.0=0.0=0.0", "cargo=9.0=0.0=0.0=0.0", "cargo=16.0=0.0=0.0=0.0", "cargo=4.0=0.0=0.0=0.0", "cargo=3.0=0.0=0.0=0.0", "cargo=8.0=0.0=0.0=0.0", "cargo=17.0=0.0=0.0=0.0", "AoC136", "cargo=2.0=0.0=0.0=0.0", "cargo=1.0=0.0=0.0=0.0" ],
        "homeLocations" : {
          "startLocation" : {
            "latitude" : 52697623,
            "longitude" : -1337156,
            "metadata" : { }
          },
          "endLocation" : {
            "latitude" : 52697623,
            "longitude" : -1337156,
            "metadata" : { }
          }
        },
        "fixedStartTime" : -1
      }
    }
  } ],
  "depots" : [ {
    "id" : 0,
    "location" : {
      "latitude" : 52697623,
      "longitude" : -1337156,
      "metadata" : { }
    },
    "constraints" : {
      "allowCollectionsWhileDrivingHome" : false,
      "allowDeliveriesWhileDrivingFromHome" : false,
      "availabilityWindows" : [ {
        "startTime" : 0,
        "endTime" : 57657355200332
      } ]
    }
  } ],
  "constraints" : {
    "allowMultipleRunsPerSchedule" : true,
    "consolidateSameSiteJobs" : "NONE"
  }
}